state,pid,collection,dcterms:identifier,dcterms:title,dcterms:date,dcterms:description,dcterms:contributor,dcterms:rights,dcterms:format,dcterms:type,dcterms:subject,dcterms:creator,dcterms:relation,dcterms:coverage,dcterms:language,dcterms:publisher,files
Active,auburn:0001,auburn,http://www.archive.org/details/annualreportsoft1868aubu|~|annualreportsoft1868aubu|~|auburn:0001,"Annual reports of the Town of Auburn, New Hampshire, 1868",1868,Title varies|~|Imprint varies|~|Report year varies,"University of New Hampshire. Library. Digital Collections.|~|Scanned by Internet Archive, Open Content Alliance (2008)",,,Text,Auburn (N.H. : Town) -- Appropriations and expenditures -- Periodicals,Auburn (N.H. : Town),,,eng,"[Auburn, N.H.] : The Town|~|University of New Hampshire. Library. Digital Collections.",auburn_0001+application-pdf+application.pdf|~|auburn_0001+image-low-jpg+image-low.jpg|~|auburn_0001+image-tb-jpg+image-tb.jpg
Active,auburn:0002,auburn,http://www.archive.org/details/annualreportsoft1869aubu|~|annualreportsoft1869aubu|~|auburn:0002,"Annual reports of the Town of Auburn, New Hampshire, 1869",1869,Title varies|~|Imprint varies|~|Report year varies,"University of New Hampshire. Library. Digital Collections.|~|Scanned by Internet Archive, Open Content Alliance (2008)",,,Text,Auburn (N.H. : Town) -- Appropriations and expenditures -- Periodicals,Auburn (N.H. : Town),,,eng,"[Auburn, N.H.] : The Town|~|University of New Hampshire. Library. Digital Collections.",auburn_0002+application-pdf+application.pdf|~|auburn_0002+image-low-jpg+image-low.jpg|~|auburn_0002+image-tb-jpg+image-tb.jpg
Active,auburn:0003,auburn,http://www.archive.org/details/annualreportsoft1872aubu|~|annualreportsoft1872aubu|~|auburn:0003,"Annual reports of the Town of Auburn, New Hampshire, 1872",1872,Title varies|~|Imprint varies|~|Report year varies,"University of New Hampshire. Library. Digital Collections.|~|Scanned by Internet Archive, Open Content Alliance (2008)",,,Text,Auburn (N.H. : Town) -- Appropriations and expenditures -- Periodicals,Auburn (N.H. : Town),,,eng,"[Auburn, N.H.] : The Town|~|University of New Hampshire. Library. Digital Collections.",auburn_0003+application-pdf+application.pdf|~|auburn_0003+image-low-jpg+image-low.jpg|~|auburn_0003+image-tb-jpg+image-tb.jpg
Active,auburn:0004,auburn,http://www.archive.org/details/annualreportsoft1873aubu|~|annualreportsoft1873aubu|~|auburn:0004,"Annual reports of the Town of Auburn, New Hampshire, 1873",1873,Title varies|~|Imprint varies|~|Report year varies,"University of New Hampshire. Library. Digital Collections.|~|Scanned by Internet Archive, Open Content Alliance (2008)",,,Text,Auburn (N.H. : Town) -- Appropriations and expenditures -- Periodicals,Auburn (N.H. : Town),,,eng,"[Auburn, N.H.] : The Town|~|University of New Hampshire. Library. Digital Collections.",auburn_0004+application-pdf+application.pdf|~|auburn_0004+image-low-jpg+image-low.jpg|~|auburn_0004+image-tb-jpg+image-tb.jpg
Active,auburn:0005,auburn,http://www.archive.org/details/annualreportsoft1874aubu|~|annualreportsoft1874aubu|~|auburn:0005,"Annual reports of the Town of Auburn, New Hampshire, 1874",1874,Title varies|~|Imprint varies|~|Report year varies,"University of New Hampshire. Library. Digital Collections.|~|Scanned by Internet Archive, Open Content Alliance (2008)",,,Text,Auburn (N.H. : Town) -- Appropriations and expenditures -- Periodicals,Auburn (N.H. : Town),,,eng,"[Auburn, N.H.] : The Town|~|University of New Hampshire. Library. Digital Collections.",auburn_0005+application-pdf+application.pdf|~|auburn_0005+image-low-jpg+image-low.jpg|~|auburn_0005+image-tb-jpg+image-tb.jpg
Active,auburn:0006,auburn,http://www.archive.org/details/annualreportsoft1875aubu|~|annualreportsoft1875aubu|~|auburn:0006,"Annual reports of the Town of Auburn, New Hampshire, 1875",1875,Title varies|~|Imprint varies|~|Report year varies,"University of New Hampshire. Library. Digital Collections.|~|Scanned by Internet Archive, Open Content Alliance (2008)",,,Text,Auburn (N.H. : Town) -- Appropriations and expenditures -- Periodicals,Auburn (N.H. : Town),,,eng,"[Auburn, N.H.] : The Town|~|University of New Hampshire. Library. Digital Collections.",auburn_0006+application-pdf+application.pdf|~|auburn_0006+image-low-jpg+image-low.jpg|~|auburn_0006+image-tb-jpg+image-tb.jpg
Active,auburn:0007,auburn,http://www.archive.org/details/annualreportsoft1876aubu|~|annualreportsoft1876aubu|~|auburn:0007,"Annual reports of the Town of Auburn, New Hampshire, 1876",1876,Title varies|~|Imprint varies|~|Report year varies,"University of New Hampshire. Library. Digital Collections.|~|Scanned by Internet Archive, Open Content Alliance (2008)",,,Text,Auburn (N.H. : Town) -- Appropriations and expenditures -- Periodicals,Auburn (N.H. : Town),,,eng,"[Auburn, N.H.] : The Town|~|University of New Hampshire. Library. Digital Collections.",auburn_0007+application-pdf+application.pdf|~|auburn_0007+image-low-jpg+image-low.jpg|~|auburn_0007+image-tb-jpg+image-tb.jpg
Active,auburn:0008,auburn,http://www.archive.org/details/annualreportsoft1877aubu|~|annualreportsoft1877aubu|~|auburn:0008,"Annual reports of the Town of Auburn, New Hampshire, 1877",1877,Title varies|~|Imprint varies|~|Report year varies,"University of New Hampshire. Library. Digital Collections.|~|Scanned by Internet Archive, Open Content Alliance (2008)",,,Text,Auburn (N.H. : Town) -- Appropriations and expenditures -- Periodicals,Auburn (N.H. : Town),,,eng,"[Auburn, N.H.] : The Town|~|University of New Hampshire. Library. Digital Collections.",auburn_0008+application-pdf+application.pdf|~|auburn_0008+image-low-jpg+image-low.jpg|~|auburn_0008+image-tb-jpg+image-tb.jpg
Active,auburn:0009,auburn,http://www.archive.org/details/annualreportsoft1878aubu|~|annualreportsoft1878aubu|~|auburn:0009,"Annual reports of the Town of Auburn, New Hampshire, 1878",1878,Title varies|~|Imprint varies|~|Report year varies,"University of New Hampshire. Library. Digital Collections.|~|Scanned by Internet Archive, Open Content Alliance (2008)",,,Text,Auburn (N.H. : Town) -- Appropriations and expenditures -- Periodicals,Auburn (N.H. : Town),,,eng,"[Auburn, N.H.] : The Town|~|University of New Hampshire. Library. Digital Collections.",auburn_0009+application-pdf+application.pdf|~|auburn_0009+image-low-jpg+image-low.jpg|~|auburn_0009+image-tb-jpg+image-tb.jpg
Active,auburn:0010,auburn,http://www.archive.org/details/annualreportsoft1879aubu|~|annualreportsoft1879aubu|~|auburn:0010,"Annual reports of the Town of Auburn, New Hampshire, 1879",1879,Title varies|~|Imprint varies|~|Report year varies,"University of New Hampshire. Library. Digital Collections.|~|Scanned by Internet Archive, Open Content Alliance (2008)",,,Text,Auburn (N.H. : Town) -- Appropriations and expenditures -- Periodicals,Auburn (N.H. : Town),,,eng,"[Auburn, N.H.] : The Town|~|University of New Hampshire. Library. Digital Collections.",auburn_0010+application-pdf+application.pdf|~|auburn_0010+image-low-jpg+image-low.jpg|~|auburn_0010+image-tb-jpg+image-tb.jpg
Active,auburn:0011,auburn,http://www.archive.org/details/annualreportsoft1881aubu|~|annualreportsoft1881aubu|~|auburn:0011,"Annual reports of the Town of Auburn, New Hampshire, 1881",1881,Title varies|~|Imprint varies|~|Report year varies,"University of New Hampshire. Library. Digital Collections.|~|Scanned by Internet Archive, Open Content Alliance (2008)",,,Text,Auburn (N.H. : Town) -- Appropriations and expenditures -- Periodicals,Auburn (N.H. : Town),,,eng,"[Auburn, N.H.] : The Town|~|University of New Hampshire. Library. Digital Collections.",auburn_0011+application-pdf+application.pdf|~|auburn_0011+image-low-jpg+image-low.jpg|~|auburn_0011+image-tb-jpg+image-tb.jpg
Active,auburn:0012,auburn,http://www.archive.org/details/annualreportsoft1884aubu|~|annualreportsoft1884aubu|~|auburn:0012,"Annual reports of the Town of Auburn, New Hampshire, 1884",1884,Title varies|~|Imprint varies|~|Report year varies,"University of New Hampshire. Library. Digital Collections.|~|Scanned by Internet Archive, Open Content Alliance (2008)",,,Text,Auburn (N.H. : Town) -- Appropriations and expenditures -- Periodicals,Auburn (N.H. : Town),,,eng,"[Auburn, N.H.] : The Town|~|University of New Hampshire. Library. Digital Collections.",auburn_0012+application-pdf+application.pdf|~|auburn_0012+image-low-jpg+image-low.jpg|~|auburn_0012+image-tb-jpg+image-tb.jpg
Active,auburn:0013,auburn,http://www.archive.org/details/annualreportsoft1944aubu|~|annualreportsoft1944aubu|~|auburn:0013,"Annual reports of the Town of Auburn, New Hampshire, 1944",1944,Title varies|~|Imprint varies|~|Report year varies,"University of New Hampshire. Library. Digital Collections.|~|Scanned by Internet Archive, Open Content Alliance (2008)",,,Text,Auburn (N.H. : Town) -- Appropriations and expenditures -- Periodicals,Auburn (N.H. : Town),,,eng,"[Auburn, N.H.] : The Town|~|University of New Hampshire. Library. Digital Collections.",auburn_0013+application-pdf+application.pdf|~|auburn_0013+image-low-jpg+image-low.jpg|~|auburn_0013+image-tb-jpg+image-tb.jpg
Active,auburn:0014,auburn,http://www.archive.org/details/annualreportsoft1943aubu|~|annualreportsoft1943aubu|~|auburn:0014,"Annual reports of the Town of Auburn, New Hampshire, 1943",1943,Title varies|~|Imprint varies|~|Report year varies,"University of New Hampshire. Library. Digital Collections.|~|Scanned by Internet Archive, Open Content Alliance (2008)",,,Text,Auburn (N.H. : Town) -- Appropriations and expenditures -- Periodicals,Auburn (N.H. : Town),,,eng,"[Auburn, N.H.] : The Town|~|University of New Hampshire. Library. Digital Collections.",auburn_0014+application-pdf+application.pdf|~|auburn_0014+image-low-jpg+image-low.jpg|~|auburn_0014+image-tb-jpg+image-tb.jpg
Active,auburn:0015,auburn,http://www.archive.org/details/annualreportsoft1942aubu|~|annualreportsoft1942aubu|~|auburn:0015,"Annual reports of the Town of Auburn, New Hampshire, 1942",1942,Title varies|~|Imprint varies|~|Report year varies,"University of New Hampshire. Library. Digital Collections.|~|Scanned by Internet Archive, Open Content Alliance (2008)",,,Text,Auburn (N.H. : Town) -- Appropriations and expenditures -- Periodicals,Auburn (N.H. : Town),,,eng,"[Auburn, N.H.] : The Town|~|University of New Hampshire. Library. Digital Collections.",auburn_0015+application-pdf+application.pdf|~|auburn_0015+image-low-jpg+image-low.jpg|~|auburn_0015+image-tb-jpg+image-tb.jpg
Active,auburn:0016,auburn,http://www.archive.org/details/annualreportsoft1941aubu|~|annualreportsoft1941aubu|~|auburn:0016,"Annual reports of the Town of Auburn, New Hampshire, 1941",1941,Title varies|~|Imprint varies|~|Report year varies,"University of New Hampshire. Library. Digital Collections.|~|Scanned by Internet Archive, Open Content Alliance (2008)",,,Text,Auburn (N.H. : Town) -- Appropriations and expenditures -- Periodicals,Auburn (N.H. : Town),,,eng,"[Auburn, N.H.] : The Town|~|University of New Hampshire. Library. Digital Collections.",auburn_0016+application-pdf+application.pdf|~|auburn_0016+image-low-jpg+image-low.jpg|~|auburn_0016+image-tb-jpg+image-tb.jpg
Active,auburn:0017,auburn,http://www.archive.org/details/annualreportsoft1940aubu|~|annualreportsoft1940aubu|~|auburn:0017,"Annual reports of the Town of Auburn, New Hampshire, 1940",1940,Title varies|~|Imprint varies|~|Report year varies,"University of New Hampshire. Library. Digital Collections.|~|Scanned by Internet Archive, Open Content Alliance (2008)",,,Text,Auburn (N.H. : Town) -- Appropriations and expenditures -- Periodicals,Auburn (N.H. : Town),,,eng,"[Auburn, N.H.] : The Town|~|University of New Hampshire. Library. Digital Collections.",auburn_0017+application-pdf+application.pdf|~|auburn_0017+image-low-jpg+image-low.jpg|~|auburn_0017+image-tb-jpg+image-tb.jpg
Active,auburn:0018,auburn,http://www.archive.org/details/annualreportsoft1939aubu|~|annualreportsoft1939aubu|~|auburn:0018,"Annual reports of the Town of Auburn, New Hampshire, 1939",1939,Title varies|~|Imprint varies|~|Report year varies,"University of New Hampshire. Library. Digital Collections.|~|Scanned by Internet Archive, Open Content Alliance (2008)",,,Text,Auburn (N.H. : Town) -- Appropriations and expenditures -- Periodicals,Auburn (N.H. : Town),,,eng,"[Auburn, N.H.] : The Town|~|University of New Hampshire. Library. Digital Collections.",auburn_0018+application-pdf+application.pdf|~|auburn_0018+image-low-jpg+image-low.jpg|~|auburn_0018+image-tb-jpg+image-tb.jpg
Active,auburn:0019,auburn,http://www.archive.org/details/annualreportsoft1938aubu|~|annualreportsoft1938aubu|~|auburn:0019,"Annual reports of the Town of Auburn, New Hampshire, 1938",1938,Title varies|~|Imprint varies|~|Report year varies,"University of New Hampshire. Library. Digital Collections.|~|Scanned by Internet Archive, Open Content Alliance (2008)",,,Text,Auburn (N.H. : Town) -- Appropriations and expenditures -- Periodicals,Auburn (N.H. : Town),,,eng,"[Auburn, N.H.] : The Town|~|University of New Hampshire. Library. Digital Collections.",auburn_0019+application-pdf+application.pdf|~|auburn_0019+image-low-jpg+image-low.jpg|~|auburn_0019+image-tb-jpg+image-tb.jpg
Active,auburn:0020,auburn,http://www.archive.org/details/annualreportsoft1937aubu|~|annualreportsoft1937aubu|~|auburn:0020,"Annual reports of the Town of Auburn, New Hampshire, 1937",1937,Title varies|~|Imprint varies|~|Report year varies,"University of New Hampshire. Library. Digital Collections.|~|Scanned by Internet Archive, Open Content Alliance (2008)",,,Text,Auburn (N.H. : Town) -- Appropriations and expenditures -- Periodicals,Auburn (N.H. : Town),,,eng,"[Auburn, N.H.] : The Town|~|University of New Hampshire. Library. Digital Collections.",auburn_0020+application-pdf+application.pdf|~|auburn_0020+image-low-jpg+image-low.jpg|~|auburn_0020+image-tb-jpg+image-tb.jpg
Active,auburn:0021,auburn,http://www.archive.org/details/annualreportsoft1936aubu|~|annualreportsoft1936aubu|~|auburn:0021,"Annual reports of the Town of Auburn, New Hampshire, 1936",1936,Title varies|~|Imprint varies|~|Report year varies,"University of New Hampshire. Library. Digital Collections.|~|Scanned by Internet Archive, Open Content Alliance (2008)",,,Text,Auburn (N.H. : Town) -- Appropriations and expenditures -- Periodicals,Auburn (N.H. : Town),,,eng,"[Auburn, N.H.] : The Town|~|University of New Hampshire. Library. Digital Collections.",auburn_0021+application-pdf+application.pdf|~|auburn_0021+image-low-jpg+image-low.jpg|~|auburn_0021+image-tb-jpg+image-tb.jpg
Active,auburn:0022,auburn,http://www.archive.org/details/annualreportsoft1935aubu|~|annualreportsoft1935aubu|~|auburn:0022,"Annual reports of the Town of Auburn, New Hampshire, 1935",1935,Title varies|~|Imprint varies|~|Report year varies,"University of New Hampshire. Library. Digital Collections.|~|Scanned by Internet Archive, Open Content Alliance (2008)",,,Text,Auburn (N.H. : Town) -- Appropriations and expenditures -- Periodicals,Auburn (N.H. : Town),,,eng,"[Auburn, N.H.] : The Town|~|University of New Hampshire. Library. Digital Collections.",auburn_0022+application-pdf+application.pdf|~|auburn_0022+image-low-jpg+image-low.jpg|~|auburn_0022+image-tb-jpg+image-tb.jpg
Active,auburn:0023,auburn,http://www.archive.org/details/annualreportsoft1927aubu|~|annualreportsoft1927aubu|~|auburn:0023,"Annual reports of the Town of Auburn, New Hampshire, 1927",1927,Title varies|~|Imprint varies|~|Report year varies,"University of New Hampshire. Library. Digital Collections.|~|Scanned by Internet Archive, Open Content Alliance (2008)",,,Text,Auburn (N.H. : Town) -- Appropriations and expenditures -- Periodicals,Auburn (N.H. : Town),,,eng,"[Auburn, N.H.] : The Town|~|University of New Hampshire. Library. Digital Collections.",auburn_0023+application-pdf+application.pdf|~|auburn_0023+image-low-jpg+image-low.jpg|~|auburn_0023+image-tb-jpg+image-tb.jpg
Active,auburn:0024,auburn,http://www.archive.org/details/annualreportsoft1926aubu|~|annualreportsoft1926aubu|~|auburn:0024,"Annual reports of the Town of Auburn, New Hampshire, 1926",1926,Title varies|~|Imprint varies|~|Report year varies,"University of New Hampshire. Library. Digital Collections.|~|Scanned by Internet Archive, Open Content Alliance (2008)",,,Text,Auburn (N.H. : Town) -- Appropriations and expenditures -- Periodicals,Auburn (N.H. : Town),,,eng,"[Auburn, N.H.] : The Town|~|University of New Hampshire. Library. Digital Collections.",auburn_0024+application-pdf+application.pdf|~|auburn_0024+image-low-jpg+image-low.jpg|~|auburn_0024+image-tb-jpg+image-tb.jpg
Active,auburn:0025,auburn,http://www.archive.org/details/annualreportsoft1925aubu|~|annualreportsoft1925aubu|~|auburn:0025,"Annual reports of the Town of Auburn, New Hampshire, 1925",1925,Title varies|~|Imprint varies|~|Report year varies,"University of New Hampshire. Library. Digital Collections.|~|Scanned by Internet Archive, Open Content Alliance (2008)",,,Text,Auburn (N.H. : Town) -- Appropriations and expenditures -- Periodicals,Auburn (N.H. : Town),,,eng,"[Auburn, N.H.] : The Town|~|University of New Hampshire. Library. Digital Collections.",auburn_0025+application-pdf+application.pdf|~|auburn_0025+image-low-jpg+image-low.jpg|~|auburn_0025+image-tb-jpg+image-tb.jpg
Active,auburn:0026,auburn,http://www.archive.org/details/annualreportsoft1897aubu|~|annualreportsoft1897aubu|~|auburn:0026,"Annual reports of the Town of Auburn, New Hampshire, 1897",1897,Title varies|~|Imprint varies|~|Report year varies,"University of New Hampshire. Library. Digital Collections.|~|Scanned by Internet Archive, Open Content Alliance (2008)",,,Text,Auburn (N.H. : Town) -- Appropriations and expenditures -- Periodicals,Auburn (N.H. : Town),,,eng,"[Auburn, N.H.] : The Town|~|University of New Hampshire. Library. Digital Collections.",auburn_0026+application-pdf+application.pdf|~|auburn_0026+image-low-jpg+image-low.jpg|~|auburn_0026+image-tb-jpg+image-tb.jpg
Active,auburn:0027,auburn,http://www.archive.org/details/annualreportsoft1896aubu|~|annualreportsoft1896aubu|~|auburn:0027,"Annual reports of the Town of Auburn, New Hampshire, 1896",1896,Title varies|~|Imprint varies|~|Report year varies,"University of New Hampshire. Library. Digital Collections.|~|Scanned by Internet Archive, Open Content Alliance (2008)",,,Text,Auburn (N.H. : Town) -- Appropriations and expenditures -- Periodicals,Auburn (N.H. : Town),,,eng,"[Auburn, N.H.] : The Town|~|University of New Hampshire. Library. Digital Collections.",auburn_0027+application-pdf+application.pdf|~|auburn_0027+image-low-jpg+image-low.jpg|~|auburn_0027+image-tb-jpg+image-tb.jpg
Active,auburn:0028,auburn,http://www.archive.org/details/annualreportsoft1895aubu|~|annualreportsoft1895aubu|~|auburn:0028,"Annual reports of the Town of Auburn, New Hampshire, 1895",1895,Title varies|~|Imprint varies|~|Report year varies,"University of New Hampshire. Library. Digital Collections.|~|Scanned by Internet Archive, Open Content Alliance (2008)",,,Text,Auburn (N.H. : Town) -- Appropriations and expenditures -- Periodicals,Auburn (N.H. : Town),,,eng,"[Auburn, N.H.] : The Town|~|University of New Hampshire. Library. Digital Collections.",auburn_0028+application-pdf+application.pdf|~|auburn_0028+image-low-jpg+image-low.jpg|~|auburn_0028+image-tb-jpg+image-tb.jpg
Active,auburn:0029,auburn,http://www.archive.org/details/annualreportsoft44aubu|~|annualreportsoft44aubu|~|auburn:0029,"Annual reports of the Town of Auburn, New Hampshire, 1944",1945,Title varies|~|Imprint varies|~|Report year varies,"University of New Hampshire. Library. Digital Collections.|~|Scanned by Internet Archive, Open Content Alliance (2008)",,,Text,Auburn (N.H. : Town) -- Appropriations and expenditures -- Periodicals,Auburn (N.H. : Town),,,eng,"[Auburn, N.H.] : The Town|~|University of New Hampshire. Library. Digital Collections.",auburn_0029+application-pdf+application.pdf|~|auburn_0029+image-low-jpg+image-low.jpg|~|auburn_0029+image-tb-jpg+image-tb.jpg
Active,auburn:0030,auburn,http://www.archive.org/details/annualreportsoft1945aubu|~|annualreportsoft1945aubu|~|auburn:0030,"Annual reports of the Town of Auburn, New Hampshire, 1945",1946,Title varies|~|Imprint varies|~|Report year varies,"University of New Hampshire. Library. Digital Collections.|~|Scanned by Internet Archive, Open Content Alliance (2008)",,,Text,Auburn (N.H. : Town) -- Appropriations and expenditures -- Periodicals,Auburn (N.H. : Town),,,eng,"[Auburn, N.H.] : The Town|~|University of New Hampshire. Library. Digital Collections.",auburn_0030+application-pdf+application.pdf|~|auburn_0030+image-low-jpg+image-low.jpg|~|auburn_0030+image-tb-jpg+image-tb.jpg
Active,auburn:0031,auburn,http://www.archive.org/details/annualreportsoft1946aubu|~|annualreportsoft1946aubu|~|auburn:0031,"Annual reports of the Town of Auburn, New Hampshire, 1946",1947,Title varies|~|Imprint varies|~|Report year varies,"University of New Hampshire. Library. Digital Collections.|~|Scanned by Internet Archive, Open Content Alliance (2008)",,,Text,Auburn (N.H. : Town) -- Appropriations and expenditures -- Periodicals,Auburn (N.H. : Town),,,eng,"[Auburn, N.H.] : The Town|~|University of New Hampshire. Library. Digital Collections.",auburn_0031+application-pdf+application.pdf|~|auburn_0031+image-low-jpg+image-low.jpg|~|auburn_0031+image-tb-jpg+image-tb.jpg
Active,auburn:0032,auburn,http://www.archive.org/details/annualreportsoft1947aubu|~|annualreportsoft1947aubu|~|auburn:0032,"Annual reports of the Town of Auburn, New Hampshire, 1947",1948,Title varies|~|Imprint varies|~|Report year varies,"University of New Hampshire. Library. Digital Collections.|~|Scanned by Internet Archive, Open Content Alliance (2008)",,,Text,Auburn (N.H. : Town) -- Appropriations and expenditures -- Periodicals,Auburn (N.H. : Town),,,eng,"[Auburn, N.H.] : The Town|~|University of New Hampshire. Library. Digital Collections.",auburn_0032+application-pdf+application.pdf|~|auburn_0032+image-low-jpg+image-low.jpg|~|auburn_0032+image-tb-jpg+image-tb.jpg
Active,auburn:0033,auburn,http://www.archive.org/details/annualreportsoft1948aubu|~|annualreportsoft1948aubu|~|auburn:0033,"Annual reports of the Town of Auburn, New Hampshire, 1948",1949,Title varies|~|Imprint varies|~|Report year varies,"University of New Hampshire. Library. Digital Collections.|~|Scanned by Internet Archive, Open Content Alliance (2008)",,,Text,Auburn (N.H. : Town) -- Appropriations and expenditures -- Periodicals,Auburn (N.H. : Town),,,eng,"[Auburn, N.H.] : The Town|~|University of New Hampshire. Library. Digital Collections.",auburn_0033+application-pdf+application.pdf|~|auburn_0033+image-low-jpg+image-low.jpg|~|auburn_0033+image-tb-jpg+image-tb.jpg
Active,auburn:0034,auburn,http://www.archive.org/details/annualreportsoft1949aubu|~|annualreportsoft1949aubu|~|auburn:0034,"Annual reports of the Town of Auburn, New Hampshire, 1949",1950,Title varies|~|Imprint varies|~|Report year varies,"University of New Hampshire. Library. Digital Collections.|~|Scanned by Internet Archive, Open Content Alliance (2008)",,,Text,Auburn (N.H. : Town) -- Appropriations and expenditures -- Periodicals,Auburn (N.H. : Town),,,eng,"[Auburn, N.H.] : The Town|~|University of New Hampshire. Library. Digital Collections.",auburn_0034+application-pdf+application.pdf|~|auburn_0034+image-low-jpg+image-low.jpg|~|auburn_0034+image-tb-jpg+image-tb.jpg
Active,auburn:0035,auburn,http://www.archive.org/details/annualreportsoft1950aubu|~|annualreportsoft1950aubu|~|auburn:0035,"Annual reports of the Town of Auburn, New Hampshire, 1950",1951,Title varies|~|Imprint varies|~|Report year varies,"University of New Hampshire. Library. Digital Collections.|~|Scanned by Internet Archive, Open Content Alliance (2008)",,,Text,Auburn (N.H. : Town) -- Appropriations and expenditures -- Periodicals,Auburn (N.H. : Town),,,eng,"[Auburn, N.H.] : The Town|~|University of New Hampshire. Library. Digital Collections.",auburn_0035+application-pdf+application.pdf|~|auburn_0035+image-low-jpg+image-low.jpg|~|auburn_0035+image-tb-jpg+image-tb.jpg
Active,auburn:0036,auburn,http://www.archive.org/details/annualreportsoft1951aubu|~|annualreportsoft1951aubu|~|auburn:0036,"Annual reports of the Town of Auburn, New Hampshire, 1951",1952,Title varies|~|Imprint varies|~|Report year varies,"University of New Hampshire. Library. Digital Collections.|~|Scanned by Internet Archive, Open Content Alliance (2008)",,,Text,Auburn (N.H. : Town) -- Appropriations and expenditures -- Periodicals,Auburn (N.H. : Town),,,eng,"[Auburn, N.H.] : The Town|~|University of New Hampshire. Library. Digital Collections.",auburn_0036+application-pdf+application.pdf|~|auburn_0036+image-low-jpg+image-low.jpg|~|auburn_0036+image-tb-jpg+image-tb.jpg
Active,auburn:0037,auburn,http://www.archive.org/details/annualreportsoft1952aubu|~|annualreportsoft1952aubu|~|auburn:0037,"Annual reports of the Town of Auburn, New Hampshire, 1952",1953,Title varies|~|Imprint varies|~|Report year varies,"University of New Hampshire. Library. Digital Collections.|~|Scanned by Internet Archive, Open Content Alliance (2008)",,,Text,Auburn (N.H. : Town) -- Appropriations and expenditures -- Periodicals,Auburn (N.H. : Town),,,eng,"[Auburn, N.H.] : The Town|~|University of New Hampshire. Library. Digital Collections.",auburn_0037+application-pdf+application.pdf|~|auburn_0037+image-low-jpg+image-low.jpg|~|auburn_0037+image-tb-jpg+image-tb.jpg
Active,auburn:0038,auburn,http://www.archive.org/details/annualreportsoft1953aubu|~|annualreportsoft1953aubu|~|auburn:0038,"Annual reports of the Town of Auburn, New Hampshire, 1953",1954,Title varies|~|Imprint varies|~|Report year varies,"University of New Hampshire. Library. Digital Collections.|~|Scanned by Internet Archive, Open Content Alliance (2008)",,,Text,Auburn (N.H. : Town) -- Appropriations and expenditures -- Periodicals,Auburn (N.H. : Town),,,eng,"[Auburn, N.H.] : The Town|~|University of New Hampshire. Library. Digital Collections.",auburn_0038+application-pdf+application.pdf|~|auburn_0038+image-low-jpg+image-low.jpg|~|auburn_0038+image-tb-jpg+image-tb.jpg
Active,auburn:0039,auburn,http://www.archive.org/details/annualreportsoft1954aubu|~|annualreportsoft1954aubu|~|auburn:0039,"Annual reports of the Town of Auburn, New Hampshire, 1954",1955,Title varies|~|Imprint varies|~|Report year varies,"University of New Hampshire. Library. Digital Collections.|~|Scanned by Internet Archive, Open Content Alliance (2008)",,,Text,Auburn (N.H. : Town) -- Appropriations and expenditures -- Periodicals,Auburn (N.H. : Town),,,eng,"[Auburn, N.H.] : The Town|~|University of New Hampshire. Library. Digital Collections.",auburn_0039+application-pdf+application.pdf|~|auburn_0039+image-low-jpg+image-low.jpg|~|auburn_0039+image-tb-jpg+image-tb.jpg
Active,auburn:0040,auburn,http://www.archive.org/details/annualreportsoft1955aubu|~|annualreportsoft1955aubu|~|auburn:0040,"Annual reports of the Town of Auburn, New Hampshire, 1955",1956,Title varies|~|Imprint varies|~|Report year varies,"University of New Hampshire. Library. Digital Collections.|~|Scanned by Internet Archive, Open Content Alliance (2008)",,,Text,Auburn (N.H. : Town) -- Appropriations and expenditures -- Periodicals,Auburn (N.H. : Town),,,eng,"[Auburn, N.H.] : The Town|~|University of New Hampshire. Library. Digital Collections.",auburn_0040+application-pdf+application.pdf|~|auburn_0040+image-low-jpg+image-low.jpg|~|auburn_0040+image-tb-jpg+image-tb.jpg
Active,auburn:0041,auburn,http://www.archive.org/details/annualreportsoft1956aubu|~|annualreportsoft1956aubu|~|auburn:0041,"Annual reports of the Town of Auburn, New Hampshire, 1956",1957,Title varies|~|Imprint varies|~|Report year varies,"University of New Hampshire. Library. Digital Collections.|~|Scanned by Internet Archive, Open Content Alliance (2008)",,,Text,Auburn (N.H. : Town) -- Appropriations and expenditures -- Periodicals,Auburn (N.H. : Town),,,eng,"[Auburn, N.H.] : The Town|~|University of New Hampshire. Library. Digital Collections.",auburn_0041+application-pdf+application.pdf|~|auburn_0041+image-low-jpg+image-low.jpg|~|auburn_0041+image-tb-jpg+image-tb.jpg
Active,auburn:0042,auburn,http://www.archive.org/details/annualreportsoft1957aubu|~|annualreportsoft1957aubu|~|auburn:0042,"Annual reports of the Town of Auburn, New Hampshire, 1957",1958,Title varies|~|Imprint varies|~|Report year varies,"University of New Hampshire. Library. Digital Collections.|~|Scanned by Internet Archive, Open Content Alliance (2008)",,,Text,Auburn (N.H. : Town) -- Appropriations and expenditures -- Periodicals,Auburn (N.H. : Town),,,eng,"[Auburn, N.H.] : The Town|~|University of New Hampshire. Library. Digital Collections.",auburn_0042+application-pdf+application.pdf|~|auburn_0042+image-low-jpg+image-low.jpg|~|auburn_0042+image-tb-jpg+image-tb.jpg
Active,auburn:0043,auburn,http://www.archive.org/details/annualreportsoft1958aubu|~|annualreportsoft1958aubu|~|auburn:0043,"Annual reports of the Town of Auburn, New Hampshire, 1958",1959,Title varies|~|Imprint varies|~|Report year varies,"University of New Hampshire. Library. Digital Collections.|~|Scanned by Internet Archive, Open Content Alliance (2008)",,,Text,Auburn (N.H. : Town) -- Appropriations and expenditures -- Periodicals,Auburn (N.H. : Town),,,eng,"[Auburn, N.H.] : The Town|~|University of New Hampshire. Library. Digital Collections.",auburn_0043+application-pdf+application.pdf|~|auburn_0043+image-low-jpg+image-low.jpg|~|auburn_0043+image-tb-jpg+image-tb.jpg
Active,auburn:0044,auburn,http://www.archive.org/details/annualreportsoft1959aubu|~|annualreportsoft1959aubu|~|auburn:0044,"Annual reports of the Town of Auburn, New Hampshire, 1959",1960,Title varies|~|Imprint varies|~|Report year varies,"University of New Hampshire. Library. Digital Collections.|~|Scanned by Internet Archive, Open Content Alliance (2008)",,,Text,Auburn (N.H. : Town) -- Appropriations and expenditures -- Periodicals,Auburn (N.H. : Town),,,eng,"[Auburn, N.H.] : The Town|~|University of New Hampshire. Library. Digital Collections.",auburn_0044+application-pdf+application.pdf|~|auburn_0044+image-low-jpg+image-low.jpg|~|auburn_0044+image-tb-jpg+image-tb.jpg
Active,auburn:0045,auburn,http://www.archive.org/details/annualreportsoft1960aubu|~|annualreportsoft1960aubu|~|auburn:0045,"Annual reports of the Town of Auburn, New Hampshire, 1960",1961,Title varies|~|Imprint varies|~|Report year varies,"University of New Hampshire. Library. Digital Collections.|~|Scanned by Internet Archive, Open Content Alliance (2008)",,,Text,Auburn (N.H. : Town) -- Appropriations and expenditures -- Periodicals,Auburn (N.H. : Town),,,eng,"[Auburn, N.H.] : The Town|~|University of New Hampshire. Library. Digital Collections.",auburn_0045+application-pdf+application.pdf|~|auburn_0045+image-low-jpg+image-low.jpg|~|auburn_0045+image-tb-jpg+image-tb.jpg
Active,auburn:0046,auburn,http://www.archive.org/details/annualreportsoft1961aubu|~|annualreportsoft1961aubu|~|auburn:0046,"Annual reports of the Town of Auburn, New Hampshire, 1961",1962,Title varies|~|Imprint varies|~|Report year varies,"University of New Hampshire. Library. Digital Collections.|~|Scanned by Internet Archive, Open Content Alliance (2008)",,,Text,Auburn (N.H. : Town) -- Appropriations and expenditures -- Periodicals,Auburn (N.H. : Town),,,eng,"[Auburn, N.H.] : The Town|~|University of New Hampshire. Library. Digital Collections.",auburn_0046+application-pdf+application.pdf|~|auburn_0046+image-low-jpg+image-low.jpg|~|auburn_0046+image-tb-jpg+image-tb.jpg
Active,auburn:0047,auburn,http://www.archive.org/details/annualreportsoft1962aubu|~|annualreportsoft1962aubu|~|auburn:0047,"Annual reports of the Town of Auburn, New Hampshire, 1962",1963,Title varies|~|Imprint varies|~|Report year varies,"University of New Hampshire. Library. Digital Collections.|~|Scanned by Internet Archive, Open Content Alliance (2008)",,,Text,Auburn (N.H. : Town) -- Appropriations and expenditures -- Periodicals,Auburn (N.H. : Town),,,eng,"[Auburn, N.H.] : The Town|~|University of New Hampshire. Library. Digital Collections.",auburn_0047+application-pdf+application.pdf|~|auburn_0047+image-low-jpg+image-low.jpg|~|auburn_0047+image-tb-jpg+image-tb.jpg
Active,auburn:0048,auburn,http://www.archive.org/details/annualreportsoft1963aubu|~|annualreportsoft1963aubu|~|auburn:0048,"Annual reports of the Town of Auburn, New Hampshire, 1963",1964,Title varies|~|Imprint varies|~|Report year varies,"University of New Hampshire. Library. Digital Collections.|~|Scanned by Internet Archive, Open Content Alliance (2008)",,,Text,Auburn (N.H. : Town) -- Appropriations and expenditures -- Periodicals,Auburn (N.H. : Town),,,eng,"[Auburn, N.H.] : The Town|~|University of New Hampshire. Library. Digital Collections.",auburn_0048+application-pdf+application.pdf|~|auburn_0048+image-low-jpg+image-low.jpg|~|auburn_0048+image-tb-jpg+image-tb.jpg
Active,auburn:0049,auburn,http://www.archive.org/details/annualreportsoft1964aubu|~|annualreportsoft1964aubu|~|auburn:0049,"Annual reports of the Town of Auburn, New Hampshire, 1964",1965,Title varies|~|Imprint varies|~|Report year varies,"University of New Hampshire. Library. Digital Collections.|~|Scanned by Internet Archive, Open Content Alliance (2008)",,,Text,Auburn (N.H. : Town) -- Appropriations and expenditures -- Periodicals,Auburn (N.H. : Town),,,eng,"[Auburn, N.H.] : The Town|~|University of New Hampshire. Library. Digital Collections.",auburn_0049+application-pdf+application.pdf|~|auburn_0049+image-low-jpg+image-low.jpg|~|auburn_0049+image-tb-jpg+image-tb.jpg
Active,auburn:0050,auburn,http://www.archive.org/details/annualreportsoft1965aubu|~|annualreportsoft1965aubu|~|auburn:0050,"Annual reports of the Town of Auburn, New Hampshire, 1965",1966,Title varies|~|Imprint varies|~|Report year varies,"University of New Hampshire. Library. Digital Collections.|~|Scanned by Internet Archive, Open Content Alliance (2008)",,,Text,Auburn (N.H. : Town) -- Appropriations and expenditures -- Periodicals,Auburn (N.H. : Town),,,eng,"[Auburn, N.H.] : The Town|~|University of New Hampshire. Library. Digital Collections.",auburn_0050+application-pdf+application.pdf|~|auburn_0050+image-low-jpg+image-low.jpg|~|auburn_0050+image-tb-jpg+image-tb.jpg
Active,auburn:0051,auburn,http://www.archive.org/details/annualreportsoft1966aubu|~|annualreportsoft1966aubu|~|auburn:0051,"Annual reports of the Town of Auburn, New Hampshire, 1966",1967,Title varies|~|Imprint varies|~|Report year varies,"University of New Hampshire. Library. Digital Collections.|~|Scanned by Internet Archive, Open Content Alliance (2008)",,,Text,Auburn (N.H. : Town) -- Appropriations and expenditures -- Periodicals,Auburn (N.H. : Town),,,eng,"[Auburn, N.H.] : The Town|~|University of New Hampshire. Library. Digital Collections.",auburn_0051+application-pdf+application.pdf|~|auburn_0051+image-low-jpg+image-low.jpg|~|auburn_0051+image-tb-jpg+image-tb.jpg
Active,auburn:0052,auburn,http://www.archive.org/details/annualreportsoft1967aubu|~|annualreportsoft1967aubu|~|auburn:0052,"Annual reports of the Town of Auburn, New Hampshire, 1967",1968,Title varies|~|Imprint varies|~|Report year varies,"University of New Hampshire. Library. Digital Collections.|~|Scanned by Internet Archive, Open Content Alliance (2008)",,,Text,Auburn (N.H. : Town) -- Appropriations and expenditures -- Periodicals,Auburn (N.H. : Town),,,eng,"[Auburn, N.H.] : The Town|~|University of New Hampshire. Library. Digital Collections.",auburn_0052+application-pdf+application.pdf|~|auburn_0052+image-low-jpg+image-low.jpg|~|auburn_0052+image-tb-jpg+image-tb.jpg
Active,auburn:0053,auburn,http://www.archive.org/details/annualreportsoft1968aubu|~|annualreportsoft1968aubu|~|auburn:0053,"Annual reports of the Town of Auburn, New Hampshire, 1968",1969,Title varies|~|Imprint varies|~|Report year varies,"University of New Hampshire. Library. Digital Collections.|~|Scanned by Internet Archive, Open Content Alliance (2008)",,,Text,Auburn (N.H. : Town) -- Appropriations and expenditures -- Periodicals,Auburn (N.H. : Town),,,eng,"[Auburn, N.H.] : The Town|~|University of New Hampshire. Library. Digital Collections.",auburn_0053+application-pdf+application.pdf|~|auburn_0053+image-low-jpg+image-low.jpg|~|auburn_0053+image-tb-jpg+image-tb.jpg
Active,auburn:0054,auburn,http://www.archive.org/details/annualreportsoft1981aubu|~|annualreportsoft1981aubu|~|auburn:0054,"Annual reports of the Town of Auburn, New Hampshire, 1981",1982,Title varies|~|Imprint varies|~|Report year varies,"University of New Hampshire. Library. Digital Collections.|~|Scanned by Internet Archive, Open Content Alliance (2008)",,,Text,Auburn (N.H. : Town) -- Appropriations and expenditures -- Periodicals,Auburn (N.H. : Town),,,eng,"[Auburn, N.H.] : The Town|~|University of New Hampshire. Library. Digital Collections.",auburn_0054+application-pdf+application.pdf|~|auburn_0054+image-low-jpg+image-low.jpg|~|auburn_0054+image-tb-jpg+image-tb.jpg
Active,auburn:0055,auburn,http://www.archive.org/details/annualreportsoft1982aubu|~|annualreportsoft1982aubu|~|auburn:0055,"Annual reports of the Town of Auburn, New Hampshire, 1982",1983,Title varies|~|Imprint varies|~|Report year varies,"University of New Hampshire. Library. Digital Collections.|~|Scanned by Internet Archive, Open Content Alliance (2008)",,,Text,Auburn (N.H. : Town) -- Appropriations and expenditures -- Periodicals,Auburn (N.H. : Town),,,eng,"[Auburn, N.H.] : The Town|~|University of New Hampshire. Library. Digital Collections.",auburn_0055+application-pdf+application.pdf|~|auburn_0055+image-low-jpg+image-low.jpg|~|auburn_0055+image-tb-jpg+image-tb.jpg
Active,auburn:0056,auburn,http://www.archive.org/details/annualreportsoft1983aubu|~|annualreportsoft1983aubu|~|auburn:0056,"Annual reports of the Town of Auburn, New Hampshire, 1983",1984,Title varies|~|Imprint varies|~|Report year varies,"University of New Hampshire. Library. Digital Collections.|~|Scanned by Internet Archive, Open Content Alliance (2008)",,,Text,Auburn (N.H. : Town) -- Appropriations and expenditures -- Periodicals,Auburn (N.H. : Town),,,eng,"[Auburn, N.H.] : The Town|~|University of New Hampshire. Library. Digital Collections.",auburn_0056+application-pdf+application.pdf|~|auburn_0056+image-low-jpg+image-low.jpg|~|auburn_0056+image-tb-jpg+image-tb.jpg
Active,auburn:0057,auburn,http://www.archive.org/details/annualreportsoft1984aubu|~|annualreportsoft1984aubu|~|auburn:0057,"Annual reports of the Town of Auburn, New Hampshire, 1984",1985,Title varies|~|Imprint varies|~|Report year varies,"University of New Hampshire. Library. Digital Collections.|~|Scanned by Internet Archive, Open Content Alliance (2008)",,,Text,Auburn (N.H. : Town) -- Appropriations and expenditures -- Periodicals,Auburn (N.H. : Town),,,eng,"[Auburn, N.H.] : The Town|~|University of New Hampshire. Library. Digital Collections.",auburn_0057+application-pdf+application.pdf|~|auburn_0057+image-low-jpg+image-low.jpg|~|auburn_0057+image-tb-jpg+image-tb.jpg
Active,auburn:0058,auburn,http://www.archive.org/details/annualreportsoft1985aubu|~|annualreportsoft1985aubu|~|auburn:0058,"Annual reports of the Town of Auburn, New Hampshire, 1985",1986,Title varies|~|Imprint varies|~|Report year varies,"University of New Hampshire. Library. Digital Collections.|~|Scanned by Internet Archive, Open Content Alliance (2008)",,,Text,Auburn (N.H. : Town) -- Appropriations and expenditures -- Periodicals,Auburn (N.H. : Town),,,eng,"[Auburn, N.H.] : The Town|~|University of New Hampshire. Library. Digital Collections.",auburn_0058+application-pdf+application.pdf|~|auburn_0058+image-low-jpg+image-low.jpg|~|auburn_0058+image-tb-jpg+image-tb.jpg
Active,auburn:0059,auburn,http://www.archive.org/details/annualreportsoft1986aubu|~|annualreportsoft1986aubu|~|auburn:0059,"Annual reports of the Town of Auburn, New Hampshire, 1986",1987,Title varies|~|Imprint varies|~|Report year varies,"University of New Hampshire. Library. Digital Collections.|~|Scanned by Internet Archive, Open Content Alliance (2008)",,,Text,Auburn (N.H. : Town) -- Appropriations and expenditures -- Periodicals,Auburn (N.H. : Town),,,eng,"[Auburn, N.H.] : The Town|~|University of New Hampshire. Library. Digital Collections.",auburn_0059+application-pdf+application.pdf|~|auburn_0059+image-low-jpg+image-low.jpg|~|auburn_0059+image-tb-jpg+image-tb.jpg
Active,auburn:0060,auburn,http://www.archive.org/details/annualreportsoft1987aubu|~|annualreportsoft1987aubu|~|auburn:0060,"Annual reports of the Town of Auburn, New Hampshire, 1987",1988,Title varies|~|Imprint varies|~|Report year varies,"University of New Hampshire. Library. Digital Collections.|~|Scanned by Internet Archive, Open Content Alliance (2008)",,,Text,Auburn (N.H. : Town) -- Appropriations and expenditures -- Periodicals,Auburn (N.H. : Town),,,eng,"[Auburn, N.H.] : The Town|~|University of New Hampshire. Library. Digital Collections.",auburn_0060+application-pdf+application.pdf|~|auburn_0060+image-low-jpg+image-low.jpg|~|auburn_0060+image-tb-jpg+image-tb.jpg
Active,auburn:0061,auburn,http://www.archive.org/details/annualreportsoft1988aubu|~|annualreportsoft1988aubu|~|auburn:0061,"Annual reports of the Town of Auburn, New Hampshire, 1988",1989,Title varies|~|Imprint varies|~|Report year varies,"University of New Hampshire. Library. Digital Collections.|~|Scanned by Internet Archive, Open Content Alliance (2008)",,,Text,Auburn (N.H. : Town) -- Appropriations and expenditures -- Periodicals,Auburn (N.H. : Town),,,eng,"[Auburn, N.H.] : The Town|~|University of New Hampshire. Library. Digital Collections.",auburn_0061+application-pdf+application.pdf|~|auburn_0061+image-low-jpg+image-low.jpg|~|auburn_0061+image-tb-jpg+image-tb.jpg
Active,auburn:0062,auburn,http://www.archive.org/details/annualreportsoft1989aubu|~|annualreportsoft1989aubu|~|auburn:0062,"Annual reports of the Town of Auburn, New Hampshire, 1989",1990,Title varies|~|Imprint varies|~|Report year varies,"University of New Hampshire. Library. Digital Collections.|~|Scanned by Internet Archive, Open Content Alliance (2008)",,,Text,Auburn (N.H. : Town) -- Appropriations and expenditures -- Periodicals,Auburn (N.H. : Town),,,eng,"[Auburn, N.H.] : The Town|~|University of New Hampshire. Library. Digital Collections.",auburn_0062+application-pdf+application.pdf|~|auburn_0062+image-low-jpg+image-low.jpg|~|auburn_0062+image-tb-jpg+image-tb.jpg
Active,auburn:0063,auburn,http://www.archive.org/details/annualreportsoft1990aubu|~|annualreportsoft1990aubu|~|auburn:0063,"Annual reports of the Town of Auburn, New Hampshire, 1990",1991,Title varies|~|Imprint varies|~|Report year varies,"University of New Hampshire. Library. Digital Collections.|~|Scanned by Internet Archive, Open Content Alliance (2008)",,,Text,Auburn (N.H. : Town) -- Appropriations and expenditures -- Periodicals,Auburn (N.H. : Town),,,eng,"[Auburn, N.H.] : The Town|~|University of New Hampshire. Library. Digital Collections.",auburn_0063+application-pdf+application.pdf|~|auburn_0063+image-low-jpg+image-low.jpg|~|auburn_0063+image-tb-jpg+image-tb.jpg
Active,auburn:0064,auburn,http://www.archive.org/details/annualreportsoft1991aubu|~|annualreportsoft1991aubu|~|auburn:0064,"Annual reports of the Town of Auburn, New Hampshire, 1991",1992,Title varies|~|Imprint varies|~|Report year varies,"University of New Hampshire. Library. Digital Collections.|~|Scanned by Internet Archive, Open Content Alliance (2008)",,,Text,Auburn (N.H. : Town) -- Appropriations and expenditures -- Periodicals,Auburn (N.H. : Town),,,eng,"[Auburn, N.H.] : The Town|~|University of New Hampshire. Library. Digital Collections.",auburn_0064+application-pdf+application.pdf|~|auburn_0064+image-low-jpg+image-low.jpg|~|auburn_0064+image-tb-jpg+image-tb.jpg
Active,auburn:0065,auburn,http://www.archive.org/details/annualreportsoft1992aubu|~|annualreportsoft1992aubu|~|auburn:0065,"Annual reports of the Town of Auburn, New Hampshire, 1992",1993,Title varies|~|Imprint varies|~|Report year varies,"University of New Hampshire. Library. Digital Collections.|~|Scanned by Internet Archive, Open Content Alliance (2008)",,,Text,Auburn (N.H. : Town) -- Appropriations and expenditures -- Periodicals,Auburn (N.H. : Town),,,eng,"[Auburn, N.H.] : The Town|~|University of New Hampshire. Library. Digital Collections.",auburn_0065+application-pdf+application.pdf|~|auburn_0065+image-low-jpg+image-low.jpg|~|auburn_0065+image-tb-jpg+image-tb.jpg
Active,auburn:0066,auburn,http://www.archive.org/details/annualreportsoft1993aubu|~|annualreportsoft1993aubu|~|auburn:0066,"Annual reports of the Town of Auburn, New Hampshire, 1993",1994,Title varies|~|Imprint varies|~|Report year varies,"University of New Hampshire. Library. Digital Collections.|~|Scanned by Internet Archive, Open Content Alliance (2008)",,,Text,Auburn (N.H. : Town) -- Appropriations and expenditures -- Periodicals,Auburn (N.H. : Town),,,eng,"[Auburn, N.H.] : The Town|~|University of New Hampshire. Library. Digital Collections.",auburn_0066+application-pdf+application.pdf|~|auburn_0066+image-low-jpg+image-low.jpg|~|auburn_0066+image-tb-jpg+image-tb.jpg
Active,auburn:0067,auburn,http://www.archive.org/details/annualreportsoft1994aubu|~|annualreportsoft1994aubu|~|auburn:0067,"Annual reports of the Town of Auburn, New Hampshire, 1994",1995,Title varies|~|Imprint varies|~|Report year varies,"University of New Hampshire. Library. Digital Collections.|~|Scanned by Internet Archive, Open Content Alliance (2008)",,,Text,Auburn (N.H. : Town) -- Appropriations and expenditures -- Periodicals,Auburn (N.H. : Town),,,eng,"[Auburn, N.H.] : The Town|~|University of New Hampshire. Library. Digital Collections.",auburn_0067+application-pdf+application.pdf|~|auburn_0067+image-low-jpg+image-low.jpg|~|auburn_0067+image-tb-jpg+image-tb.jpg
Active,auburn:0068,auburn,http://www.archive.org/details/annualreportsoft1995aubu|~|annualreportsoft1995aubu|~|auburn:0068,"Annual reports of the Town of Auburn, New Hampshire, 1995",1996,Title varies|~|Imprint varies|~|Report year varies,"University of New Hampshire. Library. Digital Collections.|~|Scanned by Internet Archive, Open Content Alliance (2008)",,,Text,Auburn (N.H. : Town) -- Appropriations and expenditures -- Periodicals,Auburn (N.H. : Town),,,eng,"[Auburn, N.H.] : The Town|~|University of New Hampshire. Library. Digital Collections.",auburn_0068+application-pdf+application.pdf|~|auburn_0068+image-low-jpg+image-low.jpg|~|auburn_0068+image-tb-jpg+image-tb.jpg
Active,auburn:0069,auburn,http://www.archive.org/details/annualreportsoft1996aubu|~|annualreportsoft1996aubu|~|auburn:0069,"Annual reports of the Town of Auburn, New Hampshire, 1996",1997,Title varies|~|Imprint varies|~|Report year varies,"University of New Hampshire. Library. Digital Collections.|~|Scanned by Internet Archive, Open Content Alliance (2008)",,,Text,Auburn (N.H. : Town) -- Appropriations and expenditures -- Periodicals,Auburn (N.H. : Town),,,eng,"[Auburn, N.H.] : The Town|~|University of New Hampshire. Library. Digital Collections.",auburn_0069+application-pdf+application.pdf|~|auburn_0069+image-low-jpg+image-low.jpg|~|auburn_0069+image-tb-jpg+image-tb.jpg
Active,auburn:0070,auburn,http://www.archive.org/details/annualreportsoft1997aubu|~|annualreportsoft1997aubu|~|auburn:0070,"Annual reports of the Town of Auburn, New Hampshire, 1997",1998,Title varies|~|Imprint varies|~|Report year varies,"University of New Hampshire. Library. Digital Collections.|~|Scanned by Internet Archive, Open Content Alliance (2008)",,,Text,Auburn (N.H. : Town) -- Appropriations and expenditures -- Periodicals,Auburn (N.H. : Town),,,eng,"[Auburn, N.H.] : The Town|~|University of New Hampshire. Library. Digital Collections.",auburn_0070+application-pdf+application.pdf|~|auburn_0070+image-low-jpg+image-low.jpg|~|auburn_0070+image-tb-jpg+image-tb.jpg
Active,auburn:0071,auburn,http://www.archive.org/details/annualreportsoft1998aubu|~|annualreportsoft1998aubu|~|auburn:0071,"Annual reports of the Town of Auburn, New Hampshire, 1998",1999,Title varies|~|Imprint varies|~|Report year varies,"University of New Hampshire. Library. Digital Collections.|~|Scanned by Internet Archive, Open Content Alliance (2008)",,,Text,Auburn (N.H. : Town) -- Appropriations and expenditures -- Periodicals,Auburn (N.H. : Town),,,eng,"[Auburn, N.H.] : The Town|~|University of New Hampshire. Library. Digital Collections.",auburn_0071+application-pdf+application.pdf|~|auburn_0071+image-low-jpg+image-low.jpg|~|auburn_0071+image-tb-jpg+image-tb.jpg
Active,auburn:0072,auburn,http://www.archive.org/details/annualreportsoft1999aubu|~|annualreportsoft1999aubu|~|auburn:0072,"Annual reports of the Town of Auburn, New Hampshire, 1999",2000,Title varies|~|Imprint varies|~|Report year varies,"University of New Hampshire. Library. Digital Collections.|~|Scanned by Internet Archive, Open Content Alliance (2008)",,,Text,Auburn (N.H. : Town) -- Appropriations and expenditures -- Periodicals,Auburn (N.H. : Town),,,eng,"[Auburn, N.H.] : The Town|~|University of New Hampshire. Library. Digital Collections.",auburn_0072+application-pdf+application.pdf|~|auburn_0072+image-low-jpg+image-low.jpg|~|auburn_0072+image-tb-jpg+image-tb.jpg
Active,auburn:0073,auburn,http://www.archive.org/details/annualreportsoft2000aubu|~|annualreportsoft2000aubu|~|auburn:0073,"Annual reports of the Town of Auburn, New Hampshire, 2000",2001,Title varies|~|Imprint varies|~|Report year varies,"University of New Hampshire. Library. Digital Collections.|~|Scanned by Internet Archive, Open Content Alliance (2008)",,,Text,Auburn (N.H. : Town) -- Appropriations and expenditures -- Periodicals,Auburn (N.H. : Town),,,eng,"[Auburn, N.H.] : The Town|~|University of New Hampshire. Library. Digital Collections.",auburn_0073+application-pdf+application.pdf|~|auburn_0073+image-low-jpg+image-low.jpg|~|auburn_0073+image-tb-jpg+image-tb.jpg
Active,auburn:0074,auburn,http://www.archive.org/details/annualreportsoft2001aubu|~|annualreportsoft2001aubu|~|auburn:0074,"Annual reports of the Town of Auburn, New Hampshire, 2001",2002,Title varies|~|Imprint varies|~|Report year varies,"University of New Hampshire. Library. Digital Collections.|~|Scanned by Internet Archive, Open Content Alliance (2008)",,,Text,Auburn (N.H. : Town) -- Appropriations and expenditures -- Periodicals,Auburn (N.H. : Town),,,eng,"[Auburn, N.H.] : The Town|~|University of New Hampshire. Library. Digital Collections.",auburn_0074+application-pdf+application.pdf|~|auburn_0074+image-low-jpg+image-low.jpg|~|auburn_0074+image-tb-jpg+image-tb.jpg
Active,auburn:0075,auburn,http://www.archive.org/details/annualreportsoft2002aubu|~|annualreportsoft2002aubu|~|auburn:0075,"Annual reports of the Town of Auburn, New Hampshire, 2002",2003,Title varies|~|Imprint varies|~|Report year varies,"University of New Hampshire. Library. Digital Collections.|~|Scanned by Internet Archive, Open Content Alliance (2008)",,,Text,Auburn (N.H. : Town) -- Appropriations and expenditures -- Periodicals,Auburn (N.H. : Town),,,eng,"[Auburn, N.H.] : The Town|~|University of New Hampshire. Library. Digital Collections.",auburn_0075+application-pdf+application.pdf|~|auburn_0075+image-low-jpg+image-low.jpg|~|auburn_0075+image-tb-jpg+image-tb.jpg
Active,auburn:0076,auburn,http://www.archive.org/details/annualreportsoft2003aubu|~|annualreportsoft2003aubu|~|auburn:0076,"Annual reports of the Town of Auburn, New Hampshire, 2003",2004,Title varies|~|Imprint varies|~|Report year varies,"University of New Hampshire. Library. Digital Collections.|~|Scanned by Internet Archive, Open Content Alliance (2008)",,,Text,Auburn (N.H. : Town) -- Appropriations and expenditures -- Periodicals,Auburn (N.H. : Town),,,eng,"[Auburn, N.H.] : The Town|~|University of New Hampshire. Library. Digital Collections.",auburn_0076+application-pdf+application.pdf|~|auburn_0076+image-low-jpg+image-low.jpg|~|auburn_0076+image-tb-jpg+image-tb.jpg
Active,auburn:0077,auburn,auburn1969|~|auburn:0077,"Annual reports of the Town of Auburn, New Hampshire, 1969",1970,Title varies|~|Imprint varies|~|Report year varies,University of New Hampshire. Library. Digital Collections.,,,Text,Auburn (N.H. : Town) -- Appropriations and expenditures -- Periodicals,Auburn (N.H. : Town),,,eng,"[Auburn, N.H.] : The Town|~|University of New Hampshire. Library. Digital Collections.",auburn_0077+application-pdf+application.pdf|~|auburn_0077+image-low-jpg+image-low.jpg|~|auburn_0077+image-tb-jpg+image-tb.jpg
Active,auburn:0078,auburn,auburn1970|~|auburn:0078,"Annual reports of the Town of Auburn, New Hampshire, 1970",1971,Title varies|~|Imprint varies|~|Report year varies,University of New Hampshire. Library. Digital Collections.,,,Text,Auburn (N.H. : Town) -- Appropriations and expenditures -- Periodicals,Auburn (N.H. : Town),,,eng,"[Auburn, N.H.] : The Town|~|University of New Hampshire. Library. Digital Collections.",auburn_0078+application-pdf+application.pdf|~|auburn_0078+image-low-jpg+image-low.jpg|~|auburn_0078+image-tb-jpg+image-tb.jpg
Active,auburn:0079,auburn,auburn1971|~|auburn:0079,"Annual reports of the Town of Auburn, New Hampshire, 1971",1972,Title varies|~|Imprint varies|~|Report year varies,University of New Hampshire. Library. Digital Collections.,,,Text,Auburn (N.H. : Town) -- Appropriations and expenditures -- Periodicals,Auburn (N.H. : Town),,,eng,"[Auburn, N.H.] : The Town|~|University of New Hampshire. Library. Digital Collections.",auburn_0079+application-pdf+application.pdf|~|auburn_0079+image-low-jpg+image-low.jpg|~|auburn_0079+image-tb-jpg+image-tb.jpg
Active,auburn:0080,auburn,auburn1972|~|auburn:0080,"Annual reports of the Town of Auburn, New Hampshire, 1972",1973,Title varies|~|Imprint varies|~|Report year varies,University of New Hampshire. Library. Digital Collections.,,,Text,Auburn (N.H. : Town) -- Appropriations and expenditures -- Periodicals,Auburn (N.H. : Town),,,eng,"[Auburn, N.H.] : The Town|~|University of New Hampshire. Library. Digital Collections.",auburn_0080+application-pdf+application.pdf|~|auburn_0080+image-low-jpg+image-low.jpg|~|auburn_0080+image-tb-jpg+image-tb.jpg
Active,auburn:0081,auburn,auburn1973|~|auburn:0081,"Annual reports of the Town of Auburn, New Hampshire, 1973",1974,Title varies|~|Imprint varies|~|Report year varies,University of New Hampshire. Library. Digital Collections.,,,Text,Auburn (N.H. : Town) -- Appropriations and expenditures -- Periodicals,Auburn (N.H. : Town),,,eng,"[Auburn, N.H.] : The Town|~|University of New Hampshire. Library. Digital Collections.",auburn_0081+application-pdf+application.pdf|~|auburn_0081+image-low-jpg+image-low.jpg|~|auburn_0081+image-tb-jpg+image-tb.jpg
Active,auburn:0082,auburn,auburn1974|~|auburn:0082,"Annual reports of the Town of Auburn, New Hampshire, 1974",1975,Title varies|~|Imprint varies|~|Report year varies,University of New Hampshire. Library. Digital Collections.,,,Text,Auburn (N.H. : Town) -- Appropriations and expenditures -- Periodicals,Auburn (N.H. : Town),,,eng,"[Auburn, N.H.] : The Town|~|University of New Hampshire. Library. Digital Collections.",auburn_0082+application-pdf+application.pdf|~|auburn_0082+image-low-jpg+image-low.jpg|~|auburn_0082+image-tb-jpg+image-tb.jpg
Active,auburn:0083,auburn,auburn1976|~|auburn:0083,"Annual reports of the Town of Auburn, New Hampshire, 1976",1977,Title varies|~|Imprint varies|~|Report year varies,University of New Hampshire. Library. Digital Collections.,,,Text,Auburn (N.H. : Town) -- Appropriations and expenditures -- Periodicals,Auburn (N.H. : Town),,,eng,"[Auburn, N.H.] : The Town|~|University of New Hampshire. Library. Digital Collections.",auburn_0083+application-pdf+application.pdf|~|auburn_0083+image-low-jpg+image-low.jpg|~|auburn_0083+image-tb-jpg+image-tb.jpg
Active,auburn:0084,auburn,auburn1977|~|auburn:0084,"Annual reports of the Town of Auburn, New Hampshire, 1977",1978,Title varies|~|Imprint varies|~|Report year varies,University of New Hampshire. Library. Digital Collections.,,,Text,Auburn (N.H. : Town) -- Appropriations and expenditures -- Periodicals,Auburn (N.H. : Town),,,eng,"[Auburn, N.H.] : The Town|~|University of New Hampshire. Library. Digital Collections.",auburn_0084+application-pdf+application.pdf|~|auburn_0084+image-low-jpg+image-low.jpg|~|auburn_0084+image-tb-jpg+image-tb.jpg
Active,auburn:0085,auburn,auburn1978|~|auburn:0085,"Annual reports of the Town of Auburn, New Hampshire, 1978",1979,Title varies|~|Imprint varies|~|Report year varies,University of New Hampshire. Library. Digital Collections.,,,Text,Auburn (N.H. : Town) -- Appropriations and expenditures -- Periodicals,Auburn (N.H. : Town),,,eng,"[Auburn, N.H.] : The Town|~|University of New Hampshire. Library. Digital Collections.",auburn_0085+application-pdf+application.pdf|~|auburn_0085+image-low-jpg+image-low.jpg|~|auburn_0085+image-tb-jpg+image-tb.jpg
Active,auburn:0086,auburn,auburn1979|~|auburn:0086,"Annual reports of the Town of Auburn, New Hampshire, 1979",1980,Title varies|~|Imprint varies|~|Report year varies,University of New Hampshire. Library. Digital Collections.,,,Text,Auburn (N.H. : Town) -- Appropriations and expenditures -- Periodicals,Auburn (N.H. : Town),,,eng,"[Auburn, N.H.] : The Town|~|University of New Hampshire. Library. Digital Collections.",auburn_0086+application-pdf+application.pdf|~|auburn_0086+image-low-jpg+image-low.jpg|~|auburn_0086+image-tb-jpg+image-tb.jpg
Active,auburn:0087,auburn,auburn1980|~|auburn:0087,"Annual reports of the Town of Auburn, New Hampshire, 1980",1981,Title varies|~|Imprint varies|~|Report year varies,University of New Hampshire. Library. Digital Collections.,,,Text,Auburn (N.H. : Town) -- Appropriations and expenditures -- Periodicals,Auburn (N.H. : Town),,,eng,"[Auburn, N.H.] : The Town|~|University of New Hampshire. Library. Digital Collections.",auburn_0087+application-pdf+application.pdf|~|auburn_0087+image-low-jpg+image-low.jpg|~|auburn_0087+image-tb-jpg+image-tb.jpg
Active,auburn:0088,auburn,annualreport2010auburn|~|auburn:0088,"Annual reports of the Town of Auburn, New Hampshire, 2010",2011,Title varies|~|Imprint varies|~|Report year varies,University of New Hampshire. Library. Digital Collections.,,,Text,Auburn (N.H. : Town) -- Appropriations and expenditures -- Periodicals,Auburn (N.H. : Town),,,Eng,"[Auburn, N.H. : The Town]|~|University of New Hampshire. Library. Digital Collections.",auburn_0088+application-pdf+application.pdf|~|auburn_0088+image-low-jpg+image-low.jpg|~|auburn_0088+image-tb-jpg+image-tb.jpg
Active,auburn:0089,auburn,annualreport2011auburn|~|auburn:0089,"Annual reports of the Town of Auburn, New Hampshire, 2011",2012,Title varies|~|Imprint varies|~|Report year varies,University of New Hampshire. Library. Digital Collections.,,,Text,Auburn (N.H. : Town) -- Appropriations and expenditures -- Periodicals,Auburn (N.H. : Town),,,Eng,"[Auburn, N.H. : The Town]|~|University of New Hampshire. Library. Digital Collections.",auburn_0089+application-pdf+application.pdf|~|auburn_0089+image-low-jpg+image-low.jpg|~|auburn_0089+image-tb-jpg+image-tb.jpg
