state,pid,collection,dcterms:identifier,dcterms:title,dcterms:date,dcterms:description,dcterms:contributor,dcterms:rights,dcterms:format,dcterms:type,dcterms:subject,dcterms:creator,dcterms:relation,dcterms:coverage,dcterms:language,dcterms:publisher,files
Active,bethlehem:0001,bethlehem,http://www.archive.org/details/annualreporttown1925beth|~|annualreporttown1925beth|~|bethlehem:0001,"Annual report Town of Bethlehem, New Hampshire, 1925",1925,Title varies|~|Imprint varies|~|Report year varies,"University of New Hampshire. Library. Digital Collections.|~|Scanned by Internet Archive, Open Content Alliance (2008)",,,Text,Bethlehem (N.H. : Town) -- Appropriations and expenditures -- Periodicals,Bethlehem (N.H. : Town),,,eng,"[Bethlehem, N.H.] : Bethlehem Press|~|University of New Hampshire. Library. Digital Collections.",bethlehem_0001+application-pdf+application.pdf|~|bethlehem_0001+image-low-jpg+image-low.jpg|~|bethlehem_0001+image-tb-jpg+image-tb.jpg
Active,bethlehem:0002,bethlehem,http://www.archive.org/details/annualreporttown1926beth|~|annualreporttown1926beth|~|bethlehem:0002,"Annual report Town of Bethlehem, New Hampshire, 1926",1926,Title varies|~|Imprint varies|~|Report year varies,"University of New Hampshire. Library. Digital Collections.|~|Scanned by Internet Archive, Open Content Alliance (2008)",,,Text,Bethlehem (N.H. : Town) -- Appropriations and expenditures -- Periodicals,Bethlehem (N.H. : Town),,,eng,"[Bethlehem, N.H.] : Bethlehem Press|~|University of New Hampshire. Library. Digital Collections.",bethlehem_0002+application-pdf+application.pdf|~|bethlehem_0002+image-low-jpg+image-low.jpg|~|bethlehem_0002+image-tb-jpg+image-tb.jpg
Active,bethlehem:0003,bethlehem,http://www.archive.org/details/annualreporttown1927beth|~|annualreporttown1927beth|~|bethlehem:0003,"Annual report Town of Bethlehem, New Hampshire, 1927",1927,Title varies|~|Imprint varies|~|Report year varies,"University of New Hampshire. Library. Digital Collections.|~|Scanned by Internet Archive, Open Content Alliance (2008)",,,Text,Bethlehem (N.H. : Town) -- Appropriations and expenditures -- Periodicals,Bethlehem (N.H. : Town),,,eng,"[Bethlehem, N.H.] : Bethlehem Press|~|University of New Hampshire. Library. Digital Collections.",bethlehem_0003+application-pdf+application.pdf|~|bethlehem_0003+image-low-jpg+image-low.jpg|~|bethlehem_0003+image-tb-jpg+image-tb.jpg
Active,bethlehem:0004,bethlehem,http://www.archive.org/details/annualreporttown1928beth|~|annualreporttown1928beth|~|bethlehem:0004,"Annual report Town of Bethlehem, New Hampshire, 1928",1928,Title varies|~|Imprint varies|~|Report year varies,"University of New Hampshire. Library. Digital Collections.|~|Scanned by Internet Archive, Open Content Alliance (2008)",,,Text,Bethlehem (N.H. : Town) -- Appropriations and expenditures -- Periodicals,Bethlehem (N.H. : Town),,,eng,"[Bethlehem, N.H.] : Bethlehem Press|~|University of New Hampshire. Library. Digital Collections.",bethlehem_0004+application-pdf+application.pdf|~|bethlehem_0004+image-low-jpg+image-low.jpg|~|bethlehem_0004+image-tb-jpg+image-tb.jpg
Active,bethlehem:0005,bethlehem,http://www.archive.org/details/annualreporttown1929beth|~|annualreporttown1929beth|~|bethlehem:0005,"Annual report Town of Bethlehem, New Hampshire, 1929",1929,Title varies|~|Imprint varies|~|Report year varies,"University of New Hampshire. Library. Digital Collections.|~|Scanned by Internet Archive, Open Content Alliance (2008)",,,Text,Bethlehem (N.H. : Town) -- Appropriations and expenditures -- Periodicals,Bethlehem (N.H. : Town),,,eng,"[Bethlehem, N.H.] : Bethlehem Press|~|University of New Hampshire. Library. Digital Collections.",bethlehem_0005+application-pdf+application.pdf|~|bethlehem_0005+image-low-jpg+image-low.jpg|~|bethlehem_0005+image-tb-jpg+image-tb.jpg
Active,bethlehem:0006,bethlehem,http://www.archive.org/details/annualreporttown1931beth|~|annualreporttown1931beth|~|bethlehem:0006,"Annual report Town of Bethlehem, New Hampshire, 1931",1931,Title varies|~|Imprint varies|~|Report year varies,"University of New Hampshire. Library. Digital Collections.|~|Scanned by Internet Archive, Open Content Alliance (2008)",,,Text,Bethlehem (N.H. : Town) -- Appropriations and expenditures -- Periodicals,Bethlehem (N.H. : Town),,,eng,"[Bethlehem, N.H.] : Bethlehem Press|~|University of New Hampshire. Library. Digital Collections.",bethlehem_0006+application-pdf+application.pdf|~|bethlehem_0006+image-low-jpg+image-low.jpg|~|bethlehem_0006+image-tb-jpg+image-tb.jpg
Active,bethlehem:0007,bethlehem,http://www.archive.org/details/annualreporttown1932beth|~|annualreporttown1932beth|~|bethlehem:0007,"Annual report Town of Bethlehem, New Hampshire, 1932",1932,Title varies|~|Imprint varies|~|Report year varies,"University of New Hampshire. Library. Digital Collections.|~|Scanned by Internet Archive, Open Content Alliance (2008)",,,Text,Bethlehem (N.H. : Town) -- Appropriations and expenditures -- Periodicals,Bethlehem (N.H. : Town),,,eng,"[Bethlehem, N.H.] : Bethlehem Press|~|University of New Hampshire. Library. Digital Collections.",bethlehem_0007+application-pdf+application.pdf|~|bethlehem_0007+image-low-jpg+image-low.jpg|~|bethlehem_0007+image-tb-jpg+image-tb.jpg
Active,bethlehem:0008,bethlehem,http://www.archive.org/details/annualreporttown1933beth|~|annualreporttown1933beth|~|bethlehem:0008,"Annual report Town of Bethlehem, New Hampshire, 1933",1933,Title varies|~|Imprint varies|~|Report year varies,"University of New Hampshire. Library. Digital Collections.|~|Scanned by Internet Archive, Open Content Alliance (2008)",,,Text,Bethlehem (N.H. : Town) -- Appropriations and expenditures -- Periodicals,Bethlehem (N.H. : Town),,,eng,"[Bethlehem, N.H.] : Bethlehem Press|~|University of New Hampshire. Library. Digital Collections.",bethlehem_0008+application-pdf+application.pdf|~|bethlehem_0008+image-low-jpg+image-low.jpg|~|bethlehem_0008+image-tb-jpg+image-tb.jpg
Active,bethlehem:0009,bethlehem,http://www.archive.org/details/annualreporttown1934beth|~|annualreporttown1934beth|~|bethlehem:0009,"Annual report Town of Bethlehem, New Hampshire, 1934",1934,Title varies|~|Imprint varies|~|Report year varies,"University of New Hampshire. Library. Digital Collections.|~|Scanned by Internet Archive, Open Content Alliance (2008)",,,Text,Bethlehem (N.H. : Town) -- Appropriations and expenditures -- Periodicals,Bethlehem (N.H. : Town),,,eng,"[Bethlehem, N.H.] : Bethlehem Press|~|University of New Hampshire. Library. Digital Collections.",bethlehem_0009+application-pdf+application.pdf|~|bethlehem_0009+image-low-jpg+image-low.jpg|~|bethlehem_0009+image-tb-jpg+image-tb.jpg
Active,bethlehem:0010,bethlehem,http://www.archive.org/details/annualreporttown1935beth|~|annualreporttown1935beth|~|bethlehem:0010,"Annual report Town of Bethlehem, New Hampshire, 1935",1935,Title varies|~|Imprint varies|~|Report year varies,"University of New Hampshire. Library. Digital Collections.|~|Scanned by Internet Archive, Open Content Alliance (2008)",,,Text,Bethlehem (N.H. : Town) -- Appropriations and expenditures -- Periodicals,Bethlehem (N.H. : Town),,,eng,"[Bethlehem, N.H.] : Bethlehem Press|~|University of New Hampshire. Library. Digital Collections.",bethlehem_0010+application-pdf+application.pdf|~|bethlehem_0010+image-low-jpg+image-low.jpg|~|bethlehem_0010+image-tb-jpg+image-tb.jpg
Active,bethlehem:0011,bethlehem,http://www.archive.org/details/annualreporttown1936beth|~|annualreporttown1936beth|~|bethlehem:0011,"Annual report Town of Bethlehem, New Hampshire, 1936",1936,Title varies|~|Imprint varies|~|Report year varies,"University of New Hampshire. Library. Digital Collections.|~|Scanned by Internet Archive, Open Content Alliance (2008)",,,Text,Bethlehem (N.H. : Town) -- Appropriations and expenditures -- Periodicals,Bethlehem (N.H. : Town),,,eng,"[Bethlehem, N.H.] : Bethlehem Press|~|University of New Hampshire. Library. Digital Collections.",bethlehem_0011+application-pdf+application.pdf|~|bethlehem_0011+image-low-jpg+image-low.jpg|~|bethlehem_0011+image-tb-jpg+image-tb.jpg
Active,bethlehem:0012,bethlehem,http://www.archive.org/details/annualreporttown1937beth|~|annualreporttown1937beth|~|bethlehem:0012,"Annual report Town of Bethlehem, New Hampshire, 1937",1937,Title varies|~|Imprint varies|~|Report year varies,"University of New Hampshire. Library. Digital Collections.|~|Scanned by Internet Archive, Open Content Alliance (2008)",,,Text,Bethlehem (N.H. : Town) -- Appropriations and expenditures -- Periodicals,Bethlehem (N.H. : Town),,,eng,"[Bethlehem, N.H.] : Bethlehem Press|~|University of New Hampshire. Library. Digital Collections.",bethlehem_0012+application-pdf+application.pdf|~|bethlehem_0012+image-low-jpg+image-low.jpg|~|bethlehem_0012+image-tb-jpg+image-tb.jpg
Active,bethlehem:0013,bethlehem,http://www.archive.org/details/annualreporttown1938beth|~|annualreporttown1938beth|~|bethlehem:0013,"Annual report Town of Bethlehem, New Hampshire, 1938",1938,Title varies|~|Imprint varies|~|Report year varies,"University of New Hampshire. Library. Digital Collections.|~|Scanned by Internet Archive, Open Content Alliance (2008)",,,Text,Bethlehem (N.H. : Town) -- Appropriations and expenditures -- Periodicals,Bethlehem (N.H. : Town),,,eng,"[Bethlehem, N.H.] : Bethlehem Press|~|University of New Hampshire. Library. Digital Collections.",bethlehem_0013+application-pdf+application.pdf|~|bethlehem_0013+image-low-jpg+image-low.jpg|~|bethlehem_0013+image-tb-jpg+image-tb.jpg
Active,bethlehem:0014,bethlehem,http://www.archive.org/details/annualreporttown1939beth|~|annualreporttown1939beth|~|bethlehem:0014,"Annual report Town of Bethlehem, New Hampshire, 1939",1939,Title varies|~|Imprint varies|~|Report year varies,"University of New Hampshire. Library. Digital Collections.|~|Scanned by Internet Archive, Open Content Alliance (2008)",,,Text,Bethlehem (N.H. : Town) -- Appropriations and expenditures -- Periodicals,Bethlehem (N.H. : Town),,,eng,"[Bethlehem, N.H.] : Bethlehem Press|~|University of New Hampshire. Library. Digital Collections.",bethlehem_0014+application-pdf+application.pdf|~|bethlehem_0014+image-low-jpg+image-low.jpg|~|bethlehem_0014+image-tb-jpg+image-tb.jpg
Active,bethlehem:0015,bethlehem,http://www.archive.org/details/annualreporttown1940beth|~|annualreporttown1940beth|~|bethlehem:0015,"Annual report Town of Bethlehem, New Hampshire, 1940",1940,Title varies|~|Imprint varies|~|Report year varies,"University of New Hampshire. Library. Digital Collections.|~|Scanned by Internet Archive, Open Content Alliance (2008)",,,Text,Bethlehem (N.H. : Town) -- Appropriations and expenditures -- Periodicals,Bethlehem (N.H. : Town),,,eng,"[Bethlehem, N.H.] : Bethlehem Press|~|University of New Hampshire. Library. Digital Collections.",bethlehem_0015+application-pdf+application.pdf|~|bethlehem_0015+image-low-jpg+image-low.jpg|~|bethlehem_0015+image-tb-jpg+image-tb.jpg
Active,bethlehem:0016,bethlehem,http://www.archive.org/details/annualreporttown1941beth|~|annualreporttown1941beth|~|bethlehem:0016,"Annual report Town of Bethlehem, New Hampshire, 1941",1941,Title varies|~|Imprint varies|~|Report year varies,"University of New Hampshire. Library. Digital Collections.|~|Scanned by Internet Archive, Open Content Alliance (2008)",,,Text,Bethlehem (N.H. : Town) -- Appropriations and expenditures -- Periodicals,Bethlehem (N.H. : Town),,,eng,"[Bethlehem, N.H.] : Bethlehem Press|~|University of New Hampshire. Library. Digital Collections.",bethlehem_0016+application-pdf+application.pdf|~|bethlehem_0016+image-low-jpg+image-low.jpg|~|bethlehem_0016+image-tb-jpg+image-tb.jpg
Active,bethlehem:0017,bethlehem,http://www.archive.org/details/annualreporttown1942beth|~|annualreporttown1942beth|~|bethlehem:0017,"Annual report Town of Bethlehem, New Hampshire, 1942",1942,Title varies|~|Imprint varies|~|Report year varies,"University of New Hampshire. Library. Digital Collections.|~|Scanned by Internet Archive, Open Content Alliance (2008)",,,Text,Bethlehem (N.H. : Town) -- Appropriations and expenditures -- Periodicals,Bethlehem (N.H. : Town),,,eng,"[Bethlehem, N.H.] : Bethlehem Press|~|University of New Hampshire. Library. Digital Collections.",bethlehem_0017+application-pdf+application.pdf|~|bethlehem_0017+image-low-jpg+image-low.jpg|~|bethlehem_0017+image-tb-jpg+image-tb.jpg
Active,bethlehem:0018,bethlehem,http://www.archive.org/details/annualreporttown1943beth|~|annualreporttown1943beth|~|bethlehem:0018,"Annual report Town of Bethlehem, New Hampshire, 1943",1943,Title varies|~|Imprint varies|~|Report year varies,"University of New Hampshire. Library. Digital Collections.|~|Scanned by Internet Archive, Open Content Alliance (2008)",,,Text,Bethlehem (N.H. : Town) -- Appropriations and expenditures -- Periodicals,Bethlehem (N.H. : Town),,,eng,"[Bethlehem, N.H.] : Bethlehem Press|~|University of New Hampshire. Library. Digital Collections.",bethlehem_0018+application-pdf+application.pdf|~|bethlehem_0018+image-low-jpg+image-low.jpg|~|bethlehem_0018+image-tb-jpg+image-tb.jpg
Active,bethlehem:0019,bethlehem,http://www.archive.org/details/annualreporttown1944beth|~|annualreporttown1944beth|~|bethlehem:0019,"Annual report Town of Bethlehem, New Hampshire, 1944",1944,Title varies|~|Imprint varies|~|Report year varies,"University of New Hampshire. Library. Digital Collections.|~|Scanned by Internet Archive, Open Content Alliance (2008)",,,Text,Bethlehem (N.H. : Town) -- Appropriations and expenditures -- Periodicals,Bethlehem (N.H. : Town),,,eng,"[Bethlehem, N.H.] : Bethlehem Press|~|University of New Hampshire. Library. Digital Collections.",bethlehem_0019+application-pdf+application.pdf|~|bethlehem_0019+image-low-jpg+image-low.jpg|~|bethlehem_0019+image-tb-jpg+image-tb.jpg
Active,bethlehem:0020,bethlehem,http://www.archive.org/details/annualreporttown0044beth|~|annualreporttown0044beth|~|bethlehem:0020,"Annual report Town of Bethlehem, New Hampshire, 1944",1945,Title varies|~|Imprint varies|~|Report year varies,"University of New Hampshire. Library. Digital Collections.|~|Scanned by Internet Archive, Open Content Alliance (2008)",,,Text,Bethlehem (N.H. : Town) -- Appropriations and expenditures -- Periodicals,Bethlehem (N.H. : Town),,,eng,"[Bethlehem, N.H.] : Bethlehem Press|~|University of New Hampshire. Library. Digital Collections.",bethlehem_0020+application-pdf+application.pdf|~|bethlehem_0020+image-low-jpg+image-low.jpg|~|bethlehem_0020+image-tb-jpg+image-tb.jpg
Active,bethlehem:0021,bethlehem,http://www.archive.org/details/annualreporttown1945beth|~|annualreporttown1945beth|~|bethlehem:0021,"Annual report Town of Bethlehem, New Hampshire, 1945",1946,Title varies|~|Imprint varies|~|Report year varies,"University of New Hampshire. Library. Digital Collections.|~|Scanned by Internet Archive, Open Content Alliance (2008)",,,Text,Bethlehem (N.H. : Town) -- Appropriations and expenditures -- Periodicals,Bethlehem (N.H. : Town),,,eng,"[Bethlehem, N.H.] : Bethlehem Press|~|University of New Hampshire. Library. Digital Collections.",bethlehem_0021+application-pdf+application.pdf|~|bethlehem_0021+image-low-jpg+image-low.jpg|~|bethlehem_0021+image-tb-jpg+image-tb.jpg
Active,bethlehem:0022,bethlehem,http://www.archive.org/details/annualreporttown1946beth|~|annualreporttown1946beth|~|bethlehem:0022,"Annual report Town of Bethlehem, New Hampshire, 1946",1947,Title varies|~|Imprint varies|~|Report year varies,"University of New Hampshire. Library. Digital Collections.|~|Scanned by Internet Archive, Open Content Alliance (2008)",,,Text,Bethlehem (N.H. : Town) -- Appropriations and expenditures -- Periodicals,Bethlehem (N.H. : Town),,,eng,"[Bethlehem, N.H.] : Bethlehem Press|~|University of New Hampshire. Library. Digital Collections.",bethlehem_0022+application-pdf+application.pdf|~|bethlehem_0022+image-low-jpg+image-low.jpg|~|bethlehem_0022+image-tb-jpg+image-tb.jpg
Active,bethlehem:0023,bethlehem,http://www.archive.org/details/annualreporttown1947beth|~|annualreporttown1947beth|~|bethlehem:0023,"Annual report Town of Bethlehem, New Hampshire, 1947",1948,Title varies|~|Imprint varies|~|Report year varies,"University of New Hampshire. Library. Digital Collections.|~|Scanned by Internet Archive, Open Content Alliance (2008)",,,Text,Bethlehem (N.H. : Town) -- Appropriations and expenditures -- Periodicals,Bethlehem (N.H. : Town),,,eng,"[Bethlehem, N.H.] : Bethlehem Press|~|University of New Hampshire. Library. Digital Collections.",bethlehem_0023+application-pdf+application.pdf|~|bethlehem_0023+image-low-jpg+image-low.jpg|~|bethlehem_0023+image-tb-jpg+image-tb.jpg
Active,bethlehem:0024,bethlehem,http://www.archive.org/details/annualreporttown1948beth|~|annualreporttown1948beth|~|bethlehem:0024,"Annual report Town of Bethlehem, New Hampshire, 1948",1949,Title varies|~|Imprint varies|~|Report year varies,"University of New Hampshire. Library. Digital Collections.|~|Scanned by Internet Archive, Open Content Alliance (2008)",,,Text,Bethlehem (N.H. : Town) -- Appropriations and expenditures -- Periodicals,Bethlehem (N.H. : Town),,,eng,"[Bethlehem, N.H.] : Bethlehem Press|~|University of New Hampshire. Library. Digital Collections.",bethlehem_0024+application-pdf+application.pdf|~|bethlehem_0024+image-low-jpg+image-low.jpg|~|bethlehem_0024+image-tb-jpg+image-tb.jpg
Active,bethlehem:0025,bethlehem,http://www.archive.org/details/annualreporttown1949beth|~|annualreporttown1949beth|~|bethlehem:0025,"Annual report Town of Bethlehem, New Hampshire, 1949",1950,Title varies|~|Imprint varies|~|Report year varies,"University of New Hampshire. Library. Digital Collections.|~|Scanned by Internet Archive, Open Content Alliance (2008)",,,Text,Bethlehem (N.H. : Town) -- Appropriations and expenditures -- Periodicals,Bethlehem (N.H. : Town),,,eng,"[Bethlehem, N.H.] : Bethlehem Press|~|University of New Hampshire. Library. Digital Collections.",bethlehem_0025+application-pdf+application.pdf|~|bethlehem_0025+image-low-jpg+image-low.jpg|~|bethlehem_0025+image-tb-jpg+image-tb.jpg
Active,bethlehem:0026,bethlehem,http://www.archive.org/details/annualreporttown1950beth|~|annualreporttown1950beth|~|bethlehem:0026,"Annual report Town of Bethlehem, New Hampshire, 1950",1951,Title varies|~|Imprint varies|~|Report year varies,"University of New Hampshire. Library. Digital Collections.|~|Scanned by Internet Archive, Open Content Alliance (2008)",,,Text,Bethlehem (N.H. : Town) -- Appropriations and expenditures -- Periodicals,Bethlehem (N.H. : Town),,,eng,"[Bethlehem, N.H.] : Bethlehem Press|~|University of New Hampshire. Library. Digital Collections.",bethlehem_0026+application-pdf+application.pdf|~|bethlehem_0026+image-low-jpg+image-low.jpg|~|bethlehem_0026+image-tb-jpg+image-tb.jpg
Active,bethlehem:0027,bethlehem,http://www.archive.org/details/annualreporttown1951beth|~|annualreporttown1951beth|~|bethlehem:0027,"Annual report Town of Bethlehem, New Hampshire, 1951",1952,Title varies|~|Imprint varies|~|Report year varies,"University of New Hampshire. Library. Digital Collections.|~|Scanned by Internet Archive, Open Content Alliance (2008)",,,Text,Bethlehem (N.H. : Town) -- Appropriations and expenditures -- Periodicals,Bethlehem (N.H. : Town),,,eng,"[Bethlehem, N.H.] : Bethlehem Press|~|University of New Hampshire. Library. Digital Collections.",bethlehem_0027+application-pdf+application.pdf|~|bethlehem_0027+image-low-jpg+image-low.jpg|~|bethlehem_0027+image-tb-jpg+image-tb.jpg
Active,bethlehem:0028,bethlehem,http://www.archive.org/details/annualreporttown1952beth|~|annualreporttown1952beth|~|bethlehem:0028,"Annual report Town of Bethlehem, New Hampshire, 1952",1953,Title varies|~|Imprint varies|~|Report year varies,"University of New Hampshire. Library. Digital Collections.|~|Scanned by Internet Archive, Open Content Alliance (2008)",,,Text,Bethlehem (N.H. : Town) -- Appropriations and expenditures -- Periodicals,Bethlehem (N.H. : Town),,,eng,"[Bethlehem, N.H.] : Bethlehem Press|~|University of New Hampshire. Library. Digital Collections.",bethlehem_0028+application-pdf+application.pdf|~|bethlehem_0028+image-low-jpg+image-low.jpg|~|bethlehem_0028+image-tb-jpg+image-tb.jpg
Active,bethlehem:0029,bethlehem,http://www.archive.org/details/annualreporttown1953beth|~|annualreporttown1953beth|~|bethlehem:0029,"Annual report Town of Bethlehem, New Hampshire, 1953",1954,Title varies|~|Imprint varies|~|Report year varies,"University of New Hampshire. Library. Digital Collections.|~|Scanned by Internet Archive, Open Content Alliance (2008)",,,Text,Bethlehem (N.H. : Town) -- Appropriations and expenditures -- Periodicals,Bethlehem (N.H. : Town),,,eng,"[Bethlehem, N.H.] : Bethlehem Press|~|University of New Hampshire. Library. Digital Collections.",bethlehem_0029+application-pdf+application.pdf|~|bethlehem_0029+image-low-jpg+image-low.jpg|~|bethlehem_0029+image-tb-jpg+image-tb.jpg
Active,bethlehem:0030,bethlehem,http://www.archive.org/details/annualreporttown1954beth|~|annualreporttown1954beth|~|bethlehem:0030,"Annual report Town of Bethlehem, New Hampshire, 1954",1955,Title varies|~|Imprint varies|~|Report year varies,"University of New Hampshire. Library. Digital Collections.|~|Scanned by Internet Archive, Open Content Alliance (2008)",,,Text,Bethlehem (N.H. : Town) -- Appropriations and expenditures -- Periodicals,Bethlehem (N.H. : Town),,,eng,"[Bethlehem, N.H.] : Bethlehem Press|~|University of New Hampshire. Library. Digital Collections.",bethlehem_0030+application-pdf+application.pdf|~|bethlehem_0030+image-low-jpg+image-low.jpg|~|bethlehem_0030+image-tb-jpg+image-tb.jpg
Active,bethlehem:0031,bethlehem,http://www.archive.org/details/annualreporttown1955beth|~|annualreporttown1955beth|~|bethlehem:0031,"Annual report Town of Bethlehem, New Hampshire, 1955",1956,Title varies|~|Imprint varies|~|Report year varies,"University of New Hampshire. Library. Digital Collections.|~|Scanned by Internet Archive, Open Content Alliance (2008)",,,Text,Bethlehem (N.H. : Town) -- Appropriations and expenditures -- Periodicals,Bethlehem (N.H. : Town),,,eng,"[Bethlehem, N.H.] : Bethlehem Press|~|University of New Hampshire. Library. Digital Collections.",bethlehem_0031+application-pdf+application.pdf|~|bethlehem_0031+image-low-jpg+image-low.jpg|~|bethlehem_0031+image-tb-jpg+image-tb.jpg
Active,bethlehem:0032,bethlehem,http://www.archive.org/details/annualreporttown1956beth|~|annualreporttown1956beth|~|bethlehem:0032,"Annual report Town of Bethlehem, New Hampshire, 1956",1957,Title varies|~|Imprint varies|~|Report year varies,"University of New Hampshire. Library. Digital Collections.|~|Scanned by Internet Archive, Open Content Alliance (2008)",,,Text,Bethlehem (N.H. : Town) -- Appropriations and expenditures -- Periodicals,Bethlehem (N.H. : Town),,,eng,"[Bethlehem, N.H.] : Bethlehem Press|~|University of New Hampshire. Library. Digital Collections.",bethlehem_0032+application-pdf+application.pdf|~|bethlehem_0032+image-low-jpg+image-low.jpg|~|bethlehem_0032+image-tb-jpg+image-tb.jpg
Active,bethlehem:0033,bethlehem,http://www.archive.org/details/annualreporttown1957beth|~|annualreporttown1957beth|~|bethlehem:0033,"Annual report Town of Bethlehem, New Hampshire, 1957",1958,Title varies|~|Imprint varies|~|Report year varies,"University of New Hampshire. Library. Digital Collections.|~|Scanned by Internet Archive, Open Content Alliance (2008)",,,Text,Bethlehem (N.H. : Town) -- Appropriations and expenditures -- Periodicals,Bethlehem (N.H. : Town),,,eng,"[Bethlehem, N.H.] : Bethlehem Press|~|University of New Hampshire. Library. Digital Collections.",bethlehem_0033+application-pdf+application.pdf|~|bethlehem_0033+image-low-jpg+image-low.jpg|~|bethlehem_0033+image-tb-jpg+image-tb.jpg
Active,bethlehem:0034,bethlehem,http://www.archive.org/details/annualreporttown1958beth|~|annualreporttown1958beth|~|bethlehem:0034,"Annual report Town of Bethlehem, New Hampshire, 1958",1959,Title varies|~|Imprint varies|~|Report year varies,"University of New Hampshire. Library. Digital Collections.|~|Scanned by Internet Archive, Open Content Alliance (2008)",,,Text,Bethlehem (N.H. : Town) -- Appropriations and expenditures -- Periodicals,Bethlehem (N.H. : Town),,,eng,"[Bethlehem, N.H.] : Bethlehem Press|~|University of New Hampshire. Library. Digital Collections.",bethlehem_0034+application-pdf+application.pdf|~|bethlehem_0034+image-low-jpg+image-low.jpg|~|bethlehem_0034+image-tb-jpg+image-tb.jpg
Active,bethlehem:0035,bethlehem,http://www.archive.org/details/annualreporttown1959beth|~|annualreporttown1959beth|~|bethlehem:0035,"Annual report Town of Bethlehem, New Hampshire, 1959",1960,Title varies|~|Imprint varies|~|Report year varies,"University of New Hampshire. Library. Digital Collections.|~|Scanned by Internet Archive, Open Content Alliance (2008)",,,Text,Bethlehem (N.H. : Town) -- Appropriations and expenditures -- Periodicals,Bethlehem (N.H. : Town),,,eng,"[Bethlehem, N.H.] : Bethlehem Press|~|University of New Hampshire. Library. Digital Collections.",bethlehem_0035+application-pdf+application.pdf|~|bethlehem_0035+image-low-jpg+image-low.jpg|~|bethlehem_0035+image-tb-jpg+image-tb.jpg
Active,bethlehem:0036,bethlehem,http://www.archive.org/details/annualreporttown1960beth|~|annualreporttown1960beth|~|bethlehem:0036,"Annual report Town of Bethlehem, New Hampshire, 1960",1961,Title varies|~|Imprint varies|~|Report year varies,"University of New Hampshire. Library. Digital Collections.|~|Scanned by Internet Archive, Open Content Alliance (2008)",,,Text,Bethlehem (N.H. : Town) -- Appropriations and expenditures -- Periodicals,Bethlehem (N.H. : Town),,,eng,"[Bethlehem, N.H.] : Bethlehem Press|~|University of New Hampshire. Library. Digital Collections.",bethlehem_0036+application-pdf+application.pdf|~|bethlehem_0036+image-low-jpg+image-low.jpg|~|bethlehem_0036+image-tb-jpg+image-tb.jpg
Active,bethlehem:0037,bethlehem,http://www.archive.org/details/annualreporttown1961beth|~|annualreporttown1961beth|~|bethlehem:0037,"Annual report Town of Bethlehem, New Hampshire, 1961",1962,Title varies|~|Imprint varies|~|Report year varies,"University of New Hampshire. Library. Digital Collections.|~|Scanned by Internet Archive, Open Content Alliance (2008)",,,Text,Bethlehem (N.H. : Town) -- Appropriations and expenditures -- Periodicals,Bethlehem (N.H. : Town),,,eng,"[Bethlehem, N.H.] : Bethlehem Press|~|University of New Hampshire. Library. Digital Collections.",bethlehem_0037+application-pdf+application.pdf|~|bethlehem_0037+image-low-jpg+image-low.jpg|~|bethlehem_0037+image-tb-jpg+image-tb.jpg
Active,bethlehem:0038,bethlehem,http://www.archive.org/details/annualreporttown1962beth|~|annualreporttown1962beth|~|bethlehem:0038,"Annual report Town of Bethlehem, New Hampshire, 1962",1963,Title varies|~|Imprint varies|~|Report year varies,"University of New Hampshire. Library. Digital Collections.|~|Scanned by Internet Archive, Open Content Alliance (2008)",,,Text,Bethlehem (N.H. : Town) -- Appropriations and expenditures -- Periodicals,Bethlehem (N.H. : Town),,,eng,"[Bethlehem, N.H.] : Bethlehem Press|~|University of New Hampshire. Library. Digital Collections.",bethlehem_0038+application-pdf+application.pdf|~|bethlehem_0038+image-low-jpg+image-low.jpg|~|bethlehem_0038+image-tb-jpg+image-tb.jpg
Active,bethlehem:0039,bethlehem,http://www.archive.org/details/annualreporttown1963beth|~|annualreporttown1963beth|~|bethlehem:0039,"Annual report Town of Bethlehem, New Hampshire, 1963",1964,Title varies|~|Imprint varies|~|Report year varies,"University of New Hampshire. Library. Digital Collections.|~|Scanned by Internet Archive, Open Content Alliance (2008)",,,Text,Bethlehem (N.H. : Town) -- Appropriations and expenditures -- Periodicals,Bethlehem (N.H. : Town),,,eng,"[Bethlehem, N.H.] : Bethlehem Press|~|University of New Hampshire. Library. Digital Collections.",bethlehem_0039+application-pdf+application.pdf|~|bethlehem_0039+image-low-jpg+image-low.jpg|~|bethlehem_0039+image-tb-jpg+image-tb.jpg
Active,bethlehem:0040,bethlehem,http://www.archive.org/details/annualreporttown1964beth|~|annualreporttown1964beth|~|bethlehem:0040,"Annual report Town of Bethlehem, New Hampshire, 1964",1965,Title varies|~|Imprint varies|~|Report year varies,"University of New Hampshire. Library. Digital Collections.|~|Scanned by Internet Archive, Open Content Alliance (2008)",,,Text,Bethlehem (N.H. : Town) -- Appropriations and expenditures -- Periodicals,Bethlehem (N.H. : Town),,,eng,"[Bethlehem, N.H.] : Bethlehem Press|~|University of New Hampshire. Library. Digital Collections.",bethlehem_0040+application-pdf+application.pdf|~|bethlehem_0040+image-low-jpg+image-low.jpg|~|bethlehem_0040+image-tb-jpg+image-tb.jpg
Active,bethlehem:0041,bethlehem,http://www.archive.org/details/annualreporttown1965beth|~|annualreporttown1965beth|~|bethlehem:0041,"Annual report Town of Bethlehem, New Hampshire, 1965",1966,Title varies|~|Imprint varies|~|Report year varies,"University of New Hampshire. Library. Digital Collections.|~|Scanned by Internet Archive, Open Content Alliance (2008)",,,Text,Bethlehem (N.H. : Town) -- Appropriations and expenditures -- Periodicals,Bethlehem (N.H. : Town),,,eng,"[Bethlehem, N.H.] : Bethlehem Press|~|University of New Hampshire. Library. Digital Collections.",bethlehem_0041+application-pdf+application.pdf|~|bethlehem_0041+image-low-jpg+image-low.jpg|~|bethlehem_0041+image-tb-jpg+image-tb.jpg
Active,bethlehem:0042,bethlehem,http://www.archive.org/details/annualreporttown1966beth|~|annualreporttown1966beth|~|bethlehem:0042,"Annual report Town of Bethlehem, New Hampshire, 1966",1967,Title varies|~|Imprint varies|~|Report year varies,"University of New Hampshire. Library. Digital Collections.|~|Scanned by Internet Archive, Open Content Alliance (2008)",,,Text,Bethlehem (N.H. : Town) -- Appropriations and expenditures -- Periodicals,Bethlehem (N.H. : Town),,,eng,"[Bethlehem, N.H.] : Bethlehem Press|~|University of New Hampshire. Library. Digital Collections.",bethlehem_0042+application-pdf+application.pdf|~|bethlehem_0042+image-low-jpg+image-low.jpg|~|bethlehem_0042+image-tb-jpg+image-tb.jpg
Active,bethlehem:0043,bethlehem,http://www.archive.org/details/annualreporttown1967beth|~|annualreporttown1967beth|~|bethlehem:0043,"Annual report Town of Bethlehem, New Hampshire, 1967",1968,Title varies|~|Imprint varies|~|Report year varies,"University of New Hampshire. Library. Digital Collections.|~|Scanned by Internet Archive, Open Content Alliance (2008)",,,Text,Bethlehem (N.H. : Town) -- Appropriations and expenditures -- Periodicals,Bethlehem (N.H. : Town),,,eng,"[Bethlehem, N.H.] : Bethlehem Press|~|University of New Hampshire. Library. Digital Collections.",bethlehem_0043+application-pdf+application.pdf|~|bethlehem_0043+image-low-jpg+image-low.jpg|~|bethlehem_0043+image-tb-jpg+image-tb.jpg
Active,bethlehem:0044,bethlehem,http://www.archive.org/details/annualreporttown1968beth|~|annualreporttown1968beth|~|bethlehem:0044,"Annual report Town of Bethlehem, New Hampshire, 1968",1969,Title varies|~|Imprint varies|~|Report year varies,"University of New Hampshire. Library. Digital Collections.|~|Scanned by Internet Archive, Open Content Alliance (2008)",,,Text,Bethlehem (N.H. : Town) -- Appropriations and expenditures -- Periodicals,Bethlehem (N.H. : Town),,,eng,"[Bethlehem, N.H.] : Bethlehem Press|~|University of New Hampshire. Library. Digital Collections.",bethlehem_0044+application-pdf+application.pdf|~|bethlehem_0044+image-low-jpg+image-low.jpg|~|bethlehem_0044+image-tb-jpg+image-tb.jpg
Active,bethlehem:0045,bethlehem,http://www.archive.org/details/annualreporttown1969beth|~|annualreporttown1969beth|~|bethlehem:0045,"Annual report Town of Bethlehem, New Hampshire, 1969",1970,Title varies|~|Imprint varies|~|Report year varies,"University of New Hampshire. Library. Digital Collections.|~|Scanned by Internet Archive, Open Content Alliance (2008)",,,Text,Bethlehem (N.H. : Town) -- Appropriations and expenditures -- Periodicals,Bethlehem (N.H. : Town),,,eng,"[Bethlehem, N.H.] : Bethlehem Press|~|University of New Hampshire. Library. Digital Collections.",bethlehem_0045+application-pdf+application.pdf|~|bethlehem_0045+image-low-jpg+image-low.jpg|~|bethlehem_0045+image-tb-jpg+image-tb.jpg
Active,bethlehem:0046,bethlehem,http://www.archive.org/details/annualreporttown1970beth|~|annualreporttown1970beth|~|bethlehem:0046,"Annual report Town of Bethlehem, New Hampshire, 1970",1971,Title varies|~|Imprint varies|~|Report year varies,"University of New Hampshire. Library. Digital Collections.|~|Scanned by Internet Archive, Open Content Alliance (2008)",,,Text,Bethlehem (N.H. : Town) -- Appropriations and expenditures -- Periodicals,Bethlehem (N.H. : Town),,,eng,"[Bethlehem, N.H.] : Bethlehem Press|~|University of New Hampshire. Library. Digital Collections.",bethlehem_0046+application-pdf+application.pdf|~|bethlehem_0046+image-low-jpg+image-low.jpg|~|bethlehem_0046+image-tb-jpg+image-tb.jpg
Active,bethlehem:0047,bethlehem,http://www.archive.org/details/annualreporttown1971beth|~|annualreporttown1971beth|~|bethlehem:0047,"Annual report Town of Bethlehem, New Hampshire, 1971",1972,Title varies|~|Imprint varies|~|Report year varies,"University of New Hampshire. Library. Digital Collections.|~|Scanned by Internet Archive, Open Content Alliance (2008)",,,Text,Bethlehem (N.H. : Town) -- Appropriations and expenditures -- Periodicals,Bethlehem (N.H. : Town),,,eng,"[Bethlehem, N.H.] : Bethlehem Press|~|University of New Hampshire. Library. Digital Collections.",bethlehem_0047+application-pdf+application.pdf|~|bethlehem_0047+image-low-jpg+image-low.jpg|~|bethlehem_0047+image-tb-jpg+image-tb.jpg
Active,bethlehem:0048,bethlehem,http://www.archive.org/details/annualreporttown1972beth|~|annualreporttown1972beth|~|bethlehem:0048,"Annual report Town of Bethlehem, New Hampshire, 1972",1973,Title varies|~|Imprint varies|~|Report year varies,"University of New Hampshire. Library. Digital Collections.|~|Scanned by Internet Archive, Open Content Alliance (2008)",,,Text,Bethlehem (N.H. : Town) -- Appropriations and expenditures -- Periodicals,Bethlehem (N.H. : Town),,,eng,"[Bethlehem, N.H.] : Bethlehem Press|~|University of New Hampshire. Library. Digital Collections.",bethlehem_0048+application-pdf+application.pdf|~|bethlehem_0048+image-low-jpg+image-low.jpg|~|bethlehem_0048+image-tb-jpg+image-tb.jpg
Active,bethlehem:0049,bethlehem,http://www.archive.org/details/annualreporttown1973beth|~|annualreporttown1973beth|~|bethlehem:0049,"Annual report Town of Bethlehem, New Hampshire, 1973",1974,Title varies|~|Imprint varies|~|Report year varies,"University of New Hampshire. Library. Digital Collections.|~|Scanned by Internet Archive, Open Content Alliance (2008)",,,Text,Bethlehem (N.H. : Town) -- Appropriations and expenditures -- Periodicals,Bethlehem (N.H. : Town),,,eng,"[Bethlehem, N.H.] : Bethlehem Press|~|University of New Hampshire. Library. Digital Collections.",bethlehem_0049+application-pdf+application.pdf|~|bethlehem_0049+image-low-jpg+image-low.jpg|~|bethlehem_0049+image-tb-jpg+image-tb.jpg
Active,bethlehem:0050,bethlehem,http://www.archive.org/details/annualreporttown1974beth|~|annualreporttown1974beth|~|bethlehem:0050,"Annual report Town of Bethlehem, New Hampshire, 1974",1975,Title varies|~|Imprint varies|~|Report year varies,"University of New Hampshire. Library. Digital Collections.|~|Scanned by Internet Archive, Open Content Alliance (2008)",,,Text,Bethlehem (N.H. : Town) -- Appropriations and expenditures -- Periodicals,Bethlehem (N.H. : Town),,,eng,"[Bethlehem, N.H.] : Bethlehem Press|~|University of New Hampshire. Library. Digital Collections.",bethlehem_0050+application-pdf+application.pdf|~|bethlehem_0050+image-low-jpg+image-low.jpg|~|bethlehem_0050+image-tb-jpg+image-tb.jpg
Active,bethlehem:0051,bethlehem,http://www.archive.org/details/annualreporttown1975beth|~|annualreporttown1975beth|~|bethlehem:0051,"Annual report Town of Bethlehem, New Hampshire, 1975",1976,Title varies|~|Imprint varies|~|Report year varies,"University of New Hampshire. Library. Digital Collections.|~|Scanned by Internet Archive, Open Content Alliance (2008)",,,Text,Bethlehem (N.H. : Town) -- Appropriations and expenditures -- Periodicals,Bethlehem (N.H. : Town),,,eng,"[Bethlehem, N.H.] : Bethlehem Press|~|University of New Hampshire. Library. Digital Collections.",bethlehem_0051+application-pdf+application.pdf|~|bethlehem_0051+image-low-jpg+image-low.jpg|~|bethlehem_0051+image-tb-jpg+image-tb.jpg
Active,bethlehem:0052,bethlehem,http://www.archive.org/details/annualreporttown1976beth|~|annualreporttown1976beth|~|bethlehem:0052,"Annual report Town of Bethlehem, New Hampshire, 1976",1977,Title varies|~|Imprint varies|~|Report year varies,"University of New Hampshire. Library. Digital Collections.|~|Scanned by Internet Archive, Open Content Alliance (2008)",,,Text,Bethlehem (N.H. : Town) -- Appropriations and expenditures -- Periodicals,Bethlehem (N.H. : Town),,,eng,"[Bethlehem, N.H.] : Bethlehem Press|~|University of New Hampshire. Library. Digital Collections.",bethlehem_0052+application-pdf+application.pdf|~|bethlehem_0052+image-low-jpg+image-low.jpg|~|bethlehem_0052+image-tb-jpg+image-tb.jpg
Active,bethlehem:0053,bethlehem,http://www.archive.org/details/annualreporttown1977beth|~|annualreporttown1977beth|~|bethlehem:0053,"Annual report Town of Bethlehem, New Hampshire, 1977",1978,Title varies|~|Imprint varies|~|Report year varies,"University of New Hampshire. Library. Digital Collections.|~|Scanned by Internet Archive, Open Content Alliance (2008)",,,Text,Bethlehem (N.H. : Town) -- Appropriations and expenditures -- Periodicals,Bethlehem (N.H. : Town),,,eng,"[Bethlehem, N.H.] : Bethlehem Press|~|University of New Hampshire. Library. Digital Collections.",bethlehem_0053+application-pdf+application.pdf|~|bethlehem_0053+image-low-jpg+image-low.jpg|~|bethlehem_0053+image-tb-jpg+image-tb.jpg
Active,bethlehem:0054,bethlehem,http://www.archive.org/details/annualreporttown1978beth|~|annualreporttown1978beth|~|bethlehem:0054,"Annual report Town of Bethlehem, New Hampshire, 1978",1979,Title varies|~|Imprint varies|~|Report year varies,"University of New Hampshire. Library. Digital Collections.|~|Scanned by Internet Archive, Open Content Alliance (2008)",,,Text,Bethlehem (N.H. : Town) -- Appropriations and expenditures -- Periodicals,Bethlehem (N.H. : Town),,,eng,"[Bethlehem, N.H.] : Bethlehem Press|~|University of New Hampshire. Library. Digital Collections.",bethlehem_0054+application-pdf+application.pdf|~|bethlehem_0054+image-low-jpg+image-low.jpg|~|bethlehem_0054+image-tb-jpg+image-tb.jpg
Active,bethlehem:0055,bethlehem,http://www.archive.org/details/annualreporttown1979beth|~|annualreporttown1979beth|~|bethlehem:0055,"Annual report Town of Bethlehem, New Hampshire, 1979",1980,Title varies|~|Imprint varies|~|Report year varies,"University of New Hampshire. Library. Digital Collections.|~|Scanned by Internet Archive, Open Content Alliance (2008)",,,Text,Bethlehem (N.H. : Town) -- Appropriations and expenditures -- Periodicals,Bethlehem (N.H. : Town),,,eng,"[Bethlehem, N.H.] : Bethlehem Press|~|University of New Hampshire. Library. Digital Collections.",bethlehem_0055+application-pdf+application.pdf|~|bethlehem_0055+image-low-jpg+image-low.jpg|~|bethlehem_0055+image-tb-jpg+image-tb.jpg
Active,bethlehem:0056,bethlehem,http://www.archive.org/details/annualreporttown1980beth|~|annualreporttown1980beth|~|bethlehem:0056,"Annual report Town of Bethlehem, New Hampshire, 1980",1981,Title varies|~|Imprint varies|~|Report year varies,"University of New Hampshire. Library. Digital Collections.|~|Scanned by Internet Archive, Open Content Alliance (2008)",,,Text,Bethlehem (N.H. : Town) -- Appropriations and expenditures -- Periodicals,Bethlehem (N.H. : Town),,,eng,"[Bethlehem, N.H.] : Bethlehem Press|~|University of New Hampshire. Library. Digital Collections.",bethlehem_0056+application-pdf+application.pdf|~|bethlehem_0056+image-low-jpg+image-low.jpg|~|bethlehem_0056+image-tb-jpg+image-tb.jpg
Active,bethlehem:0057,bethlehem,http://www.archive.org/details/annualreporttown1981beth|~|annualreporttown1981beth|~|bethlehem:0057,"Annual report Town of Bethlehem, New Hampshire, 1981",1982,Title varies|~|Imprint varies|~|Report year varies,"University of New Hampshire. Library. Digital Collections.|~|Scanned by Internet Archive, Open Content Alliance (2008)",,,Text,Bethlehem (N.H. : Town) -- Appropriations and expenditures -- Periodicals,Bethlehem (N.H. : Town),,,eng,"[Bethlehem, N.H.] : Bethlehem Press|~|University of New Hampshire. Library. Digital Collections.",bethlehem_0057+application-pdf+application.pdf|~|bethlehem_0057+image-low-jpg+image-low.jpg|~|bethlehem_0057+image-tb-jpg+image-tb.jpg
Active,bethlehem:0058,bethlehem,http://www.archive.org/details/annualreporttown1982beth|~|annualreporttown1982beth|~|bethlehem:0058,"Annual report Town of Bethlehem, New Hampshire, 1982",1983,Title varies|~|Imprint varies|~|Report year varies,"University of New Hampshire. Library. Digital Collections.|~|Scanned by Internet Archive, Open Content Alliance (2008)",,,Text,Bethlehem (N.H. : Town) -- Appropriations and expenditures -- Periodicals,Bethlehem (N.H. : Town),,,eng,"[Bethlehem, N.H.] : Bethlehem Press|~|University of New Hampshire. Library. Digital Collections.",bethlehem_0058+application-pdf+application.pdf|~|bethlehem_0058+image-low-jpg+image-low.jpg|~|bethlehem_0058+image-tb-jpg+image-tb.jpg
Active,bethlehem:0059,bethlehem,http://www.archive.org/details/annualreporttown1983beth|~|annualreporttown1983beth|~|bethlehem:0059,"Annual report Town of Bethlehem, New Hampshire, 1983",1984,Title varies|~|Imprint varies|~|Report year varies,"University of New Hampshire. Library. Digital Collections.|~|Scanned by Internet Archive, Open Content Alliance (2008)",,,Text,Bethlehem (N.H. : Town) -- Appropriations and expenditures -- Periodicals,Bethlehem (N.H. : Town),,,eng,"[Bethlehem, N.H.] : Bethlehem Press|~|University of New Hampshire. Library. Digital Collections.",bethlehem_0059+application-pdf+application.pdf|~|bethlehem_0059+image-low-jpg+image-low.jpg|~|bethlehem_0059+image-tb-jpg+image-tb.jpg
Active,bethlehem:0060,bethlehem,http://www.archive.org/details/annualreporttown1984beth|~|annualreporttown1984beth|~|bethlehem:0060,"Annual report Town of Bethlehem, New Hampshire, 1984",1985,Title varies|~|Imprint varies|~|Report year varies,"University of New Hampshire. Library. Digital Collections.|~|Scanned by Internet Archive, Open Content Alliance (2008)",,,Text,Bethlehem (N.H. : Town) -- Appropriations and expenditures -- Periodicals,Bethlehem (N.H. : Town),,,eng,"[Bethlehem, N.H.] : Bethlehem Press|~|University of New Hampshire. Library. Digital Collections.",bethlehem_0060+application-pdf+application.pdf|~|bethlehem_0060+image-low-jpg+image-low.jpg|~|bethlehem_0060+image-tb-jpg+image-tb.jpg
Active,bethlehem:0061,bethlehem,http://www.archive.org/details/annualreporttown1985beth|~|annualreporttown1985beth|~|bethlehem:0061,"Annual report Town of Bethlehem, New Hampshire, 1985",1986,Title varies|~|Imprint varies|~|Report year varies,"University of New Hampshire. Library. Digital Collections.|~|Scanned by Internet Archive, Open Content Alliance (2008)",,,Text,Bethlehem (N.H. : Town) -- Appropriations and expenditures -- Periodicals,Bethlehem (N.H. : Town),,,eng,"[Bethlehem, N.H.] : Bethlehem Press|~|University of New Hampshire. Library. Digital Collections.",bethlehem_0061+application-pdf+application.pdf|~|bethlehem_0061+image-low-jpg+image-low.jpg|~|bethlehem_0061+image-tb-jpg+image-tb.jpg
Active,bethlehem:0062,bethlehem,http://www.archive.org/details/annualreporttown1986beth|~|annualreporttown1986beth|~|bethlehem:0062,"Annual report Town of Bethlehem, New Hampshire, 1986",1987,Title varies|~|Imprint varies|~|Report year varies,"University of New Hampshire. Library. Digital Collections.|~|Scanned by Internet Archive, Open Content Alliance (2008)",,,Text,Bethlehem (N.H. : Town) -- Appropriations and expenditures -- Periodicals,Bethlehem (N.H. : Town),,,eng,"[Bethlehem, N.H.] : Bethlehem Press|~|University of New Hampshire. Library. Digital Collections.",bethlehem_0062+application-pdf+application.pdf|~|bethlehem_0062+image-low-jpg+image-low.jpg|~|bethlehem_0062+image-tb-jpg+image-tb.jpg
Active,bethlehem:0063,bethlehem,http://www.archive.org/details/annualreporttown1987beth|~|annualreporttown1987beth|~|bethlehem:0063,"Annual report Town of Bethlehem, New Hampshire, 1987",1988,Title varies|~|Imprint varies|~|Report year varies,"University of New Hampshire. Library. Digital Collections.|~|Scanned by Internet Archive, Open Content Alliance (2008)",,,Text,Bethlehem (N.H. : Town) -- Appropriations and expenditures -- Periodicals,Bethlehem (N.H. : Town),,,eng,"[Bethlehem, N.H.] : Bethlehem Press|~|University of New Hampshire. Library. Digital Collections.",bethlehem_0063+application-pdf+application.pdf|~|bethlehem_0063+image-low-jpg+image-low.jpg|~|bethlehem_0063+image-tb-jpg+image-tb.jpg
Active,bethlehem:0064,bethlehem,http://www.archive.org/details/annualreporttown1988beth|~|annualreporttown1988beth|~|bethlehem:0064,"Annual report Town of Bethlehem, New Hampshire, 1988",1989,Title varies|~|Imprint varies|~|Report year varies,"University of New Hampshire. Library. Digital Collections.|~|Scanned by Internet Archive, Open Content Alliance (2008)",,,Text,Bethlehem (N.H. : Town) -- Appropriations and expenditures -- Periodicals,Bethlehem (N.H. : Town),,,eng,"[Bethlehem, N.H.] : Bethlehem Press|~|University of New Hampshire. Library. Digital Collections.",bethlehem_0064+application-pdf+application.pdf|~|bethlehem_0064+image-low-jpg+image-low.jpg|~|bethlehem_0064+image-tb-jpg+image-tb.jpg
Active,bethlehem:0065,bethlehem,http://www.archive.org/details/annualreporttown1989beth|~|annualreporttown1989beth|~|bethlehem:0065,"Annual report Town of Bethlehem, New Hampshire, 1989",1990,Title varies|~|Imprint varies|~|Report year varies,"University of New Hampshire. Library. Digital Collections.|~|Scanned by Internet Archive, Open Content Alliance (2008)",,,Text,Bethlehem (N.H. : Town) -- Appropriations and expenditures -- Periodicals,Bethlehem (N.H. : Town),,,eng,"[Bethlehem, N.H.] : Bethlehem Press|~|University of New Hampshire. Library. Digital Collections.",bethlehem_0065+application-pdf+application.pdf|~|bethlehem_0065+image-low-jpg+image-low.jpg|~|bethlehem_0065+image-tb-jpg+image-tb.jpg
Active,bethlehem:0066,bethlehem,http://www.archive.org/details/annualreporttown1990beth|~|annualreporttown1990beth|~|bethlehem:0066,"Annual report Town of Bethlehem, New Hampshire, 1990",1991,Title varies|~|Imprint varies|~|Report year varies,"University of New Hampshire. Library. Digital Collections.|~|Scanned by Internet Archive, Open Content Alliance (2008)",,,Text,Bethlehem (N.H. : Town) -- Appropriations and expenditures -- Periodicals,Bethlehem (N.H. : Town),,,eng,"[Bethlehem, N.H.] : Bethlehem Press|~|University of New Hampshire. Library. Digital Collections.",bethlehem_0066+application-pdf+application.pdf|~|bethlehem_0066+image-low-jpg+image-low.jpg|~|bethlehem_0066+image-tb-jpg+image-tb.jpg
Active,bethlehem:0067,bethlehem,http://www.archive.org/details/annualreporttown1991beth|~|annualreporttown1991beth|~|bethlehem:0067,"Annual report Town of Bethlehem, New Hampshire, 1991",1992,Title varies|~|Imprint varies|~|Report year varies,"University of New Hampshire. Library. Digital Collections.|~|Scanned by Internet Archive, Open Content Alliance (2008)",,,Text,Bethlehem (N.H. : Town) -- Appropriations and expenditures -- Periodicals,Bethlehem (N.H. : Town),,,eng,"[Bethlehem, N.H.] : Bethlehem Press|~|University of New Hampshire. Library. Digital Collections.",bethlehem_0067+application-pdf+application.pdf|~|bethlehem_0067+image-low-jpg+image-low.jpg|~|bethlehem_0067+image-tb-jpg+image-tb.jpg
Active,bethlehem:0068,bethlehem,http://www.archive.org/details/annualreporttown1992beth|~|annualreporttown1992beth|~|bethlehem:0068,"Annual report Town of Bethlehem, New Hampshire, 1992",1993,Title varies|~|Imprint varies|~|Report year varies,"University of New Hampshire. Library. Digital Collections.|~|Scanned by Internet Archive, Open Content Alliance (2008)",,,Text,Bethlehem (N.H. : Town) -- Appropriations and expenditures -- Periodicals,Bethlehem (N.H. : Town),,,eng,"[Bethlehem, N.H.] : Bethlehem Press|~|University of New Hampshire. Library. Digital Collections.",bethlehem_0068+application-pdf+application.pdf|~|bethlehem_0068+image-low-jpg+image-low.jpg|~|bethlehem_0068+image-tb-jpg+image-tb.jpg
Active,bethlehem:0069,bethlehem,http://www.archive.org/details/annualreporttown1993beth|~|annualreporttown1993beth|~|bethlehem:0069,"Annual report Town of Bethlehem, New Hampshire, 1993",1994,Title varies|~|Imprint varies|~|Report year varies,"University of New Hampshire. Library. Digital Collections.|~|Scanned by Internet Archive, Open Content Alliance (2008)",,,Text,Bethlehem (N.H. : Town) -- Appropriations and expenditures -- Periodicals,Bethlehem (N.H. : Town),,,eng,"[Bethlehem, N.H.] : Bethlehem Press|~|University of New Hampshire. Library. Digital Collections.",bethlehem_0069+application-pdf+application.pdf|~|bethlehem_0069+image-low-jpg+image-low.jpg|~|bethlehem_0069+image-tb-jpg+image-tb.jpg
Active,bethlehem:0070,bethlehem,http://www.archive.org/details/annualreporttown1994beth|~|annualreporttown1994beth|~|bethlehem:0070,"Annual report Town of Bethlehem, New Hampshire, 1994",1995,Title varies|~|Imprint varies|~|Report year varies,"University of New Hampshire. Library. Digital Collections.|~|Scanned by Internet Archive, Open Content Alliance (2008)",,,Text,Bethlehem (N.H. : Town) -- Appropriations and expenditures -- Periodicals,Bethlehem (N.H. : Town),,,eng,"[Bethlehem, N.H.] : Bethlehem Press|~|University of New Hampshire. Library. Digital Collections.",bethlehem_0070+application-pdf+application.pdf|~|bethlehem_0070+image-low-jpg+image-low.jpg|~|bethlehem_0070+image-tb-jpg+image-tb.jpg
Active,bethlehem:0071,bethlehem,http://www.archive.org/details/annualreporttown1995beth|~|annualreporttown1995beth|~|bethlehem:0071,"Annual report Town of Bethlehem, New Hampshire, 1995",1996,Title varies|~|Imprint varies|~|Report year varies,"University of New Hampshire. Library. Digital Collections.|~|Scanned by Internet Archive, Open Content Alliance (2008)",,,Text,Bethlehem (N.H. : Town) -- Appropriations and expenditures -- Periodicals,Bethlehem (N.H. : Town),,,eng,"[Bethlehem, N.H.] : Bethlehem Press|~|University of New Hampshire. Library. Digital Collections.",bethlehem_0071+application-pdf+application.pdf|~|bethlehem_0071+image-low-jpg+image-low.jpg|~|bethlehem_0071+image-tb-jpg+image-tb.jpg
Active,bethlehem:0072,bethlehem,http://www.archive.org/details/annualreporttown1996beth|~|annualreporttown1996beth|~|bethlehem:0072,"Annual report Town of Bethlehem, New Hampshire, 1996",1997,Title varies|~|Imprint varies|~|Report year varies,"University of New Hampshire. Library. Digital Collections.|~|Scanned by Internet Archive, Open Content Alliance (2008)",,,Text,Bethlehem (N.H. : Town) -- Appropriations and expenditures -- Periodicals,Bethlehem (N.H. : Town),,,eng,"[Bethlehem, N.H.] : Bethlehem Press|~|University of New Hampshire. Library. Digital Collections.",bethlehem_0072+application-pdf+application.pdf|~|bethlehem_0072+image-low-jpg+image-low.jpg|~|bethlehem_0072+image-tb-jpg+image-tb.jpg
Active,bethlehem:0073,bethlehem,http://www.archive.org/details/annualreporttown1997beth|~|annualreporttown1997beth|~|bethlehem:0073,"Annual report Town of Bethlehem, New Hampshire, 1997",1998,Title varies|~|Imprint varies|~|Report year varies,"University of New Hampshire. Library. Digital Collections.|~|Scanned by Internet Archive, Open Content Alliance (2008)",,,Text,Bethlehem (N.H. : Town) -- Appropriations and expenditures -- Periodicals,Bethlehem (N.H. : Town),,,eng,"[Bethlehem, N.H.] : Bethlehem Press|~|University of New Hampshire. Library. Digital Collections.",bethlehem_0073+application-pdf+application.pdf|~|bethlehem_0073+image-low-jpg+image-low.jpg|~|bethlehem_0073+image-tb-jpg+image-tb.jpg
Active,bethlehem:0074,bethlehem,http://www.archive.org/details/annualreporttown1998beth|~|annualreporttown1998beth|~|bethlehem:0074,"Annual report Town of Bethlehem, New Hampshire, 1998",1999,Title varies|~|Imprint varies|~|Report year varies,"University of New Hampshire. Library. Digital Collections.|~|Scanned by Internet Archive, Open Content Alliance (2008)",,,Text,Bethlehem (N.H. : Town) -- Appropriations and expenditures -- Periodicals,Bethlehem (N.H. : Town),,,eng,"[Bethlehem, N.H.] : Bethlehem Press|~|University of New Hampshire. Library. Digital Collections.",bethlehem_0074+application-pdf+application.pdf|~|bethlehem_0074+image-low-jpg+image-low.jpg|~|bethlehem_0074+image-tb-jpg+image-tb.jpg
Active,bethlehem:0075,bethlehem,http://www.archive.org/details/annualreporttown1999beth|~|annualreporttown1999beth|~|bethlehem:0075,"Annual report Town of Bethlehem, New Hampshire, 1999",2000,Title varies|~|Imprint varies|~|Report year varies,"University of New Hampshire. Library. Digital Collections.|~|Scanned by Internet Archive, Open Content Alliance (2008)",,,Text,Bethlehem (N.H. : Town) -- Appropriations and expenditures -- Periodicals,Bethlehem (N.H. : Town),,,eng,"[Bethlehem, N.H.] : Bethlehem Press|~|University of New Hampshire. Library. Digital Collections.",bethlehem_0075+application-pdf+application.pdf|~|bethlehem_0075+image-low-jpg+image-low.jpg|~|bethlehem_0075+image-tb-jpg+image-tb.jpg
Active,bethlehem:0076,bethlehem,http://www.archive.org/details/annualreporttown2000beth|~|annualreporttown2000beth|~|bethlehem:0076,"Annual report Town of Bethlehem, New Hampshire, 2000",2001,Title varies|~|Imprint varies|~|Report year varies,"University of New Hampshire. Library. Digital Collections.|~|Scanned by Internet Archive, Open Content Alliance (2008)",,,Text,Bethlehem (N.H. : Town) -- Appropriations and expenditures -- Periodicals,Bethlehem (N.H. : Town),,,eng,"[Bethlehem, N.H.] : Bethlehem Press|~|University of New Hampshire. Library. Digital Collections.",bethlehem_0076+application-pdf+application.pdf|~|bethlehem_0076+image-low-jpg+image-low.jpg|~|bethlehem_0076+image-tb-jpg+image-tb.jpg
Active,bethlehem:0077,bethlehem,http://www.archive.org/details/annualreporttown2001beth|~|annualreporttown2001beth|~|bethlehem:0077,"Annual report Town of Bethlehem, New Hampshire, 2001",2002,Title varies|~|Imprint varies|~|Report year varies,"University of New Hampshire. Library. Digital Collections.|~|Scanned by Internet Archive, Open Content Alliance (2008)",,,Text,Bethlehem (N.H. : Town) -- Appropriations and expenditures -- Periodicals,Bethlehem (N.H. : Town),,,eng,"[Bethlehem, N.H.] : Bethlehem Press|~|University of New Hampshire. Library. Digital Collections.",bethlehem_0077+application-pdf+application.pdf|~|bethlehem_0077+image-low-jpg+image-low.jpg|~|bethlehem_0077+image-tb-jpg+image-tb.jpg
