state,pid,collection,dcterms:identifier,dcterms:title,dcterms:date,dcterms:description,dcterms:contributor,dcterms:rights,dcterms:format,dcterms:type,dcterms:subject,dcterms:creator,dcterms:relation,dcterms:coverage,dcterms:language,dcterms:publisher,files
Active,bow:0001,bow,http://www.archive.org/details/annualreportofto1876bown|~|annualreportofto1876bown|~|bow:0001,"Annual report of the Town of Bow, New Hampshire, 1876",1876,Title varies|~|Imprint varies|~|Report year varies,"University of New Hampshire. Library. Digital Collections.|~|Scanned by Internet Archive, Open Content Alliance (2008)",,,Text,Bow (N.H. : Town) -- Appropriations and expenditures -- Periodicals,Bow (N.H. : Town),,,eng,"[Concord, N.H.] : Woodbury &amp; Batchelder|~|University of New Hampshire. Library. Digital Collections.",bow_0001+application-pdf+application.pdf|~|bow_0001+image-low-jpg+image-low.jpg|~|bow_0001+image-tb-jpg+image-tb.jpg
Active,bow:0002,bow,http://www.archive.org/details/annualreportofto1878bown|~|annualreportofto1878bown|~|bow:0002,"Annual report of the Town of Bow, New Hampshire, 1878",1878,Title varies|~|Imprint varies|~|Report year varies,"University of New Hampshire. Library. Digital Collections.|~|Scanned by Internet Archive, Open Content Alliance (2008)",,,Text,Bow (N.H. : Town) -- Appropriations and expenditures -- Periodicals,Bow (N.H. : Town),,,eng,"[Concord, N.H.] : Woodbury &amp; Batchelder|~|University of New Hampshire. Library. Digital Collections.",bow_0002+application-pdf+application.pdf|~|bow_0002+image-low-jpg+image-low.jpg|~|bow_0002+image-tb-jpg+image-tb.jpg
Active,bow:0003,bow,http://www.archive.org/details/annualreportofto1879bown|~|annualreportofto1879bown|~|bow:0003,"Annual report of the Town of Bow, New Hampshire, 1879",1879,Title varies|~|Imprint varies|~|Report year varies,"University of New Hampshire. Library. Digital Collections.|~|Scanned by Internet Archive, Open Content Alliance (2008)",,,Text,Bow (N.H. : Town) -- Appropriations and expenditures -- Periodicals,Bow (N.H. : Town),,,eng,"[Concord, N.H.] : Woodbury &amp; Batchelder|~|University of New Hampshire. Library. Digital Collections.",bow_0003+application-pdf+application.pdf|~|bow_0003+image-low-jpg+image-low.jpg|~|bow_0003+image-tb-jpg+image-tb.jpg
Active,bow:0004,bow,http://www.archive.org/details/annualreportofto1880bown|~|annualreportofto1880bown|~|bow:0004,"Annual report of the Town of Bow, New Hampshire, 1880",1880,Title varies|~|Imprint varies|~|Report year varies,"University of New Hampshire. Library. Digital Collections.|~|Scanned by Internet Archive, Open Content Alliance (2008)",,,Text,Bow (N.H. : Town) -- Appropriations and expenditures -- Periodicals,Bow (N.H. : Town),,,eng,"[Concord, N.H.] : Woodbury &amp; Batchelder|~|University of New Hampshire. Library. Digital Collections.",bow_0004+application-pdf+application.pdf|~|bow_0004+image-low-jpg+image-low.jpg|~|bow_0004+image-tb-jpg+image-tb.jpg
Active,bow:0005,bow,http://www.archive.org/details/annualreportofto1881bown|~|annualreportofto1881bown|~|bow:0005,"Annual report of the Town of Bow, New Hampshire, 1881",1881,Title varies|~|Imprint varies|~|Report year varies,"University of New Hampshire. Library. Digital Collections.|~|Scanned by Internet Archive, Open Content Alliance (2008)",,,Text,Bow (N.H. : Town) -- Appropriations and expenditures -- Periodicals,Bow (N.H. : Town),,,eng,"[Concord, N.H.] : Woodbury &amp; Batchelder|~|University of New Hampshire. Library. Digital Collections.",bow_0005+application-pdf+application.pdf|~|bow_0005+image-low-jpg+image-low.jpg|~|bow_0005+image-tb-jpg+image-tb.jpg
Active,bow:0006,bow,http://www.archive.org/details/annualreportofto1882bown|~|annualreportofto1882bown|~|bow:0006,"Annual report of the Town of Bow, New Hampshire, 1882",1882,Title varies|~|Imprint varies|~|Report year varies,"University of New Hampshire. Library. Digital Collections.|~|Scanned by Internet Archive, Open Content Alliance (2008)",,,Text,Bow (N.H. : Town) -- Appropriations and expenditures -- Periodicals,Bow (N.H. : Town),,,eng,"[Concord, N.H.] : Woodbury &amp; Batchelder|~|University of New Hampshire. Library. Digital Collections.",bow_0006+application-pdf+application.pdf|~|bow_0006+image-low-jpg+image-low.jpg|~|bow_0006+image-tb-jpg+image-tb.jpg
Active,bow:0007,bow,http://www.archive.org/details/annualreportofto1883bown|~|annualreportofto1883bown|~|bow:0007,"Annual report of the Town of Bow, New Hampshire, 1883",1883,Title varies|~|Imprint varies|~|Report year varies,"University of New Hampshire. Library. Digital Collections.|~|Scanned by Internet Archive, Open Content Alliance (2008)",,,Text,Bow (N.H. : Town) -- Appropriations and expenditures -- Periodicals,Bow (N.H. : Town),,,eng,"[Concord, N.H.] : Woodbury &amp; Batchelder|~|University of New Hampshire. Library. Digital Collections.",bow_0007+application-pdf+application.pdf|~|bow_0007+image-low-jpg+image-low.jpg|~|bow_0007+image-tb-jpg+image-tb.jpg
Active,bow:0008,bow,http://www.archive.org/details/annualreportofto1885bown|~|annualreportofto1885bown|~|bow:0008,"Annual report of the Town of Bow, New Hampshire, 1885",1885,Title varies|~|Imprint varies|~|Report year varies,"University of New Hampshire. Library. Digital Collections.|~|Scanned by Internet Archive, Open Content Alliance (2008)",,,Text,Bow (N.H. : Town) -- Appropriations and expenditures -- Periodicals,Bow (N.H. : Town),,,eng,"[Concord, N.H.] : Woodbury &amp; Batchelder|~|University of New Hampshire. Library. Digital Collections.",bow_0008+application-pdf+application.pdf|~|bow_0008+image-low-jpg+image-low.jpg|~|bow_0008+image-tb-jpg+image-tb.jpg
Active,bow:0009,bow,http://www.archive.org/details/annualreportofto1886bown|~|annualreportofto1886bown|~|bow:0009,"Annual report of the Town of Bow, New Hampshire, 1886",1886,Title varies|~|Imprint varies|~|Report year varies,"University of New Hampshire. Library. Digital Collections.|~|Scanned by Internet Archive, Open Content Alliance (2008)",,,Text,Bow (N.H. : Town) -- Appropriations and expenditures -- Periodicals,Bow (N.H. : Town),,,eng,"[Concord, N.H.] : Woodbury &amp; Batchelder|~|University of New Hampshire. Library. Digital Collections.",bow_0009+application-pdf+application.pdf|~|bow_0009+image-low-jpg+image-low.jpg|~|bow_0009+image-tb-jpg+image-tb.jpg
Active,bow:0010,bow,http://www.archive.org/details/annualreportofto1887bown|~|annualreportofto1887bown|~|bow:0010,"Annual report of the Town of Bow, New Hampshire, 1887",1887,Title varies|~|Imprint varies|~|Report year varies,"University of New Hampshire. Library. Digital Collections.|~|Scanned by Internet Archive, Open Content Alliance (2008)",,,Text,Bow (N.H. : Town) -- Appropriations and expenditures -- Periodicals,Bow (N.H. : Town),,,eng,"[Concord, N.H.] : Woodbury &amp; Batchelder|~|University of New Hampshire. Library. Digital Collections.",bow_0010+application-pdf+application.pdf|~|bow_0010+image-low-jpg+image-low.jpg|~|bow_0010+image-tb-jpg+image-tb.jpg
Active,bow:0011,bow,http://www.archive.org/details/annualreportofto1893bown|~|annualreportofto1893bown|~|bow:0011,"Annual report of the Town of Bow, New Hampshire, 1893",1893,Title varies|~|Imprint varies|~|Report year varies,"University of New Hampshire. Library. Digital Collections.|~|Scanned by Internet Archive, Open Content Alliance (2008)",,,Text,Bow (N.H. : Town) -- Appropriations and expenditures -- Periodicals,Bow (N.H. : Town),,,eng,"[Concord, N.H.] : Woodbury &amp; Batchelder|~|University of New Hampshire. Library. Digital Collections.",bow_0011+application-pdf+application.pdf|~|bow_0011+image-low-jpg+image-low.jpg|~|bow_0011+image-tb-jpg+image-tb.jpg
Active,bow:0012,bow,http://www.archive.org/details/annualreportofto1888bown|~|annualreportofto1888bown|~|bow:0012,"Annual report of the Town of Bow, New Hampshire, 1888",1888,Title varies|~|Imprint varies|~|Report year varies,"University of New Hampshire. Library. Digital Collections.|~|Scanned by Internet Archive, Open Content Alliance (2008)",,,Text,Bow (N.H. : Town) -- Appropriations and expenditures -- Periodicals,Bow (N.H. : Town),,,eng,"[Concord, N.H.] : Woodbury &amp; Batchelder|~|University of New Hampshire. Library. Digital Collections.",bow_0012+application-pdf+application.pdf|~|bow_0012+image-low-jpg+image-low.jpg|~|bow_0012+image-tb-jpg+image-tb.jpg
Active,bow:0013,bow,http://www.archive.org/details/annualreportofto1890bown|~|annualreportofto1890bown|~|bow:0013,"Annual report of the Town of Bow, New Hampshire, 1890",1890,Title varies|~|Imprint varies|~|Report year varies,"University of New Hampshire. Library. Digital Collections.|~|Scanned by Internet Archive, Open Content Alliance (2008)",,,Text,Bow (N.H. : Town) -- Appropriations and expenditures -- Periodicals,Bow (N.H. : Town),,,eng,"[Concord, N.H.] : Woodbury &amp; Batchelder|~|University of New Hampshire. Library. Digital Collections.",bow_0013+application-pdf+application.pdf|~|bow_0013+image-low-jpg+image-low.jpg|~|bow_0013+image-tb-jpg+image-tb.jpg
Active,bow:0014,bow,http://www.archive.org/details/annualreportofto1892bown|~|annualreportofto1892bown|~|bow:0014,"Annual report of the Town of Bow, New Hampshire, 1892",1892,Title varies|~|Imprint varies|~|Report year varies,"University of New Hampshire. Library. Digital Collections.|~|Scanned by Internet Archive, Open Content Alliance (2008)",,,Text,Bow (N.H. : Town) -- Appropriations and expenditures -- Periodicals,Bow (N.H. : Town),,,eng,"[Concord, N.H.] : Woodbury &amp; Batchelder|~|University of New Hampshire. Library. Digital Collections.",bow_0014+application-pdf+application.pdf|~|bow_0014+image-low-jpg+image-low.jpg|~|bow_0014+image-tb-jpg+image-tb.jpg
Active,bow:0015,bow,http://www.archive.org/details/annualreportofto1894bown|~|annualreportofto1894bown|~|bow:0015,"Annual report of the Town of Bow, New Hampshire, 1894",1894,Title varies|~|Imprint varies|~|Report year varies,"University of New Hampshire. Library. Digital Collections.|~|Scanned by Internet Archive, Open Content Alliance (2008)",,,Text,Bow (N.H. : Town) -- Appropriations and expenditures -- Periodicals,Bow (N.H. : Town),,,eng,"[Concord, N.H.] : Woodbury &amp; Batchelder|~|University of New Hampshire. Library. Digital Collections.",bow_0015+application-pdf+application.pdf|~|bow_0015+image-low-jpg+image-low.jpg|~|bow_0015+image-tb-jpg+image-tb.jpg
Active,bow:0016,bow,http://www.archive.org/details/annualreportofto1895bown|~|annualreportofto1895bown|~|bow:0016,"Annual report of the Town of Bow, New Hampshire, 1895",1895,Title varies|~|Imprint varies|~|Report year varies,"University of New Hampshire. Library. Digital Collections.|~|Scanned by Internet Archive, Open Content Alliance (2008)",,,Text,Bow (N.H. : Town) -- Appropriations and expenditures -- Periodicals,Bow (N.H. : Town),,,eng,"[Concord, N.H.] : Woodbury &amp; Batchelder|~|University of New Hampshire. Library. Digital Collections.",bow_0016+application-pdf+application.pdf|~|bow_0016+image-low-jpg+image-low.jpg|~|bow_0016+image-tb-jpg+image-tb.jpg
Active,bow:0017,bow,http://www.archive.org/details/annualreportofto1896bown|~|annualreportofto1896bown|~|bow:0017,"Annual report of the Town of Bow, New Hampshire, 1896",1896,Title varies|~|Imprint varies|~|Report year varies,"University of New Hampshire. Library. Digital Collections.|~|Scanned by Internet Archive, Open Content Alliance (2008)",,,Text,Bow (N.H. : Town) -- Appropriations and expenditures -- Periodicals,Bow (N.H. : Town),,,eng,"[Concord, N.H.] : Woodbury &amp; Batchelder|~|University of New Hampshire. Library. Digital Collections.",bow_0017+application-pdf+application.pdf|~|bow_0017+image-low-jpg+image-low.jpg|~|bow_0017+image-tb-jpg+image-tb.jpg
Active,bow:0018,bow,http://www.archive.org/details/annualreportofto1897bown|~|annualreportofto1897bown|~|bow:0018,"Annual report of the Town of Bow, New Hampshire, 1897",1897,Title varies|~|Imprint varies|~|Report year varies,"University of New Hampshire. Library. Digital Collections.|~|Scanned by Internet Archive, Open Content Alliance (2008)",,,Text,Bow (N.H. : Town) -- Appropriations and expenditures -- Periodicals,Bow (N.H. : Town),,,eng,"[Concord, N.H.] : Woodbury &amp; Batchelder|~|University of New Hampshire. Library. Digital Collections.",bow_0018+application-pdf+application.pdf|~|bow_0018+image-low-jpg+image-low.jpg|~|bow_0018+image-tb-jpg+image-tb.jpg
Active,bow:0019,bow,http://www.archive.org/details/annualreportofto1898bown|~|annualreportofto1898bown|~|bow:0019,"Annual report of the Town of Bow, New Hampshire, 1898",1898,Title varies|~|Imprint varies|~|Report year varies,"University of New Hampshire. Library. Digital Collections.|~|Scanned by Internet Archive, Open Content Alliance (2008)",,,Text,Bow (N.H. : Town) -- Appropriations and expenditures -- Periodicals,Bow (N.H. : Town),,,eng,"[Concord, N.H.] : Woodbury &amp; Batchelder|~|University of New Hampshire. Library. Digital Collections.",bow_0019+application-pdf+application.pdf|~|bow_0019+image-low-jpg+image-low.jpg|~|bow_0019+image-tb-jpg+image-tb.jpg
Active,bow:0020,bow,http://www.archive.org/details/annualreportofto1899bown|~|annualreportofto1899bown|~|bow:0020,"Annual report of the Town of Bow, New Hampshire, 1899",1899,Title varies|~|Imprint varies|~|Report year varies,"University of New Hampshire. Library. Digital Collections.|~|Scanned by Internet Archive, Open Content Alliance (2008)",,,Text,Bow (N.H. : Town) -- Appropriations and expenditures -- Periodicals,Bow (N.H. : Town),,,eng,"[Concord, N.H.] : Woodbury &amp; Batchelder|~|University of New Hampshire. Library. Digital Collections.",bow_0020+application-pdf+application.pdf|~|bow_0020+image-low-jpg+image-low.jpg|~|bow_0020+image-tb-jpg+image-tb.jpg
Active,bow:0021,bow,http://www.archive.org/details/annualreportofto1900bown|~|annualreportofto1900bown|~|bow:0021,"Annual report of the Town of Bow, New Hampshire, 1900",1900,Title varies|~|Imprint varies|~|Report year varies,"University of New Hampshire. Library. Digital Collections.|~|Scanned by Internet Archive, Open Content Alliance (2008)",,,Text,Bow (N.H. : Town) -- Appropriations and expenditures -- Periodicals,Bow (N.H. : Town),,,eng,"[Concord, N.H.] : Woodbury &amp; Batchelder|~|University of New Hampshire. Library. Digital Collections.",bow_0021+application-pdf+application.pdf|~|bow_0021+image-low-jpg+image-low.jpg|~|bow_0021+image-tb-jpg+image-tb.jpg
Active,bow:0022,bow,http://www.archive.org/details/annualreportofto1901bown|~|annualreportofto1901bown|~|bow:0022,"Annual report of the Town of Bow, New Hampshire, 1901",1901,Title varies|~|Imprint varies|~|Report year varies,"University of New Hampshire. Library. Digital Collections.|~|Scanned by Internet Archive, Open Content Alliance (2008)",,,Text,Bow (N.H. : Town) -- Appropriations and expenditures -- Periodicals,Bow (N.H. : Town),,,eng,"[Concord, N.H.] : Woodbury &amp; Batchelder|~|University of New Hampshire. Library. Digital Collections.",bow_0022+application-pdf+application.pdf|~|bow_0022+image-low-jpg+image-low.jpg|~|bow_0022+image-tb-jpg+image-tb.jpg
Active,bow:0023,bow,http://www.archive.org/details/annualreportofto1902bown|~|annualreportofto1902bown|~|bow:0023,"Annual report of the Town of Bow, New Hampshire, 1902",1902,Title varies|~|Imprint varies|~|Report year varies,"University of New Hampshire. Library. Digital Collections.|~|Scanned by Internet Archive, Open Content Alliance (2008)",,,Text,Bow (N.H. : Town) -- Appropriations and expenditures -- Periodicals,Bow (N.H. : Town),,,eng,"[Concord, N.H.] : Woodbury &amp; Batchelder|~|University of New Hampshire. Library. Digital Collections.",bow_0023+application-pdf+application.pdf|~|bow_0023+image-low-jpg+image-low.jpg|~|bow_0023+image-tb-jpg+image-tb.jpg
Active,bow:0024,bow,http://www.archive.org/details/annualreportofto1903bown|~|annualreportofto1903bown|~|bow:0024,"Annual report of the Town of Bow, New Hampshire, 1903",1903,Title varies|~|Imprint varies|~|Report year varies,"University of New Hampshire. Library. Digital Collections.|~|Scanned by Internet Archive, Open Content Alliance (2008)",,,Text,Bow (N.H. : Town) -- Appropriations and expenditures -- Periodicals,Bow (N.H. : Town),,,eng,"[Concord, N.H.] : Woodbury &amp; Batchelder|~|University of New Hampshire. Library. Digital Collections.",bow_0024+application-pdf+application.pdf|~|bow_0024+image-low-jpg+image-low.jpg|~|bow_0024+image-tb-jpg+image-tb.jpg
Active,bow:0025,bow,http://www.archive.org/details/annualreportofto1904bown|~|annualreportofto1904bown|~|bow:0025,"Annual report of the Town of Bow, New Hampshire, 1904",1904,Title varies|~|Imprint varies|~|Report year varies,"University of New Hampshire. Library. Digital Collections.|~|Scanned by Internet Archive, Open Content Alliance (2008)",,,Text,Bow (N.H. : Town) -- Appropriations and expenditures -- Periodicals,Bow (N.H. : Town),,,eng,"[Concord, N.H.] : Woodbury &amp; Batchelder|~|University of New Hampshire. Library. Digital Collections.",bow_0025+application-pdf+application.pdf|~|bow_0025+image-low-jpg+image-low.jpg|~|bow_0025+image-tb-jpg+image-tb.jpg
Active,bow:0026,bow,http://www.archive.org/details/annualreportofto1905bown|~|annualreportofto1905bown|~|bow:0026,"Annual report of the Town of Bow, New Hampshire, 1905",1905,Title varies|~|Imprint varies|~|Report year varies,"University of New Hampshire. Library. Digital Collections.|~|Scanned by Internet Archive, Open Content Alliance (2008)",,,Text,Bow (N.H. : Town) -- Appropriations and expenditures -- Periodicals,Bow (N.H. : Town),,,eng,"[Concord, N.H.] : Woodbury &amp; Batchelder|~|University of New Hampshire. Library. Digital Collections.",bow_0026+application-pdf+application.pdf|~|bow_0026+image-low-jpg+image-low.jpg|~|bow_0026+image-tb-jpg+image-tb.jpg
Active,bow:0027,bow,http://www.archive.org/details/annualreportofto1906bown|~|annualreportofto1906bown|~|bow:0027,"Annual report of the Town of Bow, New Hampshire, 1906",1906,Title varies|~|Imprint varies|~|Report year varies,"University of New Hampshire. Library. Digital Collections.|~|Scanned by Internet Archive, Open Content Alliance (2008)",,,Text,Bow (N.H. : Town) -- Appropriations and expenditures -- Periodicals,Bow (N.H. : Town),,,eng,"[Concord, N.H.] : Woodbury &amp; Batchelder|~|University of New Hampshire. Library. Digital Collections.",bow_0027+application-pdf+application.pdf|~|bow_0027+image-low-jpg+image-low.jpg|~|bow_0027+image-tb-jpg+image-tb.jpg
Active,bow:0028,bow,http://www.archive.org/details/annualreportofto1907bown|~|annualreportofto1907bown|~|bow:0028,"Annual report of the Town of Bow, New Hampshire, 1907",1907,Title varies|~|Imprint varies|~|Report year varies,"University of New Hampshire. Library. Digital Collections.|~|Scanned by Internet Archive, Open Content Alliance (2008)",,,Text,Bow (N.H. : Town) -- Appropriations and expenditures -- Periodicals,Bow (N.H. : Town),,,eng,"[Concord, N.H.] : Woodbury &amp; Batchelder|~|University of New Hampshire. Library. Digital Collections.",bow_0028+application-pdf+application.pdf|~|bow_0028+image-low-jpg+image-low.jpg|~|bow_0028+image-tb-jpg+image-tb.jpg
Active,bow:0029,bow,http://www.archive.org/details/annualreportofto1908bown|~|annualreportofto1908bown|~|bow:0029,"Annual report of the Town of Bow, New Hampshire, 1908",1908,Title varies|~|Imprint varies|~|Report year varies,"University of New Hampshire. Library. Digital Collections.|~|Scanned by Internet Archive, Open Content Alliance (2008)",,,Text,Bow (N.H. : Town) -- Appropriations and expenditures -- Periodicals,Bow (N.H. : Town),,,eng,"[Concord, N.H.] : Woodbury &amp; Batchelder|~|University of New Hampshire. Library. Digital Collections.",bow_0029+application-pdf+application.pdf|~|bow_0029+image-low-jpg+image-low.jpg|~|bow_0029+image-tb-jpg+image-tb.jpg
Active,bow:0030,bow,http://www.archive.org/details/annualreportofto1909bown|~|annualreportofto1909bown|~|bow:0030,"Annual report of the Town of Bow, New Hampshire, 1909",1909,Title varies|~|Imprint varies|~|Report year varies,"University of New Hampshire. Library. Digital Collections.|~|Scanned by Internet Archive, Open Content Alliance (2008)",,,Text,Bow (N.H. : Town) -- Appropriations and expenditures -- Periodicals,Bow (N.H. : Town),,,eng,"[Concord, N.H.] : Woodbury &amp; Batchelder|~|University of New Hampshire. Library. Digital Collections.",bow_0030+application-pdf+application.pdf|~|bow_0030+image-low-jpg+image-low.jpg|~|bow_0030+image-tb-jpg+image-tb.jpg
Active,bow:0031,bow,http://www.archive.org/details/annualreportofto1910bown|~|annualreportofto1910bown|~|bow:0031,"Annual report of the Town of Bow, New Hampshire, 1910",1910,Title varies|~|Imprint varies|~|Report year varies,"University of New Hampshire. Library. Digital Collections.|~|Scanned by Internet Archive, Open Content Alliance (2008)",,,Text,Bow (N.H. : Town) -- Appropriations and expenditures -- Periodicals,Bow (N.H. : Town),,,eng,"[Concord, N.H.] : Woodbury &amp; Batchelder|~|University of New Hampshire. Library. Digital Collections.",bow_0031+application-pdf+application.pdf|~|bow_0031+image-low-jpg+image-low.jpg|~|bow_0031+image-tb-jpg+image-tb.jpg
Active,bow:0032,bow,http://www.archive.org/details/annualreportofto1911bown|~|annualreportofto1911bown|~|bow:0032,"Annual report of the Town of Bow, New Hampshire, 1911",1911,Title varies|~|Imprint varies|~|Report year varies,"University of New Hampshire. Library. Digital Collections.|~|Scanned by Internet Archive, Open Content Alliance (2008)",,,Text,Bow (N.H. : Town) -- Appropriations and expenditures -- Periodicals,Bow (N.H. : Town),,,eng,"[Concord, N.H.] : Woodbury &amp; Batchelder|~|University of New Hampshire. Library. Digital Collections.",bow_0032+application-pdf+application.pdf|~|bow_0032+image-low-jpg+image-low.jpg|~|bow_0032+image-tb-jpg+image-tb.jpg
Active,bow:0033,bow,http://www.archive.org/details/annualreportofto1920bown|~|annualreportofto1920bown|~|bow:0033,"Annual report of the Town of Bow, New Hampshire, 1920",1920,Title varies|~|Imprint varies|~|Report year varies,"University of New Hampshire. Library. Digital Collections.|~|Scanned by Internet Archive, Open Content Alliance (2008)",,,Text,Bow (N.H. : Town) -- Appropriations and expenditures -- Periodicals,Bow (N.H. : Town),,,eng,"[Concord, N.H.] : Woodbury &amp; Batchelder|~|University of New Hampshire. Library. Digital Collections.",bow_0033+application-pdf+application.pdf|~|bow_0033+image-low-jpg+image-low.jpg|~|bow_0033+image-tb-jpg+image-tb.jpg
Active,bow:0034,bow,http://www.archive.org/details/annualreportofto1923bown|~|annualreportofto1923bown|~|bow:0034,"Annual report of the Town of Bow, New Hampshire, 1923",1923,Title varies|~|Imprint varies|~|Report year varies,"University of New Hampshire. Library. Digital Collections.|~|Scanned by Internet Archive, Open Content Alliance (2008)",,,Text,Bow (N.H. : Town) -- Appropriations and expenditures -- Periodicals,Bow (N.H. : Town),,,eng,"[Concord, N.H.] : Woodbury &amp; Batchelder|~|University of New Hampshire. Library. Digital Collections.",bow_0034+application-pdf+application.pdf|~|bow_0034+image-low-jpg+image-low.jpg|~|bow_0034+image-tb-jpg+image-tb.jpg
Active,bow:0035,bow,http://www.archive.org/details/annualreportofto1924bown|~|annualreportofto1924bown|~|bow:0035,"Annual report of the Town of Bow, New Hampshire, 1924",1924,Title varies|~|Imprint varies|~|Report year varies,"University of New Hampshire. Library. Digital Collections.|~|Scanned by Internet Archive, Open Content Alliance (2008)",,,Text,Bow (N.H. : Town) -- Appropriations and expenditures -- Periodicals,Bow (N.H. : Town),,,eng,"[Concord, N.H.] : Woodbury &amp; Batchelder|~|University of New Hampshire. Library. Digital Collections.",bow_0035+application-pdf+application.pdf|~|bow_0035+image-low-jpg+image-low.jpg|~|bow_0035+image-tb-jpg+image-tb.jpg
Active,bow:0036,bow,http://www.archive.org/details/annualreportofto1925bown|~|annualreportofto1925bown|~|bow:0036,"Annual report of the Town of Bow, New Hampshire, 1925",1925,Title varies|~|Imprint varies|~|Report year varies,"University of New Hampshire. Library. Digital Collections.|~|Scanned by Internet Archive, Open Content Alliance (2008)",,,Text,Bow (N.H. : Town) -- Appropriations and expenditures -- Periodicals,Bow (N.H. : Town),,,eng,"[Concord, N.H.] : Woodbury &amp; Batchelder|~|University of New Hampshire. Library. Digital Collections.",bow_0036+application-pdf+application.pdf|~|bow_0036+image-low-jpg+image-low.jpg|~|bow_0036+image-tb-jpg+image-tb.jpg
Active,bow:0037,bow,http://www.archive.org/details/annualreportofto1926bown|~|annualreportofto1926bown|~|bow:0037,"Annual report of the Town of Bow, New Hampshire, 1926",1926,Title varies|~|Imprint varies|~|Report year varies,"University of New Hampshire. Library. Digital Collections.|~|Scanned by Internet Archive, Open Content Alliance (2008)",,,Text,Bow (N.H. : Town) -- Appropriations and expenditures -- Periodicals,Bow (N.H. : Town),,,eng,"[Concord, N.H.] : Woodbury &amp; Batchelder|~|University of New Hampshire. Library. Digital Collections.",bow_0037+application-pdf+application.pdf|~|bow_0037+image-low-jpg+image-low.jpg|~|bow_0037+image-tb-jpg+image-tb.jpg
Active,bow:0038,bow,http://www.archive.org/details/annualreportofto1927bown|~|annualreportofto1927bown|~|bow:0038,"Annual report of the Town of Bow, New Hampshire, 1927",1927,Title varies|~|Imprint varies|~|Report year varies,"University of New Hampshire. Library. Digital Collections.|~|Scanned by Internet Archive, Open Content Alliance (2008)",,,Text,Bow (N.H. : Town) -- Appropriations and expenditures -- Periodicals,Bow (N.H. : Town),,,eng,"[Concord, N.H.] : Woodbury &amp; Batchelder|~|University of New Hampshire. Library. Digital Collections.",bow_0038+application-pdf+application.pdf|~|bow_0038+image-low-jpg+image-low.jpg|~|bow_0038+image-tb-jpg+image-tb.jpg
Active,bow:0039,bow,http://www.archive.org/details/annualreportofto1928bown|~|annualreportofto1928bown|~|bow:0039,"Annual report of the Town of Bow, New Hampshire, 1928",1928,Title varies|~|Imprint varies|~|Report year varies,"University of New Hampshire. Library. Digital Collections.|~|Scanned by Internet Archive, Open Content Alliance (2008)",,,Text,Bow (N.H. : Town) -- Appropriations and expenditures -- Periodicals,Bow (N.H. : Town),,,eng,"[Concord, N.H.] : Woodbury &amp; Batchelder|~|University of New Hampshire. Library. Digital Collections.",bow_0039+application-pdf+application.pdf|~|bow_0039+image-low-jpg+image-low.jpg|~|bow_0039+image-tb-jpg+image-tb.jpg
Active,bow:0040,bow,http://www.archive.org/details/annualreportofto1932bown|~|annualreportofto1932bown|~|bow:0040,"Annual report of the Town of Bow, New Hampshire, 1932",1932,Title varies|~|Imprint varies|~|Report year varies,"University of New Hampshire. Library. Digital Collections.|~|Scanned by Internet Archive, Open Content Alliance (2008)",,,Text,Bow (N.H. : Town) -- Appropriations and expenditures -- Periodicals,Bow (N.H. : Town),,,eng,"[Concord, N.H.] : Woodbury &amp; Batchelder|~|University of New Hampshire. Library. Digital Collections.",bow_0040+application-pdf+application.pdf|~|bow_0040+image-low-jpg+image-low.jpg|~|bow_0040+image-tb-jpg+image-tb.jpg
Active,bow:0041,bow,http://www.archive.org/details/annualreportofto1933bown|~|annualreportofto1933bown|~|bow:0041,"Annual report of the Town of Bow, New Hampshire, 1933",1933,Title varies|~|Imprint varies|~|Report year varies,"University of New Hampshire. Library. Digital Collections.|~|Scanned by Internet Archive, Open Content Alliance (2008)",,,Text,Bow (N.H. : Town) -- Appropriations and expenditures -- Periodicals,Bow (N.H. : Town),,,eng,"[Concord, N.H.] : Woodbury &amp; Batchelder|~|University of New Hampshire. Library. Digital Collections.",bow_0041+application-pdf+application.pdf|~|bow_0041+image-low-jpg+image-low.jpg|~|bow_0041+image-tb-jpg+image-tb.jpg
Active,bow:0042,bow,http://www.archive.org/details/annualreportofto1934bown|~|annualreportofto1934bown|~|bow:0042,"Annual report of the Town of Bow, New Hampshire, 1934",1934,Title varies|~|Imprint varies|~|Report year varies,"University of New Hampshire. Library. Digital Collections.|~|Scanned by Internet Archive, Open Content Alliance (2008)",,,Text,Bow (N.H. : Town) -- Appropriations and expenditures -- Periodicals,Bow (N.H. : Town),,,eng,"[Concord, N.H.] : Woodbury &amp; Batchelder|~|University of New Hampshire. Library. Digital Collections.",bow_0042+application-pdf+application.pdf|~|bow_0042+image-low-jpg+image-low.jpg|~|bow_0042+image-tb-jpg+image-tb.jpg
Active,bow:0043,bow,http://www.archive.org/details/annualreportofto1935bown|~|annualreportofto1935bown|~|bow:0043,"Annual report of the Town of Bow, New Hampshire, 1935",1935,Title varies|~|Imprint varies|~|Report year varies,"University of New Hampshire. Library. Digital Collections.|~|Scanned by Internet Archive, Open Content Alliance (2008)",,,Text,Bow (N.H. : Town) -- Appropriations and expenditures -- Periodicals,Bow (N.H. : Town),,,eng,"[Concord, N.H.] : Woodbury &amp; Batchelder|~|University of New Hampshire. Library. Digital Collections.",bow_0043+application-pdf+application.pdf|~|bow_0043+image-low-jpg+image-low.jpg|~|bow_0043+image-tb-jpg+image-tb.jpg
Active,bow:0044,bow,http://www.archive.org/details/annualreportofto1936bown|~|annualreportofto1936bown|~|bow:0044,"Annual report of the Town of Bow, New Hampshire, 1936",1936,Title varies|~|Imprint varies|~|Report year varies,"University of New Hampshire. Library. Digital Collections.|~|Scanned by Internet Archive, Open Content Alliance (2008)",,,Text,Bow (N.H. : Town) -- Appropriations and expenditures -- Periodicals,Bow (N.H. : Town),,,eng,"[Concord, N.H.] : Woodbury &amp; Batchelder|~|University of New Hampshire. Library. Digital Collections.",bow_0044+application-pdf+application.pdf|~|bow_0044+image-low-jpg+image-low.jpg|~|bow_0044+image-tb-jpg+image-tb.jpg
Active,bow:0045,bow,http://www.archive.org/details/annualreportofto1937bown|~|annualreportofto1937bown|~|bow:0045,"Annual report of the Town of Bow, New Hampshire, 1937",1937,Title varies|~|Imprint varies|~|Report year varies,"University of New Hampshire. Library. Digital Collections.|~|Scanned by Internet Archive, Open Content Alliance (2008)",,,Text,Bow (N.H. : Town) -- Appropriations and expenditures -- Periodicals,Bow (N.H. : Town),,,eng,"[Concord, N.H.] : Woodbury &amp; Batchelder|~|University of New Hampshire. Library. Digital Collections.",bow_0045+application-pdf+application.pdf|~|bow_0045+image-low-jpg+image-low.jpg|~|bow_0045+image-tb-jpg+image-tb.jpg
Active,bow:0046,bow,http://www.archive.org/details/annualreportofto1938bown|~|annualreportofto1938bown|~|bow:0046,"Annual report of the Town of Bow, New Hampshire, 1938",1938,Title varies|~|Imprint varies|~|Report year varies,"University of New Hampshire. Library. Digital Collections.|~|Scanned by Internet Archive, Open Content Alliance (2008)",,,Text,Bow (N.H. : Town) -- Appropriations and expenditures -- Periodicals,Bow (N.H. : Town),,,eng,"[Concord, N.H.] : Woodbury &amp; Batchelder|~|University of New Hampshire. Library. Digital Collections.",bow_0046+application-pdf+application.pdf|~|bow_0046+image-low-jpg+image-low.jpg|~|bow_0046+image-tb-jpg+image-tb.jpg
Active,bow:0047,bow,http://www.archive.org/details/annualreportofto1939bown|~|annualreportofto1939bown|~|bow:0047,"Annual report of the Town of Bow, New Hampshire, 1939",1939,Title varies|~|Imprint varies|~|Report year varies,"University of New Hampshire. Library. Digital Collections.|~|Scanned by Internet Archive, Open Content Alliance (2008)",,,Text,Bow (N.H. : Town) -- Appropriations and expenditures -- Periodicals,Bow (N.H. : Town),,,eng,"[Concord, N.H.] : Woodbury &amp; Batchelder|~|University of New Hampshire. Library. Digital Collections.",bow_0047+application-pdf+application.pdf|~|bow_0047+image-low-jpg+image-low.jpg|~|bow_0047+image-tb-jpg+image-tb.jpg
Active,bow:0048,bow,http://www.archive.org/details/annualreportofto1940bown|~|annualreportofto1940bown|~|bow:0048,"Annual report of the Town of Bow, New Hampshire, 1940",1940,Title varies|~|Imprint varies|~|Report year varies,"University of New Hampshire. Library. Digital Collections.|~|Scanned by Internet Archive, Open Content Alliance (2008)",,,Text,Bow (N.H. : Town) -- Appropriations and expenditures -- Periodicals,Bow (N.H. : Town),,,eng,"[Concord, N.H.] : Woodbury &amp; Batchelder|~|University of New Hampshire. Library. Digital Collections.",bow_0048+application-pdf+application.pdf|~|bow_0048+image-low-jpg+image-low.jpg|~|bow_0048+image-tb-jpg+image-tb.jpg
Active,bow:0049,bow,http://www.archive.org/details/annualreportofto1941bown|~|annualreportofto1941bown|~|bow:0049,"Annual report of the Town of Bow, New Hampshire, 1941",1941,Title varies|~|Imprint varies|~|Report year varies,"University of New Hampshire. Library. Digital Collections.|~|Scanned by Internet Archive, Open Content Alliance (2008)",,,Text,Bow (N.H. : Town) -- Appropriations and expenditures -- Periodicals,Bow (N.H. : Town),,,eng,"[Concord, N.H.] : Woodbury &amp; Batchelder|~|University of New Hampshire. Library. Digital Collections.",bow_0049+application-pdf+application.pdf|~|bow_0049+image-low-jpg+image-low.jpg|~|bow_0049+image-tb-jpg+image-tb.jpg
Active,bow:0050,bow,http://www.archive.org/details/annualreportofto1942bown|~|annualreportofto1942bown|~|bow:0050,"Annual report of the Town of Bow, New Hampshire, 1942",1942,Title varies|~|Imprint varies|~|Report year varies,"University of New Hampshire. Library. Digital Collections.|~|Scanned by Internet Archive, Open Content Alliance (2008)",,,Text,Bow (N.H. : Town) -- Appropriations and expenditures -- Periodicals,Bow (N.H. : Town),,,eng,"[Concord, N.H.] : Woodbury &amp; Batchelder|~|University of New Hampshire. Library. Digital Collections.",bow_0050+application-pdf+application.pdf|~|bow_0050+image-low-jpg+image-low.jpg|~|bow_0050+image-tb-jpg+image-tb.jpg
Active,bow:0051,bow,http://www.archive.org/details/annualreportofto1943bown|~|annualreportofto1943bown|~|bow:0051,"Annual report of the Town of Bow, New Hampshire, 1943",1943,Title varies|~|Imprint varies|~|Report year varies,"University of New Hampshire. Library. Digital Collections.|~|Scanned by Internet Archive, Open Content Alliance (2008)",,,Text,Bow (N.H. : Town) -- Appropriations and expenditures -- Periodicals,Bow (N.H. : Town),,,eng,"[Concord, N.H.] : Woodbury &amp; Batchelder|~|University of New Hampshire. Library. Digital Collections.",bow_0051+application-pdf+application.pdf|~|bow_0051+image-low-jpg+image-low.jpg|~|bow_0051+image-tb-jpg+image-tb.jpg
Active,bow:0052,bow,http://www.archive.org/details/annualreportofto1944bown|~|annualreportofto1944bown|~|bow:0052,"Annual report of the Town of Bow, New Hampshire, 1944",1944,Title varies|~|Imprint varies|~|Report year varies,"University of New Hampshire. Library. Digital Collections.|~|Scanned by Internet Archive, Open Content Alliance (2008)",,,Text,Bow (N.H. : Town) -- Appropriations and expenditures -- Periodicals,Bow (N.H. : Town),,,eng,"[Concord, N.H.] : Woodbury &amp; Batchelder|~|University of New Hampshire. Library. Digital Collections.",bow_0052+application-pdf+application.pdf|~|bow_0052+image-low-jpg+image-low.jpg|~|bow_0052+image-tb-jpg+image-tb.jpg
Active,bow:0053,bow,http://www.archive.org/details/annualreportofto44bown|~|annualreportofto44bown|~|bow:0053,"Annual report of the Town of Bow, New Hampshire, 1944",1945,Title varies|~|Imprint varies|~|Report year varies,"University of New Hampshire. Library. Digital Collections.|~|Scanned by Internet Archive, Open Content Alliance (2008)",,,Text,Bow (N.H. : Town) -- Appropriations and expenditures -- Periodicals,Bow (N.H. : Town),,,eng,"[Concord, N.H.] : Woodbury &amp; Batchelder|~|University of New Hampshire. Library. Digital Collections.",bow_0053+application-pdf+application.pdf|~|bow_0053+image-low-jpg+image-low.jpg|~|bow_0053+image-tb-jpg+image-tb.jpg
Active,bow:0054,bow,http://www.archive.org/details/annualreportofto1945bown|~|annualreportofto1945bown|~|bow:0054,"Annual report of the Town of Bow, New Hampshire, 1945",1946,Title varies|~|Imprint varies|~|Report year varies,"University of New Hampshire. Library. Digital Collections.|~|Scanned by Internet Archive, Open Content Alliance (2008)",,,Text,Bow (N.H. : Town) -- Appropriations and expenditures -- Periodicals,Bow (N.H. : Town),,,eng,"[Concord, N.H.] : Woodbury &amp; Batchelder|~|University of New Hampshire. Library. Digital Collections.",bow_0054+application-pdf+application.pdf|~|bow_0054+image-low-jpg+image-low.jpg|~|bow_0054+image-tb-jpg+image-tb.jpg
Active,bow:0055,bow,http://www.archive.org/details/annualreportofto1946bown|~|annualreportofto1946bown|~|bow:0055,"Annual report of the Town of Bow, New Hampshire, 1946",1947,Title varies|~|Imprint varies|~|Report year varies,"University of New Hampshire. Library. Digital Collections.|~|Scanned by Internet Archive, Open Content Alliance (2008)",,,Text,Bow (N.H. : Town) -- Appropriations and expenditures -- Periodicals,Bow (N.H. : Town),,,eng,"[Concord, N.H.] : Woodbury &amp; Batchelder|~|University of New Hampshire. Library. Digital Collections.",bow_0055+application-pdf+application.pdf|~|bow_0055+image-low-jpg+image-low.jpg|~|bow_0055+image-tb-jpg+image-tb.jpg
Active,bow:0056,bow,http://www.archive.org/details/annualreportofto1947bown|~|annualreportofto1947bown|~|bow:0056,"Annual report of the Town of Bow, New Hampshire, 1947",1948,Title varies|~|Imprint varies|~|Report year varies,"University of New Hampshire. Library. Digital Collections.|~|Scanned by Internet Archive, Open Content Alliance (2008)",,,Text,Bow (N.H. : Town) -- Appropriations and expenditures -- Periodicals,Bow (N.H. : Town),,,eng,"[Concord, N.H.] : Woodbury &amp; Batchelder|~|University of New Hampshire. Library. Digital Collections.",bow_0056+application-pdf+application.pdf|~|bow_0056+image-low-jpg+image-low.jpg|~|bow_0056+image-tb-jpg+image-tb.jpg
Active,bow:0057,bow,http://www.archive.org/details/annualreportofto1948bown|~|annualreportofto1948bown|~|bow:0057,"Annual report of the Town of Bow, New Hampshire, 1948",1949,Title varies|~|Imprint varies|~|Report year varies,"University of New Hampshire. Library. Digital Collections.|~|Scanned by Internet Archive, Open Content Alliance (2008)",,,Text,Bow (N.H. : Town) -- Appropriations and expenditures -- Periodicals,Bow (N.H. : Town),,,eng,"[Concord, N.H.] : Woodbury &amp; Batchelder|~|University of New Hampshire. Library. Digital Collections.",bow_0057+application-pdf+application.pdf|~|bow_0057+image-low-jpg+image-low.jpg|~|bow_0057+image-tb-jpg+image-tb.jpg
Active,bow:0058,bow,http://www.archive.org/details/annualreportofto1949bown|~|annualreportofto1949bown|~|bow:0058,"Annual report of the Town of Bow, New Hampshire, 1949",1950,Title varies|~|Imprint varies|~|Report year varies,"University of New Hampshire. Library. Digital Collections.|~|Scanned by Internet Archive, Open Content Alliance (2008)",,,Text,Bow (N.H. : Town) -- Appropriations and expenditures -- Periodicals,Bow (N.H. : Town),,,eng,"[Concord, N.H.] : Woodbury &amp; Batchelder|~|University of New Hampshire. Library. Digital Collections.",bow_0058+application-pdf+application.pdf|~|bow_0058+image-low-jpg+image-low.jpg|~|bow_0058+image-tb-jpg+image-tb.jpg
Active,bow:0059,bow,http://www.archive.org/details/annualreportofto1950bown|~|annualreportofto1950bown|~|bow:0059,"Annual report of the Town of Bow, New Hampshire, 1950",1951,Title varies|~|Imprint varies|~|Report year varies,"University of New Hampshire. Library. Digital Collections.|~|Scanned by Internet Archive, Open Content Alliance (2008)",,,Text,Bow (N.H. : Town) -- Appropriations and expenditures -- Periodicals,Bow (N.H. : Town),,,eng,"[Concord, N.H.] : Woodbury &amp; Batchelder|~|University of New Hampshire. Library. Digital Collections.",bow_0059+application-pdf+application.pdf|~|bow_0059+image-low-jpg+image-low.jpg|~|bow_0059+image-tb-jpg+image-tb.jpg
Active,bow:0060,bow,http://www.archive.org/details/annualreportofto1951bown|~|annualreportofto1951bown|~|bow:0060,"Annual report of the Town of Bow, New Hampshire, 1951",1952,Title varies|~|Imprint varies|~|Report year varies,"University of New Hampshire. Library. Digital Collections.|~|Scanned by Internet Archive, Open Content Alliance (2008)",,,Text,Bow (N.H. : Town) -- Appropriations and expenditures -- Periodicals,Bow (N.H. : Town),,,eng,"[Concord, N.H.] : Woodbury &amp; Batchelder|~|University of New Hampshire. Library. Digital Collections.",bow_0060+application-pdf+application.pdf|~|bow_0060+image-low-jpg+image-low.jpg|~|bow_0060+image-tb-jpg+image-tb.jpg
Active,bow:0061,bow,http://www.archive.org/details/annualreportofto1952bown|~|annualreportofto1952bown|~|bow:0061,"Annual report of the Town of Bow, New Hampshire, 1952",1953,Title varies|~|Imprint varies|~|Report year varies,"University of New Hampshire. Library. Digital Collections.|~|Scanned by Internet Archive, Open Content Alliance (2008)",,,Text,Bow (N.H. : Town) -- Appropriations and expenditures -- Periodicals,Bow (N.H. : Town),,,eng,"[Concord, N.H.] : Woodbury &amp; Batchelder|~|University of New Hampshire. Library. Digital Collections.",bow_0061+application-pdf+application.pdf|~|bow_0061+image-low-jpg+image-low.jpg|~|bow_0061+image-tb-jpg+image-tb.jpg
Active,bow:0062,bow,http://www.archive.org/details/annualreportofto1953bown|~|annualreportofto1953bown|~|bow:0062,"Annual report of the Town of Bow, New Hampshire, 1953",1954,Title varies|~|Imprint varies|~|Report year varies,"University of New Hampshire. Library. Digital Collections.|~|Scanned by Internet Archive, Open Content Alliance (2008)",,,Text,Bow (N.H. : Town) -- Appropriations and expenditures -- Periodicals,Bow (N.H. : Town),,,eng,"[Concord, N.H.] : Woodbury &amp; Batchelder|~|University of New Hampshire. Library. Digital Collections.",bow_0062+application-pdf+application.pdf|~|bow_0062+image-low-jpg+image-low.jpg|~|bow_0062+image-tb-jpg+image-tb.jpg
Active,bow:0063,bow,http://www.archive.org/details/annualreportofto1954bown|~|annualreportofto1954bown|~|bow:0063,"Annual report of the Town of Bow, New Hampshire, 1954",1955,Title varies|~|Imprint varies|~|Report year varies,"University of New Hampshire. Library. Digital Collections.|~|Scanned by Internet Archive, Open Content Alliance (2008)",,,Text,Bow (N.H. : Town) -- Appropriations and expenditures -- Periodicals,Bow (N.H. : Town),,,eng,"[Concord, N.H.] : Woodbury &amp; Batchelder|~|University of New Hampshire. Library. Digital Collections.",bow_0063+application-pdf+application.pdf|~|bow_0063+image-low-jpg+image-low.jpg|~|bow_0063+image-tb-jpg+image-tb.jpg
Active,bow:0064,bow,http://www.archive.org/details/annualreportofto1955bown|~|annualreportofto1955bown|~|bow:0064,"Annual report of the Town of Bow, New Hampshire, 1955",1956,Title varies|~|Imprint varies|~|Report year varies,"University of New Hampshire. Library. Digital Collections.|~|Scanned by Internet Archive, Open Content Alliance (2008)",,,Text,Bow (N.H. : Town) -- Appropriations and expenditures -- Periodicals,Bow (N.H. : Town),,,eng,"[Concord, N.H.] : Woodbury &amp; Batchelder|~|University of New Hampshire. Library. Digital Collections.",bow_0064+application-pdf+application.pdf|~|bow_0064+image-low-jpg+image-low.jpg|~|bow_0064+image-tb-jpg+image-tb.jpg
Active,bow:0065,bow,http://www.archive.org/details/annualreportofto1956bown|~|annualreportofto1956bown|~|bow:0065,"Annual report of the Town of Bow, New Hampshire, 1956",1957,Title varies|~|Imprint varies|~|Report year varies,"University of New Hampshire. Library. Digital Collections.|~|Scanned by Internet Archive, Open Content Alliance (2008)",,,Text,Bow (N.H. : Town) -- Appropriations and expenditures -- Periodicals,Bow (N.H. : Town),,,eng,"[Concord, N.H.] : Woodbury &amp; Batchelder|~|University of New Hampshire. Library. Digital Collections.",bow_0065+application-pdf+application.pdf|~|bow_0065+image-low-jpg+image-low.jpg|~|bow_0065+image-tb-jpg+image-tb.jpg
Active,bow:0066,bow,http://www.archive.org/details/annualreportofto1957bown|~|annualreportofto1957bown|~|bow:0066,"Annual report of the Town of Bow, New Hampshire, 1957",1958,Title varies|~|Imprint varies|~|Report year varies,"University of New Hampshire. Library. Digital Collections.|~|Scanned by Internet Archive, Open Content Alliance (2008)",,,Text,Bow (N.H. : Town) -- Appropriations and expenditures -- Periodicals,Bow (N.H. : Town),,,eng,"[Concord, N.H.] : Woodbury &amp; Batchelder|~|University of New Hampshire. Library. Digital Collections.",bow_0066+application-pdf+application.pdf|~|bow_0066+image-low-jpg+image-low.jpg|~|bow_0066+image-tb-jpg+image-tb.jpg
Active,bow:0067,bow,http://www.archive.org/details/annualreportofto1958bown|~|annualreportofto1958bown|~|bow:0067,"Annual report of the Town of Bow, New Hampshire, 1958",1959,Title varies|~|Imprint varies|~|Report year varies,"University of New Hampshire. Library. Digital Collections.|~|Scanned by Internet Archive, Open Content Alliance (2008)",,,Text,Bow (N.H. : Town) -- Appropriations and expenditures -- Periodicals,Bow (N.H. : Town),,,eng,"[Concord, N.H.] : Woodbury &amp; Batchelder|~|University of New Hampshire. Library. Digital Collections.",bow_0067+application-pdf+application.pdf|~|bow_0067+image-low-jpg+image-low.jpg|~|bow_0067+image-tb-jpg+image-tb.jpg
Active,bow:0068,bow,http://www.archive.org/details/annualreportofto1959bown|~|annualreportofto1959bown|~|bow:0068,"Annual report of the Town of Bow, New Hampshire, 1959",1960,Title varies|~|Imprint varies|~|Report year varies,"University of New Hampshire. Library. Digital Collections.|~|Scanned by Internet Archive, Open Content Alliance (2008)",,,Text,Bow (N.H. : Town) -- Appropriations and expenditures -- Periodicals,Bow (N.H. : Town),,,eng,"[Concord, N.H.] : Woodbury &amp; Batchelder|~|University of New Hampshire. Library. Digital Collections.",bow_0068+application-pdf+application.pdf|~|bow_0068+image-low-jpg+image-low.jpg|~|bow_0068+image-tb-jpg+image-tb.jpg
Active,bow:0069,bow,http://www.archive.org/details/annualreportofto1960bown|~|annualreportofto1960bown|~|bow:0069,"Annual report of the Town of Bow, New Hampshire, 1960",1961,Title varies|~|Imprint varies|~|Report year varies,"University of New Hampshire. Library. Digital Collections.|~|Scanned by Internet Archive, Open Content Alliance (2008)",,,Text,Bow (N.H. : Town) -- Appropriations and expenditures -- Periodicals,Bow (N.H. : Town),,,eng,"[Concord, N.H.] : Woodbury &amp; Batchelder|~|University of New Hampshire. Library. Digital Collections.",bow_0069+application-pdf+application.pdf|~|bow_0069+image-low-jpg+image-low.jpg|~|bow_0069+image-tb-jpg+image-tb.jpg
Active,bow:0070,bow,http://www.archive.org/details/annualreportofto1961bown|~|annualreportofto1961bown|~|bow:0070,"Annual report of the Town of Bow, New Hampshire, 1961",1962,Title varies|~|Imprint varies|~|Report year varies,"University of New Hampshire. Library. Digital Collections.|~|Scanned by Internet Archive, Open Content Alliance (2008)",,,Text,Bow (N.H. : Town) -- Appropriations and expenditures -- Periodicals,Bow (N.H. : Town),,,eng,"[Concord, N.H.] : Woodbury &amp; Batchelder|~|University of New Hampshire. Library. Digital Collections.",bow_0070+application-pdf+application.pdf|~|bow_0070+image-low-jpg+image-low.jpg|~|bow_0070+image-tb-jpg+image-tb.jpg
Active,bow:0071,bow,http://www.archive.org/details/annualreportofto1962bown|~|annualreportofto1962bown|~|bow:0071,"Annual report of the Town of Bow, New Hampshire, 1962",1963,Title varies|~|Imprint varies|~|Report year varies,"University of New Hampshire. Library. Digital Collections.|~|Scanned by Internet Archive, Open Content Alliance (2008)",,,Text,Bow (N.H. : Town) -- Appropriations and expenditures -- Periodicals,Bow (N.H. : Town),,,eng,"[Concord, N.H.] : Woodbury &amp; Batchelder|~|University of New Hampshire. Library. Digital Collections.",bow_0071+application-pdf+application.pdf|~|bow_0071+image-low-jpg+image-low.jpg|~|bow_0071+image-tb-jpg+image-tb.jpg
Active,bow:0072,bow,http://www.archive.org/details/annualreportofto1963bown|~|annualreportofto1963bown|~|bow:0072,"Annual report of the Town of Bow, New Hampshire, 1963",1964,Title varies|~|Imprint varies|~|Report year varies,"University of New Hampshire. Library. Digital Collections.|~|Scanned by Internet Archive, Open Content Alliance (2008)",,,Text,Bow (N.H. : Town) -- Appropriations and expenditures -- Periodicals,Bow (N.H. : Town),,,eng,"[Concord, N.H.] : Woodbury &amp; Batchelder|~|University of New Hampshire. Library. Digital Collections.",bow_0072+application-pdf+application.pdf|~|bow_0072+image-low-jpg+image-low.jpg|~|bow_0072+image-tb-jpg+image-tb.jpg
Active,bow:0073,bow,http://www.archive.org/details/annualreportofto1964bown|~|annualreportofto1964bown|~|bow:0073,"Annual report of the Town of Bow, New Hampshire, 1964",1965,Title varies|~|Imprint varies|~|Report year varies,"University of New Hampshire. Library. Digital Collections.|~|Scanned by Internet Archive, Open Content Alliance (2008)",,,Text,Bow (N.H. : Town) -- Appropriations and expenditures -- Periodicals,Bow (N.H. : Town),,,eng,"[Concord, N.H.] : Woodbury &amp; Batchelder|~|University of New Hampshire. Library. Digital Collections.",bow_0073+application-pdf+application.pdf|~|bow_0073+image-low-jpg+image-low.jpg|~|bow_0073+image-tb-jpg+image-tb.jpg
Active,bow:0074,bow,http://www.archive.org/details/annualreportofto1965bown|~|annualreportofto1965bown|~|bow:0074,"Annual report of the Town of Bow, New Hampshire, 1965",1966,Title varies|~|Imprint varies|~|Report year varies,"University of New Hampshire. Library. Digital Collections.|~|Scanned by Internet Archive, Open Content Alliance (2008)",,,Text,Bow (N.H. : Town) -- Appropriations and expenditures -- Periodicals,Bow (N.H. : Town),,,eng,"[Concord, N.H.] : Woodbury &amp; Batchelder|~|University of New Hampshire. Library. Digital Collections.",bow_0074+application-pdf+application.pdf|~|bow_0074+image-low-jpg+image-low.jpg|~|bow_0074+image-tb-jpg+image-tb.jpg
Active,bow:0075,bow,http://www.archive.org/details/annualreportofto1966bown|~|annualreportofto1966bown|~|bow:0075,"Annual report of the Town of Bow, New Hampshire, 1966",1967,Title varies|~|Imprint varies|~|Report year varies,"University of New Hampshire. Library. Digital Collections.|~|Scanned by Internet Archive, Open Content Alliance (2008)",,,Text,Bow (N.H. : Town) -- Appropriations and expenditures -- Periodicals,Bow (N.H. : Town),,,eng,"[Concord, N.H.] : Woodbury &amp; Batchelder|~|University of New Hampshire. Library. Digital Collections.",bow_0075+application-pdf+application.pdf|~|bow_0075+image-low-jpg+image-low.jpg|~|bow_0075+image-tb-jpg+image-tb.jpg
Active,bow:0076,bow,http://www.archive.org/details/annualreportofto1967bown|~|annualreportofto1967bown|~|bow:0076,"Annual report of the Town of Bow, New Hampshire, 1967",1968,Title varies|~|Imprint varies|~|Report year varies,"University of New Hampshire. Library. Digital Collections.|~|Scanned by Internet Archive, Open Content Alliance (2008)",,,Text,Bow (N.H. : Town) -- Appropriations and expenditures -- Periodicals,Bow (N.H. : Town),,,eng,"[Concord, N.H.] : Woodbury &amp; Batchelder|~|University of New Hampshire. Library. Digital Collections.",bow_0076+application-pdf+application.pdf|~|bow_0076+image-low-jpg+image-low.jpg|~|bow_0076+image-tb-jpg+image-tb.jpg
Active,bow:0077,bow,http://www.archive.org/details/annualreportofto1968bown|~|annualreportofto1968bown|~|bow:0077,"Annual report of the Town of Bow, New Hampshire, 1968",1969,Title varies|~|Imprint varies|~|Report year varies,"University of New Hampshire. Library. Digital Collections.|~|Scanned by Internet Archive, Open Content Alliance (2008)",,,Text,Bow (N.H. : Town) -- Appropriations and expenditures -- Periodicals,Bow (N.H. : Town),,,eng,"[Concord, N.H.] : Woodbury &amp; Batchelder|~|University of New Hampshire. Library. Digital Collections.",bow_0077+application-pdf+application.pdf|~|bow_0077+image-low-jpg+image-low.jpg|~|bow_0077+image-tb-jpg+image-tb.jpg
Active,bow:0078,bow,http://www.archive.org/details/annualreportofto1969bown|~|annualreportofto1969bown|~|bow:0078,"Annual report of the Town of Bow, New Hampshire, 1969",1970,Title varies|~|Imprint varies|~|Report year varies,"University of New Hampshire. Library. Digital Collections.|~|Scanned by Internet Archive, Open Content Alliance (2008)",,,Text,Bow (N.H. : Town) -- Appropriations and expenditures -- Periodicals,Bow (N.H. : Town),,,eng,"[Concord, N.H.] : Woodbury &amp; Batchelder|~|University of New Hampshire. Library. Digital Collections.",bow_0078+application-pdf+application.pdf|~|bow_0078+image-low-jpg+image-low.jpg|~|bow_0078+image-tb-jpg+image-tb.jpg
Active,bow:0079,bow,http://www.archive.org/details/annualreportofto1970bown|~|annualreportofto1970bown|~|bow:0079,"Annual report of the Town of Bow, New Hampshire, 1970",1971,Title varies|~|Imprint varies|~|Report year varies,"University of New Hampshire. Library. Digital Collections.|~|Scanned by Internet Archive, Open Content Alliance (2008)",,,Text,Bow (N.H. : Town) -- Appropriations and expenditures -- Periodicals,Bow (N.H. : Town),,,eng,"[Concord, N.H.] : Woodbury &amp; Batchelder|~|University of New Hampshire. Library. Digital Collections.",bow_0079+application-pdf+application.pdf|~|bow_0079+image-low-jpg+image-low.jpg|~|bow_0079+image-tb-jpg+image-tb.jpg
Active,bow:0080,bow,http://www.archive.org/details/annualreportofto1974bown|~|annualreportofto1974bown|~|bow:0080,"Annual report of the Town of Bow, New Hampshire, 1974",1975,Title varies|~|Imprint varies|~|Report year varies,"University of New Hampshire. Library. Digital Collections.|~|Scanned by Internet Archive, Open Content Alliance (2008)",,,Text,Bow (N.H. : Town) -- Appropriations and expenditures -- Periodicals,Bow (N.H. : Town),,,eng,"[Concord, N.H.] : Woodbury &amp; Batchelder|~|University of New Hampshire. Library. Digital Collections.",bow_0080+application-pdf+application.pdf|~|bow_0080+image-low-jpg+image-low.jpg|~|bow_0080+image-tb-jpg+image-tb.jpg
Active,bow:0081,bow,http://www.archive.org/details/annualreportofto1975bown|~|annualreportofto1975bown|~|bow:0081,"Annual report of the Town of Bow, New Hampshire, 1975",1976,Title varies|~|Imprint varies|~|Report year varies,"University of New Hampshire. Library. Digital Collections.|~|Scanned by Internet Archive, Open Content Alliance (2008)",,,Text,Bow (N.H. : Town) -- Appropriations and expenditures -- Periodicals,Bow (N.H. : Town),,,eng,"[Concord, N.H.] : Woodbury &amp; Batchelder|~|University of New Hampshire. Library. Digital Collections.",bow_0081+application-pdf+application.pdf|~|bow_0081+image-low-jpg+image-low.jpg|~|bow_0081+image-tb-jpg+image-tb.jpg
Active,bow:0082,bow,http://www.archive.org/details/annualreportofto1976bown|~|annualreportofto1976bown|~|bow:0082,"Annual report of the Town of Bow, New Hampshire, 1976",1977,Title varies|~|Imprint varies|~|Report year varies,"University of New Hampshire. Library. Digital Collections.|~|Scanned by Internet Archive, Open Content Alliance (2008)",,,Text,Bow (N.H. : Town) -- Appropriations and expenditures -- Periodicals,Bow (N.H. : Town),,,eng,"[Concord, N.H.] : Woodbury &amp; Batchelder|~|University of New Hampshire. Library. Digital Collections.",bow_0082+application-pdf+application.pdf|~|bow_0082+image-low-jpg+image-low.jpg|~|bow_0082+image-tb-jpg+image-tb.jpg
Active,bow:0083,bow,http://www.archive.org/details/annualreportofto1977bown|~|annualreportofto1977bown|~|bow:0083,"Annual report of the Town of Bow, New Hampshire, 1977",1978,Title varies|~|Imprint varies|~|Report year varies,"University of New Hampshire. Library. Digital Collections.|~|Scanned by Internet Archive, Open Content Alliance (2008)",,,Text,Bow (N.H. : Town) -- Appropriations and expenditures -- Periodicals,Bow (N.H. : Town),,,eng,"[Concord, N.H.] : Woodbury &amp; Batchelder|~|University of New Hampshire. Library. Digital Collections.",bow_0083+application-pdf+application.pdf|~|bow_0083+image-low-jpg+image-low.jpg|~|bow_0083+image-tb-jpg+image-tb.jpg
Active,bow:0084,bow,http://www.archive.org/details/annualreportofto1979bown|~|annualreportofto1979bown|~|bow:0084,"Annual report of the Town of Bow, New Hampshire, 1979",1980,Title varies|~|Imprint varies|~|Report year varies,"University of New Hampshire. Library. Digital Collections.|~|Scanned by Internet Archive, Open Content Alliance (2008)",,,Text,Bow (N.H. : Town) -- Appropriations and expenditures -- Periodicals,Bow (N.H. : Town),,,eng,"[Concord, N.H.] : Woodbury &amp; Batchelder|~|University of New Hampshire. Library. Digital Collections.",bow_0084+application-pdf+application.pdf|~|bow_0084+image-low-jpg+image-low.jpg|~|bow_0084+image-tb-jpg+image-tb.jpg
Active,bow:0085,bow,http://www.archive.org/details/annualreportofto1980bown|~|annualreportofto1980bown|~|bow:0085,"Annual report of the Town of Bow, New Hampshire, 1980",1981,Title varies|~|Imprint varies|~|Report year varies,"University of New Hampshire. Library. Digital Collections.|~|Scanned by Internet Archive, Open Content Alliance (2008)",,,Text,Bow (N.H. : Town) -- Appropriations and expenditures -- Periodicals,Bow (N.H. : Town),,,eng,"[Concord, N.H.] : Woodbury &amp; Batchelder|~|University of New Hampshire. Library. Digital Collections.",bow_0085+application-pdf+application.pdf|~|bow_0085+image-low-jpg+image-low.jpg|~|bow_0085+image-tb-jpg+image-tb.jpg
Active,bow:0086,bow,http://www.archive.org/details/annualreportofto1981bown|~|annualreportofto1981bown|~|bow:0086,"Annual report of the Town of Bow, New Hampshire, 1981",1982,Title varies|~|Imprint varies|~|Report year varies,"University of New Hampshire. Library. Digital Collections.|~|Scanned by Internet Archive, Open Content Alliance (2008)",,,Text,Bow (N.H. : Town) -- Appropriations and expenditures -- Periodicals,Bow (N.H. : Town),,,eng,"[Concord, N.H.] : Woodbury &amp; Batchelder|~|University of New Hampshire. Library. Digital Collections.",bow_0086+application-pdf+application.pdf|~|bow_0086+image-low-jpg+image-low.jpg|~|bow_0086+image-tb-jpg+image-tb.jpg
Active,bow:0087,bow,http://www.archive.org/details/annualreportofto1982bown|~|annualreportofto1982bown|~|bow:0087,"Annual report of the Town of Bow, New Hampshire, 1982",1983,Title varies|~|Imprint varies|~|Report year varies,"University of New Hampshire. Library. Digital Collections.|~|Scanned by Internet Archive, Open Content Alliance (2008)",,,Text,Bow (N.H. : Town) -- Appropriations and expenditures -- Periodicals,Bow (N.H. : Town),,,eng,"[Concord, N.H.] : Woodbury &amp; Batchelder|~|University of New Hampshire. Library. Digital Collections.",bow_0087+application-pdf+application.pdf|~|bow_0087+image-low-jpg+image-low.jpg|~|bow_0087+image-tb-jpg+image-tb.jpg
Active,bow:0088,bow,http://www.archive.org/details/annualreportofto1983bown|~|annualreportofto1983bown|~|bow:0088,"Annual report of the Town of Bow, New Hampshire, 1983",1984,Title varies|~|Imprint varies|~|Report year varies,"University of New Hampshire. Library. Digital Collections.|~|Scanned by Internet Archive, Open Content Alliance (2008)",,,Text,Bow (N.H. : Town) -- Appropriations and expenditures -- Periodicals,Bow (N.H. : Town),,,eng,"[Concord, N.H.] : Woodbury &amp; Batchelder|~|University of New Hampshire. Library. Digital Collections.",bow_0088+application-pdf+application.pdf|~|bow_0088+image-low-jpg+image-low.jpg|~|bow_0088+image-tb-jpg+image-tb.jpg
Active,bow:0089,bow,http://www.archive.org/details/annualreportofto1984bown|~|annualreportofto1984bown|~|bow:0089,"Annual report of the Town of Bow, New Hampshire, 1984",1985,Title varies|~|Imprint varies|~|Report year varies,"University of New Hampshire. Library. Digital Collections.|~|Scanned by Internet Archive, Open Content Alliance (2008)",,,Text,Bow (N.H. : Town) -- Appropriations and expenditures -- Periodicals,Bow (N.H. : Town),,,eng,"[Concord, N.H.] : Woodbury &amp; Batchelder|~|University of New Hampshire. Library. Digital Collections.",bow_0089+application-pdf+application.pdf|~|bow_0089+image-low-jpg+image-low.jpg|~|bow_0089+image-tb-jpg+image-tb.jpg
Active,bow:0090,bow,http://www.archive.org/details/annualreportofto1985bown|~|annualreportofto1985bown|~|bow:0090,"Annual report of the Town of Bow, New Hampshire, 1985",1986,Title varies|~|Imprint varies|~|Report year varies,"University of New Hampshire. Library. Digital Collections.|~|Scanned by Internet Archive, Open Content Alliance (2008)",,,Text,Bow (N.H. : Town) -- Appropriations and expenditures -- Periodicals,Bow (N.H. : Town),,,eng,"[Concord, N.H.] : Woodbury &amp; Batchelder|~|University of New Hampshire. Library. Digital Collections.",bow_0090+application-pdf+application.pdf|~|bow_0090+image-low-jpg+image-low.jpg|~|bow_0090+image-tb-jpg+image-tb.jpg
Active,bow:0091,bow,http://www.archive.org/details/annualreportofto1986bown|~|annualreportofto1986bown|~|bow:0091,"Annual report of the Town of Bow, New Hampshire, 1986",1987,Title varies|~|Imprint varies|~|Report year varies,"University of New Hampshire. Library. Digital Collections.|~|Scanned by Internet Archive, Open Content Alliance (2008)",,,Text,Bow (N.H. : Town) -- Appropriations and expenditures -- Periodicals,Bow (N.H. : Town),,,eng,"[Concord, N.H.] : Woodbury &amp; Batchelder|~|University of New Hampshire. Library. Digital Collections.",bow_0091+application-pdf+application.pdf|~|bow_0091+image-low-jpg+image-low.jpg|~|bow_0091+image-tb-jpg+image-tb.jpg
Active,bow:0092,bow,http://www.archive.org/details/annualreportofto1987bown|~|annualreportofto1987bown|~|bow:0092,"Annual report of the Town of Bow, New Hampshire, 1987",1988,Title varies|~|Imprint varies|~|Report year varies,"University of New Hampshire. Library. Digital Collections.|~|Scanned by Internet Archive, Open Content Alliance (2008)",,,Text,Bow (N.H. : Town) -- Appropriations and expenditures -- Periodicals,Bow (N.H. : Town),,,eng,"[Concord, N.H.] : Woodbury &amp; Batchelder|~|University of New Hampshire. Library. Digital Collections.",bow_0092+application-pdf+application.pdf|~|bow_0092+image-low-jpg+image-low.jpg|~|bow_0092+image-tb-jpg+image-tb.jpg
Active,bow:0093,bow,http://www.archive.org/details/annualreportofto1988bown|~|annualreportofto1988bown|~|bow:0093,"Annual report of the Town of Bow, New Hampshire, 1988",1989,Title varies|~|Imprint varies|~|Report year varies,"University of New Hampshire. Library. Digital Collections.|~|Scanned by Internet Archive, Open Content Alliance (2008)",,,Text,Bow (N.H. : Town) -- Appropriations and expenditures -- Periodicals,Bow (N.H. : Town),,,eng,"[Concord, N.H.] : Woodbury &amp; Batchelder|~|University of New Hampshire. Library. Digital Collections.",bow_0093+application-pdf+application.pdf|~|bow_0093+image-low-jpg+image-low.jpg|~|bow_0093+image-tb-jpg+image-tb.jpg
Active,bow:0094,bow,http://www.archive.org/details/annualreportofto1989bown|~|annualreportofto1989bown|~|bow:0094,"Annual report of the Town of Bow, New Hampshire, 1989",1990,Title varies|~|Imprint varies|~|Report year varies,"University of New Hampshire. Library. Digital Collections.|~|Scanned by Internet Archive, Open Content Alliance (2008)",,,Text,Bow (N.H. : Town) -- Appropriations and expenditures -- Periodicals,Bow (N.H. : Town),,,eng,"[Concord, N.H.] : Woodbury &amp; Batchelder|~|University of New Hampshire. Library. Digital Collections.",bow_0094+application-pdf+application.pdf|~|bow_0094+image-low-jpg+image-low.jpg|~|bow_0094+image-tb-jpg+image-tb.jpg
Active,bow:0095,bow,http://www.archive.org/details/annualreportofto1990bown|~|annualreportofto1990bown|~|bow:0095,"Annual report of the Town of Bow, New Hampshire, 1990",1991,Title varies|~|Imprint varies|~|Report year varies,"University of New Hampshire. Library. Digital Collections.|~|Scanned by Internet Archive, Open Content Alliance (2008)",,,Text,Bow (N.H. : Town) -- Appropriations and expenditures -- Periodicals,Bow (N.H. : Town),,,eng,"[Concord, N.H.] : Woodbury &amp; Batchelder|~|University of New Hampshire. Library. Digital Collections.",bow_0095+application-pdf+application.pdf|~|bow_0095+image-low-jpg+image-low.jpg|~|bow_0095+image-tb-jpg+image-tb.jpg
Active,bow:0096,bow,http://www.archive.org/details/annualreportofto1991bown|~|annualreportofto1991bown|~|bow:0096,"Annual report of the Town of Bow, New Hampshire, 1991",1992,Title varies|~|Imprint varies|~|Report year varies,"University of New Hampshire. Library. Digital Collections.|~|Scanned by Internet Archive, Open Content Alliance (2008)",,,Text,Bow (N.H. : Town) -- Appropriations and expenditures -- Periodicals,Bow (N.H. : Town),,,eng,"[Concord, N.H.] : Woodbury &amp; Batchelder|~|University of New Hampshire. Library. Digital Collections.",bow_0096+application-pdf+application.pdf|~|bow_0096+image-low-jpg+image-low.jpg|~|bow_0096+image-tb-jpg+image-tb.jpg
Active,bow:0097,bow,http://www.archive.org/details/annualreportofto1992bown|~|annualreportofto1992bown|~|bow:0097,"Annual report of the Town of Bow, New Hampshire, 1992",1993,Title varies|~|Imprint varies|~|Report year varies,"University of New Hampshire. Library. Digital Collections.|~|Scanned by Internet Archive, Open Content Alliance (2008)",,,Text,Bow (N.H. : Town) -- Appropriations and expenditures -- Periodicals,Bow (N.H. : Town),,,eng,"[Concord, N.H.] : Woodbury &amp; Batchelder|~|University of New Hampshire. Library. Digital Collections.",bow_0097+application-pdf+application.pdf|~|bow_0097+image-low-jpg+image-low.jpg|~|bow_0097+image-tb-jpg+image-tb.jpg
Active,bow:0098,bow,http://www.archive.org/details/annualreportofto1993bown|~|annualreportofto1993bown|~|bow:0098,"Annual report of the Town of Bow, New Hampshire, 1993",1994,Title varies|~|Imprint varies|~|Report year varies,"University of New Hampshire. Library. Digital Collections.|~|Scanned by Internet Archive, Open Content Alliance (2008)",,,Text,Bow (N.H. : Town) -- Appropriations and expenditures -- Periodicals,Bow (N.H. : Town),,,eng,"[Concord, N.H.] : Woodbury &amp; Batchelder|~|University of New Hampshire. Library. Digital Collections.",bow_0098+application-pdf+application.pdf|~|bow_0098+image-low-jpg+image-low.jpg|~|bow_0098+image-tb-jpg+image-tb.jpg
Active,bow:0099,bow,http://www.archive.org/details/annualreportofto1994bown|~|annualreportofto1994bown|~|bow:0099,"Annual report of the Town of Bow, New Hampshire, 1994",1995,Title varies|~|Imprint varies|~|Report year varies,"University of New Hampshire. Library. Digital Collections.|~|Scanned by Internet Archive, Open Content Alliance (2008)",,,Text,Bow (N.H. : Town) -- Appropriations and expenditures -- Periodicals,Bow (N.H. : Town),,,eng,"[Concord, N.H.] : Woodbury &amp; Batchelder|~|University of New Hampshire. Library. Digital Collections.",bow_0099+application-pdf+application.pdf|~|bow_0099+image-low-jpg+image-low.jpg|~|bow_0099+image-tb-jpg+image-tb.jpg
Active,bow:0100,bow,http://www.archive.org/details/annualreportofto1995bown|~|annualreportofto1995bown|~|bow:0100,"Annual report of the Town of Bow, New Hampshire, 1995",1996,Title varies|~|Imprint varies|~|Report year varies,"University of New Hampshire. Library. Digital Collections.|~|Scanned by Internet Archive, Open Content Alliance (2008)",,,Text,Bow (N.H. : Town) -- Appropriations and expenditures -- Periodicals,Bow (N.H. : Town),,,eng,"[Concord, N.H.] : Woodbury &amp; Batchelder|~|University of New Hampshire. Library. Digital Collections.",bow_0100+application-pdf+application.pdf|~|bow_0100+image-low-jpg+image-low.jpg|~|bow_0100+image-tb-jpg+image-tb.jpg
Active,bow:0101,bow,http://www.archive.org/details/annualreportofto1996bown|~|annualreportofto1996bown|~|bow:0101,"Annual report of the Town of Bow, New Hampshire, 1996",1997,Title varies|~|Imprint varies|~|Report year varies,"University of New Hampshire. Library. Digital Collections.|~|Scanned by Internet Archive, Open Content Alliance (2008)",,,Text,Bow (N.H. : Town) -- Appropriations and expenditures -- Periodicals,Bow (N.H. : Town),,,eng,"[Concord, N.H.] : Woodbury &amp; Batchelder|~|University of New Hampshire. Library. Digital Collections.",bow_0101+application-pdf+application.pdf|~|bow_0101+image-low-jpg+image-low.jpg|~|bow_0101+image-tb-jpg+image-tb.jpg
Active,bow:0102,bow,http://www.archive.org/details/annualreportofto1997bown|~|annualreportofto1997bown|~|bow:0102,"Annual report of the Town of Bow, New Hampshire, 1997",1998,Title varies|~|Imprint varies|~|Report year varies,"University of New Hampshire. Library. Digital Collections.|~|Scanned by Internet Archive, Open Content Alliance (2008)",,,Text,Bow (N.H. : Town) -- Appropriations and expenditures -- Periodicals,Bow (N.H. : Town),,,eng,"[Concord, N.H.] : Woodbury &amp; Batchelder|~|University of New Hampshire. Library. Digital Collections.",bow_0102+application-pdf+application.pdf|~|bow_0102+image-low-jpg+image-low.jpg|~|bow_0102+image-tb-jpg+image-tb.jpg
Active,bow:0103,bow,http://www.archive.org/details/annualreportofto1998bown|~|annualreportofto1998bown|~|bow:0103,"Annual report of the Town of Bow, New Hampshire, 1998",1999,Title varies|~|Imprint varies|~|Report year varies,"University of New Hampshire. Library. Digital Collections.|~|Scanned by Internet Archive, Open Content Alliance (2008)",,,Text,Bow (N.H. : Town) -- Appropriations and expenditures -- Periodicals,Bow (N.H. : Town),,,eng,"[Concord, N.H.] : Woodbury &amp; Batchelder|~|University of New Hampshire. Library. Digital Collections.",bow_0103+application-pdf+application.pdf|~|bow_0103+image-low-jpg+image-low.jpg|~|bow_0103+image-tb-jpg+image-tb.jpg
Active,bow:0104,bow,http://www.archive.org/details/annualreportofto1999bown|~|annualreportofto1999bown|~|bow:0104,"Annual report of the Town of Bow, New Hampshire, 1999",2000,Title varies|~|Imprint varies|~|Report year varies,"University of New Hampshire. Library. Digital Collections.|~|Scanned by Internet Archive, Open Content Alliance (2008)",,,Text,Bow (N.H. : Town) -- Appropriations and expenditures -- Periodicals,Bow (N.H. : Town),,,eng,"[Concord, N.H.] : Woodbury &amp; Batchelder|~|University of New Hampshire. Library. Digital Collections.",bow_0104+application-pdf+application.pdf|~|bow_0104+image-low-jpg+image-low.jpg|~|bow_0104+image-tb-jpg+image-tb.jpg
Active,bow:0105,bow,http://www.archive.org/details/annualreportofto2000bown|~|annualreportofto2000bown|~|bow:0105,"Annual report of the Town of Bow, New Hampshire, 2000",2001,Title varies|~|Imprint varies|~|Report year varies,"University of New Hampshire. Library. Digital Collections.|~|Scanned by Internet Archive, Open Content Alliance (2008)",,,Text,Bow (N.H. : Town) -- Appropriations and expenditures -- Periodicals,Bow (N.H. : Town),,,eng,"[Concord, N.H.] : Woodbury &amp; Batchelder|~|University of New Hampshire. Library. Digital Collections.",bow_0105+application-pdf+application.pdf|~|bow_0105+image-low-jpg+image-low.jpg|~|bow_0105+image-tb-jpg+image-tb.jpg
Active,bow:0106,bow,http://www.archive.org/details/annualreportofto2001bown|~|annualreportofto2001bown|~|bow:0106,"Annual report of the Town of Bow, New Hampshire, 2001",2002,Title varies|~|Imprint varies|~|Report year varies,"University of New Hampshire. Library. Digital Collections.|~|Scanned by Internet Archive, Open Content Alliance (2008)",,,Text,Bow (N.H. : Town) -- Appropriations and expenditures -- Periodicals,Bow (N.H. : Town),,,eng,"[Concord, N.H.] : Woodbury &amp; Batchelder|~|University of New Hampshire. Library. Digital Collections.",bow_0106+application-pdf+application.pdf|~|bow_0106+image-low-jpg+image-low.jpg|~|bow_0106+image-tb-jpg+image-tb.jpg
Active,bow:0107,bow,http://www.archive.org/details/annualreportofto2002bown|~|annualreportofto2002bown|~|bow:0107,"Annual report of the Town of Bow, New Hampshire, 2002",2003,Title varies|~|Imprint varies|~|Report year varies,"University of New Hampshire. Library. Digital Collections.|~|Scanned by Internet Archive, Open Content Alliance (2008)",,,Text,Bow (N.H. : Town) -- Appropriations and expenditures -- Periodicals,Bow (N.H. : Town),,,eng,"[Concord, N.H.] : Woodbury &amp; Batchelder|~|University of New Hampshire. Library. Digital Collections.",bow_0107+application-pdf+application.pdf|~|bow_0107+image-low-jpg+image-low.jpg|~|bow_0107+image-tb-jpg+image-tb.jpg
Active,bow:0108,bow,http://www.archive.org/details/annualreportofto2003bown|~|annualreportofto2003bown|~|bow:0108,"Annual report of the Town of Bow, New Hampshire, 2003",2004,Title varies|~|Imprint varies|~|Report year varies,"University of New Hampshire. Library. Digital Collections.|~|Scanned by Internet Archive, Open Content Alliance (2008)",,,Text,Bow (N.H. : Town) -- Appropriations and expenditures -- Periodicals,Bow (N.H. : Town),,,eng,"[Concord, N.H.] : Woodbury &amp; Batchelder|~|University of New Hampshire. Library. Digital Collections.",bow_0108+application-pdf+application.pdf|~|bow_0108+image-low-jpg+image-low.jpg|~|bow_0108+image-tb-jpg+image-tb.jpg
Active,bow:0109,bow,http://www.archive.org/details/annualreportofto2004bown|~|annualreportofto2004bown|~|bow:0109,"Annual report of the Town of Bow, New Hampshire, 2004",2005,Title varies|~|Imprint varies|~|Report year varies,"University of New Hampshire. Library. Digital Collections.|~|Scanned by Internet Archive, Open Content Alliance (2008)",,,Text,Bow (N.H. : Town) -- Appropriations and expenditures -- Periodicals,Bow (N.H. : Town),,,eng,"[Concord, N.H.] : Woodbury &amp; Batchelder|~|University of New Hampshire. Library. Digital Collections.",bow_0109+application-pdf+application.pdf|~|bow_0109+image-low-jpg+image-low.jpg|~|bow_0109+image-tb-jpg+image-tb.jpg
Active,bow:0110,bow,http://www.archive.org/details/annualreportofto2005bown|~|annualreportofto2005bown|~|bow:0110,"Annual report of the Town of Bow, New Hampshire, 2005",2006,Title varies|~|Imprint varies|~|Report year varies,"University of New Hampshire. Library. Digital Collections.|~|Scanned by Internet Archive, Open Content Alliance (2008)",,,Text,Bow (N.H. : Town) -- Appropriations and expenditures -- Periodicals,Bow (N.H. : Town),,,eng,"[Concord, N.H.] : Woodbury &amp; Batchelder|~|University of New Hampshire. Library. Digital Collections.",bow_0110+application-pdf+application.pdf|~|bow_0110+image-low-jpg+image-low.jpg|~|bow_0110+image-tb-jpg+image-tb.jpg
Active,bow:0111,bow,http://www.archive.org/details/annualreportofto2006bown|~|annualreportofto2006bown|~|bow:0111,"Annual report of the Town of Bow, New Hampshire, 2006",2007,Title varies|~|Imprint varies|~|Report year varies,"University of New Hampshire. Library. Digital Collections.|~|Scanned by Internet Archive, Open Content Alliance (2008)",,,Text,Bow (N.H. : Town) -- Appropriations and expenditures -- Periodicals,Bow (N.H. : Town),,,eng,"[Concord, N.H.] : Woodbury &amp; Batchelder|~|University of New Hampshire. Library. Digital Collections.",bow_0111+application-pdf+application.pdf|~|bow_0111+image-low-jpg+image-low.jpg|~|bow_0111+image-tb-jpg+image-tb.jpg
Active,bow:0112,bow,http://www.archive.org/details/annualreportofto2007bown|~|annualreportofto2007bown|~|bow:0112,"Annual report of the Town of Bow, New Hampshire, 2007",2008,Title varies|~|Imprint varies|~|Report year varies,"University of New Hampshire. Library. Digital Collections.|~|Scanned by Internet Archive, Open Content Alliance (2008)",,,Text,Bow (N.H. : Town) -- Appropriations and expenditures -- Periodicals,Bow (N.H. : Town),,,eng,"[Concord, N.H.] : Woodbury &amp; Batchelder|~|University of New Hampshire. Library. Digital Collections.",bow_0112+application-pdf+application.pdf|~|bow_0112+image-low-jpg+image-low.jpg|~|bow_0112+image-tb-jpg+image-tb.jpg
Active,bow:0113,bow,bow1971|~|bow:0113,"Annual report of the Town of Bow, New Hampshire, 1971",1972,Title varies|~|Imprint varies|~|Report year varies,University of New Hampshire. Library. Digital Collections.,,,Text,Bow (N.H. : Town) -- Appropriations and expenditures -- Periodicals,Bow (N.H. : Town),,,eng,"[Concord, N.H.] : Woodbury &amp; Batchelder|~|University of New Hampshire. Library. Digital Collections.",bow_0113+application-pdf+application.pdf|~|bow_0113+image-low-jpg+image-low.jpg|~|bow_0113+image-tb-jpg+image-tb.jpg
Active,bow:0114,bow,bow1972|~|bow:0114,"Annual report of the Town of Bow, New Hampshire, 1972",1973,Title varies|~|Imprint varies|~|Report year varies,University of New Hampshire. Library. Digital Collections.,,,Text,Bow (N.H. : Town) -- Appropriations and expenditures -- Periodicals,Bow (N.H. : Town),,,eng,"[Concord, N.H.] : Woodbury &amp; Batchelder|~|University of New Hampshire. Library. Digital Collections.",bow_0114+application-pdf+application.pdf|~|bow_0114+image-low-jpg+image-low.jpg|~|bow_0114+image-tb-jpg+image-tb.jpg
Active,bow:0115,bow,bow1973|~|bow:0115,"Annual report of the Town of Bow, New Hampshire, 1973",1974,Title varies|~|Imprint varies|~|Report year varies,University of New Hampshire. Library. Digital Collections.,,,Text,Bow (N.H. : Town) -- Appropriations and expenditures -- Periodicals,Bow (N.H. : Town),,,eng,"[Concord, N.H.] : Woodbury &amp; Batchelder|~|University of New Hampshire. Library. Digital Collections.",bow_0115+application-pdf+application.pdf|~|bow_0115+image-low-jpg+image-low.jpg|~|bow_0115+image-tb-jpg+image-tb.jpg
