state,pid,collection,dcterms:identifier,dcterms:title,dcterms:date,dcterms:description,dcterms:contributor,dcterms:rights,dcterms:format,dcterms:type,dcterms:subject,dcterms:creator,dcterms:relation,dcterms:coverage,dcterms:language,dcterms:publisher,files
Active,columbia:0001,columbia,http://www.archive.org/details/annualreportcolu1896colu|~|annualreportcolu1896colu|~|columbia:0001,"Annual report, Columbia, New Hampshire, 1896",1896,Title varies|~|Imprint varies|~|Report year varies,"University of New Hampshire. Library. Digital Collections.|~|Scanned by Internet Archive, Open Content Alliance (2009)",,,Text,Columbia (N.H. : Town) -- Appropriations and expenditures -- Periodicals,Columbia (N.H. : Town),,,eng,"[Columbia, N.H. : The Town]|~|University of New Hampshire. Library. Digital Collections.",columbia_0001+application-pdf+application.pdf|~|columbia_0001+image-low-jpg+image-low.jpg|~|columbia_0001+image-tb-jpg+image-tb.jpg
Active,columbia:0002,columbia,http://www.archive.org/details/annualreportcolu1925colu|~|annualreportcolu1925colu|~|columbia:0002,"Annual report, Columbia, New Hampshire, 1925",1925,Title varies|~|Imprint varies|~|Report year varies,"University of New Hampshire. Library. Digital Collections.|~|Scanned by Internet Archive, Open Content Alliance (2009)",,,Text,Columbia (N.H. : Town) -- Appropriations and expenditures -- Periodicals,Columbia (N.H. : Town),,,eng,"[Columbia, N.H. : The Town]|~|University of New Hampshire. Library. Digital Collections.",columbia_0002+application-pdf+application.pdf|~|columbia_0002+image-low-jpg+image-low.jpg|~|columbia_0002+image-tb-jpg+image-tb.jpg
Active,columbia:0003,columbia,http://www.archive.org/details/annualreportcolu1926colu|~|annualreportcolu1926colu|~|columbia:0003,"Annual report, Columbia, New Hampshire, 1926",1926,Title varies|~|Imprint varies|~|Report year varies,"University of New Hampshire. Library. Digital Collections.|~|Scanned by Internet Archive, Open Content Alliance (2009)",,,Text,Columbia (N.H. : Town) -- Appropriations and expenditures -- Periodicals,Columbia (N.H. : Town),,,eng,"[Columbia, N.H. : The Town]|~|University of New Hampshire. Library. Digital Collections.",columbia_0003+application-pdf+application.pdf|~|columbia_0003+image-low-jpg+image-low.jpg|~|columbia_0003+image-tb-jpg+image-tb.jpg
Active,columbia:0004,columbia,http://www.archive.org/details/annualreportcolu1927colu|~|annualreportcolu1927colu|~|columbia:0004,"Annual report, Columbia, New Hampshire, 1927",1927,Title varies|~|Imprint varies|~|Report year varies,"University of New Hampshire. Library. Digital Collections.|~|Scanned by Internet Archive, Open Content Alliance (2009)",,,Text,Columbia (N.H. : Town) -- Appropriations and expenditures -- Periodicals,Columbia (N.H. : Town),,,eng,"[Columbia, N.H. : The Town]|~|University of New Hampshire. Library. Digital Collections.",columbia_0004+application-pdf+application.pdf|~|columbia_0004+image-low-jpg+image-low.jpg|~|columbia_0004+image-tb-jpg+image-tb.jpg
Active,columbia:0005,columbia,http://www.archive.org/details/annualreportcolu1928colu|~|annualreportcolu1928colu|~|columbia:0005,"Annual report, Columbia, New Hampshire, 1928",1928,Title varies|~|Imprint varies|~|Report year varies,"University of New Hampshire. Library. Digital Collections.|~|Scanned by Internet Archive, Open Content Alliance (2009)",,,Text,Columbia (N.H. : Town) -- Appropriations and expenditures -- Periodicals,Columbia (N.H. : Town),,,eng,"[Columbia, N.H. : The Town]|~|University of New Hampshire. Library. Digital Collections.",columbia_0005+application-pdf+application.pdf|~|columbia_0005+image-low-jpg+image-low.jpg|~|columbia_0005+image-tb-jpg+image-tb.jpg
Active,columbia:0006,columbia,http://www.archive.org/details/annualreportcolu1929colu|~|annualreportcolu1929colu|~|columbia:0006,"Annual report, Columbia, New Hampshire, 1929",1929,Title varies|~|Imprint varies|~|Report year varies,"University of New Hampshire. Library. Digital Collections.|~|Scanned by Internet Archive, Open Content Alliance (2009)",,,Text,Columbia (N.H. : Town) -- Appropriations and expenditures -- Periodicals,Columbia (N.H. : Town),,,eng,"[Columbia, N.H. : The Town]|~|University of New Hampshire. Library. Digital Collections.",columbia_0006+application-pdf+application.pdf|~|columbia_0006+image-low-jpg+image-low.jpg|~|columbia_0006+image-tb-jpg+image-tb.jpg
Active,columbia:0007,columbia,http://www.archive.org/details/annualreportcolu1930colu|~|annualreportcolu1930colu|~|columbia:0007,"Annual report, Columbia, New Hampshire, 1930",1930,Title varies|~|Imprint varies|~|Report year varies,"University of New Hampshire. Library. Digital Collections.|~|Scanned by Internet Archive, Open Content Alliance (2009)",,,Text,Columbia (N.H. : Town) -- Appropriations and expenditures -- Periodicals,Columbia (N.H. : Town),,,eng,"[Columbia, N.H. : The Town]|~|University of New Hampshire. Library. Digital Collections.",columbia_0007+application-pdf+application.pdf|~|columbia_0007+image-low-jpg+image-low.jpg|~|columbia_0007+image-tb-jpg+image-tb.jpg
Active,columbia:0008,columbia,http://www.archive.org/details/annualreportcolu1931colu|~|annualreportcolu1931colu|~|columbia:0008,"Annual report, Columbia, New Hampshire, 1931",1931,Title varies|~|Imprint varies|~|Report year varies,"University of New Hampshire. Library. Digital Collections.|~|Scanned by Internet Archive, Open Content Alliance (2009)",,,Text,Columbia (N.H. : Town) -- Appropriations and expenditures -- Periodicals,Columbia (N.H. : Town),,,eng,"[Columbia, N.H. : The Town]|~|University of New Hampshire. Library. Digital Collections.",columbia_0008+application-pdf+application.pdf|~|columbia_0008+image-low-jpg+image-low.jpg|~|columbia_0008+image-tb-jpg+image-tb.jpg
Active,columbia:0009,columbia,http://www.archive.org/details/annualreportcolu1932colu|~|annualreportcolu1932colu|~|columbia:0009,"Annual report, Columbia, New Hampshire, 1932",1932,Title varies|~|Imprint varies|~|Report year varies,"University of New Hampshire. Library. Digital Collections.|~|Scanned by Internet Archive, Open Content Alliance (2009)",,,Text,Columbia (N.H. : Town) -- Appropriations and expenditures -- Periodicals,Columbia (N.H. : Town),,,eng,"[Columbia, N.H. : The Town]|~|University of New Hampshire. Library. Digital Collections.",columbia_0009+application-pdf+application.pdf|~|columbia_0009+image-low-jpg+image-low.jpg|~|columbia_0009+image-tb-jpg+image-tb.jpg
Active,columbia:0010,columbia,http://www.archive.org/details/annualreportcolu1933colu|~|annualreportcolu1933colu|~|columbia:0010,"Annual report, Columbia, New Hampshire, 1933",1933,Title varies|~|Imprint varies|~|Report year varies,"University of New Hampshire. Library. Digital Collections.|~|Scanned by Internet Archive, Open Content Alliance (2009)",,,Text,Columbia (N.H. : Town) -- Appropriations and expenditures -- Periodicals,Columbia (N.H. : Town),,,eng,"[Columbia, N.H. : The Town]|~|University of New Hampshire. Library. Digital Collections.",columbia_0010+application-pdf+application.pdf|~|columbia_0010+image-low-jpg+image-low.jpg|~|columbia_0010+image-tb-jpg+image-tb.jpg
Active,columbia:0011,columbia,http://www.archive.org/details/annualreportcolu1934colu|~|annualreportcolu1934colu|~|columbia:0011,"Annual report, Columbia, New Hampshire, 1934",1934,Title varies|~|Imprint varies|~|Report year varies,"University of New Hampshire. Library. Digital Collections.|~|Scanned by Internet Archive, Open Content Alliance (2009)",,,Text,Columbia (N.H. : Town) -- Appropriations and expenditures -- Periodicals,Columbia (N.H. : Town),,,eng,"[Columbia, N.H. : The Town]|~|University of New Hampshire. Library. Digital Collections.",columbia_0011+application-pdf+application.pdf|~|columbia_0011+image-low-jpg+image-low.jpg|~|columbia_0011+image-tb-jpg+image-tb.jpg
Active,columbia:0012,columbia,http://www.archive.org/details/annualreportcolu1935colu|~|annualreportcolu1935colu|~|columbia:0012,"Annual report, Columbia, New Hampshire, 1935",1935,Title varies|~|Imprint varies|~|Report year varies,"University of New Hampshire. Library. Digital Collections.|~|Scanned by Internet Archive, Open Content Alliance (2009)",,,Text,Columbia (N.H. : Town) -- Appropriations and expenditures -- Periodicals,Columbia (N.H. : Town),,,eng,"[Columbia, N.H. : The Town]|~|University of New Hampshire. Library. Digital Collections.",columbia_0012+application-pdf+application.pdf|~|columbia_0012+image-low-jpg+image-low.jpg|~|columbia_0012+image-tb-jpg+image-tb.jpg
Active,columbia:0013,columbia,http://www.archive.org/details/annualreportcolu1936colu|~|annualreportcolu1936colu|~|columbia:0013,"Annual report, Columbia, New Hampshire, 1936",1936,Title varies|~|Imprint varies|~|Report year varies,"University of New Hampshire. Library. Digital Collections.|~|Scanned by Internet Archive, Open Content Alliance (2009)",,,Text,Columbia (N.H. : Town) -- Appropriations and expenditures -- Periodicals,Columbia (N.H. : Town),,,eng,"[Columbia, N.H. : The Town]|~|University of New Hampshire. Library. Digital Collections.",columbia_0013+application-pdf+application.pdf|~|columbia_0013+image-low-jpg+image-low.jpg|~|columbia_0013+image-tb-jpg+image-tb.jpg
Active,columbia:0014,columbia,http://www.archive.org/details/annualreportcolu1937colu|~|annualreportcolu1937colu|~|columbia:0014,"Annual report, Columbia, New Hampshire, 1937",1937,Title varies|~|Imprint varies|~|Report year varies,"University of New Hampshire. Library. Digital Collections.|~|Scanned by Internet Archive, Open Content Alliance (2009)",,,Text,Columbia (N.H. : Town) -- Appropriations and expenditures -- Periodicals,Columbia (N.H. : Town),,,eng,"[Columbia, N.H. : The Town]|~|University of New Hampshire. Library. Digital Collections.",columbia_0014+application-pdf+application.pdf|~|columbia_0014+image-low-jpg+image-low.jpg|~|columbia_0014+image-tb-jpg+image-tb.jpg
Active,columbia:0015,columbia,http://www.archive.org/details/annualreportcolu1938colu|~|annualreportcolu1938colu|~|columbia:0015,"Annual report, Columbia, New Hampshire, 1938",1938,Title varies|~|Imprint varies|~|Report year varies,"University of New Hampshire. Library. Digital Collections.|~|Scanned by Internet Archive, Open Content Alliance (2009)",,,Text,Columbia (N.H. : Town) -- Appropriations and expenditures -- Periodicals,Columbia (N.H. : Town),,,eng,"[Columbia, N.H. : The Town]|~|University of New Hampshire. Library. Digital Collections.",columbia_0015+application-pdf+application.pdf|~|columbia_0015+image-low-jpg+image-low.jpg|~|columbia_0015+image-tb-jpg+image-tb.jpg
Active,columbia:0016,columbia,http://www.archive.org/details/annualreportcolu1939colu|~|annualreportcolu1939colu|~|columbia:0016,"Annual report, Columbia, New Hampshire, 1939",1939,Title varies|~|Imprint varies|~|Report year varies,"University of New Hampshire. Library. Digital Collections.|~|Scanned by Internet Archive, Open Content Alliance (2009)",,,Text,Columbia (N.H. : Town) -- Appropriations and expenditures -- Periodicals,Columbia (N.H. : Town),,,eng,"[Columbia, N.H. : The Town]|~|University of New Hampshire. Library. Digital Collections.",columbia_0016+application-pdf+application.pdf|~|columbia_0016+image-low-jpg+image-low.jpg|~|columbia_0016+image-tb-jpg+image-tb.jpg
Active,columbia:0017,columbia,http://www.archive.org/details/annualreportcolu1940colu|~|annualreportcolu1940colu|~|columbia:0017,"Annual report, Columbia, New Hampshire, 1940",1940,Title varies|~|Imprint varies|~|Report year varies,"University of New Hampshire. Library. Digital Collections.|~|Scanned by Internet Archive, Open Content Alliance (2009)",,,Text,Columbia (N.H. : Town) -- Appropriations and expenditures -- Periodicals,Columbia (N.H. : Town),,,eng,"[Columbia, N.H. : The Town]|~|University of New Hampshire. Library. Digital Collections.",columbia_0017+application-pdf+application.pdf|~|columbia_0017+image-low-jpg+image-low.jpg|~|columbia_0017+image-tb-jpg+image-tb.jpg
Active,columbia:0018,columbia,http://www.archive.org/details/annualreportcolu1941colu|~|annualreportcolu1941colu|~|columbia:0018,"Annual report, Columbia, New Hampshire, 1941",1941,Title varies|~|Imprint varies|~|Report year varies,"University of New Hampshire. Library. Digital Collections.|~|Scanned by Internet Archive, Open Content Alliance (2009)",,,Text,Columbia (N.H. : Town) -- Appropriations and expenditures -- Periodicals,Columbia (N.H. : Town),,,eng,"[Columbia, N.H. : The Town]|~|University of New Hampshire. Library. Digital Collections.",columbia_0018+application-pdf+application.pdf|~|columbia_0018+image-low-jpg+image-low.jpg|~|columbia_0018+image-tb-jpg+image-tb.jpg
Active,columbia:0019,columbia,http://www.archive.org/details/annualreportcolu1942colu|~|annualreportcolu1942colu|~|columbia:0019,"Annual report, Columbia, New Hampshire, 1942",1942,Title varies|~|Imprint varies|~|Report year varies,"University of New Hampshire. Library. Digital Collections.|~|Scanned by Internet Archive, Open Content Alliance (2009)",,,Text,Columbia (N.H. : Town) -- Appropriations and expenditures -- Periodicals,Columbia (N.H. : Town),,,eng,"[Columbia, N.H. : The Town]|~|University of New Hampshire. Library. Digital Collections.",columbia_0019+application-pdf+application.pdf|~|columbia_0019+image-low-jpg+image-low.jpg|~|columbia_0019+image-tb-jpg+image-tb.jpg
Active,columbia:0020,columbia,http://www.archive.org/details/annualreportcolu1944colu|~|annualreportcolu1944colu|~|columbia:0020,"Annual report, Columbia, New Hampshire, 1944",1944,Title varies|~|Imprint varies|~|Report year varies,"University of New Hampshire. Library. Digital Collections.|~|Scanned by Internet Archive, Open Content Alliance (2009)",,,Text,Columbia (N.H. : Town) -- Appropriations and expenditures -- Periodicals,Columbia (N.H. : Town),,,eng,"[Columbia, N.H. : The Town]|~|University of New Hampshire. Library. Digital Collections.",columbia_0020+application-pdf+application.pdf|~|columbia_0020+image-low-jpg+image-low.jpg|~|columbia_0020+image-tb-jpg+image-tb.jpg
Active,columbia:0021,columbia,http://www.archive.org/details/annualreportcolu4445colu|~|annualreportcolu4445colu|~|columbia:0021,"Annual report, Columbia, New Hampshire, 1944",1945,Title varies|~|Imprint varies|~|Report year varies,"University of New Hampshire. Library. Digital Collections.|~|Scanned by Internet Archive, Open Content Alliance (2009)",,,Text,Columbia (N.H. : Town) -- Appropriations and expenditures -- Periodicals,Columbia (N.H. : Town),,,eng,"[Columbia, N.H. : The Town]|~|University of New Hampshire. Library. Digital Collections.",columbia_0021+application-pdf+application.pdf|~|columbia_0021+image-low-jpg+image-low.jpg|~|columbia_0021+image-tb-jpg+image-tb.jpg
Active,columbia:0022,columbia,http://www.archive.org/details/annualreportcolu1945colu|~|annualreportcolu1945colu|~|columbia:0022,"Annual report, Columbia, New Hampshire, 1945",1946,Title varies|~|Imprint varies|~|Report year varies,"University of New Hampshire. Library. Digital Collections.|~|Scanned by Internet Archive, Open Content Alliance (2009)",,,Text,Columbia (N.H. : Town) -- Appropriations and expenditures -- Periodicals,Columbia (N.H. : Town),,,eng,"[Columbia, N.H. : The Town]|~|University of New Hampshire. Library. Digital Collections.",columbia_0022+application-pdf+application.pdf|~|columbia_0022+image-low-jpg+image-low.jpg|~|columbia_0022+image-tb-jpg+image-tb.jpg
Active,columbia:0023,columbia,http://www.archive.org/details/annualreportcolu1946colu|~|annualreportcolu1946colu|~|columbia:0023,"Annual report, Columbia, New Hampshire, 1946",1947,Title varies|~|Imprint varies|~|Report year varies,"University of New Hampshire. Library. Digital Collections.|~|Scanned by Internet Archive, Open Content Alliance (2009)",,,Text,Columbia (N.H. : Town) -- Appropriations and expenditures -- Periodicals,Columbia (N.H. : Town),,,eng,"[Columbia, N.H. : The Town]|~|University of New Hampshire. Library. Digital Collections.",columbia_0023+application-pdf+application.pdf|~|columbia_0023+image-low-jpg+image-low.jpg|~|columbia_0023+image-tb-jpg+image-tb.jpg
Active,columbia:0024,columbia,http://www.archive.org/details/annualreportcolu1947colu|~|annualreportcolu1947colu|~|columbia:0024,"Annual report, Columbia, New Hampshire, 1947",1948,Title varies|~|Imprint varies|~|Report year varies,"University of New Hampshire. Library. Digital Collections.|~|Scanned by Internet Archive, Open Content Alliance (2009)",,,Text,Columbia (N.H. : Town) -- Appropriations and expenditures -- Periodicals,Columbia (N.H. : Town),,,eng,"[Columbia, N.H. : The Town]|~|University of New Hampshire. Library. Digital Collections.",columbia_0024+application-pdf+application.pdf|~|columbia_0024+image-low-jpg+image-low.jpg|~|columbia_0024+image-tb-jpg+image-tb.jpg
Active,columbia:0025,columbia,http://www.archive.org/details/annualreportcolu1949colu|~|annualreportcolu1949colu|~|columbia:0025,"Annual report, Columbia, New Hampshire, 1949",1950,Title varies|~|Imprint varies|~|Report year varies,"University of New Hampshire. Library. Digital Collections.|~|Scanned by Internet Archive, Open Content Alliance (2009)",,,Text,Columbia (N.H. : Town) -- Appropriations and expenditures -- Periodicals,Columbia (N.H. : Town),,,eng,"[Columbia, N.H. : The Town]|~|University of New Hampshire. Library. Digital Collections.",columbia_0025+application-pdf+application.pdf|~|columbia_0025+image-low-jpg+image-low.jpg|~|columbia_0025+image-tb-jpg+image-tb.jpg
Active,columbia:0026,columbia,http://www.archive.org/details/annualreportcolu1950colu|~|annualreportcolu1950colu|~|columbia:0026,"Annual report, Columbia, New Hampshire, 1950",1951,Title varies|~|Imprint varies|~|Report year varies,"University of New Hampshire. Library. Digital Collections.|~|Scanned by Internet Archive, Open Content Alliance (2009)",,,Text,Columbia (N.H. : Town) -- Appropriations and expenditures -- Periodicals,Columbia (N.H. : Town),,,eng,"[Columbia, N.H. : The Town]|~|University of New Hampshire. Library. Digital Collections.",columbia_0026+application-pdf+application.pdf|~|columbia_0026+image-low-jpg+image-low.jpg|~|columbia_0026+image-tb-jpg+image-tb.jpg
Active,columbia:0027,columbia,http://www.archive.org/details/annualreportcolu1951colu|~|annualreportcolu1951colu|~|columbia:0027,"Annual report, Columbia, New Hampshire, 1951",1952,Title varies|~|Imprint varies|~|Report year varies,"University of New Hampshire. Library. Digital Collections.|~|Scanned by Internet Archive, Open Content Alliance (2009)",,,Text,Columbia (N.H. : Town) -- Appropriations and expenditures -- Periodicals,Columbia (N.H. : Town),,,eng,"[Columbia, N.H. : The Town]|~|University of New Hampshire. Library. Digital Collections.",columbia_0027+application-pdf+application.pdf|~|columbia_0027+image-low-jpg+image-low.jpg|~|columbia_0027+image-tb-jpg+image-tb.jpg
Active,columbia:0028,columbia,http://www.archive.org/details/annualreportcolu1952colu|~|annualreportcolu1952colu|~|columbia:0028,"Annual report, Columbia, New Hampshire, 1952",1953,Title varies|~|Imprint varies|~|Report year varies,"University of New Hampshire. Library. Digital Collections.|~|Scanned by Internet Archive, Open Content Alliance (2009)",,,Text,Columbia (N.H. : Town) -- Appropriations and expenditures -- Periodicals,Columbia (N.H. : Town),,,eng,"[Columbia, N.H. : The Town]|~|University of New Hampshire. Library. Digital Collections.",columbia_0028+application-pdf+application.pdf|~|columbia_0028+image-low-jpg+image-low.jpg|~|columbia_0028+image-tb-jpg+image-tb.jpg
Active,columbia:0029,columbia,http://www.archive.org/details/annualreportcolu1953colu|~|annualreportcolu1953colu|~|columbia:0029,"Annual report, Columbia, New Hampshire, 1953",1954,Title varies|~|Imprint varies|~|Report year varies,"University of New Hampshire. Library. Digital Collections.|~|Scanned by Internet Archive, Open Content Alliance (2009)",,,Text,Columbia (N.H. : Town) -- Appropriations and expenditures -- Periodicals,Columbia (N.H. : Town),,,eng,"[Columbia, N.H. : The Town]|~|University of New Hampshire. Library. Digital Collections.",columbia_0029+application-pdf+application.pdf|~|columbia_0029+image-low-jpg+image-low.jpg|~|columbia_0029+image-tb-jpg+image-tb.jpg
Active,columbia:0030,columbia,http://www.archive.org/details/annualreportcolu1954colu|~|annualreportcolu1954colu|~|columbia:0030,"Annual report, Columbia, New Hampshire, 1954",1955,Title varies|~|Imprint varies|~|Report year varies,"University of New Hampshire. Library. Digital Collections.|~|Scanned by Internet Archive, Open Content Alliance (2009)",,,Text,Columbia (N.H. : Town) -- Appropriations and expenditures -- Periodicals,Columbia (N.H. : Town),,,eng,"[Columbia, N.H. : The Town]|~|University of New Hampshire. Library. Digital Collections.",columbia_0030+application-pdf+application.pdf|~|columbia_0030+image-low-jpg+image-low.jpg|~|columbia_0030+image-tb-jpg+image-tb.jpg
Active,columbia:0031,columbia,http://www.archive.org/details/annualreportcolu1955colu|~|annualreportcolu1955colu|~|columbia:0031,"Annual report, Columbia, New Hampshire, 1955",1956,Title varies|~|Imprint varies|~|Report year varies,"University of New Hampshire. Library. Digital Collections.|~|Scanned by Internet Archive, Open Content Alliance (2009)",,,Text,Columbia (N.H. : Town) -- Appropriations and expenditures -- Periodicals,Columbia (N.H. : Town),,,eng,"[Columbia, N.H. : The Town]|~|University of New Hampshire. Library. Digital Collections.",columbia_0031+application-pdf+application.pdf|~|columbia_0031+image-low-jpg+image-low.jpg|~|columbia_0031+image-tb-jpg+image-tb.jpg
Active,columbia:0032,columbia,http://www.archive.org/details/annualreportcolu1956colu|~|annualreportcolu1956colu|~|columbia:0032,"Annual report, Columbia, New Hampshire, 1956",1957,Title varies|~|Imprint varies|~|Report year varies,"University of New Hampshire. Library. Digital Collections.|~|Scanned by Internet Archive, Open Content Alliance (2009)",,,Text,Columbia (N.H. : Town) -- Appropriations and expenditures -- Periodicals,Columbia (N.H. : Town),,,eng,"[Columbia, N.H. : The Town]|~|University of New Hampshire. Library. Digital Collections.",columbia_0032+application-pdf+application.pdf|~|columbia_0032+image-low-jpg+image-low.jpg|~|columbia_0032+image-tb-jpg+image-tb.jpg
Active,columbia:0033,columbia,http://www.archive.org/details/annualreportcolu1957colu|~|annualreportcolu1957colu|~|columbia:0033,"Annual report, Columbia, New Hampshire, 1957",1958,Title varies|~|Imprint varies|~|Report year varies,"University of New Hampshire. Library. Digital Collections.|~|Scanned by Internet Archive, Open Content Alliance (2009)",,,Text,Columbia (N.H. : Town) -- Appropriations and expenditures -- Periodicals,Columbia (N.H. : Town),,,eng,"[Columbia, N.H. : The Town]|~|University of New Hampshire. Library. Digital Collections.",columbia_0033+application-pdf+application.pdf|~|columbia_0033+image-low-jpg+image-low.jpg|~|columbia_0033+image-tb-jpg+image-tb.jpg
Active,columbia:0034,columbia,http://www.archive.org/details/annualreportcolu1958colu|~|annualreportcolu1958colu|~|columbia:0034,"Annual report, Columbia, New Hampshire, 1958",1959,Title varies|~|Imprint varies|~|Report year varies,"University of New Hampshire. Library. Digital Collections.|~|Scanned by Internet Archive, Open Content Alliance (2009)",,,Text,Columbia (N.H. : Town) -- Appropriations and expenditures -- Periodicals,Columbia (N.H. : Town),,,eng,"[Columbia, N.H. : The Town]|~|University of New Hampshire. Library. Digital Collections.",columbia_0034+application-pdf+application.pdf|~|columbia_0034+image-low-jpg+image-low.jpg|~|columbia_0034+image-tb-jpg+image-tb.jpg
Active,columbia:0035,columbia,http://www.archive.org/details/annualreportcolu1959colu|~|annualreportcolu1959colu|~|columbia:0035,"Annual report, Columbia, New Hampshire, 1959",1960,Title varies|~|Imprint varies|~|Report year varies,"University of New Hampshire. Library. Digital Collections.|~|Scanned by Internet Archive, Open Content Alliance (2009)",,,Text,Columbia (N.H. : Town) -- Appropriations and expenditures -- Periodicals,Columbia (N.H. : Town),,,eng,"[Columbia, N.H. : The Town]|~|University of New Hampshire. Library. Digital Collections.",columbia_0035+application-pdf+application.pdf|~|columbia_0035+image-low-jpg+image-low.jpg|~|columbia_0035+image-tb-jpg+image-tb.jpg
Active,columbia:0036,columbia,http://www.archive.org/details/annualreportcolu1960colu|~|annualreportcolu1960colu|~|columbia:0036,"Annual report, Columbia, New Hampshire, 1960",1961,Title varies|~|Imprint varies|~|Report year varies,"University of New Hampshire. Library. Digital Collections.|~|Scanned by Internet Archive, Open Content Alliance (2009)",,,Text,Columbia (N.H. : Town) -- Appropriations and expenditures -- Periodicals,Columbia (N.H. : Town),,,eng,"[Columbia, N.H. : The Town]|~|University of New Hampshire. Library. Digital Collections.",columbia_0036+application-pdf+application.pdf|~|columbia_0036+image-low-jpg+image-low.jpg|~|columbia_0036+image-tb-jpg+image-tb.jpg
Active,columbia:0037,columbia,http://www.archive.org/details/annualreportcolu1961colu|~|annualreportcolu1961colu|~|columbia:0037,"Annual report, Columbia, New Hampshire, 1961",1962,Title varies|~|Imprint varies|~|Report year varies,"University of New Hampshire. Library. Digital Collections.|~|Scanned by Internet Archive, Open Content Alliance (2009)",,,Text,Columbia (N.H. : Town) -- Appropriations and expenditures -- Periodicals,Columbia (N.H. : Town),,,eng,"[Columbia, N.H. : The Town]|~|University of New Hampshire. Library. Digital Collections.",columbia_0037+application-pdf+application.pdf|~|columbia_0037+image-low-jpg+image-low.jpg|~|columbia_0037+image-tb-jpg+image-tb.jpg
Active,columbia:0038,columbia,http://www.archive.org/details/annualreportcolu1962colu|~|annualreportcolu1962colu|~|columbia:0038,"Annual report, Columbia, New Hampshire, 1962",1963,Title varies|~|Imprint varies|~|Report year varies,"University of New Hampshire. Library. Digital Collections.|~|Scanned by Internet Archive, Open Content Alliance (2009)",,,Text,Columbia (N.H. : Town) -- Appropriations and expenditures -- Periodicals,Columbia (N.H. : Town),,,eng,"[Columbia, N.H. : The Town]|~|University of New Hampshire. Library. Digital Collections.",columbia_0038+application-pdf+application.pdf|~|columbia_0038+image-low-jpg+image-low.jpg|~|columbia_0038+image-tb-jpg+image-tb.jpg
Active,columbia:0039,columbia,http://www.archive.org/details/annualreportcolu1963colu|~|annualreportcolu1963colu|~|columbia:0039,"Annual report, Columbia, New Hampshire, 1963",1964,Title varies|~|Imprint varies|~|Report year varies,"University of New Hampshire. Library. Digital Collections.|~|Scanned by Internet Archive, Open Content Alliance (2009)",,,Text,Columbia (N.H. : Town) -- Appropriations and expenditures -- Periodicals,Columbia (N.H. : Town),,,eng,"[Columbia, N.H. : The Town]|~|University of New Hampshire. Library. Digital Collections.",columbia_0039+application-pdf+application.pdf|~|columbia_0039+image-low-jpg+image-low.jpg|~|columbia_0039+image-tb-jpg+image-tb.jpg
Active,columbia:0040,columbia,http://www.archive.org/details/annualreportcolu1964colu|~|annualreportcolu1964colu|~|columbia:0040,"Annual report, Columbia, New Hampshire, 1964",1965,Title varies|~|Imprint varies|~|Report year varies,"University of New Hampshire. Library. Digital Collections.|~|Scanned by Internet Archive, Open Content Alliance (2009)",,,Text,Columbia (N.H. : Town) -- Appropriations and expenditures -- Periodicals,Columbia (N.H. : Town),,,eng,"[Columbia, N.H. : The Town]|~|University of New Hampshire. Library. Digital Collections.",columbia_0040+application-pdf+application.pdf|~|columbia_0040+image-low-jpg+image-low.jpg|~|columbia_0040+image-tb-jpg+image-tb.jpg
Active,columbia:0041,columbia,http://www.archive.org/details/annualreportcolu1965colu|~|annualreportcolu1965colu|~|columbia:0041,"Annual report, Columbia, New Hampshire, 1965",1966,Title varies|~|Imprint varies|~|Report year varies,"University of New Hampshire. Library. Digital Collections.|~|Scanned by Internet Archive, Open Content Alliance (2009)",,,Text,Columbia (N.H. : Town) -- Appropriations and expenditures -- Periodicals,Columbia (N.H. : Town),,,eng,"[Columbia, N.H. : The Town]|~|University of New Hampshire. Library. Digital Collections.",columbia_0041+application-pdf+application.pdf|~|columbia_0041+image-low-jpg+image-low.jpg|~|columbia_0041+image-tb-jpg+image-tb.jpg
Active,columbia:0042,columbia,http://www.archive.org/details/annualreportcolu1966colu|~|annualreportcolu1966colu|~|columbia:0042,"Annual report, Columbia, New Hampshire, 1966",1967,Title varies|~|Imprint varies|~|Report year varies,"University of New Hampshire. Library. Digital Collections.|~|Scanned by Internet Archive, Open Content Alliance (2009)",,,Text,Columbia (N.H. : Town) -- Appropriations and expenditures -- Periodicals,Columbia (N.H. : Town),,,eng,"[Columbia, N.H. : The Town]|~|University of New Hampshire. Library. Digital Collections.",columbia_0042+application-pdf+application.pdf|~|columbia_0042+image-low-jpg+image-low.jpg|~|columbia_0042+image-tb-jpg+image-tb.jpg
Active,columbia:0043,columbia,http://www.archive.org/details/annualreportcolu1967colu|~|annualreportcolu1967colu|~|columbia:0043,"Annual report, Columbia, New Hampshire, 1967",1968,Title varies|~|Imprint varies|~|Report year varies,"University of New Hampshire. Library. Digital Collections.|~|Scanned by Internet Archive, Open Content Alliance (2009)",,,Text,Columbia (N.H. : Town) -- Appropriations and expenditures -- Periodicals,Columbia (N.H. : Town),,,eng,"[Columbia, N.H. : The Town]|~|University of New Hampshire. Library. Digital Collections.",columbia_0043+application-pdf+application.pdf|~|columbia_0043+image-low-jpg+image-low.jpg|~|columbia_0043+image-tb-jpg+image-tb.jpg
Active,columbia:0044,columbia,http://www.archive.org/details/annualreportcolu1968colu|~|annualreportcolu1968colu|~|columbia:0044,"Annual report, Columbia, New Hampshire, 1968",1969,Title varies|~|Imprint varies|~|Report year varies,"University of New Hampshire. Library. Digital Collections.|~|Scanned by Internet Archive, Open Content Alliance (2009)",,,Text,Columbia (N.H. : Town) -- Appropriations and expenditures -- Periodicals,Columbia (N.H. : Town),,,eng,"[Columbia, N.H. : The Town]|~|University of New Hampshire. Library. Digital Collections.",columbia_0044+application-pdf+application.pdf|~|columbia_0044+image-low-jpg+image-low.jpg|~|columbia_0044+image-tb-jpg+image-tb.jpg
Active,columbia:0045,columbia,http://www.archive.org/details/annualreportcolu1969colu|~|annualreportcolu1969colu|~|columbia:0045,"Annual report, Columbia, New Hampshire, 1969",1970,Title varies|~|Imprint varies|~|Report year varies,"University of New Hampshire. Library. Digital Collections.|~|Scanned by Internet Archive, Open Content Alliance (2009)",,,Text,Columbia (N.H. : Town) -- Appropriations and expenditures -- Periodicals,Columbia (N.H. : Town),,,eng,"[Columbia, N.H. : The Town]|~|University of New Hampshire. Library. Digital Collections.",columbia_0045+application-pdf+application.pdf|~|columbia_0045+image-low-jpg+image-low.jpg|~|columbia_0045+image-tb-jpg+image-tb.jpg
Active,columbia:0046,columbia,http://www.archive.org/details/annualreportcolu1970colu|~|annualreportcolu1970colu|~|columbia:0046,"Annual report, Columbia, New Hampshire, 1970",1971,Title varies|~|Imprint varies|~|Report year varies,"University of New Hampshire. Library. Digital Collections.|~|Scanned by Internet Archive, Open Content Alliance (2009)",,,Text,Columbia (N.H. : Town) -- Appropriations and expenditures -- Periodicals,Columbia (N.H. : Town),,,eng,"[Columbia, N.H. : The Town]|~|University of New Hampshire. Library. Digital Collections.",columbia_0046+application-pdf+application.pdf|~|columbia_0046+image-low-jpg+image-low.jpg|~|columbia_0046+image-tb-jpg+image-tb.jpg
Active,columbia:0047,columbia,http://www.archive.org/details/annualreportcolu1971colu|~|annualreportcolu1971colu|~|columbia:0047,"Annual report, Columbia, New Hampshire, 1971",1972,Title varies|~|Imprint varies|~|Report year varies,"University of New Hampshire. Library. Digital Collections.|~|Scanned by Internet Archive, Open Content Alliance (2009)",,,Text,Columbia (N.H. : Town) -- Appropriations and expenditures -- Periodicals,Columbia (N.H. : Town),,,eng,"[Columbia, N.H. : The Town]|~|University of New Hampshire. Library. Digital Collections.",columbia_0047+application-pdf+application.pdf|~|columbia_0047+image-low-jpg+image-low.jpg|~|columbia_0047+image-tb-jpg+image-tb.jpg
Active,columbia:0048,columbia,http://www.archive.org/details/annualreportcolu1972colu|~|annualreportcolu1972colu|~|columbia:0048,"Annual report, Columbia, New Hampshire, 1972",1973,Title varies|~|Imprint varies|~|Report year varies,"University of New Hampshire. Library. Digital Collections.|~|Scanned by Internet Archive, Open Content Alliance (2009)",,,Text,Columbia (N.H. : Town) -- Appropriations and expenditures -- Periodicals,Columbia (N.H. : Town),,,eng,"[Columbia, N.H. : The Town]|~|University of New Hampshire. Library. Digital Collections.",columbia_0048+application-pdf+application.pdf|~|columbia_0048+image-low-jpg+image-low.jpg|~|columbia_0048+image-tb-jpg+image-tb.jpg
Active,columbia:0049,columbia,http://www.archive.org/details/annualreportcolu1973colu|~|annualreportcolu1973colu|~|columbia:0049,"Annual report, Columbia, New Hampshire, 1973",1974,Title varies|~|Imprint varies|~|Report year varies,"University of New Hampshire. Library. Digital Collections.|~|Scanned by Internet Archive, Open Content Alliance (2009)",,,Text,Columbia (N.H. : Town) -- Appropriations and expenditures -- Periodicals,Columbia (N.H. : Town),,,eng,"[Columbia, N.H. : The Town]|~|University of New Hampshire. Library. Digital Collections.",columbia_0049+application-pdf+application.pdf|~|columbia_0049+image-low-jpg+image-low.jpg|~|columbia_0049+image-tb-jpg+image-tb.jpg
Active,columbia:0050,columbia,http://www.archive.org/details/annualreportcolu1974colu|~|annualreportcolu1974colu|~|columbia:0050,"Annual report, Columbia, New Hampshire, 1974",1975,Title varies|~|Imprint varies|~|Report year varies,"University of New Hampshire. Library. Digital Collections.|~|Scanned by Internet Archive, Open Content Alliance (2009)",,,Text,Columbia (N.H. : Town) -- Appropriations and expenditures -- Periodicals,Columbia (N.H. : Town),,,eng,"[Columbia, N.H. : The Town]|~|University of New Hampshire. Library. Digital Collections.",columbia_0050+application-pdf+application.pdf|~|columbia_0050+image-low-jpg+image-low.jpg|~|columbia_0050+image-tb-jpg+image-tb.jpg
Active,columbia:0051,columbia,http://www.archive.org/details/annualreportcolu1975colu|~|annualreportcolu1975colu|~|columbia:0051,"Annual report, Columbia, New Hampshire, 1975",1976,Title varies|~|Imprint varies|~|Report year varies,"University of New Hampshire. Library. Digital Collections.|~|Scanned by Internet Archive, Open Content Alliance (2009)",,,Text,Columbia (N.H. : Town) -- Appropriations and expenditures -- Periodicals,Columbia (N.H. : Town),,,eng,"[Columbia, N.H. : The Town]|~|University of New Hampshire. Library. Digital Collections.",columbia_0051+application-pdf+application.pdf|~|columbia_0051+image-low-jpg+image-low.jpg|~|columbia_0051+image-tb-jpg+image-tb.jpg
Active,columbia:0052,columbia,http://www.archive.org/details/annualreportcolu1976colu|~|annualreportcolu1976colu|~|columbia:0052,"Annual report, Columbia, New Hampshire, 1976",1977,Title varies|~|Imprint varies|~|Report year varies,"University of New Hampshire. Library. Digital Collections.|~|Scanned by Internet Archive, Open Content Alliance (2009)",,,Text,Columbia (N.H. : Town) -- Appropriations and expenditures -- Periodicals,Columbia (N.H. : Town),,,eng,"[Columbia, N.H. : The Town]|~|University of New Hampshire. Library. Digital Collections.",columbia_0052+application-pdf+application.pdf|~|columbia_0052+image-low-jpg+image-low.jpg|~|columbia_0052+image-tb-jpg+image-tb.jpg
Active,columbia:0053,columbia,http://www.archive.org/details/annualreportcolu1977colu|~|annualreportcolu1977colu|~|columbia:0053,"Annual report, Columbia, New Hampshire, 1977",1978,Title varies|~|Imprint varies|~|Report year varies,"University of New Hampshire. Library. Digital Collections.|~|Scanned by Internet Archive, Open Content Alliance (2009)",,,Text,Columbia (N.H. : Town) -- Appropriations and expenditures -- Periodicals,Columbia (N.H. : Town),,,eng,"[Columbia, N.H. : The Town]|~|University of New Hampshire. Library. Digital Collections.",columbia_0053+application-pdf+application.pdf|~|columbia_0053+image-low-jpg+image-low.jpg|~|columbia_0053+image-tb-jpg+image-tb.jpg
Active,columbia:0054,columbia,http://www.archive.org/details/annualreportcolu1978colu|~|annualreportcolu1978colu|~|columbia:0054,"Annual report, Columbia, New Hampshire, 1978",1979,Title varies|~|Imprint varies|~|Report year varies,"University of New Hampshire. Library. Digital Collections.|~|Scanned by Internet Archive, Open Content Alliance (2009)",,,Text,Columbia (N.H. : Town) -- Appropriations and expenditures -- Periodicals,Columbia (N.H. : Town),,,eng,"[Columbia, N.H. : The Town]|~|University of New Hampshire. Library. Digital Collections.",columbia_0054+application-pdf+application.pdf|~|columbia_0054+image-low-jpg+image-low.jpg|~|columbia_0054+image-tb-jpg+image-tb.jpg
Active,columbia:0055,columbia,http://www.archive.org/details/annualreportcolu1979colu|~|annualreportcolu1979colu|~|columbia:0055,"Annual report, Columbia, New Hampshire, 1979",1980,Title varies|~|Imprint varies|~|Report year varies,"University of New Hampshire. Library. Digital Collections.|~|Scanned by Internet Archive, Open Content Alliance (2009)",,,Text,Columbia (N.H. : Town) -- Appropriations and expenditures -- Periodicals,Columbia (N.H. : Town),,,eng,"[Columbia, N.H. : The Town]|~|University of New Hampshire. Library. Digital Collections.",columbia_0055+application-pdf+application.pdf|~|columbia_0055+image-low-jpg+image-low.jpg|~|columbia_0055+image-tb-jpg+image-tb.jpg
Active,columbia:0056,columbia,http://www.archive.org/details/annualreportcolu1980colu|~|annualreportcolu1980colu|~|columbia:0056,"Annual report, Columbia, New Hampshire, 1980",1981,Title varies|~|Imprint varies|~|Report year varies,"University of New Hampshire. Library. Digital Collections.|~|Scanned by Internet Archive, Open Content Alliance (2009)",,,Text,Columbia (N.H. : Town) -- Appropriations and expenditures -- Periodicals,Columbia (N.H. : Town),,,eng,"[Columbia, N.H. : The Town]|~|University of New Hampshire. Library. Digital Collections.",columbia_0056+application-pdf+application.pdf|~|columbia_0056+image-low-jpg+image-low.jpg|~|columbia_0056+image-tb-jpg+image-tb.jpg
Active,columbia:0057,columbia,http://www.archive.org/details/annualreportcolu1981colu|~|annualreportcolu1981colu|~|columbia:0057,"Annual report, Columbia, New Hampshire, 1981",1982,Title varies|~|Imprint varies|~|Report year varies,"University of New Hampshire. Library. Digital Collections.|~|Scanned by Internet Archive, Open Content Alliance (2009)",,,Text,Columbia (N.H. : Town) -- Appropriations and expenditures -- Periodicals,Columbia (N.H. : Town),,,eng,"[Columbia, N.H. : The Town]|~|University of New Hampshire. Library. Digital Collections.",columbia_0057+application-pdf+application.pdf|~|columbia_0057+image-low-jpg+image-low.jpg|~|columbia_0057+image-tb-jpg+image-tb.jpg
Active,columbia:0058,columbia,http://www.archive.org/details/annualreportcolu1982colu|~|annualreportcolu1982colu|~|columbia:0058,"Annual report, Columbia, New Hampshire, 1982",1983,Title varies|~|Imprint varies|~|Report year varies,"University of New Hampshire. Library. Digital Collections.|~|Scanned by Internet Archive, Open Content Alliance (2009)",,,Text,Columbia (N.H. : Town) -- Appropriations and expenditures -- Periodicals,Columbia (N.H. : Town),,,eng,"[Columbia, N.H. : The Town]|~|University of New Hampshire. Library. Digital Collections.",columbia_0058+application-pdf+application.pdf|~|columbia_0058+image-low-jpg+image-low.jpg|~|columbia_0058+image-tb-jpg+image-tb.jpg
Active,columbia:0059,columbia,http://www.archive.org/details/annualreportcolu1983colu|~|annualreportcolu1983colu|~|columbia:0059,"Annual report, Columbia, New Hampshire, 1983",1984,Title varies|~|Imprint varies|~|Report year varies,"University of New Hampshire. Library. Digital Collections.|~|Scanned by Internet Archive, Open Content Alliance (2009)",,,Text,Columbia (N.H. : Town) -- Appropriations and expenditures -- Periodicals,Columbia (N.H. : Town),,,eng,"[Columbia, N.H. : The Town]|~|University of New Hampshire. Library. Digital Collections.",columbia_0059+application-pdf+application.pdf|~|columbia_0059+image-low-jpg+image-low.jpg|~|columbia_0059+image-tb-jpg+image-tb.jpg
Active,columbia:0060,columbia,http://www.archive.org/details/annualreportcolu1984colu|~|annualreportcolu1984colu|~|columbia:0060,"Annual report, Columbia, New Hampshire, 1984",1985,Title varies|~|Imprint varies|~|Report year varies,"University of New Hampshire. Library. Digital Collections.|~|Scanned by Internet Archive, Open Content Alliance (2009)",,,Text,Columbia (N.H. : Town) -- Appropriations and expenditures -- Periodicals,Columbia (N.H. : Town),,,eng,"[Columbia, N.H. : The Town]|~|University of New Hampshire. Library. Digital Collections.",columbia_0060+application-pdf+application.pdf|~|columbia_0060+image-low-jpg+image-low.jpg|~|columbia_0060+image-tb-jpg+image-tb.jpg
Active,columbia:0061,columbia,http://www.archive.org/details/annualreportcolu1985colu|~|annualreportcolu1985colu|~|columbia:0061,"Annual report, Columbia, New Hampshire, 1985",1986,Title varies|~|Imprint varies|~|Report year varies,"University of New Hampshire. Library. Digital Collections.|~|Scanned by Internet Archive, Open Content Alliance (2009)",,,Text,Columbia (N.H. : Town) -- Appropriations and expenditures -- Periodicals,Columbia (N.H. : Town),,,eng,"[Columbia, N.H. : The Town]|~|University of New Hampshire. Library. Digital Collections.",columbia_0061+application-pdf+application.pdf|~|columbia_0061+image-low-jpg+image-low.jpg|~|columbia_0061+image-tb-jpg+image-tb.jpg
Active,columbia:0062,columbia,http://www.archive.org/details/annualreportcolu1986colu|~|annualreportcolu1986colu|~|columbia:0062,"Annual report, Columbia, New Hampshire, 1986",1987,Title varies|~|Imprint varies|~|Report year varies,"University of New Hampshire. Library. Digital Collections.|~|Scanned by Internet Archive, Open Content Alliance (2009)",,,Text,Columbia (N.H. : Town) -- Appropriations and expenditures -- Periodicals,Columbia (N.H. : Town),,,eng,"[Columbia, N.H. : The Town]|~|University of New Hampshire. Library. Digital Collections.",columbia_0062+application-pdf+application.pdf|~|columbia_0062+image-low-jpg+image-low.jpg|~|columbia_0062+image-tb-jpg+image-tb.jpg
Active,columbia:0063,columbia,http://www.archive.org/details/annualreportcolu1987colu|~|annualreportcolu1987colu|~|columbia:0063,"Annual report, Columbia, New Hampshire, 1987",1988,Title varies|~|Imprint varies|~|Report year varies,"University of New Hampshire. Library. Digital Collections.|~|Scanned by Internet Archive, Open Content Alliance (2009)",,,Text,Columbia (N.H. : Town) -- Appropriations and expenditures -- Periodicals,Columbia (N.H. : Town),,,eng,"[Columbia, N.H. : The Town]|~|University of New Hampshire. Library. Digital Collections.",columbia_0063+application-pdf+application.pdf|~|columbia_0063+image-low-jpg+image-low.jpg|~|columbia_0063+image-tb-jpg+image-tb.jpg
Active,columbia:0064,columbia,http://www.archive.org/details/annualreportcolu1988colu|~|annualreportcolu1988colu|~|columbia:0064,"Annual report, Columbia, New Hampshire, 1988",1989,Title varies|~|Imprint varies|~|Report year varies,"University of New Hampshire. Library. Digital Collections.|~|Scanned by Internet Archive, Open Content Alliance (2009)",,,Text,Columbia (N.H. : Town) -- Appropriations and expenditures -- Periodicals,Columbia (N.H. : Town),,,eng,"[Columbia, N.H. : The Town]|~|University of New Hampshire. Library. Digital Collections.",columbia_0064+application-pdf+application.pdf|~|columbia_0064+image-low-jpg+image-low.jpg|~|columbia_0064+image-tb-jpg+image-tb.jpg
Active,columbia:0065,columbia,http://www.archive.org/details/annualreportcolu1989colu|~|annualreportcolu1989colu|~|columbia:0065,"Annual report, Columbia, New Hampshire, 1989",1990,Title varies|~|Imprint varies|~|Report year varies,"University of New Hampshire. Library. Digital Collections.|~|Scanned by Internet Archive, Open Content Alliance (2009)",,,Text,Columbia (N.H. : Town) -- Appropriations and expenditures -- Periodicals,Columbia (N.H. : Town),,,eng,"[Columbia, N.H. : The Town]|~|University of New Hampshire. Library. Digital Collections.",columbia_0065+application-pdf+application.pdf|~|columbia_0065+image-low-jpg+image-low.jpg|~|columbia_0065+image-tb-jpg+image-tb.jpg
Active,columbia:0066,columbia,http://www.archive.org/details/annualreportcolu1990colu|~|annualreportcolu1990colu|~|columbia:0066,"Annual report, Columbia, New Hampshire, 1990",1991,Title varies|~|Imprint varies|~|Report year varies,"University of New Hampshire. Library. Digital Collections.|~|Scanned by Internet Archive, Open Content Alliance (2009)",,,Text,Columbia (N.H. : Town) -- Appropriations and expenditures -- Periodicals,Columbia (N.H. : Town),,,eng,"[Columbia, N.H. : The Town]|~|University of New Hampshire. Library. Digital Collections.",columbia_0066+application-pdf+application.pdf|~|columbia_0066+image-low-jpg+image-low.jpg|~|columbia_0066+image-tb-jpg+image-tb.jpg
Active,columbia:0067,columbia,http://www.archive.org/details/annualreportcolu1991colu|~|annualreportcolu1991colu|~|columbia:0067,"Annual report, Columbia, New Hampshire, 1991",1992,Title varies|~|Imprint varies|~|Report year varies,"University of New Hampshire. Library. Digital Collections.|~|Scanned by Internet Archive, Open Content Alliance (2009)",,,Text,Columbia (N.H. : Town) -- Appropriations and expenditures -- Periodicals,Columbia (N.H. : Town),,,eng,"[Columbia, N.H. : The Town]|~|University of New Hampshire. Library. Digital Collections.",columbia_0067+application-pdf+application.pdf|~|columbia_0067+image-low-jpg+image-low.jpg|~|columbia_0067+image-tb-jpg+image-tb.jpg
Active,columbia:0068,columbia,http://www.archive.org/details/annualreportcolu1992colu|~|annualreportcolu1992colu|~|columbia:0068,"Annual report, Columbia, New Hampshire, 1992",1993,Title varies|~|Imprint varies|~|Report year varies,"University of New Hampshire. Library. Digital Collections.|~|Scanned by Internet Archive, Open Content Alliance (2009)",,,Text,Columbia (N.H. : Town) -- Appropriations and expenditures -- Periodicals,Columbia (N.H. : Town),,,eng,"[Columbia, N.H. : The Town]|~|University of New Hampshire. Library. Digital Collections.",columbia_0068+application-pdf+application.pdf|~|columbia_0068+image-low-jpg+image-low.jpg|~|columbia_0068+image-tb-jpg+image-tb.jpg
Active,columbia:0069,columbia,http://www.archive.org/details/annualreportcolu1993colu|~|annualreportcolu1993colu|~|columbia:0069,"Annual report, Columbia, New Hampshire, 1993",1994,Title varies|~|Imprint varies|~|Report year varies,"University of New Hampshire. Library. Digital Collections.|~|Scanned by Internet Archive, Open Content Alliance (2009)",,,Text,Columbia (N.H. : Town) -- Appropriations and expenditures -- Periodicals,Columbia (N.H. : Town),,,eng,"[Columbia, N.H. : The Town]|~|University of New Hampshire. Library. Digital Collections.",columbia_0069+application-pdf+application.pdf|~|columbia_0069+image-low-jpg+image-low.jpg|~|columbia_0069+image-tb-jpg+image-tb.jpg
Active,columbia:0070,columbia,http://www.archive.org/details/annualreportcolu1994colu|~|annualreportcolu1994colu|~|columbia:0070,"Annual report, Columbia, New Hampshire, 1994",1995,Title varies|~|Imprint varies|~|Report year varies,"University of New Hampshire. Library. Digital Collections.|~|Scanned by Internet Archive, Open Content Alliance (2009)",,,Text,Columbia (N.H. : Town) -- Appropriations and expenditures -- Periodicals,Columbia (N.H. : Town),,,eng,"[Columbia, N.H. : The Town]|~|University of New Hampshire. Library. Digital Collections.",columbia_0070+application-pdf+application.pdf|~|columbia_0070+image-low-jpg+image-low.jpg|~|columbia_0070+image-tb-jpg+image-tb.jpg
Active,columbia:0071,columbia,http://www.archive.org/details/annualreportcolu1995colu|~|annualreportcolu1995colu|~|columbia:0071,"Annual report, Columbia, New Hampshire, 1995",1996,Title varies|~|Imprint varies|~|Report year varies,"University of New Hampshire. Library. Digital Collections.|~|Scanned by Internet Archive, Open Content Alliance (2009)",,,Text,Columbia (N.H. : Town) -- Appropriations and expenditures -- Periodicals,Columbia (N.H. : Town),,,eng,"[Columbia, N.H. : The Town]|~|University of New Hampshire. Library. Digital Collections.",columbia_0071+application-pdf+application.pdf|~|columbia_0071+image-low-jpg+image-low.jpg|~|columbia_0071+image-tb-jpg+image-tb.jpg
Active,columbia:0072,columbia,http://www.archive.org/details/annualreportcolu1996colu|~|annualreportcolu1996colu|~|columbia:0072,"Annual report, Columbia, New Hampshire, 1996",1997,Title varies|~|Imprint varies|~|Report year varies,"University of New Hampshire. Library. Digital Collections.|~|Scanned by Internet Archive, Open Content Alliance (2009)",,,Text,Columbia (N.H. : Town) -- Appropriations and expenditures -- Periodicals,Columbia (N.H. : Town),,,eng,"[Columbia, N.H. : The Town]|~|University of New Hampshire. Library. Digital Collections.",columbia_0072+application-pdf+application.pdf|~|columbia_0072+image-low-jpg+image-low.jpg|~|columbia_0072+image-tb-jpg+image-tb.jpg
Active,columbia:0073,columbia,http://www.archive.org/details/annualreportcolu1997colu|~|annualreportcolu1997colu|~|columbia:0073,"Annual report, Columbia, New Hampshire, 1997",1998,Title varies|~|Imprint varies|~|Report year varies,"University of New Hampshire. Library. Digital Collections.|~|Scanned by Internet Archive, Open Content Alliance (2009)",,,Text,Columbia (N.H. : Town) -- Appropriations and expenditures -- Periodicals,Columbia (N.H. : Town),,,eng,"[Columbia, N.H. : The Town]|~|University of New Hampshire. Library. Digital Collections.",columbia_0073+application-pdf+application.pdf|~|columbia_0073+image-low-jpg+image-low.jpg|~|columbia_0073+image-tb-jpg+image-tb.jpg
Active,columbia:0074,columbia,http://www.archive.org/details/annualreportcolu1998colu|~|annualreportcolu1998colu|~|columbia:0074,"Annual report, Columbia, New Hampshire, 1998",1999,Title varies|~|Imprint varies|~|Report year varies,"University of New Hampshire. Library. Digital Collections.|~|Scanned by Internet Archive, Open Content Alliance (2009)",,,Text,Columbia (N.H. : Town) -- Appropriations and expenditures -- Periodicals,Columbia (N.H. : Town),,,eng,"[Columbia, N.H. : The Town]|~|University of New Hampshire. Library. Digital Collections.",columbia_0074+application-pdf+application.pdf|~|columbia_0074+image-low-jpg+image-low.jpg|~|columbia_0074+image-tb-jpg+image-tb.jpg
Active,columbia:0075,columbia,http://www.archive.org/details/annualreportcolu1999colu|~|annualreportcolu1999colu|~|columbia:0075,"Annual report, Columbia, New Hampshire, 1999",2000,Title varies|~|Imprint varies|~|Report year varies,"University of New Hampshire. Library. Digital Collections.|~|Scanned by Internet Archive, Open Content Alliance (2009)",,,Text,Columbia (N.H. : Town) -- Appropriations and expenditures -- Periodicals,Columbia (N.H. : Town),,,eng,"[Columbia, N.H. : The Town]|~|University of New Hampshire. Library. Digital Collections.",columbia_0075+application-pdf+application.pdf|~|columbia_0075+image-low-jpg+image-low.jpg|~|columbia_0075+image-tb-jpg+image-tb.jpg
Active,columbia:0076,columbia,http://www.archive.org/details/annualreportcolu2000colu|~|annualreportcolu2000colu|~|columbia:0076,"Annual report, Columbia, New Hampshire, 2000",2001,Title varies|~|Imprint varies|~|Report year varies,"University of New Hampshire. Library. Digital Collections.|~|Scanned by Internet Archive, Open Content Alliance (2009)",,,Text,Columbia (N.H. : Town) -- Appropriations and expenditures -- Periodicals,Columbia (N.H. : Town),,,eng,"[Columbia, N.H. : The Town]|~|University of New Hampshire. Library. Digital Collections.",columbia_0076+application-pdf+application.pdf|~|columbia_0076+image-low-jpg+image-low.jpg|~|columbia_0076+image-tb-jpg+image-tb.jpg
Active,columbia:0077,columbia,http://www.archive.org/details/annualreportcolu2001colu|~|annualreportcolu2001colu|~|columbia:0077,"Annual report, Columbia, New Hampshire, 2001",2002,Title varies|~|Imprint varies|~|Report year varies,"University of New Hampshire. Library. Digital Collections.|~|Scanned by Internet Archive, Open Content Alliance (2009)",,,Text,Columbia (N.H. : Town) -- Appropriations and expenditures -- Periodicals,Columbia (N.H. : Town),,,eng,"[Columbia, N.H. : The Town]|~|University of New Hampshire. Library. Digital Collections.",columbia_0077+application-pdf+application.pdf|~|columbia_0077+image-low-jpg+image-low.jpg|~|columbia_0077+image-tb-jpg+image-tb.jpg
Active,columbia:0078,columbia,http://www.archive.org/details/annualreportcolu2002colu|~|annualreportcolu2002colu|~|columbia:0078,"Annual report, Columbia, New Hampshire, 2002",2003,Title varies|~|Imprint varies|~|Report year varies,"University of New Hampshire. Library. Digital Collections.|~|Scanned by Internet Archive, Open Content Alliance (2009)",,,Text,Columbia (N.H. : Town) -- Appropriations and expenditures -- Periodicals,Columbia (N.H. : Town),,,eng,"[Columbia, N.H. : The Town]|~|University of New Hampshire. Library. Digital Collections.",columbia_0078+application-pdf+application.pdf|~|columbia_0078+image-low-jpg+image-low.jpg|~|columbia_0078+image-tb-jpg+image-tb.jpg
Active,columbia:0079,columbia,http://www.archive.org/details/annualreportcolu2003colu|~|annualreportcolu2003colu|~|columbia:0079,"Annual report, Columbia, New Hampshire, 2003",2004,Title varies|~|Imprint varies|~|Report year varies,"University of New Hampshire. Library. Digital Collections.|~|Scanned by Internet Archive, Open Content Alliance (2009)",,,Text,Columbia (N.H. : Town) -- Appropriations and expenditures -- Periodicals,Columbia (N.H. : Town),,,eng,"[Columbia, N.H. : The Town]|~|University of New Hampshire. Library. Digital Collections.",columbia_0079+application-pdf+application.pdf|~|columbia_0079+image-low-jpg+image-low.jpg|~|columbia_0079+image-tb-jpg+image-tb.jpg
Active,columbia:0080,columbia,http://www.archive.org/details/annualreportcolu2004colu|~|annualreportcolu2004colu|~|columbia:0080,"Annual report, Columbia, New Hampshire, 2004",2005,Title varies|~|Imprint varies|~|Report year varies,"University of New Hampshire. Library. Digital Collections.|~|Scanned by Internet Archive, Open Content Alliance (2009)",,,Text,Columbia (N.H. : Town) -- Appropriations and expenditures -- Periodicals,Columbia (N.H. : Town),,,eng,"[Columbia, N.H. : The Town]|~|University of New Hampshire. Library. Digital Collections.",columbia_0080+application-pdf+application.pdf|~|columbia_0080+image-low-jpg+image-low.jpg|~|columbia_0080+image-tb-jpg+image-tb.jpg
Active,columbia:0081,columbia,http://www.archive.org/details/annualreportcolu2005colu|~|annualreportcolu2005colu|~|columbia:0081,"Annual report, Columbia, New Hampshire, 2005",2006,Title varies|~|Imprint varies|~|Report year varies,"University of New Hampshire. Library. Digital Collections.|~|Scanned by Internet Archive, Open Content Alliance (2009)",,,Text,Columbia (N.H. : Town) -- Appropriations and expenditures -- Periodicals,Columbia (N.H. : Town),,,eng,"[Columbia, N.H. : The Town]|~|University of New Hampshire. Library. Digital Collections.",columbia_0081+application-pdf+application.pdf|~|columbia_0081+image-low-jpg+image-low.jpg|~|columbia_0081+image-tb-jpg+image-tb.jpg
Active,columbia:0082,columbia,http://www.archive.org/details/annualreportcolu2006colu|~|annualreportcolu2006colu|~|columbia:0082,"Annual report, Columbia, New Hampshire, 2006",2007,Title varies|~|Imprint varies|~|Report year varies,"University of New Hampshire. Library. Digital Collections.|~|Scanned by Internet Archive, Open Content Alliance (2009)",,,Text,Columbia (N.H. : Town) -- Appropriations and expenditures -- Periodicals,Columbia (N.H. : Town),,,eng,"[Columbia, N.H. : The Town]|~|University of New Hampshire. Library. Digital Collections.",columbia_0082+application-pdf+application.pdf|~|columbia_0082+image-low-jpg+image-low.jpg|~|columbia_0082+image-tb-jpg+image-tb.jpg
Active,columbia:0083,columbia,http://www.archive.org/details/annualreportcolu2007colu|~|annualreportcolu2007colu|~|columbia:0083,"Annual report, Columbia, New Hampshire, 2007",2008,Title varies|~|Imprint varies|~|Report year varies,"University of New Hampshire. Library. Digital Collections.|~|Scanned by Internet Archive, Open Content Alliance (2009)",,,Text,Columbia (N.H. : Town) -- Appropriations and expenditures -- Periodicals,Columbia (N.H. : Town),,,eng,"[Columbia, N.H. : The Town]|~|University of New Hampshire. Library. Digital Collections.",columbia_0083+application-pdf+application.pdf|~|columbia_0083+image-low-jpg+image-low.jpg|~|columbia_0083+image-tb-jpg+image-tb.jpg
Active,columbia:0084,columbia,http://www.archive.org/details/annualreportcolu2008colu|~|annualreportcolu2008colu|~|columbia:0084,"Annual report, Columbia, New Hampshire, 2008",2009,Title varies|~|Imprint varies|~|Report year varies,"University of New Hampshire. Library. Digital Collections.|~|Scanned by Internet Archive, Open Content Alliance (2009)",,,Text,Columbia (N.H. : Town) -- Appropriations and expenditures -- Periodicals,Columbia (N.H. : Town),,,eng,"[Columbia, N.H. : The Town]|~|University of New Hampshire. Library. Digital Collections.",columbia_0084+application-pdf+application.pdf|~|columbia_0084+image-low-jpg+image-low.jpg|~|columbia_0084+image-tb-jpg+image-tb.jpg
