state,pid,collection,dcterms:identifier,dcterms:title,dcterms:date,dcterms:description,dcterms:contributor,dcterms:rights,dcterms:format,dcterms:type,dcterms:subject,dcterms:creator,dcterms:relation,dcterms:coverage,dcterms:language,dcterms:publisher,files
Active,conway:0001,conway,http://www.archive.org/details/conwaynewhampshi1925conw|~|conwaynewhampshi1925conw|~|conway:0001,"Conway, New Hampshire annual report, 1925",1925,Title varies|~|Imprint varies|~|Report year varies,"University of New Hampshire. Library. Digital Collections.|~|Scanned by Internet Archive, Open Content Alliance (2009)",,,Text,Conway (N.H. : Town) -- Appropriations and expenditures -- Periodicals,Conway (N.H. : Town),,,eng,"[North Conway, N.H. : the Town, 1904- ]|~|University of New Hampshire. Library. Digital Collections.",conway_0001+application-pdf+application.pdf|~|conway_0001+image-low-jpg+image-low.jpg|~|conway_0001+image-tb-jpg+image-tb.jpg
Active,conway:0002,conway,http://www.archive.org/details/conwaynewhampshi1926conw|~|conwaynewhampshi1926conw|~|conway:0002,"Conway, New Hampshire annual report, 1926",1926,Title varies|~|Imprint varies|~|Report year varies,"University of New Hampshire. Library. Digital Collections.|~|Scanned by Internet Archive, Open Content Alliance (2009)",,,Text,Conway (N.H. : Town) -- Appropriations and expenditures -- Periodicals,Conway (N.H. : Town),,,eng,"[North Conway, N.H. : the Town, 1904- ]|~|University of New Hampshire. Library. Digital Collections.",conway_0002+application-pdf+application.pdf|~|conway_0002+image-low-jpg+image-low.jpg|~|conway_0002+image-tb-jpg+image-tb.jpg
Active,conway:0003,conway,http://www.archive.org/details/conwaynewhampshi1929conw|~|conwaynewhampshi1929conw|~|conway:0003,"Conway, New Hampshire annual report, 1929",1929,Title varies|~|Imprint varies|~|Report year varies,"University of New Hampshire. Library. Digital Collections.|~|Scanned by Internet Archive, Open Content Alliance (2009)",,,Text,Conway (N.H. : Town) -- Appropriations and expenditures -- Periodicals,Conway (N.H. : Town),,,eng,"[North Conway, N.H. : the Town, 1904- ]|~|University of New Hampshire. Library. Digital Collections.",conway_0003+application-pdf+application.pdf|~|conway_0003+image-low-jpg+image-low.jpg|~|conway_0003+image-tb-jpg+image-tb.jpg
Active,conway:0004,conway,http://www.archive.org/details/conwaynewhampshi1936conw|~|conwaynewhampshi1936conw|~|conway:0004,"Conway, New Hampshire annual report, 1936",1936,Title varies|~|Imprint varies|~|Report year varies,"University of New Hampshire. Library. Digital Collections.|~|Scanned by Internet Archive, Open Content Alliance (2009)",,,Text,Conway (N.H. : Town) -- Appropriations and expenditures -- Periodicals,Conway (N.H. : Town),,,eng,"[North Conway, N.H. : the Town, 1904- ]|~|University of New Hampshire. Library. Digital Collections.",conway_0004+application-pdf+application.pdf|~|conway_0004+image-low-jpg+image-low.jpg|~|conway_0004+image-tb-jpg+image-tb.jpg
Active,conway:0005,conway,http://www.archive.org/details/conwaynewhampshi1937conw|~|conwaynewhampshi1937conw|~|conway:0005,"Conway, New Hampshire annual report, 1937",1937,Title varies|~|Imprint varies|~|Report year varies,"University of New Hampshire. Library. Digital Collections.|~|Scanned by Internet Archive, Open Content Alliance (2009)",,,Text,Conway (N.H. : Town) -- Appropriations and expenditures -- Periodicals,Conway (N.H. : Town),,,eng,"[North Conway, N.H. : the Town, 1904- ]|~|University of New Hampshire. Library. Digital Collections.",conway_0005+application-pdf+application.pdf|~|conway_0005+image-low-jpg+image-low.jpg|~|conway_0005+image-tb-jpg+image-tb.jpg
Active,conway:0006,conway,http://www.archive.org/details/conwaynewhampshi1938conw|~|conwaynewhampshi1938conw|~|conway:0006,"Conway, New Hampshire annual report, 1938",1938,Title varies|~|Imprint varies|~|Report year varies,"University of New Hampshire. Library. Digital Collections.|~|Scanned by Internet Archive, Open Content Alliance (2009)",,,Text,Conway (N.H. : Town) -- Appropriations and expenditures -- Periodicals,Conway (N.H. : Town),,,eng,"[North Conway, N.H. : the Town, 1904- ]|~|University of New Hampshire. Library. Digital Collections.",conway_0006+application-pdf+application.pdf|~|conway_0006+image-low-jpg+image-low.jpg|~|conway_0006+image-tb-jpg+image-tb.jpg
Active,conway:0007,conway,http://www.archive.org/details/conwaynewhampshi1939conw|~|conwaynewhampshi1939conw|~|conway:0007,"Conway, New Hampshire annual report, 1939",1939,Title varies|~|Imprint varies|~|Report year varies,"University of New Hampshire. Library. Digital Collections.|~|Scanned by Internet Archive, Open Content Alliance (2009)",,,Text,Conway (N.H. : Town) -- Appropriations and expenditures -- Periodicals,Conway (N.H. : Town),,,eng,"[North Conway, N.H. : the Town, 1904- ]|~|University of New Hampshire. Library. Digital Collections.",conway_0007+application-pdf+application.pdf|~|conway_0007+image-low-jpg+image-low.jpg|~|conway_0007+image-tb-jpg+image-tb.jpg
Active,conway:0008,conway,http://www.archive.org/details/conwaynewhampshi1940conw|~|conwaynewhampshi1940conw|~|conway:0008,"Conway, New Hampshire annual report, 1940",1940,Title varies|~|Imprint varies|~|Report year varies,"University of New Hampshire. Library. Digital Collections.|~|Scanned by Internet Archive, Open Content Alliance (2009)",,,Text,Conway (N.H. : Town) -- Appropriations and expenditures -- Periodicals,Conway (N.H. : Town),,,eng,"[North Conway, N.H. : the Town, 1904- ]|~|University of New Hampshire. Library. Digital Collections.",conway_0008+application-pdf+application.pdf|~|conway_0008+image-low-jpg+image-low.jpg|~|conway_0008+image-tb-jpg+image-tb.jpg
Active,conway:0009,conway,http://www.archive.org/details/conwaynewhampshi1941conw|~|conwaynewhampshi1941conw|~|conway:0009,"Conway, New Hampshire annual report, 1941",1941,Title varies|~|Imprint varies|~|Report year varies,"University of New Hampshire. Library. Digital Collections.|~|Scanned by Internet Archive, Open Content Alliance (2009)",,,Text,Conway (N.H. : Town) -- Appropriations and expenditures -- Periodicals,Conway (N.H. : Town),,,eng,"[North Conway, N.H. : the Town, 1904- ]|~|University of New Hampshire. Library. Digital Collections.",conway_0009+application-pdf+application.pdf|~|conway_0009+image-low-jpg+image-low.jpg|~|conway_0009+image-tb-jpg+image-tb.jpg
Active,conway:0010,conway,http://www.archive.org/details/conwaynewhampshi1942conw|~|conwaynewhampshi1942conw|~|conway:0010,"Conway, New Hampshire annual report, 1942",1942,Title varies|~|Imprint varies|~|Report year varies,"University of New Hampshire. Library. Digital Collections.|~|Scanned by Internet Archive, Open Content Alliance (2009)",,,Text,Conway (N.H. : Town) -- Appropriations and expenditures -- Periodicals,Conway (N.H. : Town),,,eng,"[North Conway, N.H. : the Town, 1904- ]|~|University of New Hampshire. Library. Digital Collections.",conway_0010+application-pdf+application.pdf|~|conway_0010+image-low-jpg+image-low.jpg|~|conway_0010+image-tb-jpg+image-tb.jpg
Active,conway:0011,conway,http://www.archive.org/details/conwaynewhampshi1943conw|~|conwaynewhampshi1943conw|~|conway:0011,"Conway, New Hampshire annual report, 1943",1943,Title varies|~|Imprint varies|~|Report year varies,"University of New Hampshire. Library. Digital Collections.|~|Scanned by Internet Archive, Open Content Alliance (2009)",,,Text,Conway (N.H. : Town) -- Appropriations and expenditures -- Periodicals,Conway (N.H. : Town),,,eng,"[North Conway, N.H. : the Town, 1904- ]|~|University of New Hampshire. Library. Digital Collections.",conway_0011+application-pdf+application.pdf|~|conway_0011+image-low-jpg+image-low.jpg|~|conway_0011+image-tb-jpg+image-tb.jpg
Active,conway:0012,conway,http://www.archive.org/details/conwaynewhampshi1944conw|~|conwaynewhampshi1944conw|~|conway:0012,"Conway, New Hampshire annual report, 1944",1944,Title varies|~|Imprint varies|~|Report year varies,"University of New Hampshire. Library. Digital Collections.|~|Scanned by Internet Archive, Open Content Alliance (2009)",,,Text,Conway (N.H. : Town) -- Appropriations and expenditures -- Periodicals,Conway (N.H. : Town),,,eng,"[North Conway, N.H. : the Town, 1904- ]|~|University of New Hampshire. Library. Digital Collections.",conway_0012+application-pdf+application.pdf|~|conway_0012+image-low-jpg+image-low.jpg|~|conway_0012+image-tb-jpg+image-tb.jpg
Active,conway:0013,conway,http://www.archive.org/details/conwaynewhampshi4445conw|~|conwaynewhampshi4445conw|~|conway:0013,"Conway, New Hampshire annual report, 1944",1945,Title varies|~|Imprint varies|~|Report year varies,"University of New Hampshire. Library. Digital Collections.|~|Scanned by Internet Archive, Open Content Alliance (2009)",,,Text,Conway (N.H. : Town) -- Appropriations and expenditures -- Periodicals,Conway (N.H. : Town),,,eng,"[North Conway, N.H. : the Town, 1904- ]|~|University of New Hampshire. Library. Digital Collections.",conway_0013+application-pdf+application.pdf|~|conway_0013+image-low-jpg+image-low.jpg|~|conway_0013+image-tb-jpg+image-tb.jpg
Active,conway:0014,conway,http://www.archive.org/details/conwaynewhampshi1945conw|~|conwaynewhampshi1945conw|~|conway:0014,"Conway, New Hampshire annual report, 1945",1946,Title varies|~|Imprint varies|~|Report year varies,"University of New Hampshire. Library. Digital Collections.|~|Scanned by Internet Archive, Open Content Alliance (2009)",,,Text,Conway (N.H. : Town) -- Appropriations and expenditures -- Periodicals,Conway (N.H. : Town),,,eng,"[North Conway, N.H. : the Town, 1904- ]|~|University of New Hampshire. Library. Digital Collections.",conway_0014+application-pdf+application.pdf|~|conway_0014+image-low-jpg+image-low.jpg|~|conway_0014+image-tb-jpg+image-tb.jpg
Active,conway:0015,conway,http://www.archive.org/details/conwaynewhampshi1946conw|~|conwaynewhampshi1946conw|~|conway:0015,"Conway, New Hampshire annual report, 1946",1947,Title varies|~|Imprint varies|~|Report year varies,"University of New Hampshire. Library. Digital Collections.|~|Scanned by Internet Archive, Open Content Alliance (2009)",,,Text,Conway (N.H. : Town) -- Appropriations and expenditures -- Periodicals,Conway (N.H. : Town),,,eng,"[North Conway, N.H. : the Town, 1904- ]|~|University of New Hampshire. Library. Digital Collections.",conway_0015+application-pdf+application.pdf|~|conway_0015+image-low-jpg+image-low.jpg|~|conway_0015+image-tb-jpg+image-tb.jpg
Active,conway:0016,conway,http://www.archive.org/details/conwaynewhampshi1947conw|~|conwaynewhampshi1947conw|~|conway:0016,"Conway, New Hampshire annual report, 1947",1948,Title varies|~|Imprint varies|~|Report year varies,"University of New Hampshire. Library. Digital Collections.|~|Scanned by Internet Archive, Open Content Alliance (2009)",,,Text,Conway (N.H. : Town) -- Appropriations and expenditures -- Periodicals,Conway (N.H. : Town),,,eng,"[North Conway, N.H. : the Town, 1904- ]|~|University of New Hampshire. Library. Digital Collections.",conway_0016+application-pdf+application.pdf|~|conway_0016+image-low-jpg+image-low.jpg|~|conway_0016+image-tb-jpg+image-tb.jpg
Active,conway:0017,conway,http://www.archive.org/details/conwaynewhampshi1948conw|~|conwaynewhampshi1948conw|~|conway:0017,"Conway, New Hampshire annual report, 1948",1949,Title varies|~|Imprint varies|~|Report year varies,"University of New Hampshire. Library. Digital Collections.|~|Scanned by Internet Archive, Open Content Alliance (2009)",,,Text,Conway (N.H. : Town) -- Appropriations and expenditures -- Periodicals,Conway (N.H. : Town),,,eng,"[North Conway, N.H. : the Town, 1904- ]|~|University of New Hampshire. Library. Digital Collections.",conway_0017+application-pdf+application.pdf|~|conway_0017+image-low-jpg+image-low.jpg|~|conway_0017+image-tb-jpg+image-tb.jpg
Active,conway:0018,conway,http://www.archive.org/details/conwaynewhampshi1949conw|~|conwaynewhampshi1949conw|~|conway:0018,"Conway, New Hampshire annual report, 1949",1950,Title varies|~|Imprint varies|~|Report year varies,"University of New Hampshire. Library. Digital Collections.|~|Scanned by Internet Archive, Open Content Alliance (2009)",,,Text,Conway (N.H. : Town) -- Appropriations and expenditures -- Periodicals,Conway (N.H. : Town),,,eng,"[North Conway, N.H. : the Town, 1904- ]|~|University of New Hampshire. Library. Digital Collections.",conway_0018+application-pdf+application.pdf|~|conway_0018+image-low-jpg+image-low.jpg|~|conway_0018+image-tb-jpg+image-tb.jpg
Active,conway:0019,conway,http://www.archive.org/details/conwaynewhampshi1950conw|~|conwaynewhampshi1950conw|~|conway:0019,"Conway, New Hampshire annual report, 1950",1951,Title varies|~|Imprint varies|~|Report year varies,"University of New Hampshire. Library. Digital Collections.|~|Scanned by Internet Archive, Open Content Alliance (2009)",,,Text,Conway (N.H. : Town) -- Appropriations and expenditures -- Periodicals,Conway (N.H. : Town),,,eng,"[North Conway, N.H. : the Town, 1904- ]|~|University of New Hampshire. Library. Digital Collections.",conway_0019+application-pdf+application.pdf|~|conway_0019+image-low-jpg+image-low.jpg|~|conway_0019+image-tb-jpg+image-tb.jpg
Active,conway:0020,conway,http://www.archive.org/details/conwaynewhampshi1951conw|~|conwaynewhampshi1951conw|~|conway:0020,"Conway, New Hampshire annual report, 1951",1952,Title varies|~|Imprint varies|~|Report year varies,"University of New Hampshire. Library. Digital Collections.|~|Scanned by Internet Archive, Open Content Alliance (2009)",,,Text,Conway (N.H. : Town) -- Appropriations and expenditures -- Periodicals,Conway (N.H. : Town),,,eng,"[North Conway, N.H. : the Town, 1904- ]|~|University of New Hampshire. Library. Digital Collections.",conway_0020+application-pdf+application.pdf|~|conway_0020+image-low-jpg+image-low.jpg|~|conway_0020+image-tb-jpg+image-tb.jpg
Active,conway:0021,conway,http://www.archive.org/details/conwaynewhampshi1952conw|~|conwaynewhampshi1952conw|~|conway:0021,"Conway, New Hampshire annual report, 1952",1953,Title varies|~|Imprint varies|~|Report year varies,"University of New Hampshire. Library. Digital Collections.|~|Scanned by Internet Archive, Open Content Alliance (2009)",,,Text,Conway (N.H. : Town) -- Appropriations and expenditures -- Periodicals,Conway (N.H. : Town),,,eng,"[North Conway, N.H. : the Town, 1904- ]|~|University of New Hampshire. Library. Digital Collections.",conway_0021+application-pdf+application.pdf|~|conway_0021+image-low-jpg+image-low.jpg|~|conway_0021+image-tb-jpg+image-tb.jpg
Active,conway:0022,conway,http://www.archive.org/details/conwaynewhampshi1953conw|~|conwaynewhampshi1953conw|~|conway:0022,"Conway, New Hampshire annual report, 1953",1954,Title varies|~|Imprint varies|~|Report year varies,"University of New Hampshire. Library. Digital Collections.|~|Scanned by Internet Archive, Open Content Alliance (2009)",,,Text,Conway (N.H. : Town) -- Appropriations and expenditures -- Periodicals,Conway (N.H. : Town),,,eng,"[North Conway, N.H. : the Town, 1904- ]|~|University of New Hampshire. Library. Digital Collections.",conway_0022+application-pdf+application.pdf|~|conway_0022+image-low-jpg+image-low.jpg|~|conway_0022+image-tb-jpg+image-tb.jpg
Active,conway:0023,conway,http://www.archive.org/details/conwaynewhampshi1954conw|~|conwaynewhampshi1954conw|~|conway:0023,"Conway, New Hampshire annual report, 1954",1955,Title varies|~|Imprint varies|~|Report year varies,"University of New Hampshire. Library. Digital Collections.|~|Scanned by Internet Archive, Open Content Alliance (2009)",,,Text,Conway (N.H. : Town) -- Appropriations and expenditures -- Periodicals,Conway (N.H. : Town),,,eng,"[North Conway, N.H. : the Town, 1904- ]|~|University of New Hampshire. Library. Digital Collections.",conway_0023+application-pdf+application.pdf|~|conway_0023+image-low-jpg+image-low.jpg|~|conway_0023+image-tb-jpg+image-tb.jpg
Active,conway:0024,conway,http://www.archive.org/details/conwaynewhampshi1955conw|~|conwaynewhampshi1955conw|~|conway:0024,"Conway, New Hampshire annual report, 1955",1956,Title varies|~|Imprint varies|~|Report year varies,"University of New Hampshire. Library. Digital Collections.|~|Scanned by Internet Archive, Open Content Alliance (2009)",,,Text,Conway (N.H. : Town) -- Appropriations and expenditures -- Periodicals,Conway (N.H. : Town),,,eng,"[North Conway, N.H. : the Town, 1904- ]|~|University of New Hampshire. Library. Digital Collections.",conway_0024+application-pdf+application.pdf|~|conway_0024+image-low-jpg+image-low.jpg|~|conway_0024+image-tb-jpg+image-tb.jpg
Active,conway:0025,conway,http://www.archive.org/details/conwaynewhampshi1956conw|~|conwaynewhampshi1956conw|~|conway:0025,"Conway, New Hampshire annual report, 1956",1957,Title varies|~|Imprint varies|~|Report year varies,"University of New Hampshire. Library. Digital Collections.|~|Scanned by Internet Archive, Open Content Alliance (2009)",,,Text,Conway (N.H. : Town) -- Appropriations and expenditures -- Periodicals,Conway (N.H. : Town),,,eng,"[North Conway, N.H. : the Town, 1904- ]|~|University of New Hampshire. Library. Digital Collections.",conway_0025+application-pdf+application.pdf|~|conway_0025+image-low-jpg+image-low.jpg|~|conway_0025+image-tb-jpg+image-tb.jpg
Active,conway:0026,conway,http://www.archive.org/details/conwaynewhampshi1957conw|~|conwaynewhampshi1957conw|~|conway:0026,"Conway, New Hampshire annual report, 1957",1958,Title varies|~|Imprint varies|~|Report year varies,"University of New Hampshire. Library. Digital Collections.|~|Scanned by Internet Archive, Open Content Alliance (2009)",,,Text,Conway (N.H. : Town) -- Appropriations and expenditures -- Periodicals,Conway (N.H. : Town),,,eng,"[North Conway, N.H. : the Town, 1904- ]|~|University of New Hampshire. Library. Digital Collections.",conway_0026+application-pdf+application.pdf|~|conway_0026+image-low-jpg+image-low.jpg|~|conway_0026+image-tb-jpg+image-tb.jpg
Active,conway:0027,conway,http://www.archive.org/details/conwaynewhampshi1958conw|~|conwaynewhampshi1958conw|~|conway:0027,"Conway, New Hampshire annual report, 1958",1959,Title varies|~|Imprint varies|~|Report year varies,"University of New Hampshire. Library. Digital Collections.|~|Scanned by Internet Archive, Open Content Alliance (2009)",,,Text,Conway (N.H. : Town) -- Appropriations and expenditures -- Periodicals,Conway (N.H. : Town),,,eng,"[North Conway, N.H. : the Town, 1904- ]|~|University of New Hampshire. Library. Digital Collections.",conway_0027+application-pdf+application.pdf|~|conway_0027+image-low-jpg+image-low.jpg|~|conway_0027+image-tb-jpg+image-tb.jpg
Active,conway:0028,conway,http://www.archive.org/details/conwaynewhampshi1959conw|~|conwaynewhampshi1959conw|~|conway:0028,"Conway, New Hampshire annual report, 1959",1960,Title varies|~|Imprint varies|~|Report year varies,"University of New Hampshire. Library. Digital Collections.|~|Scanned by Internet Archive, Open Content Alliance (2009)",,,Text,Conway (N.H. : Town) -- Appropriations and expenditures -- Periodicals,Conway (N.H. : Town),,,eng,"[North Conway, N.H. : the Town, 1904- ]|~|University of New Hampshire. Library. Digital Collections.",conway_0028+application-pdf+application.pdf|~|conway_0028+image-low-jpg+image-low.jpg|~|conway_0028+image-tb-jpg+image-tb.jpg
Active,conway:0029,conway,http://www.archive.org/details/conwaynewhampshi1960conw|~|conwaynewhampshi1960conw|~|conway:0029,"Conway, New Hampshire annual report, 1960",1961,Title varies|~|Imprint varies|~|Report year varies,"University of New Hampshire. Library. Digital Collections.|~|Scanned by Internet Archive, Open Content Alliance (2009)",,,Text,Conway (N.H. : Town) -- Appropriations and expenditures -- Periodicals,Conway (N.H. : Town),,,eng,"[North Conway, N.H. : the Town, 1904- ]|~|University of New Hampshire. Library. Digital Collections.",conway_0029+application-pdf+application.pdf|~|conway_0029+image-low-jpg+image-low.jpg|~|conway_0029+image-tb-jpg+image-tb.jpg
Active,conway:0030,conway,http://www.archive.org/details/conwaynewhampshi1961conw|~|conwaynewhampshi1961conw|~|conway:0030,"Conway, New Hampshire annual report, 1961",1962,Title varies|~|Imprint varies|~|Report year varies,"University of New Hampshire. Library. Digital Collections.|~|Scanned by Internet Archive, Open Content Alliance (2009)",,,Text,Conway (N.H. : Town) -- Appropriations and expenditures -- Periodicals,Conway (N.H. : Town),,,eng,"[North Conway, N.H. : the Town, 1904- ]|~|University of New Hampshire. Library. Digital Collections.",conway_0030+application-pdf+application.pdf|~|conway_0030+image-low-jpg+image-low.jpg|~|conway_0030+image-tb-jpg+image-tb.jpg
Active,conway:0031,conway,http://www.archive.org/details/conwaynewhampshi1962conw|~|conwaynewhampshi1962conw|~|conway:0031,"Conway, New Hampshire annual report, 1962",1963,Title varies|~|Imprint varies|~|Report year varies,"University of New Hampshire. Library. Digital Collections.|~|Scanned by Internet Archive, Open Content Alliance (2009)",,,Text,Conway (N.H. : Town) -- Appropriations and expenditures -- Periodicals,Conway (N.H. : Town),,,eng,"[North Conway, N.H. : the Town, 1904- ]|~|University of New Hampshire. Library. Digital Collections.",conway_0031+application-pdf+application.pdf|~|conway_0031+image-low-jpg+image-low.jpg|~|conway_0031+image-tb-jpg+image-tb.jpg
Active,conway:0032,conway,http://www.archive.org/details/conwaynewhampshi1963conw|~|conwaynewhampshi1963conw|~|conway:0032,"Conway, New Hampshire annual report, 1963",1964,Title varies|~|Imprint varies|~|Report year varies,"University of New Hampshire. Library. Digital Collections.|~|Scanned by Internet Archive, Open Content Alliance (2009)",,,Text,Conway (N.H. : Town) -- Appropriations and expenditures -- Periodicals,Conway (N.H. : Town),,,eng,"[North Conway, N.H. : the Town, 1904- ]|~|University of New Hampshire. Library. Digital Collections.",conway_0032+application-pdf+application.pdf|~|conway_0032+image-low-jpg+image-low.jpg|~|conway_0032+image-tb-jpg+image-tb.jpg
Active,conway:0033,conway,http://www.archive.org/details/conwaynewhampshi1964conw|~|conwaynewhampshi1964conw|~|conway:0033,"Conway, New Hampshire annual report, 1964",1965,Title varies|~|Imprint varies|~|Report year varies,"University of New Hampshire. Library. Digital Collections.|~|Scanned by Internet Archive, Open Content Alliance (2009)",,,Text,Conway (N.H. : Town) -- Appropriations and expenditures -- Periodicals,Conway (N.H. : Town),,,eng,"[North Conway, N.H. : the Town, 1904- ]|~|University of New Hampshire. Library. Digital Collections.",conway_0033+application-pdf+application.pdf|~|conway_0033+image-low-jpg+image-low.jpg|~|conway_0033+image-tb-jpg+image-tb.jpg
Active,conway:0034,conway,http://www.archive.org/details/conwaynewhampshi1965conw|~|conwaynewhampshi1965conw|~|conway:0034,"Conway, New Hampshire annual report, 1965",1966,Title varies|~|Imprint varies|~|Report year varies,"University of New Hampshire. Library. Digital Collections.|~|Scanned by Internet Archive, Open Content Alliance (2009)",,,Text,Conway (N.H. : Town) -- Appropriations and expenditures -- Periodicals,Conway (N.H. : Town),,,eng,"[North Conway, N.H. : the Town, 1904- ]|~|University of New Hampshire. Library. Digital Collections.",conway_0034+application-pdf+application.pdf|~|conway_0034+image-low-jpg+image-low.jpg|~|conway_0034+image-tb-jpg+image-tb.jpg
Active,conway:0035,conway,http://www.archive.org/details/conwaynewhampshi1967conw|~|conwaynewhampshi1967conw|~|conway:0035,"Conway, New Hampshire annual report, 1967",1968,Title varies|~|Imprint varies|~|Report year varies,"University of New Hampshire. Library. Digital Collections.|~|Scanned by Internet Archive, Open Content Alliance (2009)",,,Text,Conway (N.H. : Town) -- Appropriations and expenditures -- Periodicals,Conway (N.H. : Town),,,eng,"[North Conway, N.H. : the Town, 1904- ]|~|University of New Hampshire. Library. Digital Collections.",conway_0035+application-pdf+application.pdf|~|conway_0035+image-low-jpg+image-low.jpg|~|conway_0035+image-tb-jpg+image-tb.jpg
Active,conway:0036,conway,http://www.archive.org/details/conwaynewhampshi1968conw|~|conwaynewhampshi1968conw|~|conway:0036,"Conway, New Hampshire annual report, 1968",1969,Title varies|~|Imprint varies|~|Report year varies,"University of New Hampshire. Library. Digital Collections.|~|Scanned by Internet Archive, Open Content Alliance (2009)",,,Text,Conway (N.H. : Town) -- Appropriations and expenditures -- Periodicals,Conway (N.H. : Town),,,eng,"[North Conway, N.H. : the Town, 1904- ]|~|University of New Hampshire. Library. Digital Collections.",conway_0036+application-pdf+application.pdf|~|conway_0036+image-low-jpg+image-low.jpg|~|conway_0036+image-tb-jpg+image-tb.jpg
Active,conway:0037,conway,http://www.archive.org/details/conwaynewhampshi1969conw|~|conwaynewhampshi1969conw|~|conway:0037,"Conway, New Hampshire annual report, 1969",1970,Title varies|~|Imprint varies|~|Report year varies,"University of New Hampshire. Library. Digital Collections.|~|Scanned by Internet Archive, Open Content Alliance (2009)",,,Text,Conway (N.H. : Town) -- Appropriations and expenditures -- Periodicals,Conway (N.H. : Town),,,eng,"[North Conway, N.H. : the Town, 1904- ]|~|University of New Hampshire. Library. Digital Collections.",conway_0037+application-pdf+application.pdf|~|conway_0037+image-low-jpg+image-low.jpg|~|conway_0037+image-tb-jpg+image-tb.jpg
Active,conway:0038,conway,http://www.archive.org/details/conwaynewhampshi1970conw|~|conwaynewhampshi1970conw|~|conway:0038,"Conway, New Hampshire annual report, 1970",1971,Title varies|~|Imprint varies|~|Report year varies,"University of New Hampshire. Library. Digital Collections.|~|Scanned by Internet Archive, Open Content Alliance (2009)",,,Text,Conway (N.H. : Town) -- Appropriations and expenditures -- Periodicals,Conway (N.H. : Town),,,eng,"[North Conway, N.H. : the Town, 1904- ]|~|University of New Hampshire. Library. Digital Collections.",conway_0038+application-pdf+application.pdf|~|conway_0038+image-low-jpg+image-low.jpg|~|conway_0038+image-tb-jpg+image-tb.jpg
Active,conway:0039,conway,http://www.archive.org/details/conwaynewhampshi1971conw|~|conwaynewhampshi1971conw|~|conway:0039,"Conway, New Hampshire annual report, 1971",1972,Title varies|~|Imprint varies|~|Report year varies,"University of New Hampshire. Library. Digital Collections.|~|Scanned by Internet Archive, Open Content Alliance (2009)",,,Text,Conway (N.H. : Town) -- Appropriations and expenditures -- Periodicals,Conway (N.H. : Town),,,eng,"[North Conway, N.H. : the Town, 1904- ]|~|University of New Hampshire. Library. Digital Collections.",conway_0039+application-pdf+application.pdf|~|conway_0039+image-low-jpg+image-low.jpg|~|conway_0039+image-tb-jpg+image-tb.jpg
Active,conway:0040,conway,http://www.archive.org/details/conwaynewhampshi1972conw|~|conwaynewhampshi1972conw|~|conway:0040,"Conway, New Hampshire annual report, 1972",1973,Title varies|~|Imprint varies|~|Report year varies,"University of New Hampshire. Library. Digital Collections.|~|Scanned by Internet Archive, Open Content Alliance (2009)",,,Text,Conway (N.H. : Town) -- Appropriations and expenditures -- Periodicals,Conway (N.H. : Town),,,eng,"[North Conway, N.H. : the Town, 1904- ]|~|University of New Hampshire. Library. Digital Collections.",conway_0040+application-pdf+application.pdf|~|conway_0040+image-low-jpg+image-low.jpg|~|conway_0040+image-tb-jpg+image-tb.jpg
Active,conway:0041,conway,http://www.archive.org/details/conwaynewhampshi1973conw|~|conwaynewhampshi1973conw|~|conway:0041,"Conway, New Hampshire annual report, 1973",1974,Title varies|~|Imprint varies|~|Report year varies,"University of New Hampshire. Library. Digital Collections.|~|Scanned by Internet Archive, Open Content Alliance (2009)",,,Text,Conway (N.H. : Town) -- Appropriations and expenditures -- Periodicals,Conway (N.H. : Town),,,eng,"[North Conway, N.H. : the Town, 1904- ]|~|University of New Hampshire. Library. Digital Collections.",conway_0041+application-pdf+application.pdf|~|conway_0041+image-low-jpg+image-low.jpg|~|conway_0041+image-tb-jpg+image-tb.jpg
Active,conway:0042,conway,http://www.archive.org/details/conwaynewhampshi1974conw|~|conwaynewhampshi1974conw|~|conway:0042,"Conway, New Hampshire annual report, 1974",1975,Title varies|~|Imprint varies|~|Report year varies,"University of New Hampshire. Library. Digital Collections.|~|Scanned by Internet Archive, Open Content Alliance (2009)",,,Text,Conway (N.H. : Town) -- Appropriations and expenditures -- Periodicals,Conway (N.H. : Town),,,eng,"[North Conway, N.H. : the Town, 1904- ]|~|University of New Hampshire. Library. Digital Collections.",conway_0042+application-pdf+application.pdf|~|conway_0042+image-low-jpg+image-low.jpg|~|conway_0042+image-tb-jpg+image-tb.jpg
Active,conway:0043,conway,http://www.archive.org/details/conwaynewhampshi1975conw|~|conwaynewhampshi1975conw|~|conway:0043,"Conway, New Hampshire annual report, 1975",1976,Title varies|~|Imprint varies|~|Report year varies,"University of New Hampshire. Library. Digital Collections.|~|Scanned by Internet Archive, Open Content Alliance (2009)",,,Text,Conway (N.H. : Town) -- Appropriations and expenditures -- Periodicals,Conway (N.H. : Town),,,eng,"[North Conway, N.H. : the Town, 1904- ]|~|University of New Hampshire. Library. Digital Collections.",conway_0043+application-pdf+application.pdf|~|conway_0043+image-low-jpg+image-low.jpg|~|conway_0043+image-tb-jpg+image-tb.jpg
Active,conway:0044,conway,http://www.archive.org/details/conwaynewhampshi1976conw|~|conwaynewhampshi1976conw|~|conway:0044,"Conway, New Hampshire annual report, 1976",1977,Title varies|~|Imprint varies|~|Report year varies,"University of New Hampshire. Library. Digital Collections.|~|Scanned by Internet Archive, Open Content Alliance (2009)",,,Text,Conway (N.H. : Town) -- Appropriations and expenditures -- Periodicals,Conway (N.H. : Town),,,eng,"[North Conway, N.H. : the Town, 1904- ]|~|University of New Hampshire. Library. Digital Collections.",conway_0044+application-pdf+application.pdf|~|conway_0044+image-low-jpg+image-low.jpg|~|conway_0044+image-tb-jpg+image-tb.jpg
Active,conway:0045,conway,http://www.archive.org/details/conwaynewhampshi1977conw|~|conwaynewhampshi1977conw|~|conway:0045,"Conway, New Hampshire annual report, 1977",1978,Title varies|~|Imprint varies|~|Report year varies,"University of New Hampshire. Library. Digital Collections.|~|Scanned by Internet Archive, Open Content Alliance (2009)",,,Text,Conway (N.H. : Town) -- Appropriations and expenditures -- Periodicals,Conway (N.H. : Town),,,eng,"[North Conway, N.H. : the Town, 1904- ]|~|University of New Hampshire. Library. Digital Collections.",conway_0045+application-pdf+application.pdf|~|conway_0045+image-low-jpg+image-low.jpg|~|conway_0045+image-tb-jpg+image-tb.jpg
Active,conway:0046,conway,http://www.archive.org/details/conwaynewhampshi1978conw|~|conwaynewhampshi1978conw|~|conway:0046,"Conway, New Hampshire annual report, 1978",1979,Title varies|~|Imprint varies|~|Report year varies,"University of New Hampshire. Library. Digital Collections.|~|Scanned by Internet Archive, Open Content Alliance (2009)",,,Text,Conway (N.H. : Town) -- Appropriations and expenditures -- Periodicals,Conway (N.H. : Town),,,eng,"[North Conway, N.H. : the Town, 1904- ]|~|University of New Hampshire. Library. Digital Collections.",conway_0046+application-pdf+application.pdf|~|conway_0046+image-low-jpg+image-low.jpg|~|conway_0046+image-tb-jpg+image-tb.jpg
Active,conway:0047,conway,http://www.archive.org/details/conwaynewhampshi1979conw|~|conwaynewhampshi1979conw|~|conway:0047,"Conway, New Hampshire annual report, 1979",1980,Title varies|~|Imprint varies|~|Report year varies,"University of New Hampshire. Library. Digital Collections.|~|Scanned by Internet Archive, Open Content Alliance (2009)",,,Text,Conway (N.H. : Town) -- Appropriations and expenditures -- Periodicals,Conway (N.H. : Town),,,eng,"[North Conway, N.H. : the Town, 1904- ]|~|University of New Hampshire. Library. Digital Collections.",conway_0047+application-pdf+application.pdf|~|conway_0047+image-low-jpg+image-low.jpg|~|conway_0047+image-tb-jpg+image-tb.jpg
Active,conway:0048,conway,http://www.archive.org/details/conwaynewhampshi1980conw|~|conwaynewhampshi1980conw|~|conway:0048,"Conway, New Hampshire annual report, 1980",1981,Title varies|~|Imprint varies|~|Report year varies,"University of New Hampshire. Library. Digital Collections.|~|Scanned by Internet Archive, Open Content Alliance (2009)",,,Text,Conway (N.H. : Town) -- Appropriations and expenditures -- Periodicals,Conway (N.H. : Town),,,eng,"[North Conway, N.H. : the Town, 1904- ]|~|University of New Hampshire. Library. Digital Collections.",conway_0048+application-pdf+application.pdf|~|conway_0048+image-low-jpg+image-low.jpg|~|conway_0048+image-tb-jpg+image-tb.jpg
Active,conway:0049,conway,http://www.archive.org/details/conwaynewhampshi1981conw|~|conwaynewhampshi1981conw|~|conway:0049,"Conway, New Hampshire annual report, 1981",1982,Title varies|~|Imprint varies|~|Report year varies,"University of New Hampshire. Library. Digital Collections.|~|Scanned by Internet Archive, Open Content Alliance (2009)",,,Text,Conway (N.H. : Town) -- Appropriations and expenditures -- Periodicals,Conway (N.H. : Town),,,eng,"[North Conway, N.H. : the Town, 1904- ]|~|University of New Hampshire. Library. Digital Collections.",conway_0049+application-pdf+application.pdf|~|conway_0049+image-low-jpg+image-low.jpg|~|conway_0049+image-tb-jpg+image-tb.jpg
Active,conway:0050,conway,http://www.archive.org/details/conwaynewhampshi1982conw|~|conwaynewhampshi1982conw|~|conway:0050,"Conway, New Hampshire annual report, 1982",1983,Title varies|~|Imprint varies|~|Report year varies,"University of New Hampshire. Library. Digital Collections.|~|Scanned by Internet Archive, Open Content Alliance (2009)",,,Text,Conway (N.H. : Town) -- Appropriations and expenditures -- Periodicals,Conway (N.H. : Town),,,eng,"[North Conway, N.H. : the Town, 1904- ]|~|University of New Hampshire. Library. Digital Collections.",conway_0050+application-pdf+application.pdf|~|conway_0050+image-low-jpg+image-low.jpg|~|conway_0050+image-tb-jpg+image-tb.jpg
Active,conway:0051,conway,http://www.archive.org/details/conwaynewhampshi1983conw|~|conwaynewhampshi1983conw|~|conway:0051,"Conway, New Hampshire annual report, 1983",1984,Title varies|~|Imprint varies|~|Report year varies,"University of New Hampshire. Library. Digital Collections.|~|Scanned by Internet Archive, Open Content Alliance (2009)",,,Text,Conway (N.H. : Town) -- Appropriations and expenditures -- Periodicals,Conway (N.H. : Town),,,eng,"[North Conway, N.H. : the Town, 1904- ]|~|University of New Hampshire. Library. Digital Collections.",conway_0051+application-pdf+application.pdf|~|conway_0051+image-low-jpg+image-low.jpg|~|conway_0051+image-tb-jpg+image-tb.jpg
Active,conway:0052,conway,http://www.archive.org/details/conwaynewhampshi1984conw|~|conwaynewhampshi1984conw|~|conway:0052,"Conway, New Hampshire annual report, 1984",1985,Title varies|~|Imprint varies|~|Report year varies,"University of New Hampshire. Library. Digital Collections.|~|Scanned by Internet Archive, Open Content Alliance (2009)",,,Text,Conway (N.H. : Town) -- Appropriations and expenditures -- Periodicals,Conway (N.H. : Town),,,eng,"[North Conway, N.H. : the Town, 1904- ]|~|University of New Hampshire. Library. Digital Collections.",conway_0052+application-pdf+application.pdf|~|conway_0052+image-low-jpg+image-low.jpg|~|conway_0052+image-tb-jpg+image-tb.jpg
Active,conway:0053,conway,http://www.archive.org/details/conwaynewhampshi1985conw|~|conwaynewhampshi1985conw|~|conway:0053,"Conway, New Hampshire annual report, 1985",1986,Title varies|~|Imprint varies|~|Report year varies,"University of New Hampshire. Library. Digital Collections.|~|Scanned by Internet Archive, Open Content Alliance (2009)",,,Text,Conway (N.H. : Town) -- Appropriations and expenditures -- Periodicals,Conway (N.H. : Town),,,eng,"[North Conway, N.H. : the Town, 1904- ]|~|University of New Hampshire. Library. Digital Collections.",conway_0053+application-pdf+application.pdf|~|conway_0053+image-low-jpg+image-low.jpg|~|conway_0053+image-tb-jpg+image-tb.jpg
Active,conway:0054,conway,http://www.archive.org/details/conwaynewhampshi1986conw|~|conwaynewhampshi1986conw|~|conway:0054,"Conway, New Hampshire annual report, 1986",1987,Title varies|~|Imprint varies|~|Report year varies,"University of New Hampshire. Library. Digital Collections.|~|Scanned by Internet Archive, Open Content Alliance (2009)",,,Text,Conway (N.H. : Town) -- Appropriations and expenditures -- Periodicals,Conway (N.H. : Town),,,eng,"[North Conway, N.H. : the Town, 1904- ]|~|University of New Hampshire. Library. Digital Collections.",conway_0054+application-pdf+application.pdf|~|conway_0054+image-low-jpg+image-low.jpg|~|conway_0054+image-tb-jpg+image-tb.jpg
Active,conway:0055,conway,http://www.archive.org/details/conwaynewhampshi1987conw|~|conwaynewhampshi1987conw|~|conway:0055,"Conway, New Hampshire annual report, 1987",1988,Title varies|~|Imprint varies|~|Report year varies,"University of New Hampshire. Library. Digital Collections.|~|Scanned by Internet Archive, Open Content Alliance (2009)",,,Text,Conway (N.H. : Town) -- Appropriations and expenditures -- Periodicals,Conway (N.H. : Town),,,eng,"[North Conway, N.H. : the Town, 1904- ]|~|University of New Hampshire. Library. Digital Collections.",conway_0055+application-pdf+application.pdf|~|conway_0055+image-low-jpg+image-low.jpg|~|conway_0055+image-tb-jpg+image-tb.jpg
Active,conway:0056,conway,http://www.archive.org/details/conwaynewhampshi1988conw|~|conwaynewhampshi1988conw|~|conway:0056,"Conway, New Hampshire annual report, 1988",1989,Title varies|~|Imprint varies|~|Report year varies,"University of New Hampshire. Library. Digital Collections.|~|Scanned by Internet Archive, Open Content Alliance (2009)",,,Text,Conway (N.H. : Town) -- Appropriations and expenditures -- Periodicals,Conway (N.H. : Town),,,eng,"[North Conway, N.H. : the Town, 1904- ]|~|University of New Hampshire. Library. Digital Collections.",conway_0056+application-pdf+application.pdf|~|conway_0056+image-low-jpg+image-low.jpg|~|conway_0056+image-tb-jpg+image-tb.jpg
Active,conway:0057,conway,http://www.archive.org/details/conwaynewhampshi1989conw|~|conwaynewhampshi1989conw|~|conway:0057,"Conway, New Hampshire annual report, 1989",1990,Title varies|~|Imprint varies|~|Report year varies,"University of New Hampshire. Library. Digital Collections.|~|Scanned by Internet Archive, Open Content Alliance (2009)",,,Text,Conway (N.H. : Town) -- Appropriations and expenditures -- Periodicals,Conway (N.H. : Town),,,eng,"[North Conway, N.H. : the Town, 1904- ]|~|University of New Hampshire. Library. Digital Collections.",conway_0057+application-pdf+application.pdf|~|conway_0057+image-low-jpg+image-low.jpg|~|conway_0057+image-tb-jpg+image-tb.jpg
Active,conway:0058,conway,http://www.archive.org/details/conwaynewhampshi1990conw|~|conwaynewhampshi1990conw|~|conway:0058,"Conway, New Hampshire annual report, 1990",1991,Title varies|~|Imprint varies|~|Report year varies,"University of New Hampshire. Library. Digital Collections.|~|Scanned by Internet Archive, Open Content Alliance (2009)",,,Text,Conway (N.H. : Town) -- Appropriations and expenditures -- Periodicals,Conway (N.H. : Town),,,eng,"[North Conway, N.H. : the Town, 1904- ]|~|University of New Hampshire. Library. Digital Collections.",conway_0058+application-pdf+application.pdf|~|conway_0058+image-low-jpg+image-low.jpg|~|conway_0058+image-tb-jpg+image-tb.jpg
Active,conway:0059,conway,http://www.archive.org/details/conwaynewhampshi1994conw|~|conwaynewhampshi1994conw|~|conway:0059,"Conway, New Hampshire annual report, 1994",1995,Title varies|~|Imprint varies|~|Report year varies,"University of New Hampshire. Library. Digital Collections.|~|Scanned by Internet Archive, Open Content Alliance (2009)",,,Text,Conway (N.H. : Town) -- Appropriations and expenditures -- Periodicals,Conway (N.H. : Town),,,eng,"[North Conway, N.H. : the Town, 1904- ]|~|University of New Hampshire. Library. Digital Collections.",conway_0059+application-pdf+application.pdf|~|conway_0059+image-low-jpg+image-low.jpg|~|conway_0059+image-tb-jpg+image-tb.jpg
Active,conway:0060,conway,http://www.archive.org/details/conwaynewhampshi1995conw|~|conwaynewhampshi1995conw|~|conway:0060,"Conway, New Hampshire annual report, 1995",1996,Title varies|~|Imprint varies|~|Report year varies,"University of New Hampshire. Library. Digital Collections.|~|Scanned by Internet Archive, Open Content Alliance (2009)",,,Text,Conway (N.H. : Town) -- Appropriations and expenditures -- Periodicals,Conway (N.H. : Town),,,eng,"[North Conway, N.H. : the Town, 1904- ]|~|University of New Hampshire. Library. Digital Collections.",conway_0060+application-pdf+application.pdf|~|conway_0060+image-low-jpg+image-low.jpg|~|conway_0060+image-tb-jpg+image-tb.jpg
Active,conway:0061,conway,http://www.archive.org/details/conwaynewhampshi1996conw|~|conwaynewhampshi1996conw|~|conway:0061,"Conway, New Hampshire annual report, 1996",1997,Title varies|~|Imprint varies|~|Report year varies,"University of New Hampshire. Library. Digital Collections.|~|Scanned by Internet Archive, Open Content Alliance (2009)",,,Text,Conway (N.H. : Town) -- Appropriations and expenditures -- Periodicals,Conway (N.H. : Town),,,eng,"[North Conway, N.H. : the Town, 1904- ]|~|University of New Hampshire. Library. Digital Collections.",conway_0061+application-pdf+application.pdf|~|conway_0061+image-low-jpg+image-low.jpg|~|conway_0061+image-tb-jpg+image-tb.jpg
Active,conway:0062,conway,http://www.archive.org/details/conwaynewhampshi1997conw|~|conwaynewhampshi1997conw|~|conway:0062,"Conway, New Hampshire annual report, 1997",1998,Title varies|~|Imprint varies|~|Report year varies,"University of New Hampshire. Library. Digital Collections.|~|Scanned by Internet Archive, Open Content Alliance (2009)",,,Text,Conway (N.H. : Town) -- Appropriations and expenditures -- Periodicals,Conway (N.H. : Town),,,eng,"[North Conway, N.H. : the Town, 1904- ]|~|University of New Hampshire. Library. Digital Collections.",conway_0062+application-pdf+application.pdf|~|conway_0062+image-low-jpg+image-low.jpg|~|conway_0062+image-tb-jpg+image-tb.jpg
Active,conway:0063,conway,http://www.archive.org/details/conwaynewhampshi1998conw|~|conwaynewhampshi1998conw|~|conway:0063,"Conway, New Hampshire annual report, 1998",1999,Title varies|~|Imprint varies|~|Report year varies,"University of New Hampshire. Library. Digital Collections.|~|Scanned by Internet Archive, Open Content Alliance (2009)",,,Text,Conway (N.H. : Town) -- Appropriations and expenditures -- Periodicals,Conway (N.H. : Town),,,eng,"[North Conway, N.H. : the Town, 1904- ]|~|University of New Hampshire. Library. Digital Collections.",conway_0063+application-pdf+application.pdf|~|conway_0063+image-low-jpg+image-low.jpg|~|conway_0063+image-tb-jpg+image-tb.jpg
Active,conway:0064,conway,http://www.archive.org/details/conwaynewhampshi2000conw|~|conwaynewhampshi2000conw|~|conway:0064,"Conway, New Hampshire annual report, 2000",2001,Title varies|~|Imprint varies|~|Report year varies,"University of New Hampshire. Library. Digital Collections.|~|Scanned by Internet Archive, Open Content Alliance (2009)",,,Text,Conway (N.H. : Town) -- Appropriations and expenditures -- Periodicals,Conway (N.H. : Town),,,eng,"[North Conway, N.H. : the Town, 1904- ]|~|University of New Hampshire. Library. Digital Collections.",conway_0064+application-pdf+application.pdf|~|conway_0064+image-low-jpg+image-low.jpg|~|conway_0064+image-tb-jpg+image-tb.jpg
Active,conway:0065,conway,http://www.archive.org/details/conwaynewhampshi2001conw|~|conwaynewhampshi2001conw|~|conway:0065,"Conway, New Hampshire annual report, 2001",2002,Title varies|~|Imprint varies|~|Report year varies,"University of New Hampshire. Library. Digital Collections.|~|Scanned by Internet Archive, Open Content Alliance (2009)",,,Text,Conway (N.H. : Town) -- Appropriations and expenditures -- Periodicals,Conway (N.H. : Town),,,eng,"[North Conway, N.H. : the Town, 1904- ]|~|University of New Hampshire. Library. Digital Collections.",conway_0065+application-pdf+application.pdf|~|conway_0065+image-low-jpg+image-low.jpg|~|conway_0065+image-tb-jpg+image-tb.jpg
Active,conway:0066,conway,http://www.archive.org/details/conwaynewhampshi2002conw|~|conwaynewhampshi2002conw|~|conway:0066,"Conway, New Hampshire annual report, 2002",2003,Title varies|~|Imprint varies|~|Report year varies,"University of New Hampshire. Library. Digital Collections.|~|Scanned by Internet Archive, Open Content Alliance (2009)",,,Text,Conway (N.H. : Town) -- Appropriations and expenditures -- Periodicals,Conway (N.H. : Town),,,eng,"[North Conway, N.H. : the Town, 1904- ]|~|University of New Hampshire. Library. Digital Collections.",conway_0066+application-pdf+application.pdf|~|conway_0066+image-low-jpg+image-low.jpg|~|conway_0066+image-tb-jpg+image-tb.jpg
Active,conway:0067,conway,http://www.archive.org/details/conwaynewhampshi2003conw|~|conwaynewhampshi2003conw|~|conway:0067,"Conway, New Hampshire annual report, 2003",2004,Title varies|~|Imprint varies|~|Report year varies,"University of New Hampshire. Library. Digital Collections.|~|Scanned by Internet Archive, Open Content Alliance (2009)",,,Text,Conway (N.H. : Town) -- Appropriations and expenditures -- Periodicals,Conway (N.H. : Town),,,eng,"[North Conway, N.H. : the Town, 1904- ]|~|University of New Hampshire. Library. Digital Collections.",conway_0067+application-pdf+application.pdf|~|conway_0067+image-low-jpg+image-low.jpg|~|conway_0067+image-tb-jpg+image-tb.jpg
Active,conway:0068,conway,annualreport2011conway|~|conway:0068,"Conway, New Hampshire annual report, 2011",2012,Title varies|~|Imprint varies|~|Report year varies,University of New Hampshire. Library. Digital Collections.,,,Text,Conway (N.H. : Town) -- Appropriations and expenditures -- Periodicals,Conway (N.H. : Town),,,Eng,"[Conway, N.H. : The Town]|~|University of New Hampshire. Library. Digital Collections.",conway_0068+application-pdf+application.pdf|~|conway_0068+image-low-jpg+image-low.jpg|~|conway_0068+image-tb-jpg+image-tb.jpg
