state,pid,collection,dcterms:identifier,dcterms:title,dcterms:date,dcterms:description,dcterms:contributor,dcterms:rights,dcterms:format,dcterms:type,dcterms:subject,dcterms:creator,dcterms:relation,dcterms:coverage,dcterms:language,dcterms:publisher,files
Active,danville:0001,danville,http://www.archive.org/details/annualreportsoft1893danv|~|annualreportsoft1893danv|~|danville:0001,"Annual reports of the Town of Danville, New Hampshire, 1893",1893,Title varies|~|Imprint varies|~|Report year varies,"University of New Hampshire. Library. Digital Collections.|~|Scanned by Internet Archive, Open Content Alliance (2009)",,,Text,Danville (N.H. : Town) -- Appropriations and expenditures -- Periodicals,Danville (N.H. : Town),,,Eng,"[Haverhill, Mass. : Chase Brothers, Printers]|~|University of New Hampshire. Library. Digital Collections.",danville_0001+application-pdf+application.pdf|~|danville_0001+image-low-jpg+image-low.jpg|~|danville_0001+image-tb-jpg+image-tb.jpg
Active,danville:0002,danville,http://www.archive.org/details/annualreportsoft1916danv|~|annualreportsoft1916danv|~|danville:0002,"Annual reports of the Town of Danville, New Hampshire, 1916",1916,Title varies|~|Imprint varies|~|Report year varies,"University of New Hampshire. Library. Digital Collections.|~|Scanned by Internet Archive, Open Content Alliance (2009)",,,Text,Danville (N.H. : Town) -- Appropriations and expenditures -- Periodicals,Danville (N.H. : Town),,,Eng,"[Haverhill, Mass. : Chase Brothers, Printers]|~|University of New Hampshire. Library. Digital Collections.",danville_0002+application-pdf+application.pdf|~|danville_0002+image-low-jpg+image-low.jpg|~|danville_0002+image-tb-jpg+image-tb.jpg
Active,danville:0003,danville,http://www.archive.org/details/annualreportsoft1923danv|~|annualreportsoft1923danv|~|danville:0003,"Annual reports of the Town of Danville, New Hampshire, 1923",1923,Title varies|~|Imprint varies|~|Report year varies,"University of New Hampshire. Library. Digital Collections.|~|Scanned by Internet Archive, Open Content Alliance (2009)",,,Text,Danville (N.H. : Town) -- Appropriations and expenditures -- Periodicals,Danville (N.H. : Town),,,Eng,"[Haverhill, Mass. : Chase Brothers, Printers]|~|University of New Hampshire. Library. Digital Collections.",danville_0003+application-pdf+application.pdf|~|danville_0003+image-low-jpg+image-low.jpg|~|danville_0003+image-tb-jpg+image-tb.jpg
Active,danville:0004,danville,http://www.archive.org/details/annualreportsoft1924danv|~|annualreportsoft1924danv|~|danville:0004,"Annual reports of the Town of Danville, New Hampshire, 1924",1924,Title varies|~|Imprint varies|~|Report year varies,"University of New Hampshire. Library. Digital Collections.|~|Scanned by Internet Archive, Open Content Alliance (2009)",,,Text,Danville (N.H. : Town) -- Appropriations and expenditures -- Periodicals,Danville (N.H. : Town),,,Eng,"[Haverhill, Mass. : Chase Brothers, Printers]|~|University of New Hampshire. Library. Digital Collections.",danville_0004+application-pdf+application.pdf|~|danville_0004+image-low-jpg+image-low.jpg|~|danville_0004+image-tb-jpg+image-tb.jpg
Active,danville:0005,danville,http://www.archive.org/details/annualreportsoft1925danv|~|annualreportsoft1925danv|~|danville:0005,"Annual reports of the Town of Danville, New Hampshire, 1925",1925,Title varies|~|Imprint varies|~|Report year varies,"University of New Hampshire. Library. Digital Collections.|~|Scanned by Internet Archive, Open Content Alliance (2009)",,,Text,Danville (N.H. : Town) -- Appropriations and expenditures -- Periodicals,Danville (N.H. : Town),,,Eng,"[Haverhill, Mass. : Chase Brothers, Printers]|~|University of New Hampshire. Library. Digital Collections.",danville_0005+application-pdf+application.pdf|~|danville_0005+image-low-jpg+image-low.jpg|~|danville_0005+image-tb-jpg+image-tb.jpg
Active,danville:0006,danville,http://www.archive.org/details/annualreportsoft1926danv|~|annualreportsoft1926danv|~|danville:0006,"Annual reports of the Town of Danville, New Hampshire, 1926",1926,Title varies|~|Imprint varies|~|Report year varies,"University of New Hampshire. Library. Digital Collections.|~|Scanned by Internet Archive, Open Content Alliance (2009)",,,Text,Danville (N.H. : Town) -- Appropriations and expenditures -- Periodicals,Danville (N.H. : Town),,,Eng,"[Haverhill, Mass. : Chase Brothers, Printers]|~|University of New Hampshire. Library. Digital Collections.",danville_0006+application-pdf+application.pdf|~|danville_0006+image-low-jpg+image-low.jpg|~|danville_0006+image-tb-jpg+image-tb.jpg
Active,danville:0007,danville,http://www.archive.org/details/annualreportsoft1927danv|~|annualreportsoft1927danv|~|danville:0007,"Annual reports of the Town of Danville, New Hampshire, 1927",1927,Title varies|~|Imprint varies|~|Report year varies,"University of New Hampshire. Library. Digital Collections.|~|Scanned by Internet Archive, Open Content Alliance (2009)",,,Text,Danville (N.H. : Town) -- Appropriations and expenditures -- Periodicals,Danville (N.H. : Town),,,Eng,"[Haverhill, Mass. : Chase Brothers, Printers]|~|University of New Hampshire. Library. Digital Collections.",danville_0007+application-pdf+application.pdf|~|danville_0007+image-low-jpg+image-low.jpg|~|danville_0007+image-tb-jpg+image-tb.jpg
Active,danville:0008,danville,http://www.archive.org/details/annualreportsoft1928danv|~|annualreportsoft1928danv|~|danville:0008,"Annual reports of the Town of Danville, New Hampshire, 1928",1928,Title varies|~|Imprint varies|~|Report year varies,"University of New Hampshire. Library. Digital Collections.|~|Scanned by Internet Archive, Open Content Alliance (2009)",,,Text,Danville (N.H. : Town) -- Appropriations and expenditures -- Periodicals,Danville (N.H. : Town),,,Eng,"[Haverhill, Mass. : Chase Brothers, Printers]|~|University of New Hampshire. Library. Digital Collections.",danville_0008+application-pdf+application.pdf|~|danville_0008+image-low-jpg+image-low.jpg|~|danville_0008+image-tb-jpg+image-tb.jpg
Active,danville:0009,danville,http://www.archive.org/details/annualreportsoft1929danv|~|annualreportsoft1929danv|~|danville:0009,"Annual reports of the Town of Danville, New Hampshire, 1929",1929,Title varies|~|Imprint varies|~|Report year varies,"University of New Hampshire. Library. Digital Collections.|~|Scanned by Internet Archive, Open Content Alliance (2009)",,,Text,Danville (N.H. : Town) -- Appropriations and expenditures -- Periodicals,Danville (N.H. : Town),,,Eng,"[Haverhill, Mass. : Chase Brothers, Printers]|~|University of New Hampshire. Library. Digital Collections.",danville_0009+application-pdf+application.pdf|~|danville_0009+image-low-jpg+image-low.jpg|~|danville_0009+image-tb-jpg+image-tb.jpg
Active,danville:0010,danville,http://www.archive.org/details/annualreportsoft1930danv|~|annualreportsoft1930danv|~|danville:0010,"Annual reports of the Town of Danville, New Hampshire, 1930",1930,Title varies|~|Imprint varies|~|Report year varies,"University of New Hampshire. Library. Digital Collections.|~|Scanned by Internet Archive, Open Content Alliance (2009)",,,Text,Danville (N.H. : Town) -- Appropriations and expenditures -- Periodicals,Danville (N.H. : Town),,,Eng,"[Haverhill, Mass. : Chase Brothers, Printers]|~|University of New Hampshire. Library. Digital Collections.",danville_0010+application-pdf+application.pdf|~|danville_0010+image-low-jpg+image-low.jpg|~|danville_0010+image-tb-jpg+image-tb.jpg
Active,danville:0011,danville,http://www.archive.org/details/annualreportsoft1931danv|~|annualreportsoft1931danv|~|danville:0011,"Annual reports of the Town of Danville, New Hampshire, 1931",1931,Title varies|~|Imprint varies|~|Report year varies,"University of New Hampshire. Library. Digital Collections.|~|Scanned by Internet Archive, Open Content Alliance (2009)",,,Text,Danville (N.H. : Town) -- Appropriations and expenditures -- Periodicals,Danville (N.H. : Town),,,Eng,"[Haverhill, Mass. : Chase Brothers, Printers]|~|University of New Hampshire. Library. Digital Collections.",danville_0011+application-pdf+application.pdf|~|danville_0011+image-low-jpg+image-low.jpg|~|danville_0011+image-tb-jpg+image-tb.jpg
Active,danville:0012,danville,http://www.archive.org/details/annualreportsoft1932danv|~|annualreportsoft1932danv|~|danville:0012,"Annual reports of the Town of Danville, New Hampshire, 1932",1932,Title varies|~|Imprint varies|~|Report year varies,"University of New Hampshire. Library. Digital Collections.|~|Scanned by Internet Archive, Open Content Alliance (2009)",,,Text,Danville (N.H. : Town) -- Appropriations and expenditures -- Periodicals,Danville (N.H. : Town),,,Eng,"[Haverhill, Mass. : Chase Brothers, Printers]|~|University of New Hampshire. Library. Digital Collections.",danville_0012+application-pdf+application.pdf|~|danville_0012+image-low-jpg+image-low.jpg|~|danville_0012+image-tb-jpg+image-tb.jpg
Active,danville:0013,danville,http://www.archive.org/details/annualreportsoft1933danv|~|annualreportsoft1933danv|~|danville:0013,"Annual reports of the Town of Danville, New Hampshire, 1933",1933,Title varies|~|Imprint varies|~|Report year varies,"University of New Hampshire. Library. Digital Collections.|~|Scanned by Internet Archive, Open Content Alliance (2009)",,,Text,Danville (N.H. : Town) -- Appropriations and expenditures -- Periodicals,Danville (N.H. : Town),,,Eng,"[Haverhill, Mass. : Chase Brothers, Printers]|~|University of New Hampshire. Library. Digital Collections.",danville_0013+application-pdf+application.pdf|~|danville_0013+image-low-jpg+image-low.jpg|~|danville_0013+image-tb-jpg+image-tb.jpg
Active,danville:0014,danville,http://www.archive.org/details/annualreportsoft1934danv|~|annualreportsoft1934danv|~|danville:0014,"Annual reports of the Town of Danville, New Hampshire, 1934",1934,Title varies|~|Imprint varies|~|Report year varies,"University of New Hampshire. Library. Digital Collections.|~|Scanned by Internet Archive, Open Content Alliance (2009)",,,Text,Danville (N.H. : Town) -- Appropriations and expenditures -- Periodicals,Danville (N.H. : Town),,,Eng,"[Haverhill, Mass. : Chase Brothers, Printers]|~|University of New Hampshire. Library. Digital Collections.",danville_0014+application-pdf+application.pdf|~|danville_0014+image-low-jpg+image-low.jpg|~|danville_0014+image-tb-jpg+image-tb.jpg
Active,danville:0015,danville,http://www.archive.org/details/annualreportsoft1935danv|~|annualreportsoft1935danv|~|danville:0015,"Annual reports of the Town of Danville, New Hampshire, 1935",1935,Title varies|~|Imprint varies|~|Report year varies,"University of New Hampshire. Library. Digital Collections.|~|Scanned by Internet Archive, Open Content Alliance (2009)",,,Text,Danville (N.H. : Town) -- Appropriations and expenditures -- Periodicals,Danville (N.H. : Town),,,Eng,"[Haverhill, Mass. : Chase Brothers, Printers]|~|University of New Hampshire. Library. Digital Collections.",danville_0015+application-pdf+application.pdf|~|danville_0015+image-low-jpg+image-low.jpg|~|danville_0015+image-tb-jpg+image-tb.jpg
Active,danville:0016,danville,http://www.archive.org/details/annualreportsoft1936danv|~|annualreportsoft1936danv|~|danville:0016,"Annual reports of the Town of Danville, New Hampshire, 1936",1936,Title varies|~|Imprint varies|~|Report year varies,"University of New Hampshire. Library. Digital Collections.|~|Scanned by Internet Archive, Open Content Alliance (2009)",,,Text,Danville (N.H. : Town) -- Appropriations and expenditures -- Periodicals,Danville (N.H. : Town),,,Eng,"[Haverhill, Mass. : Chase Brothers, Printers]|~|University of New Hampshire. Library. Digital Collections.",danville_0016+application-pdf+application.pdf|~|danville_0016+image-low-jpg+image-low.jpg|~|danville_0016+image-tb-jpg+image-tb.jpg
Active,danville:0017,danville,http://www.archive.org/details/annualreportsoft1937danv|~|annualreportsoft1937danv|~|danville:0017,"Annual reports of the Town of Danville, New Hampshire, 1937",1937,Title varies|~|Imprint varies|~|Report year varies,"University of New Hampshire. Library. Digital Collections.|~|Scanned by Internet Archive, Open Content Alliance (2009)",,,Text,Danville (N.H. : Town) -- Appropriations and expenditures -- Periodicals,Danville (N.H. : Town),,,Eng,"[Haverhill, Mass. : Chase Brothers, Printers]|~|University of New Hampshire. Library. Digital Collections.",danville_0017+application-pdf+application.pdf|~|danville_0017+image-low-jpg+image-low.jpg|~|danville_0017+image-tb-jpg+image-tb.jpg
Active,danville:0018,danville,http://www.archive.org/details/annualreportsoft1938danv|~|annualreportsoft1938danv|~|danville:0018,"Annual reports of the Town of Danville, New Hampshire, 1938",1938,Title varies|~|Imprint varies|~|Report year varies,"University of New Hampshire. Library. Digital Collections.|~|Scanned by Internet Archive, Open Content Alliance (2009)",,,Text,Danville (N.H. : Town) -- Appropriations and expenditures -- Periodicals,Danville (N.H. : Town),,,Eng,"[Haverhill, Mass. : Chase Brothers, Printers]|~|University of New Hampshire. Library. Digital Collections.",danville_0018+application-pdf+application.pdf|~|danville_0018+image-low-jpg+image-low.jpg|~|danville_0018+image-tb-jpg+image-tb.jpg
Active,danville:0019,danville,http://www.archive.org/details/annualreportsoft1939danv|~|annualreportsoft1939danv|~|danville:0019,"Annual reports of the Town of Danville, New Hampshire, 1939",1939,Title varies|~|Imprint varies|~|Report year varies,"University of New Hampshire. Library. Digital Collections.|~|Scanned by Internet Archive, Open Content Alliance (2009)",,,Text,Danville (N.H. : Town) -- Appropriations and expenditures -- Periodicals,Danville (N.H. : Town),,,Eng,"[Haverhill, Mass. : Chase Brothers, Printers]|~|University of New Hampshire. Library. Digital Collections.",danville_0019+application-pdf+application.pdf|~|danville_0019+image-low-jpg+image-low.jpg|~|danville_0019+image-tb-jpg+image-tb.jpg
Active,danville:0020,danville,http://www.archive.org/details/annualreportsoft1940danv|~|annualreportsoft1940danv|~|danville:0020,"Annual reports of the Town of Danville, New Hampshire, 1940",1940,Title varies|~|Imprint varies|~|Report year varies,"University of New Hampshire. Library. Digital Collections.|~|Scanned by Internet Archive, Open Content Alliance (2009)",,,Text,Danville (N.H. : Town) -- Appropriations and expenditures -- Periodicals,Danville (N.H. : Town),,,Eng,"[Haverhill, Mass. : Chase Brothers, Printers]|~|University of New Hampshire. Library. Digital Collections.",danville_0020+application-pdf+application.pdf|~|danville_0020+image-low-jpg+image-low.jpg|~|danville_0020+image-tb-jpg+image-tb.jpg
Active,danville:0021,danville,http://www.archive.org/details/annualreportsoft1941danv|~|annualreportsoft1941danv|~|danville:0021,"Annual reports of the Town of Danville, New Hampshire, 1941",1941,Title varies|~|Imprint varies|~|Report year varies,"University of New Hampshire. Library. Digital Collections.|~|Scanned by Internet Archive, Open Content Alliance (2009)",,,Text,Danville (N.H. : Town) -- Appropriations and expenditures -- Periodicals,Danville (N.H. : Town),,,Eng,"[Haverhill, Mass. : Chase Brothers, Printers]|~|University of New Hampshire. Library. Digital Collections.",danville_0021+application-pdf+application.pdf|~|danville_0021+image-low-jpg+image-low.jpg|~|danville_0021+image-tb-jpg+image-tb.jpg
Active,danville:0022,danville,http://www.archive.org/details/annualreportsoft1942danv|~|annualreportsoft1942danv|~|danville:0022,"Annual reports of the Town of Danville, New Hampshire, 1942",1942,Title varies|~|Imprint varies|~|Report year varies,"University of New Hampshire. Library. Digital Collections.|~|Scanned by Internet Archive, Open Content Alliance (2009)",,,Text,Danville (N.H. : Town) -- Appropriations and expenditures -- Periodicals,Danville (N.H. : Town),,,Eng,"[Haverhill, Mass. : Chase Brothers, Printers]|~|University of New Hampshire. Library. Digital Collections.",danville_0022+application-pdf+application.pdf|~|danville_0022+image-low-jpg+image-low.jpg|~|danville_0022+image-tb-jpg+image-tb.jpg
Active,danville:0023,danville,http://www.archive.org/details/annualreportsoft1943danv|~|annualreportsoft1943danv|~|danville:0023,"Annual reports of the Town of Danville, New Hampshire, 1943",1943,Title varies|~|Imprint varies|~|Report year varies,"University of New Hampshire. Library. Digital Collections.|~|Scanned by Internet Archive, Open Content Alliance (2009)",,,Text,Danville (N.H. : Town) -- Appropriations and expenditures -- Periodicals,Danville (N.H. : Town),,,Eng,"[Haverhill, Mass. : Chase Brothers, Printers]|~|University of New Hampshire. Library. Digital Collections.",danville_0023+application-pdf+application.pdf|~|danville_0023+image-low-jpg+image-low.jpg|~|danville_0023+image-tb-jpg+image-tb.jpg
Active,danville:0024,danville,http://www.archive.org/details/annualreportsoft1944danv|~|annualreportsoft1944danv|~|danville:0024,"Annual reports of the Town of Danville, New Hampshire, 1944",1944,Title varies|~|Imprint varies|~|Report year varies,"University of New Hampshire. Library. Digital Collections.|~|Scanned by Internet Archive, Open Content Alliance (2009)",,,Text,Danville (N.H. : Town) -- Appropriations and expenditures -- Periodicals,Danville (N.H. : Town),,,Eng,"[Haverhill, Mass. : Chase Brothers, Printers]|~|University of New Hampshire. Library. Digital Collections.",danville_0024+application-pdf+application.pdf|~|danville_0024+image-low-jpg+image-low.jpg|~|danville_0024+image-tb-jpg+image-tb.jpg
Active,danville:0025,danville,http://www.archive.org/details/annualreportsoft4445danv|~|annualreportsoft1944danv|~|danville:0025,"Annual reports of the Town of Danville, New Hampshire, 1944",1945,Title varies|~|Imprint varies|~|Report year varies,"University of New Hampshire. Library. Digital Collections.|~|Scanned by Internet Archive, Open Content Alliance (2009)",,,Text,Danville (N.H. : Town) -- Appropriations and expenditures -- Periodicals,Danville (N.H. : Town),,,Eng,"[Haverhill, Mass. : Chase Brothers, Printers]|~|University of New Hampshire. Library. Digital Collections.",danville_0025+application-pdf+application-pdf.1|~|danville_0025+image-low-jpg+image-low-jpg.1|~|danville_0025+image-tb-jpg+image-tb-jpg.1
Active,danville:0026,danville,http://www.archive.org/details/annualreportsoft1945danv|~|annualreportsoft1945danv|~|danville:0026,"Annual reports of the Town of Danville, New Hampshire, 1945",1946,Title varies|~|Imprint varies|~|Report year varies,"University of New Hampshire. Library. Digital Collections.|~|Scanned by Internet Archive, Open Content Alliance (2009)",,,Text,Danville (N.H. : Town) -- Appropriations and expenditures -- Periodicals,Danville (N.H. : Town),,,Eng,"[Haverhill, Mass. : Chase Brothers, Printers]|~|University of New Hampshire. Library. Digital Collections.",danville_0026+application-pdf+application.pdf|~|danville_0026+image-low-jpg+image-low.jpg|~|danville_0026+image-tb-jpg+image-tb.jpg
Active,danville:0027,danville,http://www.archive.org/details/annualreportsoft1946danv|~|annualreportsoft1946danv|~|danville:0027,"Annual reports of the Town of Danville, New Hampshire, 1946",1947,Title varies|~|Imprint varies|~|Report year varies,"University of New Hampshire. Library. Digital Collections.|~|Scanned by Internet Archive, Open Content Alliance (2009)",,,Text,Danville (N.H. : Town) -- Appropriations and expenditures -- Periodicals,Danville (N.H. : Town),,,Eng,"[Haverhill, Mass. : Chase Brothers, Printers]|~|University of New Hampshire. Library. Digital Collections.",danville_0027+application-pdf+application.pdf|~|danville_0027+image-low-jpg+image-low.jpg|~|danville_0027+image-tb-jpg+image-tb.jpg
Active,danville:0028,danville,http://www.archive.org/details/annualreportsoft1947danv|~|annualreportsoft1947danv|~|danville:0028,"Annual reports of the Town of Danville, New Hampshire, 1947",1948,Title varies|~|Imprint varies|~|Report year varies,"University of New Hampshire. Library. Digital Collections.|~|Scanned by Internet Archive, Open Content Alliance (2009)",,,Text,Danville (N.H. : Town) -- Appropriations and expenditures -- Periodicals,Danville (N.H. : Town),,,Eng,"[Haverhill, Mass. : Chase Brothers, Printers]|~|University of New Hampshire. Library. Digital Collections.",danville_0028+application-pdf+application.pdf|~|danville_0028+image-low-jpg+image-low.jpg|~|danville_0028+image-tb-jpg+image-tb.jpg
Active,danville:0029,danville,http://www.archive.org/details/annualreportsoft1948danv|~|annualreportsoft1948danv|~|danville:0029,"Annual reports of the Town of Danville, New Hampshire, 1948",1949,Title varies|~|Imprint varies|~|Report year varies,"University of New Hampshire. Library. Digital Collections.|~|Scanned by Internet Archive, Open Content Alliance (2009)",,,Text,Danville (N.H. : Town) -- Appropriations and expenditures -- Periodicals,Danville (N.H. : Town),,,Eng,"[Haverhill, Mass. : Chase Brothers, Printers]|~|University of New Hampshire. Library. Digital Collections.",danville_0029+application-pdf+application.pdf|~|danville_0029+image-low-jpg+image-low.jpg|~|danville_0029+image-tb-jpg+image-tb.jpg
Active,danville:0030,danville,http://www.archive.org/details/annualreportsoft1949danv|~|annualreportsoft1949danv|~|danville:0030,"Annual reports of the Town of Danville, New Hampshire, 1949",1950,Title varies|~|Imprint varies|~|Report year varies,"University of New Hampshire. Library. Digital Collections.|~|Scanned by Internet Archive, Open Content Alliance (2009)",,,Text,Danville (N.H. : Town) -- Appropriations and expenditures -- Periodicals,Danville (N.H. : Town),,,Eng,"[Haverhill, Mass. : Chase Brothers, Printers]|~|University of New Hampshire. Library. Digital Collections.",danville_0030+application-pdf+application.pdf|~|danville_0030+image-low-jpg+image-low.jpg|~|danville_0030+image-tb-jpg+image-tb.jpg
Active,danville:0031,danville,http://www.archive.org/details/annualreportsoft1950danv|~|annualreportsoft1950danv|~|danville:0031,"Annual reports of the Town of Danville, New Hampshire, 1950",1951,Title varies|~|Imprint varies|~|Report year varies,"University of New Hampshire. Library. Digital Collections.|~|Scanned by Internet Archive, Open Content Alliance (2009)",,,Text,Danville (N.H. : Town) -- Appropriations and expenditures -- Periodicals,Danville (N.H. : Town),,,Eng,"[Haverhill, Mass. : Chase Brothers, Printers]|~|University of New Hampshire. Library. Digital Collections.",danville_0031+application-pdf+application.pdf|~|danville_0031+image-low-jpg+image-low.jpg|~|danville_0031+image-tb-jpg+image-tb.jpg
Active,danville:0032,danville,http://www.archive.org/details/annualreportsoft1951danv|~|annualreportsoft1951danv|~|danville:0032,"Annual reports of the Town of Danville, New Hampshire, 1951",1952,Title varies|~|Imprint varies|~|Report year varies,"University of New Hampshire. Library. Digital Collections.|~|Scanned by Internet Archive, Open Content Alliance (2009)",,,Text,Danville (N.H. : Town) -- Appropriations and expenditures -- Periodicals,Danville (N.H. : Town),,,Eng,"[Haverhill, Mass. : Chase Brothers, Printers]|~|University of New Hampshire. Library. Digital Collections.",danville_0032+application-pdf+application.pdf|~|danville_0032+image-low-jpg+image-low.jpg|~|danville_0032+image-tb-jpg+image-tb.jpg
Active,danville:0033,danville,http://www.archive.org/details/annualreportsoft1952danv|~|annualreportsoft1952danv|~|danville:0033,"Annual reports of the Town of Danville, New Hampshire, 1952",1953,Title varies|~|Imprint varies|~|Report year varies,"University of New Hampshire. Library. Digital Collections.|~|Scanned by Internet Archive, Open Content Alliance (2009)",,,Text,Danville (N.H. : Town) -- Appropriations and expenditures -- Periodicals,Danville (N.H. : Town),,,Eng,"[Haverhill, Mass. : Chase Brothers, Printers]|~|University of New Hampshire. Library. Digital Collections.",danville_0033+application-pdf+application.pdf|~|danville_0033+image-low-jpg+image-low.jpg|~|danville_0033+image-tb-jpg+image-tb.jpg
Active,danville:0034,danville,http://www.archive.org/details/annualreportsoft1953danv|~|annualreportsoft1953danv|~|danville:0034,"Annual reports of the Town of Danville, New Hampshire, 1953",1954,Title varies|~|Imprint varies|~|Report year varies,"University of New Hampshire. Library. Digital Collections.|~|Scanned by Internet Archive, Open Content Alliance (2009)",,,Text,Danville (N.H. : Town) -- Appropriations and expenditures -- Periodicals,Danville (N.H. : Town),,,Eng,"[Haverhill, Mass. : Chase Brothers, Printers]|~|University of New Hampshire. Library. Digital Collections.",danville_0034+application-pdf+application.pdf|~|danville_0034+image-low-jpg+image-low.jpg|~|danville_0034+image-tb-jpg+image-tb.jpg
Active,danville:0035,danville,http://www.archive.org/details/annualreportsoft1954danv|~|annualreportsoft1954danv|~|danville:0035,"Annual reports of the Town of Danville, New Hampshire, 1954",1955,Title varies|~|Imprint varies|~|Report year varies,"University of New Hampshire. Library. Digital Collections.|~|Scanned by Internet Archive, Open Content Alliance (2009)",,,Text,Danville (N.H. : Town) -- Appropriations and expenditures -- Periodicals,Danville (N.H. : Town),,,Eng,"[Haverhill, Mass. : Chase Brothers, Printers]|~|University of New Hampshire. Library. Digital Collections.",danville_0035+application-pdf+application.pdf|~|danville_0035+image-low-jpg+image-low.jpg|~|danville_0035+image-tb-jpg+image-tb.jpg
Active,danville:0036,danville,http://www.archive.org/details/annualreportsoft1955danv|~|annualreportsoft1955danv|~|danville:0036,"Annual reports of the Town of Danville, New Hampshire, 1955",1956,Title varies|~|Imprint varies|~|Report year varies,"University of New Hampshire. Library. Digital Collections.|~|Scanned by Internet Archive, Open Content Alliance (2009)",,,Text,Danville (N.H. : Town) -- Appropriations and expenditures -- Periodicals,Danville (N.H. : Town),,,Eng,"[Haverhill, Mass. : Chase Brothers, Printers]|~|University of New Hampshire. Library. Digital Collections.",danville_0036+application-pdf+application.pdf|~|danville_0036+image-low-jpg+image-low.jpg|~|danville_0036+image-tb-jpg+image-tb.jpg
Active,danville:0037,danville,http://www.archive.org/details/annualreportsoft1956danv|~|annualreportsoft1956danv|~|danville:0037,"Annual reports of the Town of Danville, New Hampshire, 1956",1957,Title varies|~|Imprint varies|~|Report year varies,"University of New Hampshire. Library. Digital Collections.|~|Scanned by Internet Archive, Open Content Alliance (2009)",,,Text,Danville (N.H. : Town) -- Appropriations and expenditures -- Periodicals,Danville (N.H. : Town),,,Eng,"[Haverhill, Mass. : Chase Brothers, Printers]|~|University of New Hampshire. Library. Digital Collections.",danville_0037+application-pdf+application.pdf|~|danville_0037+image-low-jpg+image-low.jpg|~|danville_0037+image-tb-jpg+image-tb.jpg
Active,danville:0038,danville,http://www.archive.org/details/annualreportsoft1957danv|~|annualreportsoft1957danv|~|danville:0038,"Annual reports of the Town of Danville, New Hampshire, 1957",1958,Title varies|~|Imprint varies|~|Report year varies,"University of New Hampshire. Library. Digital Collections.|~|Scanned by Internet Archive, Open Content Alliance (2009)",,,Text,Danville (N.H. : Town) -- Appropriations and expenditures -- Periodicals,Danville (N.H. : Town),,,Eng,"[Haverhill, Mass. : Chase Brothers, Printers]|~|University of New Hampshire. Library. Digital Collections.",danville_0038+application-pdf+application.pdf|~|danville_0038+image-low-jpg+image-low.jpg|~|danville_0038+image-tb-jpg+image-tb.jpg
Active,danville:0039,danville,http://www.archive.org/details/annualreportsoft1958danv|~|annualreportsoft1958danv|~|danville:0039,"Annual reports of the Town of Danville, New Hampshire, 1958",1959,Title varies|~|Imprint varies|~|Report year varies,"University of New Hampshire. Library. Digital Collections.|~|Scanned by Internet Archive, Open Content Alliance (2009)",,,Text,Danville (N.H. : Town) -- Appropriations and expenditures -- Periodicals,Danville (N.H. : Town),,,Eng,"[Haverhill, Mass. : Chase Brothers, Printers]|~|University of New Hampshire. Library. Digital Collections.",danville_0039+application-pdf+application.pdf|~|danville_0039+image-low-jpg+image-low.jpg|~|danville_0039+image-tb-jpg+image-tb.jpg
Active,danville:0040,danville,http://www.archive.org/details/annualreportsoft1959danv|~|annualreportsoft1959danv|~|danville:0040,"Annual reports of the Town of Danville, New Hampshire, 1959",1960,Title varies|~|Imprint varies|~|Report year varies,"University of New Hampshire. Library. Digital Collections.|~|Scanned by Internet Archive, Open Content Alliance (2009)",,,Text,Danville (N.H. : Town) -- Appropriations and expenditures -- Periodicals,Danville (N.H. : Town),,,Eng,"[Haverhill, Mass. : Chase Brothers, Printers]|~|University of New Hampshire. Library. Digital Collections.",danville_0040+application-pdf+application.pdf|~|danville_0040+image-low-jpg+image-low.jpg|~|danville_0040+image-tb-jpg+image-tb.jpg
Active,danville:0041,danville,http://www.archive.org/details/annualreportsoft1960danv|~|annualreportsoft1960danv|~|danville:0041,"Annual reports of the Town of Danville, New Hampshire, 1960",1961,Title varies|~|Imprint varies|~|Report year varies,"University of New Hampshire. Library. Digital Collections.|~|Scanned by Internet Archive, Open Content Alliance (2009)",,,Text,Danville (N.H. : Town) -- Appropriations and expenditures -- Periodicals,Danville (N.H. : Town),,,Eng,"[Haverhill, Mass. : Chase Brothers, Printers]|~|University of New Hampshire. Library. Digital Collections.",danville_0041+application-pdf+application.pdf|~|danville_0041+image-low-jpg+image-low.jpg|~|danville_0041+image-tb-jpg+image-tb.jpg
Active,danville:0042,danville,http://www.archive.org/details/annualreportsoft1961danv|~|annualreportsoft1961danv|~|danville:0042,"Annual reports of the Town of Danville, New Hampshire, 1961",1962,Title varies|~|Imprint varies|~|Report year varies,"University of New Hampshire. Library. Digital Collections.|~|Scanned by Internet Archive, Open Content Alliance (2009)",,,Text,Danville (N.H. : Town) -- Appropriations and expenditures -- Periodicals,Danville (N.H. : Town),,,Eng,"[Haverhill, Mass. : Chase Brothers, Printers]|~|University of New Hampshire. Library. Digital Collections.",danville_0042+application-pdf+application.pdf|~|danville_0042+image-low-jpg+image-low.jpg|~|danville_0042+image-tb-jpg+image-tb.jpg
Active,danville:0043,danville,http://www.archive.org/details/annualreportsoft1962danv|~|annualreportsoft1962danv|~|danville:0043,"Annual reports of the Town of Danville, New Hampshire, 1962",1963,Title varies|~|Imprint varies|~|Report year varies,"University of New Hampshire. Library. Digital Collections.|~|Scanned by Internet Archive, Open Content Alliance (2009)",,,Text,Danville (N.H. : Town) -- Appropriations and expenditures -- Periodicals,Danville (N.H. : Town),,,Eng,"[Haverhill, Mass. : Chase Brothers, Printers]|~|University of New Hampshire. Library. Digital Collections.",danville_0043+application-pdf+application.pdf|~|danville_0043+image-low-jpg+image-low.jpg|~|danville_0043+image-tb-jpg+image-tb.jpg
Active,danville:0044,danville,http://www.archive.org/details/annualreportsoft1963danv|~|annualreportsoft1963danv|~|danville:0044,"Annual reports of the Town of Danville, New Hampshire, 1963",1964,Title varies|~|Imprint varies|~|Report year varies,"University of New Hampshire. Library. Digital Collections.|~|Scanned by Internet Archive, Open Content Alliance (2009)",,,Text,Danville (N.H. : Town) -- Appropriations and expenditures -- Periodicals,Danville (N.H. : Town),,,Eng,"[Haverhill, Mass. : Chase Brothers, Printers]|~|University of New Hampshire. Library. Digital Collections.",danville_0044+application-pdf+application.pdf|~|danville_0044+image-low-jpg+image-low.jpg|~|danville_0044+image-tb-jpg+image-tb.jpg
Active,danville:0045,danville,http://www.archive.org/details/annualreportsoft1964danv|~|annualreportsoft1964danv|~|danville:0045,"Annual reports of the Town of Danville, New Hampshire, 1964",1965,Title varies|~|Imprint varies|~|Report year varies,"University of New Hampshire. Library. Digital Collections.|~|Scanned by Internet Archive, Open Content Alliance (2009)",,,Text,Danville (N.H. : Town) -- Appropriations and expenditures -- Periodicals,Danville (N.H. : Town),,,Eng,"[Haverhill, Mass. : Chase Brothers, Printers]|~|University of New Hampshire. Library. Digital Collections.",danville_0045+application-pdf+application.pdf|~|danville_0045+image-low-jpg+image-low.jpg|~|danville_0045+image-tb-jpg+image-tb.jpg
Active,danville:0046,danville,http://www.archive.org/details/annualreportsoft1965danv|~|annualreportsoft1965danv|~|danville:0046,"Annual reports of the Town of Danville, New Hampshire, 1965",1966,Title varies|~|Imprint varies|~|Report year varies,"University of New Hampshire. Library. Digital Collections.|~|Scanned by Internet Archive, Open Content Alliance (2009)",,,Text,Danville (N.H. : Town) -- Appropriations and expenditures -- Periodicals,Danville (N.H. : Town),,,Eng,"[Haverhill, Mass. : Chase Brothers, Printers]|~|University of New Hampshire. Library. Digital Collections.",danville_0046+application-pdf+application.pdf|~|danville_0046+image-low-jpg+image-low.jpg|~|danville_0046+image-tb-jpg+image-tb.jpg
Active,danville:0047,danville,http://www.archive.org/details/annualreportsoft1966danv|~|annualreportsoft1966danv|~|danville:0047,"Annual reports of the Town of Danville, New Hampshire, 1966",1967,Title varies|~|Imprint varies|~|Report year varies,"University of New Hampshire. Library. Digital Collections.|~|Scanned by Internet Archive, Open Content Alliance (2009)",,,Text,Danville (N.H. : Town) -- Appropriations and expenditures -- Periodicals,Danville (N.H. : Town),,,Eng,"[Haverhill, Mass. : Chase Brothers, Printers]|~|University of New Hampshire. Library. Digital Collections.",danville_0047+application-pdf+application.pdf|~|danville_0047+image-low-jpg+image-low.jpg|~|danville_0047+image-tb-jpg+image-tb.jpg
Active,danville:0048,danville,http://www.archive.org/details/annualreportsoft1967danv|~|annualreportsoft1967danv|~|danville:0048,"Annual reports of the Town of Danville, New Hampshire, 1967",1968,Title varies|~|Imprint varies|~|Report year varies,"University of New Hampshire. Library. Digital Collections.|~|Scanned by Internet Archive, Open Content Alliance (2009)",,,Text,Danville (N.H. : Town) -- Appropriations and expenditures -- Periodicals,Danville (N.H. : Town),,,Eng,"[Haverhill, Mass. : Chase Brothers, Printers]|~|University of New Hampshire. Library. Digital Collections.",danville_0048+application-pdf+application.pdf|~|danville_0048+image-low-jpg+image-low.jpg|~|danville_0048+image-tb-jpg+image-tb.jpg
Active,danville:0049,danville,http://www.archive.org/details/annualreportsoft1968danv|~|annualreportsoft1968danv|~|danville:0049,"Annual reports of the Town of Danville, New Hampshire, 1968",1969,Title varies|~|Imprint varies|~|Report year varies,"University of New Hampshire. Library. Digital Collections.|~|Scanned by Internet Archive, Open Content Alliance (2009)",,,Text,Danville (N.H. : Town) -- Appropriations and expenditures -- Periodicals,Danville (N.H. : Town),,,Eng,"[Haverhill, Mass. : Chase Brothers, Printers]|~|University of New Hampshire. Library. Digital Collections.",danville_0049+application-pdf+application.pdf|~|danville_0049+image-low-jpg+image-low.jpg|~|danville_0049+image-tb-jpg+image-tb.jpg
Active,danville:0050,danville,http://www.archive.org/details/annualreportsoft1969danv|~|annualreportsoft1969danv|~|danville:0050,"Annual reports of the Town of Danville, New Hampshire, 1969",1970,Title varies|~|Imprint varies|~|Report year varies,"University of New Hampshire. Library. Digital Collections.|~|Scanned by Internet Archive, Open Content Alliance (2009)",,,Text,Danville (N.H. : Town) -- Appropriations and expenditures -- Periodicals,Danville (N.H. : Town),,,Eng,"[Haverhill, Mass. : Chase Brothers, Printers]|~|University of New Hampshire. Library. Digital Collections.",danville_0050+application-pdf+application.pdf|~|danville_0050+image-low-jpg+image-low.jpg|~|danville_0050+image-tb-jpg+image-tb.jpg
Active,danville:0051,danville,http://www.archive.org/details/annualreportsoft1970danv|~|annualreportsoft1970danv|~|danville:0051,"Annual reports of the Town of Danville, New Hampshire, 1970",1971,Title varies|~|Imprint varies|~|Report year varies,"University of New Hampshire. Library. Digital Collections.|~|Scanned by Internet Archive, Open Content Alliance (2009)",,,Text,Danville (N.H. : Town) -- Appropriations and expenditures -- Periodicals,Danville (N.H. : Town),,,Eng,"[Haverhill, Mass. : Chase Brothers, Printers]|~|University of New Hampshire. Library. Digital Collections.",danville_0051+application-pdf+application.pdf|~|danville_0051+image-low-jpg+image-low.jpg|~|danville_0051+image-tb-jpg+image-tb.jpg
Active,danville:0052,danville,http://www.archive.org/details/annualreportsoft1971danv|~|annualreportsoft1971danv|~|danville:0052,"Annual reports of the Town of Danville, New Hampshire, 1971",1972,Title varies|~|Imprint varies|~|Report year varies,"University of New Hampshire. Library. Digital Collections.|~|Scanned by Internet Archive, Open Content Alliance (2009)",,,Text,Danville (N.H. : Town) -- Appropriations and expenditures -- Periodicals,Danville (N.H. : Town),,,Eng,"[Haverhill, Mass. : Chase Brothers, Printers]|~|University of New Hampshire. Library. Digital Collections.",danville_0052+application-pdf+application.pdf|~|danville_0052+image-low-jpg+image-low.jpg|~|danville_0052+image-tb-jpg+image-tb.jpg
Active,danville:0053,danville,http://www.archive.org/details/annualreportsoft1972danv|~|annualreportsoft1972danv|~|danville:0053,"Annual reports of the Town of Danville, New Hampshire, 1972",1973,Title varies|~|Imprint varies|~|Report year varies,"University of New Hampshire. Library. Digital Collections.|~|Scanned by Internet Archive, Open Content Alliance (2009)",,,Text,Danville (N.H. : Town) -- Appropriations and expenditures -- Periodicals,Danville (N.H. : Town),,,Eng,"[Haverhill, Mass. : Chase Brothers, Printers]|~|University of New Hampshire. Library. Digital Collections.",danville_0053+application-pdf+application.pdf|~|danville_0053+image-low-jpg+image-low.jpg|~|danville_0053+image-tb-jpg+image-tb.jpg
Active,danville:0054,danville,http://www.archive.org/details/annualreportsoft1973danv|~|annualreportsoft1973danv|~|danville:0054,"Annual reports of the Town of Danville, New Hampshire, 1973",1974,Title varies|~|Imprint varies|~|Report year varies,"University of New Hampshire. Library. Digital Collections.|~|Scanned by Internet Archive, Open Content Alliance (2009)",,,Text,Danville (N.H. : Town) -- Appropriations and expenditures -- Periodicals,Danville (N.H. : Town),,,Eng,"[Haverhill, Mass. : Chase Brothers, Printers]|~|University of New Hampshire. Library. Digital Collections.",danville_0054+application-pdf+application.pdf|~|danville_0054+image-low-jpg+image-low.jpg|~|danville_0054+image-tb-jpg+image-tb.jpg
Active,danville:0055,danville,http://www.archive.org/details/annualreportsoft1974danv|~|annualreportsoft1974danv|~|danville:0055,"Annual reports of the Town of Danville, New Hampshire, 1974",1975,Title varies|~|Imprint varies|~|Report year varies,"University of New Hampshire. Library. Digital Collections.|~|Scanned by Internet Archive, Open Content Alliance (2009)",,,Text,Danville (N.H. : Town) -- Appropriations and expenditures -- Periodicals,Danville (N.H. : Town),,,Eng,"[Haverhill, Mass. : Chase Brothers, Printers]|~|University of New Hampshire. Library. Digital Collections.",danville_0055+application-pdf+application.pdf|~|danville_0055+image-low-jpg+image-low.jpg|~|danville_0055+image-tb-jpg+image-tb.jpg
Active,danville:0056,danville,http://www.archive.org/details/annualreportsoft1975danv|~|annualreportsoft1975danv|~|danville:0056,"Annual reports of the Town of Danville, New Hampshire, 1975",1976,Title varies|~|Imprint varies|~|Report year varies,"University of New Hampshire. Library. Digital Collections.|~|Scanned by Internet Archive, Open Content Alliance (2009)",,,Text,Danville (N.H. : Town) -- Appropriations and expenditures -- Periodicals,Danville (N.H. : Town),,,Eng,"[Haverhill, Mass. : Chase Brothers, Printers]|~|University of New Hampshire. Library. Digital Collections.",danville_0056+application-pdf+application.pdf|~|danville_0056+image-low-jpg+image-low.jpg|~|danville_0056+image-tb-jpg+image-tb.jpg
Active,danville:0057,danville,http://www.archive.org/details/annualreportsoft1976danv|~|annualreportsoft1976danv|~|danville:0057,"Annual reports of the Town of Danville, New Hampshire, 1976",1977,Title varies|~|Imprint varies|~|Report year varies,"University of New Hampshire. Library. Digital Collections.|~|Scanned by Internet Archive, Open Content Alliance (2009)",,,Text,Danville (N.H. : Town) -- Appropriations and expenditures -- Periodicals,Danville (N.H. : Town),,,Eng,"[Haverhill, Mass. : Chase Brothers, Printers]|~|University of New Hampshire. Library. Digital Collections.",danville_0057+application-pdf+application.pdf|~|danville_0057+image-low-jpg+image-low.jpg|~|danville_0057+image-tb-jpg+image-tb.jpg
Active,danville:0058,danville,http://www.archive.org/details/annualreportsoft1977danv|~|annualreportsoft1977danv|~|danville:0058,"Annual reports of the Town of Danville, New Hampshire, 1977",1978,Title varies|~|Imprint varies|~|Report year varies,"University of New Hampshire. Library. Digital Collections.|~|Scanned by Internet Archive, Open Content Alliance (2009)",,,Text,Danville (N.H. : Town) -- Appropriations and expenditures -- Periodicals,Danville (N.H. : Town),,,Eng,"[Haverhill, Mass. : Chase Brothers, Printers]|~|University of New Hampshire. Library. Digital Collections.",danville_0058+application-pdf+application.pdf|~|danville_0058+image-low-jpg+image-low.jpg|~|danville_0058+image-tb-jpg+image-tb.jpg
Active,danville:0059,danville,http://www.archive.org/details/annualreportsoft1978danv|~|annualreportsoft1978danv|~|danville:0059,"Annual reports of the Town of Danville, New Hampshire, 1978",1979,Title varies|~|Imprint varies|~|Report year varies,"University of New Hampshire. Library. Digital Collections.|~|Scanned by Internet Archive, Open Content Alliance (2009)",,,Text,Danville (N.H. : Town) -- Appropriations and expenditures -- Periodicals,Danville (N.H. : Town),,,Eng,"[Haverhill, Mass. : Chase Brothers, Printers]|~|University of New Hampshire. Library. Digital Collections.",danville_0059+application-pdf+application.pdf|~|danville_0059+image-low-jpg+image-low.jpg|~|danville_0059+image-tb-jpg+image-tb.jpg
Active,danville:0060,danville,http://www.archive.org/details/annualreportsoft1979danv|~|annualreportsoft1979danv|~|danville:0060,"Annual reports of the Town of Danville, New Hampshire, 1979",1980,Title varies|~|Imprint varies|~|Report year varies,"University of New Hampshire. Library. Digital Collections.|~|Scanned by Internet Archive, Open Content Alliance (2009)",,,Text,Danville (N.H. : Town) -- Appropriations and expenditures -- Periodicals,Danville (N.H. : Town),,,Eng,"[Haverhill, Mass. : Chase Brothers, Printers]|~|University of New Hampshire. Library. Digital Collections.",danville_0060+application-pdf+application.pdf|~|danville_0060+image-low-jpg+image-low.jpg|~|danville_0060+image-tb-jpg+image-tb.jpg
Active,danville:0061,danville,http://www.archive.org/details/annualreportsoft1980danv|~|annualreportsoft1980danv|~|danville:0061,"Annual reports of the Town of Danville, New Hampshire, 1980",1981,Title varies|~|Imprint varies|~|Report year varies,"University of New Hampshire. Library. Digital Collections.|~|Scanned by Internet Archive, Open Content Alliance (2009)",,,Text,Danville (N.H. : Town) -- Appropriations and expenditures -- Periodicals,Danville (N.H. : Town),,,Eng,"[Haverhill, Mass. : Chase Brothers, Printers]|~|University of New Hampshire. Library. Digital Collections.",danville_0061+application-pdf+application.pdf|~|danville_0061+image-low-jpg+image-low.jpg|~|danville_0061+image-tb-jpg+image-tb.jpg
Active,danville:0062,danville,http://www.archive.org/details/annualreportsoft1981danv|~|annualreportsoft1981danv|~|danville:0062,"Annual reports of the Town of Danville, New Hampshire, 1981",1982,Title varies|~|Imprint varies|~|Report year varies,"University of New Hampshire. Library. Digital Collections.|~|Scanned by Internet Archive, Open Content Alliance (2009)",,,Text,Danville (N.H. : Town) -- Appropriations and expenditures -- Periodicals,Danville (N.H. : Town),,,Eng,"[Haverhill, Mass. : Chase Brothers, Printers]|~|University of New Hampshire. Library. Digital Collections.",danville_0062+application-pdf+application.pdf|~|danville_0062+image-low-jpg+image-low.jpg|~|danville_0062+image-tb-jpg+image-tb.jpg
Active,danville:0063,danville,http://www.archive.org/details/annualreportsoft1982danv|~|annualreportsoft1982danv|~|danville:0063,"Annual reports of the Town of Danville, New Hampshire, 1982",1983,Title varies|~|Imprint varies|~|Report year varies,"University of New Hampshire. Library. Digital Collections.|~|Scanned by Internet Archive, Open Content Alliance (2009)",,,Text,Danville (N.H. : Town) -- Appropriations and expenditures -- Periodicals,Danville (N.H. : Town),,,Eng,"[Haverhill, Mass. : Chase Brothers, Printers]|~|University of New Hampshire. Library. Digital Collections.",danville_0063+application-pdf+application.pdf|~|danville_0063+image-low-jpg+image-low.jpg|~|danville_0063+image-tb-jpg+image-tb.jpg
Active,danville:0064,danville,http://www.archive.org/details/annualreportsoft1983danv|~|annualreportsoft1983danv|~|danville:0064,"Annual reports of the Town of Danville, New Hampshire, 1983",1984,Title varies|~|Imprint varies|~|Report year varies,"University of New Hampshire. Library. Digital Collections.|~|Scanned by Internet Archive, Open Content Alliance (2009)",,,Text,Danville (N.H. : Town) -- Appropriations and expenditures -- Periodicals,Danville (N.H. : Town),,,Eng,"[Haverhill, Mass. : Chase Brothers, Printers]|~|University of New Hampshire. Library. Digital Collections.",danville_0064+application-pdf+application.pdf|~|danville_0064+image-low-jpg+image-low.jpg|~|danville_0064+image-tb-jpg+image-tb.jpg
Active,danville:0065,danville,http://www.archive.org/details/annualreportsoft1984danv|~|annualreportsoft1984danv|~|danville:0065,"Annual reports of the Town of Danville, New Hampshire, 1984",1985,Title varies|~|Imprint varies|~|Report year varies,"University of New Hampshire. Library. Digital Collections.|~|Scanned by Internet Archive, Open Content Alliance (2009)",,,Text,Danville (N.H. : Town) -- Appropriations and expenditures -- Periodicals,Danville (N.H. : Town),,,Eng,"[Haverhill, Mass. : Chase Brothers, Printers]|~|University of New Hampshire. Library. Digital Collections.",danville_0065+application-pdf+application.pdf|~|danville_0065+image-low-jpg+image-low.jpg|~|danville_0065+image-tb-jpg+image-tb.jpg
Active,danville:0066,danville,http://www.archive.org/details/annualreportsoft1985danv|~|annualreportsoft1985danv|~|danville:0066,"Annual reports of the Town of Danville, New Hampshire, 1985",1986,Title varies|~|Imprint varies|~|Report year varies,"University of New Hampshire. Library. Digital Collections.|~|Scanned by Internet Archive, Open Content Alliance (2009)",,,Text,Danville (N.H. : Town) -- Appropriations and expenditures -- Periodicals,Danville (N.H. : Town),,,Eng,"[Haverhill, Mass. : Chase Brothers, Printers]|~|University of New Hampshire. Library. Digital Collections.",danville_0066+application-pdf+application.pdf|~|danville_0066+image-low-jpg+image-low.jpg|~|danville_0066+image-tb-jpg+image-tb.jpg
Active,danville:0067,danville,http://www.archive.org/details/annualreportsoft1986danv|~|annualreportsoft1986danv|~|danville:0067,"Annual reports of the Town of Danville, New Hampshire, 1986",1987,Title varies|~|Imprint varies|~|Report year varies,"University of New Hampshire. Library. Digital Collections.|~|Scanned by Internet Archive, Open Content Alliance (2009)",,,Text,Danville (N.H. : Town) -- Appropriations and expenditures -- Periodicals,Danville (N.H. : Town),,,Eng,"[Haverhill, Mass. : Chase Brothers, Printers]|~|University of New Hampshire. Library. Digital Collections.",danville_0067+application-pdf+application.pdf|~|danville_0067+image-low-jpg+image-low.jpg|~|danville_0067+image-tb-jpg+image-tb.jpg
Active,danville:0068,danville,http://www.archive.org/details/annualreportsoft1987danv|~|annualreportsoft1987danv|~|danville:0068,"Annual reports of the Town of Danville, New Hampshire, 1987",1988,Title varies|~|Imprint varies|~|Report year varies,"University of New Hampshire. Library. Digital Collections.|~|Scanned by Internet Archive, Open Content Alliance (2009)",,,Text,Danville (N.H. : Town) -- Appropriations and expenditures -- Periodicals,Danville (N.H. : Town),,,Eng,"[Haverhill, Mass. : Chase Brothers, Printers]|~|University of New Hampshire. Library. Digital Collections.",danville_0068+application-pdf+application.pdf|~|danville_0068+image-low-jpg+image-low.jpg|~|danville_0068+image-tb-jpg+image-tb.jpg
Active,danville:0069,danville,http://www.archive.org/details/annualreportsoft1988danv|~|annualreportsoft1988danv|~|danville:0069,"Annual reports of the Town of Danville, New Hampshire, 1988",1989,Title varies|~|Imprint varies|~|Report year varies,"University of New Hampshire. Library. Digital Collections.|~|Scanned by Internet Archive, Open Content Alliance (2009)",,,Text,Danville (N.H. : Town) -- Appropriations and expenditures -- Periodicals,Danville (N.H. : Town),,,Eng,"[Haverhill, Mass. : Chase Brothers, Printers]|~|University of New Hampshire. Library. Digital Collections.",danville_0069+application-pdf+application.pdf|~|danville_0069+image-low-jpg+image-low.jpg|~|danville_0069+image-tb-jpg+image-tb.jpg
Active,danville:0070,danville,http://www.archive.org/details/annualreportsoft1989danv|~|annualreportsoft1989danv|~|danville:0070,"Annual reports of the Town of Danville, New Hampshire, 1989",1990,Title varies|~|Imprint varies|~|Report year varies,"University of New Hampshire. Library. Digital Collections.|~|Scanned by Internet Archive, Open Content Alliance (2009)",,,Text,Danville (N.H. : Town) -- Appropriations and expenditures -- Periodicals,Danville (N.H. : Town),,,Eng,"[Haverhill, Mass. : Chase Brothers, Printers]|~|University of New Hampshire. Library. Digital Collections.",danville_0070+application-pdf+application.pdf|~|danville_0070+image-low-jpg+image-low.jpg|~|danville_0070+image-tb-jpg+image-tb.jpg
Active,danville:0071,danville,http://www.archive.org/details/annualreportsoft1990danv|~|annualreportsoft1990danv|~|danville:0071,"Annual reports of the Town of Danville, New Hampshire, 1990",1991,Title varies|~|Imprint varies|~|Report year varies,"University of New Hampshire. Library. Digital Collections.|~|Scanned by Internet Archive, Open Content Alliance (2009)",,,Text,Danville (N.H. : Town) -- Appropriations and expenditures -- Periodicals,Danville (N.H. : Town),,,Eng,"[Haverhill, Mass. : Chase Brothers, Printers]|~|University of New Hampshire. Library. Digital Collections.",danville_0071+application-pdf+application.pdf|~|danville_0071+image-low-jpg+image-low.jpg|~|danville_0071+image-tb-jpg+image-tb.jpg
Active,danville:0072,danville,http://www.archive.org/details/annualreportsoft1991danv|~|annualreportsoft1991danv|~|danville:0072,"Annual reports of the Town of Danville, New Hampshire, 1991",1992,Title varies|~|Imprint varies|~|Report year varies,"University of New Hampshire. Library. Digital Collections.|~|Scanned by Internet Archive, Open Content Alliance (2009)",,,Text,Danville (N.H. : Town) -- Appropriations and expenditures -- Periodicals,Danville (N.H. : Town),,,Eng,"[Haverhill, Mass. : Chase Brothers, Printers]|~|University of New Hampshire. Library. Digital Collections.",danville_0072+application-pdf+application.pdf|~|danville_0072+image-low-jpg+image-low.jpg|~|danville_0072+image-tb-jpg+image-tb.jpg
Active,danville:0073,danville,http://www.archive.org/details/annualreportsoft1992danv|~|annualreportsoft1992danv|~|danville:0073,"Annual reports of the Town of Danville, New Hampshire, 1992",1993,Title varies|~|Imprint varies|~|Report year varies,"University of New Hampshire. Library. Digital Collections.|~|Scanned by Internet Archive, Open Content Alliance (2009)",,,Text,Danville (N.H. : Town) -- Appropriations and expenditures -- Periodicals,Danville (N.H. : Town),,,Eng,"[Haverhill, Mass. : Chase Brothers, Printers]|~|University of New Hampshire. Library. Digital Collections.",danville_0073+application-pdf+application.pdf|~|danville_0073+image-low-jpg+image-low.jpg|~|danville_0073+image-tb-jpg+image-tb.jpg
Active,danville:0074,danville,http://www.archive.org/details/annualreportsoft1993danv|~|annualreportsoft1993danv|~|danville:0074,"Annual reports of the Town of Danville, New Hampshire, 1993",1994,Title varies|~|Imprint varies|~|Report year varies,"University of New Hampshire. Library. Digital Collections.|~|Scanned by Internet Archive, Open Content Alliance (2009)",,,Text,Danville (N.H. : Town) -- Appropriations and expenditures -- Periodicals,Danville (N.H. : Town),,,Eng,"[Haverhill, Mass. : Chase Brothers, Printers]|~|University of New Hampshire. Library. Digital Collections.",danville_0074+application-pdf+application.pdf|~|danville_0074+image-low-jpg+image-low.jpg|~|danville_0074+image-tb-jpg+image-tb.jpg
Active,danville:0075,danville,http://www.archive.org/details/annualreportsoft1994danv|~|annualreportsoft1994danv|~|danville:0075,"Annual reports of the Town of Danville, New Hampshire, 1994",1995,Title varies|~|Imprint varies|~|Report year varies,"University of New Hampshire. Library. Digital Collections.|~|Scanned by Internet Archive, Open Content Alliance (2009)",,,Text,Danville (N.H. : Town) -- Appropriations and expenditures -- Periodicals,Danville (N.H. : Town),,,Eng,"[Haverhill, Mass. : Chase Brothers, Printers]|~|University of New Hampshire. Library. Digital Collections.",danville_0075+application-pdf+application.pdf|~|danville_0075+image-low-jpg+image-low.jpg|~|danville_0075+image-tb-jpg+image-tb.jpg
Active,danville:0076,danville,http://www.archive.org/details/annualreportsoft1995danv|~|annualreportsoft1995danv|~|danville:0076,"Annual reports of the Town of Danville, New Hampshire, 1995",1996,Title varies|~|Imprint varies|~|Report year varies,"University of New Hampshire. Library. Digital Collections.|~|Scanned by Internet Archive, Open Content Alliance (2009)",,,Text,Danville (N.H. : Town) -- Appropriations and expenditures -- Periodicals,Danville (N.H. : Town),,,Eng,"[Haverhill, Mass. : Chase Brothers, Printers]|~|University of New Hampshire. Library. Digital Collections.",danville_0076+application-pdf+application.pdf|~|danville_0076+image-low-jpg+image-low.jpg|~|danville_0076+image-tb-jpg+image-tb.jpg
Active,danville:0077,danville,http://www.archive.org/details/annualreportsoft1996danv|~|annualreportsoft1996danv|~|danville:0077,"Annual reports of the Town of Danville, New Hampshire, 1996",1997,Title varies|~|Imprint varies|~|Report year varies,"University of New Hampshire. Library. Digital Collections.|~|Scanned by Internet Archive, Open Content Alliance (2009)",,,Text,Danville (N.H. : Town) -- Appropriations and expenditures -- Periodicals,Danville (N.H. : Town),,,Eng,"[Haverhill, Mass. : Chase Brothers, Printers]|~|University of New Hampshire. Library. Digital Collections.",danville_0077+application-pdf+application.pdf|~|danville_0077+image-low-jpg+image-low.jpg|~|danville_0077+image-tb-jpg+image-tb.jpg
Active,danville:0078,danville,http://www.archive.org/details/annualreportsoft1997danv|~|annualreportsoft1997danv|~|danville:0078,"Annual reports of the Town of Danville, New Hampshire, 1997",1998,Title varies|~|Imprint varies|~|Report year varies,"University of New Hampshire. Library. Digital Collections.|~|Scanned by Internet Archive, Open Content Alliance (2009)",,,Text,Danville (N.H. : Town) -- Appropriations and expenditures -- Periodicals,Danville (N.H. : Town),,,Eng,"[Haverhill, Mass. : Chase Brothers, Printers]|~|University of New Hampshire. Library. Digital Collections.",danville_0078+application-pdf+application.pdf|~|danville_0078+image-low-jpg+image-low.jpg|~|danville_0078+image-tb-jpg+image-tb.jpg
Active,danville:0079,danville,http://www.archive.org/details/annualreportsoft1998danv|~|annualreportsoft1998danv|~|danville:0079,"Annual reports of the Town of Danville, New Hampshire, 1998",1999,Title varies|~|Imprint varies|~|Report year varies,"University of New Hampshire. Library. Digital Collections.|~|Scanned by Internet Archive, Open Content Alliance (2009)",,,Text,Danville (N.H. : Town) -- Appropriations and expenditures -- Periodicals,Danville (N.H. : Town),,,Eng,"[Haverhill, Mass. : Chase Brothers, Printers]|~|University of New Hampshire. Library. Digital Collections.",danville_0079+application-pdf+application.pdf|~|danville_0079+image-low-jpg+image-low.jpg|~|danville_0079+image-tb-jpg+image-tb.jpg
Active,danville:0080,danville,http://www.archive.org/details/annualreportsoft1999danv|~|annualreportsoft1999danv|~|danville:0080,"Annual reports of the Town of Danville, New Hampshire, 1999",2000,Title varies|~|Imprint varies|~|Report year varies,"University of New Hampshire. Library. Digital Collections.|~|Scanned by Internet Archive, Open Content Alliance (2009)",,,Text,Danville (N.H. : Town) -- Appropriations and expenditures -- Periodicals,Danville (N.H. : Town),,,Eng,"[Haverhill, Mass. : Chase Brothers, Printers]|~|University of New Hampshire. Library. Digital Collections.",danville_0080+application-pdf+application.pdf|~|danville_0080+image-low-jpg+image-low.jpg|~|danville_0080+image-tb-jpg+image-tb.jpg
Active,danville:0081,danville,http://www.archive.org/details/annualreportsoft2000danv|~|annualreportsoft2000danv|~|danville:0081,"Annual reports of the Town of Danville, New Hampshire, 2000",2001,Title varies|~|Imprint varies|~|Report year varies,"University of New Hampshire. Library. Digital Collections.|~|Scanned by Internet Archive, Open Content Alliance (2009)",,,Text,Danville (N.H. : Town) -- Appropriations and expenditures -- Periodicals,Danville (N.H. : Town),,,Eng,"[Haverhill, Mass. : Chase Brothers, Printers]|~|University of New Hampshire. Library. Digital Collections.",danville_0081+application-pdf+application.pdf|~|danville_0081+image-low-jpg+image-low.jpg|~|danville_0081+image-tb-jpg+image-tb.jpg
Active,danville:0082,danville,http://www.archive.org/details/annualreportsoft2001danv|~|annualreportsoft2001danv|~|danville:0082,"Annual reports of the Town of Danville, New Hampshire, 2001",2002,Title varies|~|Imprint varies|~|Report year varies,"University of New Hampshire. Library. Digital Collections.|~|Scanned by Internet Archive, Open Content Alliance (2009)",,,Text,Danville (N.H. : Town) -- Appropriations and expenditures -- Periodicals,Danville (N.H. : Town),,,Eng,"[Haverhill, Mass. : Chase Brothers, Printers]|~|University of New Hampshire. Library. Digital Collections.",danville_0082+application-pdf+application.pdf|~|danville_0082+image-low-jpg+image-low.jpg|~|danville_0082+image-tb-jpg+image-tb.jpg
Active,danville:0083,danville,http://www.archive.org/details/annualreportsoft2002danv|~|annualreportsoft2002danv|~|danville:0083,"Annual reports of the Town of Danville, New Hampshire, 2002",2003,Title varies|~|Imprint varies|~|Report year varies,"University of New Hampshire. Library. Digital Collections.|~|Scanned by Internet Archive, Open Content Alliance (2009)",,,Text,Danville (N.H. : Town) -- Appropriations and expenditures -- Periodicals,Danville (N.H. : Town),,,Eng,"[Haverhill, Mass. : Chase Brothers, Printers]|~|University of New Hampshire. Library. Digital Collections.",danville_0083+application-pdf+application.pdf|~|danville_0083+image-low-jpg+image-low.jpg|~|danville_0083+image-tb-jpg+image-tb.jpg
Active,danville:0084,danville,http://www.archive.org/details/annualreportsoft2003danv|~|annualreportsoft2003danv|~|danville:0084,"Annual reports of the Town of Danville, New Hampshire, 2003",2004,Title varies|~|Imprint varies|~|Report year varies,"University of New Hampshire. Library. Digital Collections.|~|Scanned by Internet Archive, Open Content Alliance (2009)",,,Text,Danville (N.H. : Town) -- Appropriations and expenditures -- Periodicals,Danville (N.H. : Town),,,Eng,"[Haverhill, Mass. : Chase Brothers, Printers]|~|University of New Hampshire. Library. Digital Collections.",danville_0084+application-pdf+application.pdf|~|danville_0084+image-low-jpg+image-low.jpg|~|danville_0084+image-tb-jpg+image-tb.jpg
Active,danville:0085,danville,annualreport2011danville|~|danville:0085,"Annual reports of the Town of Danville, New Hampshire, 2011",2012,Title varies|~|Imprint varies|~|Report year varies,University of New Hampshire. Library. Digital Collections.,,,Text,Danville (N.H. : Town) -- Appropriations and expenditures -- Periodicals,Danville (N.H. : Town),,,Eng,"[Danville, N.H. : The Town]|~|University of New Hampshire. Library. Digital Collections.",danville_0085+application-pdf+application.pdf|~|danville_0085+image-low-jpg+image-low.jpg|~|danville_0085+image-tb-jpg+image-tb.jpg
