state,pid,collection,dcterms:identifier,dcterms:title,dcterms:date,dcterms:description,dcterms:contributor,dcterms:rights,dcterms:format,dcterms:type,dcterms:subject,dcterms:creator,dcterms:relation,dcterms:coverage,dcterms:language,dcterms:publisher,files
Active,eastkingston:0001,eastkingston,http://www.archive.org/details/annualreportsoft1876east|~|annualreportsoft1876east|~|eastkingston:0001,"Annual reports of the Town of East Kingston, New Hampshire, 1876",1876,Title varies|~|Imprint varies|~|Report year varies,"University of New Hampshire. Library. Digital Collections.|~|Scanned by Internet Archive, Open Content Alliance (2009)",,,Text,East Kingston (N.H.) -- Appropriations and expenditures -- Periodicals|~|East Kingston (N.H. : Town) -- Appropriations and expenditures -- Periodicals,East Kingston (N.H. : Town),,,Eng,"[East Kingston, N.H. : The Town]|~|University of New Hampshire. Library. Digital Collections.",eastkingston_0001+application-pdf+application.pdf|~|eastkingston_0001+image-low-jpg+image-low.jpg|~|eastkingston_0001+image-tb-jpg+image-tb.jpg
Active,eastkingston:0002,eastkingston,http://www.archive.org/details/annualreportsoft1896east|~|annualreportsoft1896east|~|eastkingston:0002,"Annual reports of the Town of East Kingston, New Hampshire, 1896",1896,Title varies|~|Imprint varies|~|Report year varies,"University of New Hampshire. Library. Digital Collections.|~|Scanned by Internet Archive, Open Content Alliance (2009)",,,Text,East Kingston (N.H.) -- Appropriations and expenditures -- Periodicals.|~|East Kingston (N.H. : Town) -- Appropriations and expenditures -- Periodicals,East Kingston (N.H. : Town),,,Eng,"[East Kingston, N.H. : The Town]|~|University of New Hampshire. Library. Digital Collections.",eastkingston_0002+application-pdf+application.pdf|~|eastkingston_0002+image-low-jpg+image-low.jpg|~|eastkingston_0002+image-tb-jpg+image-tb.jpg
Active,eastkingston:0003,eastkingston,http://www.archive.org/details/annualreportsoft1925east|~|annualreportsoft1925east|~|eastkingston:0003,"Annual reports of the Town of East Kingston, New Hampshire, 1925",1925,Title varies|~|Imprint varies|~|Report year varies,"University of New Hampshire. Library. Digital Collections.|~|Scanned by Internet Archive, Open Content Alliance (2009)",,,Text,East Kingston (N.H. : Town) -- Appropriations and expenditures -- Periodicals,East Kingston (N.H. : Town),,,Eng,"[East Kingston, N.H. : The Town]|~|University of New Hampshire. Library. Digital Collections.",eastkingston_0003+application-pdf+application.pdf|~|eastkingston_0003+image-low-jpg+image-low.jpg|~|eastkingston_0003+image-tb-jpg+image-tb.jpg
Active,eastkingston:0004,eastkingston,http://www.archive.org/details/annualreportsoft1927east|~|annualreportsoft1927east|~|eastkingston:0004,"Annual reports of the Town of East Kingston, New Hampshire, 1927",1927,Title varies|~|Imprint varies|~|Report year varies,"University of New Hampshire. Library. Digital Collections.|~|Scanned by Internet Archive, Open Content Alliance (2009)",,,Text,East Kingston (N.H. : Town) -- Appropriations and expenditures -- Periodicals,East Kingston (N.H. : Town),,,Eng,"[East Kingston, N.H. : The Town]|~|University of New Hampshire. Library. Digital Collections.",eastkingston_0004+application-pdf+application.pdf|~|eastkingston_0004+image-low-jpg+image-low.jpg|~|eastkingston_0004+image-tb-jpg+image-tb.jpg
Active,eastkingston:0005,eastkingston,http://www.archive.org/details/annualreportsoft1929east|~|annualreportsoft1929east|~|eastkingston:0005,"Annual reports of the Town of East Kingston, New Hampshire, 1929",1929,Title varies|~|Imprint varies|~|Report year varies,"University of New Hampshire. Library. Digital Collections.|~|Scanned by Internet Archive, Open Content Alliance (2009)",,,Text,East Kingston (N.H. : Town) -- Appropriations and expenditures -- Periodicals,East Kingston (N.H. : Town),,,Eng,"[East Kingston, N.H. : The Town]|~|University of New Hampshire. Library. Digital Collections.",eastkingston_0005+application-pdf+application.pdf|~|eastkingston_0005+image-low-jpg+image-low.jpg|~|eastkingston_0005+image-tb-jpg+image-tb.jpg
Active,eastkingston:0006,eastkingston,http://www.archive.org/details/annualreportsoft1936east|~|annualreportsoft1936east|~|eastkingston:0006,"Annual reports of the Town of East Kingston, New Hampshire, 1936",1936,Title varies|~|Imprint varies|~|Report year varies,"University of New Hampshire. Library. Digital Collections.|~|Scanned by Internet Archive, Open Content Alliance (2009)",,,Text,East Kingston (N.H. : Town) -- Appropriations and expenditures -- Periodicals,East Kingston (N.H. : Town),,,Eng,"[East Kingston, N.H. : The Town]|~|University of New Hampshire. Library. Digital Collections.",eastkingston_0006+application-pdf+application.pdf|~|eastkingston_0006+image-low-jpg+image-low.jpg|~|eastkingston_0006+image-tb-jpg+image-tb.jpg
Active,eastkingston:0007,eastkingston,http://www.archive.org/details/annualreportsoft1937east|~|annualreportsoft1937east|~|eastkingston:0007,"Annual reports of the Town of East Kingston, New Hampshire, 1937",1937,Title varies|~|Imprint varies|~|Report year varies,"University of New Hampshire. Library. Digital Collections.|~|Scanned by Internet Archive, Open Content Alliance (2009)",,,Text,East Kingston (N.H. : Town) -- Appropriations and expenditures -- Periodicals,East Kingston (N.H. : Town),,,Eng,"[East Kingston, N.H. : The Town]|~|University of New Hampshire. Library. Digital Collections.",eastkingston_0007+application-pdf+application.pdf|~|eastkingston_0007+image-low-jpg+image-low.jpg|~|eastkingston_0007+image-tb-jpg+image-tb.jpg
Active,eastkingston:0008,eastkingston,http://www.archive.org/details/annualreportsoft1938east|~|annualreportsoft1938east|~|eastkingston:0008,"Annual reports of the Town of East Kingston, New Hampshire, 1938",1938,Title varies|~|Imprint varies|~|Report year varies,"University of New Hampshire. Library. Digital Collections.|~|Scanned by Internet Archive, Open Content Alliance (2009)",,,Text,East Kingston (N.H. : Town) -- Appropriations and expenditures -- Periodicals,East Kingston (N.H. : Town),,,Eng,"[East Kingston, N.H. : The Town]|~|University of New Hampshire. Library. Digital Collections.",eastkingston_0008+application-pdf+application.pdf|~|eastkingston_0008+image-low-jpg+image-low.jpg|~|eastkingston_0008+image-tb-jpg+image-tb.jpg
Active,eastkingston:0009,eastkingston,http://www.archive.org/details/annualreportsoft1939east|~|annualreportsoft1939east|~|eastkingston:0009,"Annual reports of the Town of East Kingston, New Hampshire, 1939",1939,Title varies|~|Imprint varies|~|Report year varies,"University of New Hampshire. Library. Digital Collections.|~|Scanned by Internet Archive, Open Content Alliance (2009)",,,Text,East Kingston (N.H. : Town) -- Appropriations and expenditures -- Periodicals,East Kingston (N.H. : Town),,,Eng,"[East Kingston, N.H. : The Town]|~|University of New Hampshire. Library. Digital Collections.",eastkingston_0009+application-pdf+application.pdf|~|eastkingston_0009+image-low-jpg+image-low.jpg|~|eastkingston_0009+image-tb-jpg+image-tb.jpg
Active,eastkingston:0010,eastkingston,http://www.archive.org/details/annualreportsoft1940east|~|annualreportsoft1940east|~|eastkingston:0010,"Annual reports of the Town of East Kingston, New Hampshire, 1940",1940,Title varies|~|Imprint varies|~|Report year varies,"University of New Hampshire. Library. Digital Collections.|~|Scanned by Internet Archive, Open Content Alliance (2009)",,,Text,East Kingston (N.H. : Town) -- Appropriations and expenditures -- Periodicals,East Kingston (N.H. : Town),,,Eng,"[East Kingston, N.H. : The Town]|~|University of New Hampshire. Library. Digital Collections.",eastkingston_0010+application-pdf+application.pdf|~|eastkingston_0010+image-low-jpg+image-low.jpg|~|eastkingston_0010+image-tb-jpg+image-tb.jpg
Active,eastkingston:0011,eastkingston,http://www.archive.org/details/annualreportsoft1941east|~|annualreportsoft1941east|~|eastkingston:0011,"Annual reports of the Town of East Kingston, New Hampshire, 1941",1941,Title varies|~|Imprint varies|~|Report year varies,"University of New Hampshire. Library. Digital Collections.|~|Scanned by Internet Archive, Open Content Alliance (2009)",,,Text,East Kingston (N.H. : Town) -- Appropriations and expenditures -- Periodicals,East Kingston (N.H. : Town),,,Eng,"[East Kingston, N.H. : The Town]|~|University of New Hampshire. Library. Digital Collections.",eastkingston_0011+application-pdf+application.pdf|~|eastkingston_0011+image-low-jpg+image-low.jpg|~|eastkingston_0011+image-tb-jpg+image-tb.jpg
Active,eastkingston:0012,eastkingston,http://www.archive.org/details/annualreportsoft1942east|~|annualreportsoft1942east|~|eastkingston:0012,"Annual reports of the Town of East Kingston, New Hampshire, 1942",1942,Title varies|~|Imprint varies|~|Report year varies,"University of New Hampshire. Library. Digital Collections.|~|Scanned by Internet Archive, Open Content Alliance (2009)",,,Text,East Kingston (N.H. : Town) -- Appropriations and expenditures -- Periodicals,East Kingston (N.H. : Town),,,Eng,"[East Kingston, N.H. : The Town]|~|University of New Hampshire. Library. Digital Collections.",eastkingston_0012+application-pdf+application.pdf|~|eastkingston_0012+image-low-jpg+image-low.jpg|~|eastkingston_0012+image-tb-jpg+image-tb.jpg
Active,eastkingston:0013,eastkingston,http://www.archive.org/details/annualreportsoft1943east|~|annualreportsoft1943east|~|eastkingston:0013,"Annual reports of the Town of East Kingston, New Hampshire, 1943",1943,Title varies|~|Imprint varies|~|Report year varies,"University of New Hampshire. Library. Digital Collections.|~|Scanned by Internet Archive, Open Content Alliance (2009)",,,Text,East Kingston (N.H. : Town) -- Appropriations and expenditures -- Periodicals,East Kingston (N.H. : Town),,,Eng,"[East Kingston, N.H. : The Town]|~|University of New Hampshire. Library. Digital Collections.",eastkingston_0013+application-pdf+application.pdf|~|eastkingston_0013+image-low-jpg+image-low.jpg|~|eastkingston_0013+image-tb-jpg+image-tb.jpg
Active,eastkingston:0014,eastkingston,http://www.archive.org/details/annualreportsoft1944east|~|annualreportsoft1944east|~|eastkingston:0014,"Annual reports of the Town of East Kingston, New Hampshire, 1944",1944,Title varies|~|Imprint varies|~|Report year varies,"University of New Hampshire. Library. Digital Collections.|~|Scanned by Internet Archive, Open Content Alliance (2009)",,,Text,East Kingston (N.H. : Town) -- Appropriations and expenditures -- Periodicals,East Kingston (N.H. : Town),,,Eng,"[East Kingston, N.H. : The Town]|~|University of New Hampshire. Library. Digital Collections.",eastkingston_0014+application-pdf+application.pdf|~|eastkingston_0014+image-low-jpg+image-low.jpg|~|eastkingston_0014+image-tb-jpg+image-tb.jpg
Active,eastkingston:0015,eastkingston,http://www.archive.org/details/annualreportsoft44east|~|annualreportsoft44east|~|eastkingston:0015,"Annual reports of the Town of East Kingston, New Hampshire, 1944",1945,Title varies|~|Imprint varies|~|Report year varies,"University of New Hampshire. Library. Digital Collections.|~|Scanned by Internet Archive, Open Content Alliance (2009)",,,Text,East Kingston (N.H. : Town) -- Appropriations and expenditures -- Periodicals,East Kingston (N.H. : Town),,,Eng,"[East Kingston, N.H. : The Town]|~|University of New Hampshire. Library. Digital Collections.",eastkingston_0015+application-pdf+application.pdf|~|eastkingston_0015+image-low-jpg+image-low.jpg|~|eastkingston_0015+image-tb-jpg+image-tb.jpg
Active,eastkingston:0016,eastkingston,http://www.archive.org/details/annualreportsoft1945east|~|annualreportsoft1945east|~|eastkingston:0016,"Annual reports of the Town of East Kingston, New Hampshire, 1945",1946,Title varies|~|Imprint varies|~|Report year varies,"University of New Hampshire. Library. Digital Collections.|~|Scanned by Internet Archive, Open Content Alliance (2009)",,,Text,East Kingston (N.H. : Town) -- Appropriations and expenditures -- Periodicals,East Kingston (N.H. : Town),,,Eng,"[East Kingston, N.H. : The Town]|~|University of New Hampshire. Library. Digital Collections.",eastkingston_0016+application-pdf+application.pdf|~|eastkingston_0016+image-low-jpg+image-low.jpg|~|eastkingston_0016+image-tb-jpg+image-tb.jpg
Active,eastkingston:0017,eastkingston,http://www.archive.org/details/annualreportsoft1946east|~|annualreportsoft1946east|~|eastkingston:0017,"Annual reports of the Town of East Kingston, New Hampshire, 1946",1947,Title varies|~|Imprint varies|~|Report year varies,"University of New Hampshire. Library. Digital Collections.|~|Scanned by Internet Archive, Open Content Alliance (2009)",,,Text,East Kingston (N.H. : Town) -- Appropriations and expenditures -- Periodicals,East Kingston (N.H. : Town),,,Eng,"[East Kingston, N.H. : The Town]|~|University of New Hampshire. Library. Digital Collections.",eastkingston_0017+application-pdf+application.pdf|~|eastkingston_0017+image-low-jpg+image-low.jpg|~|eastkingston_0017+image-tb-jpg+image-tb.jpg
Active,eastkingston:0018,eastkingston,http://www.archive.org/details/annualreportsoft1947east|~|annualreportsoft1947east|~|eastkingston:0018,"Annual reports of the Town of East Kingston, New Hampshire, 1947",1948,Title varies|~|Imprint varies|~|Report year varies,"University of New Hampshire. Library. Digital Collections.|~|Scanned by Internet Archive, Open Content Alliance (2009)",,,Text,East Kingston (N.H. : Town) -- Appropriations and expenditures -- Periodicals,East Kingston (N.H. : Town),,,Eng,"[East Kingston, N.H. : The Town]|~|University of New Hampshire. Library. Digital Collections.",eastkingston_0018+application-pdf+application.pdf|~|eastkingston_0018+image-low-jpg+image-low.jpg|~|eastkingston_0018+image-tb-jpg+image-tb.jpg
Active,eastkingston:0019,eastkingston,http://www.archive.org/details/annualreportsoft1948east|~|annualreportsoft1948east|~|eastkingston:0019,"Annual reports of the Town of East Kingston, New Hampshire, 1948",1949,Title varies|~|Imprint varies|~|Report year varies,"University of New Hampshire. Library. Digital Collections.|~|Scanned by Internet Archive, Open Content Alliance (2009)",,,Text,East Kingston (N.H. : Town) -- Appropriations and expenditures -- Periodicals,East Kingston (N.H. : Town),,,Eng,"[East Kingston, N.H. : The Town]|~|University of New Hampshire. Library. Digital Collections.",eastkingston_0019+application-pdf+application.pdf|~|eastkingston_0019+image-low-jpg+image-low.jpg|~|eastkingston_0019+image-tb-jpg+image-tb.jpg
Active,eastkingston:0020,eastkingston,http://www.archive.org/details/annualreportsoft1949east|~|annualreportsoft1949east|~|eastkingston:0020,"Annual reports of the Town of East Kingston, New Hampshire, 1949",1950,Title varies|~|Imprint varies|~|Report year varies,"University of New Hampshire. Library. Digital Collections.|~|Scanned by Internet Archive, Open Content Alliance (2009)",,,Text,East Kingston (N.H. : Town) -- Appropriations and expenditures -- Periodicals,East Kingston (N.H. : Town),,,Eng,"[East Kingston, N.H. : The Town]|~|University of New Hampshire. Library. Digital Collections.",eastkingston_0020+application-pdf+application.pdf|~|eastkingston_0020+image-low-jpg+image-low.jpg|~|eastkingston_0020+image-tb-jpg+image-tb.jpg
Active,eastkingston:0021,eastkingston,http://www.archive.org/details/annualreportsoft1950east|~|annualreportsoft1950east|~|eastkingston:0021,"Annual reports of the Town of East Kingston, New Hampshire, 1950",1951,Title varies|~|Imprint varies|~|Report year varies,"University of New Hampshire. Library. Digital Collections.|~|Scanned by Internet Archive, Open Content Alliance (2009)",,,Text,East Kingston (N.H. : Town) -- Appropriations and expenditures -- Periodicals,East Kingston (N.H. : Town),,,Eng,"[East Kingston, N.H. : The Town]|~|University of New Hampshire. Library. Digital Collections.",eastkingston_0021+application-pdf+application.pdf|~|eastkingston_0021+image-low-jpg+image-low.jpg|~|eastkingston_0021+image-tb-jpg+image-tb.jpg
Active,eastkingston:0022,eastkingston,http://www.archive.org/details/annualreportsoft1951east|~|annualreportsoft1951east|~|eastkingston:0022,"Annual reports of the Town of East Kingston, New Hampshire, 1951",1952,Title varies|~|Imprint varies|~|Report year varies,"University of New Hampshire. Library. Digital Collections.|~|Scanned by Internet Archive, Open Content Alliance (2009)",,,Text,East Kingston (N.H. : Town) -- Appropriations and expenditures -- Periodicals,East Kingston (N.H. : Town),,,Eng,"[East Kingston, N.H. : The Town]|~|University of New Hampshire. Library. Digital Collections.",eastkingston_0022+application-pdf+application.pdf|~|eastkingston_0022+image-low-jpg+image-low.jpg|~|eastkingston_0022+image-tb-jpg+image-tb.jpg
Active,eastkingston:0023,eastkingston,http://www.archive.org/details/annualreportsoft1952east|~|annualreportsoft1952east|~|eastkingston:0023,"Annual reports of the Town of East Kingston, New Hampshire, 1952",1953,Title varies|~|Imprint varies|~|Report year varies,"University of New Hampshire. Library. Digital Collections.|~|Scanned by Internet Archive, Open Content Alliance (2009)",,,Text,East Kingston (N.H. : Town) -- Appropriations and expenditures -- Periodicals,East Kingston (N.H. : Town),,,Eng,"[East Kingston, N.H. : The Town]|~|University of New Hampshire. Library. Digital Collections.",eastkingston_0023+application-pdf+application.pdf|~|eastkingston_0023+image-low-jpg+image-low.jpg|~|eastkingston_0023+image-tb-jpg+image-tb.jpg
Active,eastkingston:0024,eastkingston,http://www.archive.org/details/annualreportsoft1953east|~|annualreportsoft1953east|~|eastkingston:0024,"Annual reports of the Town of East Kingston, New Hampshire, 1953",1954,Title varies|~|Imprint varies|~|Report year varies,"University of New Hampshire. Library. Digital Collections.|~|Scanned by Internet Archive, Open Content Alliance (2009)",,,Text,East Kingston (N.H. : Town) -- Appropriations and expenditures -- Periodicals,East Kingston (N.H. : Town),,,Eng,"[East Kingston, N.H. : The Town]|~|University of New Hampshire. Library. Digital Collections.",eastkingston_0024+application-pdf+application.pdf|~|eastkingston_0024+image-low-jpg+image-low.jpg|~|eastkingston_0024+image-tb-jpg+image-tb.jpg
Active,eastkingston:0025,eastkingston,http://www.archive.org/details/annualreportsoft1954east|~|annualreportsoft1954east|~|eastkingston:0025,"Annual reports of the Town of East Kingston, New Hampshire, 1954",1955,Title varies|~|Imprint varies|~|Report year varies,"University of New Hampshire. Library. Digital Collections.|~|Scanned by Internet Archive, Open Content Alliance (2009)",,,Text,East Kingston (N.H. : Town) -- Appropriations and expenditures -- Periodicals,East Kingston (N.H. : Town),,,Eng,"[East Kingston, N.H. : The Town]|~|University of New Hampshire. Library. Digital Collections.",eastkingston_0025+application-pdf+application.pdf|~|eastkingston_0025+image-low-jpg+image-low.jpg|~|eastkingston_0025+image-tb-jpg+image-tb.jpg
Active,eastkingston:0026,eastkingston,http://www.archive.org/details/annualreportsoft1955east|~|annualreportsoft1955east|~|eastkingston:0026,"Annual reports of the Town of East Kingston, New Hampshire, 1955",1956,Title varies|~|Imprint varies|~|Report year varies,"University of New Hampshire. Library. Digital Collections.|~|Scanned by Internet Archive, Open Content Alliance (2009)",,,Text,East Kingston (N.H. : Town) -- Appropriations and expenditures -- Periodicals,East Kingston (N.H. : Town),,,Eng,"[East Kingston, N.H. : The Town]|~|University of New Hampshire. Library. Digital Collections.",eastkingston_0026+application-pdf+application.pdf|~|eastkingston_0026+image-low-jpg+image-low.jpg|~|eastkingston_0026+image-tb-jpg+image-tb.jpg
Active,eastkingston:0027,eastkingston,http://www.archive.org/details/annualreportsoft1956east|~|annualreportsoft1956east|~|eastkingston:0027,"Annual reports of the Town of East Kingston, New Hampshire, 1956",1957,Title varies|~|Imprint varies|~|Report year varies,"University of New Hampshire. Library. Digital Collections.|~|Scanned by Internet Archive, Open Content Alliance (2009)",,,Text,East Kingston (N.H. : Town) -- Appropriations and expenditures -- Periodicals,East Kingston (N.H. : Town),,,Eng,"[East Kingston, N.H. : The Town]|~|University of New Hampshire. Library. Digital Collections.",eastkingston_0027+application-pdf+application.pdf|~|eastkingston_0027+image-low-jpg+image-low.jpg|~|eastkingston_0027+image-tb-jpg+image-tb.jpg
Active,eastkingston:0028,eastkingston,http://www.archive.org/details/annualreportsoft1957east|~|annualreportsoft1957east|~|eastkingston:0028,"Annual reports of the Town of East Kingston, New Hampshire, 1957",1958,Title varies|~|Imprint varies|~|Report year varies,"University of New Hampshire. Library. Digital Collections.|~|Scanned by Internet Archive, Open Content Alliance (2009)",,,Text,East Kingston (N.H. : Town) -- Appropriations and expenditures -- Periodicals,East Kingston (N.H. : Town),,,Eng,"[East Kingston, N.H. : The Town]|~|University of New Hampshire. Library. Digital Collections.",eastkingston_0028+application-pdf+application.pdf|~|eastkingston_0028+image-low-jpg+image-low.jpg|~|eastkingston_0028+image-tb-jpg+image-tb.jpg
Active,eastkingston:0029,eastkingston,http://www.archive.org/details/annualreportsoft1958east|~|annualreportsoft1958east|~|eastkingston:0029,"Annual reports of the Town of East Kingston, New Hampshire, 1958",1959,Title varies|~|Imprint varies|~|Report year varies,"University of New Hampshire. Library. Digital Collections.|~|Scanned by Internet Archive, Open Content Alliance (2009)",,,Text,East Kingston (N.H. : Town) -- Appropriations and expenditures -- Periodicals,East Kingston (N.H. : Town),,,Eng,"[East Kingston, N.H. : The Town]|~|University of New Hampshire. Library. Digital Collections.",eastkingston_0029+application-pdf+application.pdf|~|eastkingston_0029+image-low-jpg+image-low.jpg|~|eastkingston_0029+image-tb-jpg+image-tb.jpg
Active,eastkingston:0030,eastkingston,http://www.archive.org/details/annualreportsoft1959east|~|annualreportsoft1959east|~|eastkingston:0030,"Annual reports of the Town of East Kingston, New Hampshire, 1959",1960,Title varies|~|Imprint varies|~|Report year varies,"University of New Hampshire. Library. Digital Collections.|~|Scanned by Internet Archive, Open Content Alliance (2009)",,,Text,East Kingston (N.H. : Town) -- Appropriations and expenditures -- Periodicals,East Kingston (N.H. : Town),,,Eng,"[East Kingston, N.H. : The Town]|~|University of New Hampshire. Library. Digital Collections.",eastkingston_0030+application-pdf+application.pdf|~|eastkingston_0030+image-low-jpg+image-low.jpg|~|eastkingston_0030+image-tb-jpg+image-tb.jpg
Active,eastkingston:0031,eastkingston,http://www.archive.org/details/annualreportsoft1960east|~|annualreportsoft1960east|~|eastkingston:0031,"Annual reports of the Town of East Kingston, New Hampshire, 1960",1961,Title varies|~|Imprint varies|~|Report year varies,"University of New Hampshire. Library. Digital Collections.|~|Scanned by Internet Archive, Open Content Alliance (2009)",,,Text,East Kingston (N.H. : Town) -- Appropriations and expenditures -- Periodicals,East Kingston (N.H. : Town),,,Eng,"[East Kingston, N.H. : The Town]|~|University of New Hampshire. Library. Digital Collections.",eastkingston_0031+application-pdf+application.pdf|~|eastkingston_0031+image-low-jpg+image-low.jpg|~|eastkingston_0031+image-tb-jpg+image-tb.jpg
Active,eastkingston:0032,eastkingston,http://www.archive.org/details/annualreportsoft1961east|~|annualreportsoft1961east|~|eastkingston:0032,"Annual reports of the Town of East Kingston, New Hampshire, 1961",1962,Title varies|~|Imprint varies|~|Report year varies,"University of New Hampshire. Library. Digital Collections.|~|Scanned by Internet Archive, Open Content Alliance (2009)",,,Text,East Kingston (N.H. : Town) -- Appropriations and expenditures -- Periodicals,East Kingston (N.H. : Town),,,Eng,"[East Kingston, N.H. : The Town]|~|University of New Hampshire. Library. Digital Collections.",eastkingston_0032+application-pdf+application.pdf|~|eastkingston_0032+image-low-jpg+image-low.jpg|~|eastkingston_0032+image-tb-jpg+image-tb.jpg
Active,eastkingston:0033,eastkingston,http://www.archive.org/details/annualreportsoft1962east|~|annualreportsoft1962east|~|eastkingston:0033,"Annual reports of the Town of East Kingston, New Hampshire, 1962",1963,Title varies|~|Imprint varies|~|Report year varies,"University of New Hampshire. Library. Digital Collections.|~|Scanned by Internet Archive, Open Content Alliance (2009)",,,Text,East Kingston (N.H. : Town) -- Appropriations and expenditures -- Periodicals,East Kingston (N.H. : Town),,,Eng,"[East Kingston, N.H. : The Town]|~|University of New Hampshire. Library. Digital Collections.",eastkingston_0033+application-pdf+application.pdf|~|eastkingston_0033+image-low-jpg+image-low.jpg|~|eastkingston_0033+image-tb-jpg+image-tb.jpg
Active,eastkingston:0034,eastkingston,http://www.archive.org/details/annualreportsoft1963east|~|annualreportsoft1963east|~|eastkingston:0034,"Annual reports of the Town of East Kingston, New Hampshire, 1963",1964,Title varies|~|Imprint varies|~|Report year varies,"University of New Hampshire. Library. Digital Collections.|~|Scanned by Internet Archive, Open Content Alliance (2009)",,,Text,East Kingston (N.H. : Town) -- Appropriations and expenditures -- Periodicals,East Kingston (N.H. : Town),,,Eng,"[East Kingston, N.H. : The Town]|~|University of New Hampshire. Library. Digital Collections.",eastkingston_0034+application-pdf+application.pdf|~|eastkingston_0034+image-low-jpg+image-low.jpg|~|eastkingston_0034+image-tb-jpg+image-tb.jpg
Active,eastkingston:0035,eastkingston,http://www.archive.org/details/annualreportsoft1964east|~|annualreportsoft1964east|~|eastkingston:0035,"Annual reports of the Town of East Kingston, New Hampshire, 1964",1965,Title varies|~|Imprint varies|~|Report year varies,"University of New Hampshire. Library. Digital Collections.|~|Scanned by Internet Archive, Open Content Alliance (2009)",,,Text,East Kingston (N.H. : Town) -- Appropriations and expenditures -- Periodicals,East Kingston (N.H. : Town),,,Eng,"[East Kingston, N.H. : The Town]|~|University of New Hampshire. Library. Digital Collections.",eastkingston_0035+application-pdf+application.pdf|~|eastkingston_0035+image-low-jpg+image-low.jpg|~|eastkingston_0035+image-tb-jpg+image-tb.jpg
Active,eastkingston:0036,eastkingston,http://www.archive.org/details/annualreportsoft1965east|~|annualreportsoft1965east|~|eastkingston:0036,"Annual reports of the Town of East Kingston, New Hampshire, 1965",1966,Title varies|~|Imprint varies|~|Report year varies,"University of New Hampshire. Library. Digital Collections.|~|Scanned by Internet Archive, Open Content Alliance (2009)",,,Text,East Kingston (N.H. : Town) -- Appropriations and expenditures -- Periodicals,East Kingston (N.H. : Town),,,Eng,"[East Kingston, N.H. : The Town]|~|University of New Hampshire. Library. Digital Collections.",eastkingston_0036+application-pdf+application.pdf|~|eastkingston_0036+image-low-jpg+image-low.jpg|~|eastkingston_0036+image-tb-jpg+image-tb.jpg
Active,eastkingston:0037,eastkingston,http://www.archive.org/details/annualreportsoft1966east|~|annualreportsoft1966east|~|eastkingston:0037,"Annual reports of the Town of East Kingston, New Hampshire, 1966",1967,Title varies|~|Imprint varies|~|Report year varies,"University of New Hampshire. Library. Digital Collections.|~|Scanned by Internet Archive, Open Content Alliance (2009)",,,Text,East Kingston (N.H. : Town) -- Appropriations and expenditures -- Periodicals,East Kingston (N.H. : Town),,,Eng,"[East Kingston, N.H. : The Town]|~|University of New Hampshire. Library. Digital Collections.",eastkingston_0037+application-pdf+application.pdf|~|eastkingston_0037+image-low-jpg+image-low.jpg|~|eastkingston_0037+image-tb-jpg+image-tb.jpg
Active,eastkingston:0038,eastkingston,http://www.archive.org/details/annualreportsoft1967east|~|annualreportsoft1967east|~|eastkingston:0038,"Annual reports of the Town of East Kingston, New Hampshire, 1967",1968,Title varies|~|Imprint varies|~|Report year varies,"University of New Hampshire. Library. Digital Collections.|~|Scanned by Internet Archive, Open Content Alliance (2009)",,,Text,East Kingston (N.H. : Town) -- Appropriations and expenditures -- Periodicals,East Kingston (N.H. : Town),,,Eng,"[East Kingston, N.H. : The Town]|~|University of New Hampshire. Library. Digital Collections.",eastkingston_0038+application-pdf+application.pdf|~|eastkingston_0038+image-low-jpg+image-low.jpg|~|eastkingston_0038+image-tb-jpg+image-tb.jpg
Active,eastkingston:0039,eastkingston,http://www.archive.org/details/annualreportsoft1968east|~|annualreportsoft1968east|~|eastkingston:0039,"Annual reports of the Town of East Kingston, New Hampshire, 1968",1969,Title varies|~|Imprint varies|~|Report year varies,"University of New Hampshire. Library. Digital Collections.|~|Scanned by Internet Archive, Open Content Alliance (2009)",,,Text,East Kingston (N.H. : Town) -- Appropriations and expenditures -- Periodicals,East Kingston (N.H. : Town),,,Eng,"[East Kingston, N.H. : The Town]|~|University of New Hampshire. Library. Digital Collections.",eastkingston_0039+application-pdf+application.pdf|~|eastkingston_0039+image-low-jpg+image-low.jpg|~|eastkingston_0039+image-tb-jpg+image-tb.jpg
Active,eastkingston:0040,eastkingston,http://www.archive.org/details/annualreportsoft1969east|~|annualreportsoft1969east|~|eastkingston:0040,"Annual reports of the Town of East Kingston, New Hampshire, 1969",1970,Title varies|~|Imprint varies|~|Report year varies,"University of New Hampshire. Library. Digital Collections.|~|Scanned by Internet Archive, Open Content Alliance (2009)",,,Text,East Kingston (N.H. : Town) -- Appropriations and expenditures -- Periodicals,East Kingston (N.H. : Town),,,Eng,"[East Kingston, N.H. : The Town]|~|University of New Hampshire. Library. Digital Collections.",eastkingston_0040+application-pdf+application.pdf|~|eastkingston_0040+image-low-jpg+image-low.jpg|~|eastkingston_0040+image-tb-jpg+image-tb.jpg
Active,eastkingston:0041,eastkingston,http://www.archive.org/details/annualreportsoft1970east|~|annualreportsoft1970east|~|eastkingston:0041,"Annual reports of the Town of East Kingston, New Hampshire, 1970",1971,Title varies|~|Imprint varies|~|Report year varies,"University of New Hampshire. Library. Digital Collections.|~|Scanned by Internet Archive, Open Content Alliance (2009)",,,Text,East Kingston (N.H. : Town) -- Appropriations and expenditures -- Periodicals,East Kingston (N.H. : Town),,,Eng,"[East Kingston, N.H. : The Town]|~|University of New Hampshire. Library. Digital Collections.",eastkingston_0041+application-pdf+application.pdf|~|eastkingston_0041+image-low-jpg+image-low.jpg|~|eastkingston_0041+image-tb-jpg+image-tb.jpg
Active,eastkingston:0042,eastkingston,http://www.archive.org/details/annualreportsoft1971east|~|annualreportsoft1971east|~|eastkingston:0042,"Annual reports of the Town of East Kingston, New Hampshire, 1971",1972,Title varies|~|Imprint varies|~|Report year varies,"University of New Hampshire. Library. Digital Collections.|~|Scanned by Internet Archive, Open Content Alliance (2009)",,,Text,East Kingston (N.H. : Town) -- Appropriations and expenditures -- Periodicals,East Kingston (N.H. : Town),,,Eng,"[East Kingston, N.H. : The Town]|~|University of New Hampshire. Library. Digital Collections.",eastkingston_0042+application-pdf+application.pdf|~|eastkingston_0042+image-low-jpg+image-low.jpg|~|eastkingston_0042+image-tb-jpg+image-tb.jpg
Active,eastkingston:0043,eastkingston,http://www.archive.org/details/annualreportsoft1972east|~|annualreportsoft1972east|~|eastkingston:0043,"Annual reports of the Town of East Kingston, New Hampshire, 1972",1973,Title varies|~|Imprint varies|~|Report year varies,"University of New Hampshire. Library. Digital Collections.|~|Scanned by Internet Archive, Open Content Alliance (2009)",,,Text,East Kingston (N.H. : Town) -- Appropriations and expenditures -- Periodicals,East Kingston (N.H. : Town),,,Eng,"[East Kingston, N.H. : The Town]|~|University of New Hampshire. Library. Digital Collections.",eastkingston_0043+application-pdf+application.pdf|~|eastkingston_0043+image-low-jpg+image-low.jpg|~|eastkingston_0043+image-tb-jpg+image-tb.jpg
Active,eastkingston:0044,eastkingston,http://www.archive.org/details/annualreportsoft1973east|~|annualreportsoft1973east|~|eastkingston:0044,"Annual reports of the Town of East Kingston, New Hampshire, 1973",1974,Title varies|~|Imprint varies|~|Report year varies,"University of New Hampshire. Library. Digital Collections.|~|Scanned by Internet Archive, Open Content Alliance (2009)",,,Text,East Kingston (N.H. : Town) -- Appropriations and expenditures -- Periodicals,East Kingston (N.H. : Town),,,Eng,"[East Kingston, N.H. : The Town]|~|University of New Hampshire. Library. Digital Collections.",eastkingston_0044+application-pdf+application.pdf|~|eastkingston_0044+image-low-jpg+image-low.jpg|~|eastkingston_0044+image-tb-jpg+image-tb.jpg
Active,eastkingston:0045,eastkingston,http://www.archive.org/details/annualreportsoft1974east|~|annualreportsoft1974east|~|eastkingston:0045,"Annual reports of the Town of East Kingston, New Hampshire, 1974",1975,Title varies|~|Imprint varies|~|Report year varies,"University of New Hampshire. Library. Digital Collections.|~|Scanned by Internet Archive, Open Content Alliance (2009)",,,Text,East Kingston (N.H. : Town) -- Appropriations and expenditures -- Periodicals,East Kingston (N.H. : Town),,,Eng,"[East Kingston, N.H. : The Town]|~|University of New Hampshire. Library. Digital Collections.",eastkingston_0045+application-pdf+application.pdf|~|eastkingston_0045+image-low-jpg+image-low.jpg|~|eastkingston_0045+image-tb-jpg+image-tb.jpg
Active,eastkingston:0046,eastkingston,http://www.archive.org/details/annualreportsoft1975east|~|annualreportsoft1975east|~|eastkingston:0046,"Annual reports of the Town of East Kingston, New Hampshire, 1975",1976,Title varies|~|Imprint varies|~|Report year varies,"University of New Hampshire. Library. Digital Collections.|~|Scanned by Internet Archive, Open Content Alliance (2009)",,,Text,East Kingston (N.H. : Town) -- Appropriations and expenditures -- Periodicals,East Kingston (N.H. : Town),,,Eng,"[East Kingston, N.H. : The Town]|~|University of New Hampshire. Library. Digital Collections.",eastkingston_0046+application-pdf+application.pdf|~|eastkingston_0046+image-low-jpg+image-low.jpg|~|eastkingston_0046+image-tb-jpg+image-tb.jpg
Active,eastkingston:0047,eastkingston,http://www.archive.org/details/annualreportsoft1976east|~|annualreportsoft1976east|~|eastkingston:0047,"Annual reports of the Town of East Kingston, New Hampshire, 1976",1977,Title varies|~|Imprint varies|~|Report year varies,"University of New Hampshire. Library. Digital Collections.|~|Scanned by Internet Archive, Open Content Alliance (2009)",,,Text,East Kingston (N.H. : Town) -- Appropriations and expenditures -- Periodicals,East Kingston (N.H. : Town),,,Eng,"[East Kingston, N.H. : The Town]|~|University of New Hampshire. Library. Digital Collections.",eastkingston_0047+application-pdf+application.pdf|~|eastkingston_0047+image-low-jpg+image-low.jpg|~|eastkingston_0047+image-tb-jpg+image-tb.jpg
Active,eastkingston:0048,eastkingston,http://www.archive.org/details/annualreportsoft1977east|~|annualreportsoft1977east|~|eastkingston:0048,"Annual reports of the Town of East Kingston, New Hampshire, 1977",1978,Title varies|~|Imprint varies|~|Report year varies,"University of New Hampshire. Library. Digital Collections.|~|Scanned by Internet Archive, Open Content Alliance (2009)",,,Text,East Kingston (N.H. : Town) -- Appropriations and expenditures -- Periodicals,East Kingston (N.H. : Town),,,Eng,"[East Kingston, N.H. : The Town]|~|University of New Hampshire. Library. Digital Collections.",eastkingston_0048+application-pdf+application.pdf|~|eastkingston_0048+image-low-jpg+image-low.jpg|~|eastkingston_0048+image-tb-jpg+image-tb.jpg
Active,eastkingston:0049,eastkingston,http://www.archive.org/details/annualreportsoft1978east|~|annualreportsoft1978east|~|eastkingston:0049,"Annual reports of the Town of East Kingston, New Hampshire, 1978",1979,Title varies|~|Imprint varies|~|Report year varies,"University of New Hampshire. Library. Digital Collections.|~|Scanned by Internet Archive, Open Content Alliance (2009)",,,Text,East Kingston (N.H. : Town) -- Appropriations and expenditures -- Periodicals,East Kingston (N.H. : Town),,,Eng,"[East Kingston, N.H. : The Town]|~|University of New Hampshire. Library. Digital Collections.",eastkingston_0049+application-pdf+application.pdf|~|eastkingston_0049+image-low-jpg+image-low.jpg|~|eastkingston_0049+image-tb-jpg+image-tb.jpg
Active,eastkingston:0050,eastkingston,http://www.archive.org/details/annualreportsoft1979east|~|annualreportsoft1979east|~|eastkingston:0050,"Annual reports of the Town of East Kingston, New Hampshire, 1979",1980,Title varies|~|Imprint varies|~|Report year varies,"University of New Hampshire. Library. Digital Collections.|~|Scanned by Internet Archive, Open Content Alliance (2009)",,,Text,East Kingston (N.H. : Town) -- Appropriations and expenditures -- Periodicals,East Kingston (N.H. : Town),,,Eng,"[East Kingston, N.H. : The Town]|~|University of New Hampshire. Library. Digital Collections.",eastkingston_0050+application-pdf+application.pdf|~|eastkingston_0050+image-low-jpg+image-low.jpg|~|eastkingston_0050+image-tb-jpg+image-tb.jpg
Active,eastkingston:0051,eastkingston,http://www.archive.org/details/annualreportsoft1980east|~|annualreportsoft1980east|~|eastkingston:0051,"Annual reports of the Town of East Kingston, New Hampshire, 1980",1981,Title varies|~|Imprint varies|~|Report year varies,"University of New Hampshire. Library. Digital Collections.|~|Scanned by Internet Archive, Open Content Alliance (2009)",,,Text,East Kingston (N.H. : Town) -- Appropriations and expenditures -- Periodicals,East Kingston (N.H. : Town),,,Eng,"[East Kingston, N.H. : The Town]|~|University of New Hampshire. Library. Digital Collections.",eastkingston_0051+application-pdf+application.pdf|~|eastkingston_0051+image-low-jpg+image-low.jpg|~|eastkingston_0051+image-tb-jpg+image-tb.jpg
Active,eastkingston:0052,eastkingston,http://www.archive.org/details/annualreportsoft1981east|~|annualreportsoft1981east|~|eastkingston:0052,"Annual reports of the Town of East Kingston, New Hampshire, 1981",1982,Title varies|~|Imprint varies|~|Report year varies,"University of New Hampshire. Library. Digital Collections.|~|Scanned by Internet Archive, Open Content Alliance (2009)",,,Text,East Kingston (N.H. : Town) -- Appropriations and expenditures -- Periodicals,East Kingston (N.H. : Town),,,Eng,"[East Kingston, N.H. : The Town]|~|University of New Hampshire. Library. Digital Collections.",eastkingston_0052+application-pdf+application.pdf|~|eastkingston_0052+image-low-jpg+image-low.jpg|~|eastkingston_0052+image-tb-jpg+image-tb.jpg
Active,eastkingston:0053,eastkingston,http://www.archive.org/details/annualreportsoft1982east|~|annualreportsoft1982east|~|eastkingston:0053,"Annual reports of the Town of East Kingston, New Hampshire, 1982",1983,Title varies|~|Imprint varies|~|Report year varies,"University of New Hampshire. Library. Digital Collections.|~|Scanned by Internet Archive, Open Content Alliance (2009)",,,Text,East Kingston (N.H. : Town) -- Appropriations and expenditures -- Periodicals,East Kingston (N.H. : Town),,,Eng,"[East Kingston, N.H. : The Town]|~|University of New Hampshire. Library. Digital Collections.",eastkingston_0053+application-pdf+application.pdf|~|eastkingston_0053+image-low-jpg+image-low.jpg|~|eastkingston_0053+image-tb-jpg+image-tb.jpg
Active,eastkingston:0054,eastkingston,http://www.archive.org/details/annualreportsoft1983east|~|annualreportsoft1983east|~|eastkingston:0054,"Annual reports of the Town of East Kingston, New Hampshire, 1983",1984,Title varies|~|Imprint varies|~|Report year varies,"University of New Hampshire. Library. Digital Collections.|~|Scanned by Internet Archive, Open Content Alliance (2009)",,,Text,East Kingston (N.H. : Town) -- Appropriations and expenditures -- Periodicals,East Kingston (N.H. : Town),,,Eng,"[East Kingston, N.H. : The Town]|~|University of New Hampshire. Library. Digital Collections.",eastkingston_0054+application-pdf+application.pdf|~|eastkingston_0054+image-low-jpg+image-low.jpg|~|eastkingston_0054+image-tb-jpg+image-tb.jpg
Active,eastkingston:0055,eastkingston,http://www.archive.org/details/annualreportsoft1984east|~|annualreportsoft1984east|~|eastkingston:0055,"Annual reports of the Town of East Kingston, New Hampshire, 1984",1985,Title varies|~|Imprint varies|~|Report year varies,"University of New Hampshire. Library. Digital Collections.|~|Scanned by Internet Archive, Open Content Alliance (2009)",,,Text,East Kingston (N.H. : Town) -- Appropriations and expenditures -- Periodicals,East Kingston (N.H. : Town),,,Eng,"[East Kingston, N.H. : The Town]|~|University of New Hampshire. Library. Digital Collections.",eastkingston_0055+application-pdf+application.pdf|~|eastkingston_0055+image-low-jpg+image-low.jpg|~|eastkingston_0055+image-tb-jpg+image-tb.jpg
Active,eastkingston:0056,eastkingston,http://www.archive.org/details/annualreportsoft1985east|~|annualreportsoft1985east|~|eastkingston:0056,"Annual reports of the Town of East Kingston, New Hampshire, 1985",1986,Title varies|~|Imprint varies|~|Report year varies,"University of New Hampshire. Library. Digital Collections.|~|Scanned by Internet Archive, Open Content Alliance (2009)",,,Text,East Kingston (N.H. : Town) -- Appropriations and expenditures -- Periodicals,East Kingston (N.H. : Town),,,Eng,"[East Kingston, N.H. : The Town]|~|University of New Hampshire. Library. Digital Collections.",eastkingston_0056+application-pdf+application.pdf|~|eastkingston_0056+image-low-jpg+image-low.jpg|~|eastkingston_0056+image-tb-jpg+image-tb.jpg
Active,eastkingston:0057,eastkingston,http://www.archive.org/details/annualreportsoft1986east|~|annualreportsoft1986east|~|eastkingston:0057,"Annual reports of the Town of East Kingston, New Hampshire, 1986",1987,Title varies|~|Imprint varies|~|Report year varies,"University of New Hampshire. Library. Digital Collections.|~|Scanned by Internet Archive, Open Content Alliance (2009)",,,Text,East Kingston (N.H. : Town) -- Appropriations and expenditures -- Periodicals,East Kingston (N.H. : Town),,,Eng,"[East Kingston, N.H. : The Town]|~|University of New Hampshire. Library. Digital Collections.",eastkingston_0057+application-pdf+application.pdf|~|eastkingston_0057+image-low-jpg+image-low.jpg|~|eastkingston_0057+image-tb-jpg+image-tb.jpg
Active,eastkingston:0058,eastkingston,http://www.archive.org/details/annualreportsoft1987east|~|annualreportsoft1987east|~|eastkingston:0058,"Annual reports of the Town of East Kingston, New Hampshire, 1987",1988,Title varies|~|Imprint varies|~|Report year varies,"University of New Hampshire. Library. Digital Collections.|~|Scanned by Internet Archive, Open Content Alliance (2009)",,,Text,East Kingston (N.H. : Town) -- Appropriations and expenditures -- Periodicals,East Kingston (N.H. : Town),,,Eng,"[East Kingston, N.H. : The Town]|~|University of New Hampshire. Library. Digital Collections.",eastkingston_0058+application-pdf+application.pdf|~|eastkingston_0058+image-low-jpg+image-low.jpg|~|eastkingston_0058+image-tb-jpg+image-tb.jpg
Active,eastkingston:0059,eastkingston,http://www.archive.org/details/annualreportsoft1988east|~|annualreportsoft1988east|~|eastkingston:0059,"Annual reports of the Town of East Kingston, New Hampshire, 1988",1989,Title varies|~|Imprint varies|~|Report year varies,"University of New Hampshire. Library. Digital Collections.|~|Scanned by Internet Archive, Open Content Alliance (2009)",,,Text,East Kingston (N.H. : Town) -- Appropriations and expenditures -- Periodicals,East Kingston (N.H. : Town),,,Eng,"[East Kingston, N.H. : The Town]|~|University of New Hampshire. Library. Digital Collections.",eastkingston_0059+application-pdf+application.pdf|~|eastkingston_0059+image-low-jpg+image-low.jpg|~|eastkingston_0059+image-tb-jpg+image-tb.jpg
Active,eastkingston:0060,eastkingston,http://www.archive.org/details/annualreportsoft1989east|~|annualreportsoft1989east|~|eastkingston:0060,"Annual reports of the Town of East Kingston, New Hampshire, 1989",1990,Title varies|~|Imprint varies|~|Report year varies,"University of New Hampshire. Library. Digital Collections.|~|Scanned by Internet Archive, Open Content Alliance (2009)",,,Text,East Kingston (N.H. : Town) -- Appropriations and expenditures -- Periodicals,East Kingston (N.H. : Town),,,Eng,"[East Kingston, N.H. : The Town]|~|University of New Hampshire. Library. Digital Collections.",eastkingston_0060+application-pdf+application.pdf|~|eastkingston_0060+image-low-jpg+image-low.jpg|~|eastkingston_0060+image-tb-jpg+image-tb.jpg
Active,eastkingston:0061,eastkingston,http://www.archive.org/details/annualreportsoft1990east|~|annualreportsoft1990east|~|eastkingston:0061,"Annual reports of the Town of East Kingston, New Hampshire, 1990",1991,Title varies|~|Imprint varies|~|Report year varies,"University of New Hampshire. Library. Digital Collections.|~|Scanned by Internet Archive, Open Content Alliance (2009)",,,Text,East Kingston (N.H. : Town) -- Appropriations and expenditures -- Periodicals,East Kingston (N.H. : Town),,,Eng,"[East Kingston, N.H. : The Town]|~|University of New Hampshire. Library. Digital Collections.",eastkingston_0061+application-pdf+application.pdf|~|eastkingston_0061+image-low-jpg+image-low.jpg|~|eastkingston_0061+image-tb-jpg+image-tb.jpg
Active,eastkingston:0062,eastkingston,http://www.archive.org/details/annualreportsoft1991east|~|annualreportsoft1991east|~|eastkingston:0062,"Annual reports of the Town of East Kingston, New Hampshire, 1991",1992,Title varies|~|Imprint varies|~|Report year varies,"University of New Hampshire. Library. Digital Collections.|~|Scanned by Internet Archive, Open Content Alliance (2009)",,,Text,East Kingston (N.H. : Town) -- Appropriations and expenditures -- Periodicals,East Kingston (N.H. : Town),,,Eng,"[East Kingston, N.H. : The Town]|~|University of New Hampshire. Library. Digital Collections.",eastkingston_0062+application-pdf+application.pdf|~|eastkingston_0062+image-low-jpg+image-low.jpg|~|eastkingston_0062+image-tb-jpg+image-tb.jpg
Active,eastkingston:0063,eastkingston,http://www.archive.org/details/annualreportsoft1992east|~|annualreportsoft1992east|~|eastkingston:0063,"Annual reports of the Town of East Kingston, New Hampshire, 1992",1993,Title varies|~|Imprint varies|~|Report year varies,"University of New Hampshire. Library. Digital Collections.|~|Scanned by Internet Archive, Open Content Alliance (2009)",,,Text,East Kingston (N.H. : Town) -- Appropriations and expenditures -- Periodicals,East Kingston (N.H. : Town),,,Eng,"[East Kingston, N.H. : The Town]|~|University of New Hampshire. Library. Digital Collections.",eastkingston_0063+application-pdf+application.pdf|~|eastkingston_0063+image-low-jpg+image-low.jpg|~|eastkingston_0063+image-tb-jpg+image-tb.jpg
Active,eastkingston:0064,eastkingston,http://www.archive.org/details/annualreportsoft1993east|~|annualreportsoft1993east|~|eastkingston:0064,"Annual reports of the Town of East Kingston, New Hampshire, 1993",1994,Title varies|~|Imprint varies|~|Report year varies,"University of New Hampshire. Library. Digital Collections.|~|Scanned by Internet Archive, Open Content Alliance (2009)",,,Text,East Kingston (N.H. : Town) -- Appropriations and expenditures -- Periodicals,East Kingston (N.H. : Town),,,Eng,"[East Kingston, N.H. : The Town]|~|University of New Hampshire. Library. Digital Collections.",eastkingston_0064+application-pdf+application.pdf|~|eastkingston_0064+image-low-jpg+image-low.jpg|~|eastkingston_0064+image-tb-jpg+image-tb.jpg
Active,eastkingston:0065,eastkingston,http://www.archive.org/details/annualreportsoft1994east|~|annualreportsoft1994east|~|eastkingston:0065,"Annual reports of the Town of East Kingston, New Hampshire, 1994",1995,Title varies|~|Imprint varies|~|Report year varies,"University of New Hampshire. Library. Digital Collections.|~|Scanned by Internet Archive, Open Content Alliance (2009)",,,Text,East Kingston (N.H. : Town) -- Appropriations and expenditures -- Periodicals,East Kingston (N.H. : Town),,,Eng,"[East Kingston, N.H. : The Town]|~|University of New Hampshire. Library. Digital Collections.",eastkingston_0065+application-pdf+application.pdf|~|eastkingston_0065+image-low-jpg+image-low.jpg|~|eastkingston_0065+image-tb-jpg+image-tb.jpg
Active,eastkingston:0066,eastkingston,http://www.archive.org/details/annualreportsoft1995east|~|annualreportsoft1995east|~|eastkingston:0066,"Annual reports of the Town of East Kingston, New Hampshire, 1995",1996,Title varies|~|Imprint varies|~|Report year varies,"University of New Hampshire. Library. Digital Collections.|~|Scanned by Internet Archive, Open Content Alliance (2009)",,,Text,East Kingston (N.H. : Town) -- Appropriations and expenditures -- Periodicals,East Kingston (N.H. : Town),,,Eng,"[East Kingston, N.H. : The Town]|~|University of New Hampshire. Library. Digital Collections.",eastkingston_0066+application-pdf+application.pdf|~|eastkingston_0066+image-low-jpg+image-low.jpg|~|eastkingston_0066+image-tb-jpg+image-tb.jpg
Active,eastkingston:0067,eastkingston,http://www.archive.org/details/annualreportsoft1996east|~|annualreportsoft1996east|~|eastkingston:0067,"Annual reports of the Town of East Kingston, New Hampshire, 1996",1997,Title varies|~|Imprint varies|~|Report year varies,"University of New Hampshire. Library. Digital Collections.|~|Scanned by Internet Archive, Open Content Alliance (2009)",,,Text,East Kingston (N.H. : Town) -- Appropriations and expenditures -- Periodicals,East Kingston (N.H. : Town),,,Eng,"[East Kingston, N.H. : The Town]|~|University of New Hampshire. Library. Digital Collections.",eastkingston_0067+application-pdf+application.pdf|~|eastkingston_0067+image-low-jpg+image-low.jpg|~|eastkingston_0067+image-tb-jpg+image-tb.jpg
Active,eastkingston:0068,eastkingston,http://www.archive.org/details/annualreportsoft1997east|~|annualreportsoft1997east|~|eastkingston:0068,"Annual reports of the Town of East Kingston, New Hampshire, 1997",1998,Title varies|~|Imprint varies|~|Report year varies,"University of New Hampshire. Library. Digital Collections.|~|Scanned by Internet Archive, Open Content Alliance (2009)",,,Text,East Kingston (N.H. : Town) -- Appropriations and expenditures -- Periodicals,East Kingston (N.H. : Town),,,Eng,"[East Kingston, N.H. : The Town]|~|University of New Hampshire. Library. Digital Collections.",eastkingston_0068+application-pdf+application.pdf|~|eastkingston_0068+image-low-jpg+image-low.jpg|~|eastkingston_0068+image-tb-jpg+image-tb.jpg
Active,eastkingston:0069,eastkingston,http://www.archive.org/details/annualreportsoft1998east|~|annualreportsoft1998east|~|eastkingston:0069,"Annual reports of the Town of East Kingston, New Hampshire, 1998",1999,Title varies|~|Imprint varies|~|Report year varies,"University of New Hampshire. Library. Digital Collections.|~|Scanned by Internet Archive, Open Content Alliance (2009)",,,Text,East Kingston (N.H. : Town) -- Appropriations and expenditures -- Periodicals,East Kingston (N.H. : Town),,,Eng,"[East Kingston, N.H. : The Town]|~|University of New Hampshire. Library. Digital Collections.",eastkingston_0069+application-pdf+application.pdf|~|eastkingston_0069+image-low-jpg+image-low.jpg|~|eastkingston_0069+image-tb-jpg+image-tb.jpg
Active,eastkingston:0070,eastkingston,http://www.archive.org/details/annualreportsoft1999east|~|annualreportsoft1999east|~|eastkingston:0070,"Annual reports of the Town of East Kingston, New Hampshire, 1999",2000,Title varies|~|Imprint varies|~|Report year varies,"University of New Hampshire. Library. Digital Collections.|~|Scanned by Internet Archive, Open Content Alliance (2009)",,,Text,East Kingston (N.H. : Town) -- Appropriations and expenditures -- Periodicals,East Kingston (N.H. : Town),,,Eng,"[East Kingston, N.H. : The Town]|~|University of New Hampshire. Library. Digital Collections.",eastkingston_0070+application-pdf+application.pdf|~|eastkingston_0070+image-low-jpg+image-low.jpg|~|eastkingston_0070+image-tb-jpg+image-tb.jpg
Active,eastkingston:0071,eastkingston,http://www.archive.org/details/annualreportsoft2000east|~|annualreportsoft2000east|~|eastkingston:0071,"Annual reports of the Town of East Kingston, New Hampshire, 2000",2001,Title varies|~|Imprint varies|~|Report year varies,"University of New Hampshire. Library. Digital Collections.|~|Scanned by Internet Archive, Open Content Alliance (2009)",,,Text,East Kingston (N.H. : Town) -- Appropriations and expenditures -- Periodicals,East Kingston (N.H. : Town),,,Eng,"[East Kingston, N.H. : The Town]|~|University of New Hampshire. Library. Digital Collections.",eastkingston_0071+application-pdf+application.pdf|~|eastkingston_0071+image-low-jpg+image-low.jpg|~|eastkingston_0071+image-tb-jpg+image-tb.jpg
Active,eastkingston:0072,eastkingston,http://www.archive.org/details/annualreportsoft2001east|~|annualreportsoft2001east|~|eastkingston:0072,"Annual reports of the Town of East Kingston, New Hampshire, 2001",2002,Title varies|~|Imprint varies|~|Report year varies,"University of New Hampshire. Library. Digital Collections.|~|Scanned by Internet Archive, Open Content Alliance (2009)",,,Text,East Kingston (N.H. : Town) -- Appropriations and expenditures -- Periodicals,East Kingston (N.H. : Town),,,Eng,"[East Kingston, N.H. : The Town]|~|University of New Hampshire. Library. Digital Collections.",eastkingston_0072+application-pdf+application.pdf|~|eastkingston_0072+image-low-jpg+image-low.jpg|~|eastkingston_0072+image-tb-jpg+image-tb.jpg
Active,eastkingston:0073,eastkingston,http://www.archive.org/details/annualreportsoft2002east|~|annualreportsoft2002east|~|eastkingston:0073,"Annual reports of the Town of East Kingston, New Hampshire, 2002",2003,Title varies|~|Imprint varies|~|Report year varies,"University of New Hampshire. Library. Digital Collections.|~|Scanned by Internet Archive, Open Content Alliance (2009)",,,Text,East Kingston (N.H. : Town) -- Appropriations and expenditures -- Periodicals,East Kingston (N.H. : Town),,,Eng,"[East Kingston, N.H. : The Town]|~|University of New Hampshire. Library. Digital Collections.",eastkingston_0073+application-pdf+application.pdf|~|eastkingston_0073+image-low-jpg+image-low.jpg|~|eastkingston_0073+image-tb-jpg+image-tb.jpg
Active,eastkingston:0074,eastkingston,http://www.archive.org/details/annualreportsoft2003east|~|annualreportsoft2003east|~|eastkingston:0074,"Annual reports of the Town of East Kingston, New Hampshire, 2003",2004,Title varies|~|Imprint varies|~|Report year varies,"University of New Hampshire. Library. Digital Collections.|~|Scanned by Internet Archive, Open Content Alliance (2009)",,,Text,East Kingston (N.H. : Town) -- Appropriations and expenditures -- Periodicals,East Kingston (N.H. : Town),,,Eng,"[East Kingston, N.H. : The Town]|~|University of New Hampshire. Library. Digital Collections.",eastkingston_0074+application-pdf+application.pdf|~|eastkingston_0074+image-low-jpg+image-low.jpg|~|eastkingston_0074+image-tb-jpg+image-tb.jpg
Active,eastkingston:0075,eastkingston,http://www.archive.org/details/annualreportsoft2004east|~|annualreportsoft2004east|~|eastkingston:0075,"Annual reports of the Town of East Kingston, New Hampshire, 2004",2005,Title varies|~|Imprint varies|~|Report year varies,"University of New Hampshire. Library. Digital Collections.|~|Scanned by Internet Archive, Open Content Alliance (2009)",,,Text,East Kingston (N.H. : Town) -- Appropriations and expenditures -- Periodicals,East Kingston (N.H. : Town),,,Eng,"[East Kingston, N.H. : The Town]|~|University of New Hampshire. Library. Digital Collections.",eastkingston_0075+application-pdf+application.pdf|~|eastkingston_0075+image-low-jpg+image-low.jpg|~|eastkingston_0075+image-tb-jpg+image-tb.jpg
Active,eastkingston:0076,eastkingston,http://www.archive.org/details/annualreportsoft2005east|~|annualreportsoft2005east|~|eastkingston:0076,"Annual reports of the Town of East Kingston, New Hampshire, 2005",2006,Title varies|~|Imprint varies|~|Report year varies,"University of New Hampshire. Library. Digital Collections.|~|Scanned by Internet Archive, Open Content Alliance (2009)",,,Text,East Kingston (N.H. : Town) -- Appropriations and expenditures -- Periodicals,East Kingston (N.H. : Town),,,Eng,"[East Kingston, N.H. : The Town]|~|University of New Hampshire. Library. Digital Collections.",eastkingston_0076+application-pdf+application.pdf|~|eastkingston_0076+image-low-jpg+image-low.jpg|~|eastkingston_0076+image-tb-jpg+image-tb.jpg
Active,eastkingston:0077,eastkingston,http://www.archive.org/details/annualreportsoft2006east|~|annualreportsoft2006east|~|eastkingston:0077,"Annual reports of the Town of East Kingston, New Hampshire, 2006",2007,Title varies|~|Imprint varies|~|Report year varies,"University of New Hampshire. Library. Digital Collections.|~|Scanned by Internet Archive, Open Content Alliance (2009)",,,Text,East Kingston (N.H. : Town) -- Appropriations and expenditures -- Periodicals,East Kingston (N.H. : Town),,,Eng,"[East Kingston, N.H. : The Town]|~|University of New Hampshire. Library. Digital Collections.",eastkingston_0077+application-pdf+application.pdf|~|eastkingston_0077+image-low-jpg+image-low.jpg|~|eastkingston_0077+image-tb-jpg+image-tb.jpg
Active,eastkingston:0078,eastkingston,http://www.archive.org/details/annualreportsoft2007east|~|annualreportsoft2007east|~|eastkingston:0078,"Annual reports of the Town of East Kingston, New Hampshire, 2007",2008,Title varies|~|Imprint varies|~|Report year varies,"University of New Hampshire. Library. Digital Collections.|~|Scanned by Internet Archive, Open Content Alliance (2009)",,,Text,East Kingston (N.H. : Town) -- Appropriations and expenditures -- Periodicals,East Kingston (N.H. : Town),,,Eng,"[East Kingston, N.H. : The Town]|~|University of New Hampshire. Library. Digital Collections.",eastkingston_0078+application-pdf+application.pdf|~|eastkingston_0078+image-low-jpg+image-low.jpg|~|eastkingston_0078+image-tb-jpg+image-tb.jpg
Active,eastkingston:0079,eastkingston,http://www.archive.org/details/annualreportsoft2008east|~|annualreportsoft2008east|~|eastkingston:0079,"Annual reports of the Town of East Kingston, New Hampshire, 2008",2009,Title varies|~|Imprint varies|~|Report year varies,"University of New Hampshire. Library. Digital Collections.|~|Scanned by Internet Archive, Open Content Alliance (2009)",,,Text,East Kingston (N.H. : Town) -- Appropriations and expenditures -- Periodicals,East Kingston (N.H. : Town),,,Eng,"[East Kingston, N.H. : The Town]|~|University of New Hampshire. Library. Digital Collections.",eastkingston_0079+application-pdf+application.pdf|~|eastkingston_0079+image-low-jpg+image-low.jpg|~|eastkingston_0079+image-tb-jpg+image-tb.jpg
