state,pid,collection,dcterms:identifier,dcterms:title,dcterms:date,dcterms:description,dcterms:contributor,dcterms:rights,dcterms:format,dcterms:type,dcterms:subject,dcterms:creator,dcterms:relation,dcterms:coverage,dcterms:language,dcterms:publisher,files
Active,enfield:0001,enfield,http://www.archive.org/details/annualreportofto1894enfi|~|annualreportofto1894enfi|~|enfield:0001,"Annual report of the Town of Enfield, New Hampshire, 1894",1894,Title varies|~|Imprint varies|~|Report year varies,"University of New Hampshire. Library. Digital Collections.|~|Scanned by Internet Archive, Open Content Alliance (2009)",,,Text,Enfield (N.H.) -- Appropriations and expenditures -- Periodicals|~|Enfield (N.H. : Town) -- Appropriations and expenditures -- Periodicals,Enfield (N.H. : Town),,,Eng,"[Enfield, N.H. : Abbott's Power Print]|~|University of New Hampshire. Library. Digital Collections.",enfield_0001+application-pdf+application.pdf|~|enfield_0001+image-low-jpg+image-low.jpg|~|enfield_0001+image-tb-jpg+image-tb.jpg
Active,enfield:0002,enfield,http://www.archive.org/details/annualreportofto1895enfi|~|annualreportofto1895enfi|~|enfield:0002,"Annual report of the Town of Enfield, New Hampshire, 1895",1895,Title varies|~|Imprint varies|~|Report year varies,"University of New Hampshire. Library. Digital Collections.|~|Scanned by Internet Archive, Open Content Alliance (2009)",,,Text,Enfield (N.H.) -- Appropriations and expenditures -- Periodicals.|~|Enfield (N.H. : Town) -- Appropriations and expenditures -- Periodicals,Enfield (N.H. : Town),,,Eng,"[Enfield, N.H. : Abbott's Power Print]|~|University of New Hampshire. Library. Digital Collections.",enfield_0002+application-pdf+application.pdf|~|enfield_0002+image-low-jpg+image-low.jpg|~|enfield_0002+image-tb-jpg+image-tb.jpg
Active,enfield:0003,enfield,http://www.archive.org/details/annualreportofto1896enfi|~|annualreportofto1896enfi|~|enfield:0003,"Annual report of the Town of Enfield, New Hampshire, 1896",1896,Title varies|~|Imprint varies|~|Report year varies,"University of New Hampshire. Library. Digital Collections.|~|Scanned by Internet Archive, Open Content Alliance (2009)",,,Text,Enfield (N.H. : Town) -- Appropriations and expenditures -- Periodicals,Enfield (N.H. : Town),,,Eng,"[Enfield, N.H. : Abbott's Power Print]|~|University of New Hampshire. Library. Digital Collections.",enfield_0003+application-pdf+application.pdf|~|enfield_0003+image-low-jpg+image-low.jpg|~|enfield_0003+image-tb-jpg+image-tb.jpg
Active,enfield:0004,enfield,http://www.archive.org/details/annualreportofto1902enfi|~|annualreportofto1902enfi|~|enfield:0004,"Annual report of the Town of Enfield, New Hampshire, 1902",1902,Title varies|~|Imprint varies|~|Report year varies,"University of New Hampshire. Library. Digital Collections.|~|Scanned by Internet Archive, Open Content Alliance (2009)",,,Text,Enfield (N.H. : Town) -- Appropriations and expenditures -- Periodicals,Enfield (N.H. : Town),,,Eng,"[Enfield, N.H. : Abbott's Power Print]|~|University of New Hampshire. Library. Digital Collections.",enfield_0004+application-pdf+application.pdf|~|enfield_0004+image-low-jpg+image-low.jpg|~|enfield_0004+image-tb-jpg+image-tb.jpg
Active,enfield:0005,enfield,http://www.archive.org/details/annualreportofto1903enfi|~|annualreportofto1903enfi|~|enfield:0005,"Annual report of the Town of Enfield, New Hampshire, 1903",1903,Title varies|~|Imprint varies|~|Report year varies,"University of New Hampshire. Library. Digital Collections.|~|Scanned by Internet Archive, Open Content Alliance (2009)",,,Text,Enfield (N.H. : Town) -- Appropriations and expenditures -- Periodicals,Enfield (N.H. : Town),,,Eng,"[Enfield, N.H. : Abbott's Power Print]|~|University of New Hampshire. Library. Digital Collections.",enfield_0005+application-pdf+application.pdf|~|enfield_0005+image-low-jpg+image-low.jpg|~|enfield_0005+image-tb-jpg+image-tb.jpg
Active,enfield:0006,enfield,http://www.archive.org/details/annualreportofto1904enfi|~|annualreportofto1904enfi|~|enfield:0006,"Annual report of the Town of Enfield, New Hampshire, 1904",1904,Title varies|~|Imprint varies|~|Report year varies,"University of New Hampshire. Library. Digital Collections.|~|Scanned by Internet Archive, Open Content Alliance (2009)",,,Text,Enfield (N.H. : Town) -- Appropriations and expenditures -- Periodicals,Enfield (N.H. : Town),,,Eng,"[Enfield, N.H. : Abbott's Power Print]|~|University of New Hampshire. Library. Digital Collections.",enfield_0006+application-pdf+application.pdf|~|enfield_0006+image-low-jpg+image-low.jpg|~|enfield_0006+image-tb-jpg+image-tb.jpg
Active,enfield:0007,enfield,http://www.archive.org/details/annualreportofto1905enfi|~|annualreportofto1905enfi|~|enfield:0007,"Annual report of the Town of Enfield, New Hampshire, 1905",1905,Title varies|~|Imprint varies|~|Report year varies,"University of New Hampshire. Library. Digital Collections.|~|Scanned by Internet Archive, Open Content Alliance (2009)",,,Text,Enfield (N.H. : Town) -- Appropriations and expenditures -- Periodicals,Enfield (N.H. : Town),,,Eng,"[Enfield, N.H. : Abbott's Power Print]|~|University of New Hampshire. Library. Digital Collections.",enfield_0007+application-pdf+application.pdf|~|enfield_0007+image-low-jpg+image-low.jpg|~|enfield_0007+image-tb-jpg+image-tb.jpg
Active,enfield:0008,enfield,http://www.archive.org/details/annualreportofto1906enfi|~|annualreportofto1906enfi|~|enfield:0008,"Annual report of the Town of Enfield, New Hampshire, 1906",1906,Title varies|~|Imprint varies|~|Report year varies,"University of New Hampshire. Library. Digital Collections.|~|Scanned by Internet Archive, Open Content Alliance (2009)",,,Text,Enfield (N.H. : Town) -- Appropriations and expenditures -- Periodicals,Enfield (N.H. : Town),,,Eng,"[Enfield, N.H. : Abbott's Power Print]|~|University of New Hampshire. Library. Digital Collections.",enfield_0008+application-pdf+application.pdf|~|enfield_0008+image-low-jpg+image-low.jpg|~|enfield_0008+image-tb-jpg+image-tb.jpg
Active,enfield:0009,enfield,http://www.archive.org/details/annualreportofto1912enfi|~|annualreportofto1912enfi|~|enfield:0009,"Annual report of the Town of Enfield, New Hampshire, 1912",1912,Title varies|~|Imprint varies|~|Report year varies,"University of New Hampshire. Library. Digital Collections.|~|Scanned by Internet Archive, Open Content Alliance (2009)",,,Text,Enfield (N.H. : Town) -- Appropriations and expenditures -- Periodicals,Enfield (N.H. : Town),,,Eng,"[Enfield, N.H. : Abbott's Power Print]|~|University of New Hampshire. Library. Digital Collections.",enfield_0009+application-pdf+application.pdf|~|enfield_0009+image-low-jpg+image-low.jpg|~|enfield_0009+image-tb-jpg+image-tb.jpg
Active,enfield:0010,enfield,http://www.archive.org/details/annualreportofto1914enfi|~|annualreportofto1914enfi|~|enfield:0010,"Annual report of the Town of Enfield, New Hampshire, 1914",1914,Title varies|~|Imprint varies|~|Report year varies,"University of New Hampshire. Library. Digital Collections.|~|Scanned by Internet Archive, Open Content Alliance (2009)",,,Text,Enfield (N.H. : Town) -- Appropriations and expenditures -- Periodicals,Enfield (N.H. : Town),,,Eng,"[Enfield, N.H. : Abbott's Power Print]|~|University of New Hampshire. Library. Digital Collections.",enfield_0010+application-pdf+application.pdf|~|enfield_0010+image-low-jpg+image-low.jpg|~|enfield_0010+image-tb-jpg+image-tb.jpg
Active,enfield:0011,enfield,http://www.archive.org/details/annualreportofto1915enfi|~|annualreportofto1915enfi|~|enfield:0011,"Annual report of the Town of Enfield, New Hampshire, 1915",1915,Title varies|~|Imprint varies|~|Report year varies,"University of New Hampshire. Library. Digital Collections.|~|Scanned by Internet Archive, Open Content Alliance (2009)",,,Text,Enfield (N.H. : Town) -- Appropriations and expenditures -- Periodicals,Enfield (N.H. : Town),,,Eng,"[Enfield, N.H. : Abbott's Power Print]|~|University of New Hampshire. Library. Digital Collections.",enfield_0011+application-pdf+application.pdf|~|enfield_0011+image-low-jpg+image-low.jpg|~|enfield_0011+image-tb-jpg+image-tb.jpg
Active,enfield:0012,enfield,http://www.archive.org/details/annualreportofto1917enfi|~|annualreportofto1917enfi|~|enfield:0012,"Annual report of the Town of Enfield, New Hampshire, 1917",1917,Title varies|~|Imprint varies|~|Report year varies,"University of New Hampshire. Library. Digital Collections.|~|Scanned by Internet Archive, Open Content Alliance (2009)",,,Text,Enfield (N.H. : Town) -- Appropriations and expenditures -- Periodicals,Enfield (N.H. : Town),,,Eng,"[Enfield, N.H. : Abbott's Power Print]|~|University of New Hampshire. Library. Digital Collections.",enfield_0012+application-pdf+application.pdf|~|enfield_0012+image-low-jpg+image-low.jpg|~|enfield_0012+image-tb-jpg+image-tb.jpg
Active,enfield:0013,enfield,http://www.archive.org/details/annualreportofto1921enfi|~|annualreportofto1921enfi|~|enfield:0013,"Annual report of the Town of Enfield, New Hampshire, 1921",1921,Title varies|~|Imprint varies|~|Report year varies,"University of New Hampshire. Library. Digital Collections.|~|Scanned by Internet Archive, Open Content Alliance (2009)",,,Text,Enfield (N.H. : Town) -- Appropriations and expenditures -- Periodicals,Enfield (N.H. : Town),,,Eng,"[Enfield, N.H. : Abbott's Power Print]|~|University of New Hampshire. Library. Digital Collections.",enfield_0013+application-pdf+application.pdf|~|enfield_0013+image-low-jpg+image-low.jpg|~|enfield_0013+image-tb-jpg+image-tb.jpg
Active,enfield:0014,enfield,http://www.archive.org/details/annualreportofto1922enfi|~|annualreportofto1922enfi|~|enfield:0014,"Annual report of the Town of Enfield, New Hampshire, 1922",1922,Title varies|~|Imprint varies|~|Report year varies,"University of New Hampshire. Library. Digital Collections.|~|Scanned by Internet Archive, Open Content Alliance (2009)",,,Text,Enfield (N.H. : Town) -- Appropriations and expenditures -- Periodicals,Enfield (N.H. : Town),,,Eng,"[Enfield, N.H. : Abbott's Power Print]|~|University of New Hampshire. Library. Digital Collections.",enfield_0014+application-pdf+application.pdf|~|enfield_0014+image-low-jpg+image-low.jpg|~|enfield_0014+image-tb-jpg+image-tb.jpg
Active,enfield:0015,enfield,http://www.archive.org/details/annualreportofto1923enfi|~|annualreportofto1923enfi|~|enfield:0015,"Annual report of the Town of Enfield, New Hampshire, 1923",1923,Title varies|~|Imprint varies|~|Report year varies,"University of New Hampshire. Library. Digital Collections.|~|Scanned by Internet Archive, Open Content Alliance (2009)",,,Text,Enfield (N.H. : Town) -- Appropriations and expenditures -- Periodicals,Enfield (N.H. : Town),,,Eng,"[Enfield, N.H. : Abbott's Power Print]|~|University of New Hampshire. Library. Digital Collections.",enfield_0015+application-pdf+application.pdf|~|enfield_0015+image-low-jpg+image-low.jpg|~|enfield_0015+image-tb-jpg+image-tb.jpg
Active,enfield:0016,enfield,http://www.archive.org/details/annualreportofto1924enfi|~|annualreportofto1924enfi|~|enfield:0016,"Annual report of the Town of Enfield, New Hampshire, 1924",1924,Title varies|~|Imprint varies|~|Report year varies,"University of New Hampshire. Library. Digital Collections.|~|Scanned by Internet Archive, Open Content Alliance (2009)",,,Text,Enfield (N.H. : Town) -- Appropriations and expenditures -- Periodicals,Enfield (N.H. : Town),,,Eng,"[Enfield, N.H. : Abbott's Power Print]|~|University of New Hampshire. Library. Digital Collections.",enfield_0016+application-pdf+application.pdf|~|enfield_0016+image-low-jpg+image-low.jpg|~|enfield_0016+image-tb-jpg+image-tb.jpg
Active,enfield:0017,enfield,http://www.archive.org/details/annualreportofto1925enfi|~|annualreportofto1925enfi|~|enfield:0017,"Annual report of the Town of Enfield, New Hampshire, 1925",1925,Title varies|~|Imprint varies|~|Report year varies,"University of New Hampshire. Library. Digital Collections.|~|Scanned by Internet Archive, Open Content Alliance (2009)",,,Text,Enfield (N.H. : Town) -- Appropriations and expenditures -- Periodicals,Enfield (N.H. : Town),,,Eng,"[Enfield, N.H. : Abbott's Power Print]|~|University of New Hampshire. Library. Digital Collections.",enfield_0017+application-pdf+application.pdf|~|enfield_0017+image-low-jpg+image-low.jpg|~|enfield_0017+image-tb-jpg+image-tb.jpg
Active,enfield:0018,enfield,http://www.archive.org/details/annualreportofto1926enfi|~|annualreportofto1926enfi|~|enfield:0018,"Annual report of the Town of Enfield, New Hampshire, 1926",1926,Title varies|~|Imprint varies|~|Report year varies,"University of New Hampshire. Library. Digital Collections.|~|Scanned by Internet Archive, Open Content Alliance (2009)",,,Text,Enfield (N.H. : Town) -- Appropriations and expenditures -- Periodicals,Enfield (N.H. : Town),,,Eng,"[Enfield, N.H. : Abbott's Power Print]|~|University of New Hampshire. Library. Digital Collections.",enfield_0018+application-pdf+application.pdf|~|enfield_0018+image-low-jpg+image-low.jpg|~|enfield_0018+image-tb-jpg+image-tb.jpg
Active,enfield:0019,enfield,http://www.archive.org/details/annualreportofto1927enfi|~|annualreportofto1927enfi|~|enfield:0019,"Annual report of the Town of Enfield, New Hampshire, 1927",1927,Title varies|~|Imprint varies|~|Report year varies,"University of New Hampshire. Library. Digital Collections.|~|Scanned by Internet Archive, Open Content Alliance (2009)",,,Text,Enfield (N.H. : Town) -- Appropriations and expenditures -- Periodicals,Enfield (N.H. : Town),,,Eng,"[Enfield, N.H. : Abbott's Power Print]|~|University of New Hampshire. Library. Digital Collections.",enfield_0019+application-pdf+application.pdf|~|enfield_0019+image-low-jpg+image-low.jpg|~|enfield_0019+image-tb-jpg+image-tb.jpg
Active,enfield:0020,enfield,http://www.archive.org/details/annualreportofto1929enfi|~|annualreportofto1929enfi|~|enfield:0020,"Annual report of the Town of Enfield, New Hampshire, 1929",1929,Title varies|~|Imprint varies|~|Report year varies,"University of New Hampshire. Library. Digital Collections.|~|Scanned by Internet Archive, Open Content Alliance (2009)",,,Text,Enfield (N.H. : Town) -- Appropriations and expenditures -- Periodicals,Enfield (N.H. : Town),,,Eng,"[Enfield, N.H. : Abbott's Power Print]|~|University of New Hampshire. Library. Digital Collections.",enfield_0020+application-pdf+application.pdf|~|enfield_0020+image-low-jpg+image-low.jpg|~|enfield_0020+image-tb-jpg+image-tb.jpg
Active,enfield:0021,enfield,http://www.archive.org/details/annualreportofto1930enfi|~|annualreportofto1930enfi|~|enfield:0021,"Annual report of the Town of Enfield, New Hampshire, 1930",1930,Title varies|~|Imprint varies|~|Report year varies,"University of New Hampshire. Library. Digital Collections.|~|Scanned by Internet Archive, Open Content Alliance (2009)",,,Text,Enfield (N.H. : Town) -- Appropriations and expenditures -- Periodicals,Enfield (N.H. : Town),,,Eng,"[Enfield, N.H. : Abbott's Power Print]|~|University of New Hampshire. Library. Digital Collections.",enfield_0021+application-pdf+application.pdf|~|enfield_0021+image-low-jpg+image-low.jpg|~|enfield_0021+image-tb-jpg+image-tb.jpg
Active,enfield:0022,enfield,http://www.archive.org/details/annualreportofto1932enfi|~|annualreportofto1932enfi|~|enfield:0022,"Annual report of the Town of Enfield, New Hampshire, 1932",1932,Title varies|~|Imprint varies|~|Report year varies,"University of New Hampshire. Library. Digital Collections.|~|Scanned by Internet Archive, Open Content Alliance (2009)",,,Text,Enfield (N.H. : Town) -- Appropriations and expenditures -- Periodicals,Enfield (N.H. : Town),,,Eng,"[Enfield, N.H. : Abbott's Power Print]|~|University of New Hampshire. Library. Digital Collections.",enfield_0022+application-pdf+application.pdf|~|enfield_0022+image-low-jpg+image-low.jpg|~|enfield_0022+image-tb-jpg+image-tb.jpg
Active,enfield:0023,enfield,http://www.archive.org/details/annualreportofto1933enfi|~|annualreportofto1933enfi|~|enfield:0023,"Annual report of the Town of Enfield, New Hampshire, 1933",1933,Title varies|~|Imprint varies|~|Report year varies,"University of New Hampshire. Library. Digital Collections.|~|Scanned by Internet Archive, Open Content Alliance (2009)",,,Text,Enfield (N.H. : Town) -- Appropriations and expenditures -- Periodicals,Enfield (N.H. : Town),,,Eng,"[Enfield, N.H. : Abbott's Power Print]|~|University of New Hampshire. Library. Digital Collections.",enfield_0023+application-pdf+application.pdf|~|enfield_0023+image-low-jpg+image-low.jpg|~|enfield_0023+image-tb-jpg+image-tb.jpg
Active,enfield:0024,enfield,http://www.archive.org/details/annualreportofto1934enfi|~|annualreportofto1934enfi|~|enfield:0024,"Annual report of the Town of Enfield, New Hampshire, 1934",1934,Title varies|~|Imprint varies|~|Report year varies,"University of New Hampshire. Library. Digital Collections.|~|Scanned by Internet Archive, Open Content Alliance (2009)",,,Text,Enfield (N.H. : Town) -- Appropriations and expenditures -- Periodicals,Enfield (N.H. : Town),,,Eng,"[Enfield, N.H. : Abbott's Power Print]|~|University of New Hampshire. Library. Digital Collections.",enfield_0024+application-pdf+application.pdf|~|enfield_0024+image-low-jpg+image-low.jpg|~|enfield_0024+image-tb-jpg+image-tb.jpg
Active,enfield:0025,enfield,http://www.archive.org/details/annualreportofto1935enfi|~|annualreportofto1935enfi|~|enfield:0025,"Annual report of the Town of Enfield, New Hampshire, 1935",1935,Title varies|~|Imprint varies|~|Report year varies,"University of New Hampshire. Library. Digital Collections.|~|Scanned by Internet Archive, Open Content Alliance (2009)",,,Text,Enfield (N.H. : Town) -- Appropriations and expenditures -- Periodicals,Enfield (N.H. : Town),,,Eng,"[Enfield, N.H. : Abbott's Power Print]|~|University of New Hampshire. Library. Digital Collections.",enfield_0025+application-pdf+application.pdf|~|enfield_0025+image-low-jpg+image-low.jpg|~|enfield_0025+image-tb-jpg+image-tb.jpg
Active,enfield:0026,enfield,http://www.archive.org/details/annualreportofto1936enfi|~|annualreportofto1936enfi|~|enfield:0026,"Annual report of the Town of Enfield, New Hampshire, 1936",1936,Title varies|~|Imprint varies|~|Report year varies,"University of New Hampshire. Library. Digital Collections.|~|Scanned by Internet Archive, Open Content Alliance (2009)",,,Text,Enfield (N.H. : Town) -- Appropriations and expenditures -- Periodicals,Enfield (N.H. : Town),,,Eng,"[Enfield, N.H. : Abbott's Power Print]|~|University of New Hampshire. Library. Digital Collections.",enfield_0026+application-pdf+application.pdf|~|enfield_0026+image-low-jpg+image-low.jpg|~|enfield_0026+image-tb-jpg+image-tb.jpg
Active,enfield:0027,enfield,http://www.archive.org/details/annualreportofto1937enfi|~|annualreportofto1937enfi|~|enfield:0027,"Annual report of the Town of Enfield, New Hampshire, 1937",1937,Title varies|~|Imprint varies|~|Report year varies,"University of New Hampshire. Library. Digital Collections.|~|Scanned by Internet Archive, Open Content Alliance (2009)",,,Text,Enfield (N.H. : Town) -- Appropriations and expenditures -- Periodicals,Enfield (N.H. : Town),,,Eng,"[Enfield, N.H. : Abbott's Power Print]|~|University of New Hampshire. Library. Digital Collections.",enfield_0027+application-pdf+application.pdf|~|enfield_0027+image-low-jpg+image-low.jpg|~|enfield_0027+image-tb-jpg+image-tb.jpg
Active,enfield:0028,enfield,http://www.archive.org/details/annualreportofto1938enfi|~|annualreportofto1938enfi|~|enfield:0028,"Annual report of the Town of Enfield, New Hampshire, 1938",1938,Title varies|~|Imprint varies|~|Report year varies,"University of New Hampshire. Library. Digital Collections.|~|Scanned by Internet Archive, Open Content Alliance (2009)",,,Text,Enfield (N.H. : Town) -- Appropriations and expenditures -- Periodicals,Enfield (N.H. : Town),,,Eng,"[Enfield, N.H. : Abbott's Power Print]|~|University of New Hampshire. Library. Digital Collections.",enfield_0028+application-pdf+application.pdf|~|enfield_0028+image-low-jpg+image-low.jpg|~|enfield_0028+image-tb-jpg+image-tb.jpg
Active,enfield:0029,enfield,http://www.archive.org/details/annualreportofto1939enfi|~|annualreportofto1939enfi|~|enfield:0029,"Annual report of the Town of Enfield, New Hampshire, 1939",1939,Title varies|~|Imprint varies|~|Report year varies,"University of New Hampshire. Library. Digital Collections.|~|Scanned by Internet Archive, Open Content Alliance (2009)",,,Text,Enfield (N.H. : Town) -- Appropriations and expenditures -- Periodicals,Enfield (N.H. : Town),,,Eng,"[Enfield, N.H. : Abbott's Power Print]|~|University of New Hampshire. Library. Digital Collections.",enfield_0029+application-pdf+application.pdf|~|enfield_0029+image-low-jpg+image-low.jpg|~|enfield_0029+image-tb-jpg+image-tb.jpg
Active,enfield:0030,enfield,http://www.archive.org/details/annualreportofto1940enfi|~|annualreportofto1940enfi|~|enfield:0030,"Annual report of the Town of Enfield, New Hampshire, 1940",1940,Title varies|~|Imprint varies|~|Report year varies,"University of New Hampshire. Library. Digital Collections.|~|Scanned by Internet Archive, Open Content Alliance (2009)",,,Text,Enfield (N.H. : Town) -- Appropriations and expenditures -- Periodicals,Enfield (N.H. : Town),,,Eng,"[Enfield, N.H. : Abbott's Power Print]|~|University of New Hampshire. Library. Digital Collections.",enfield_0030+application-pdf+application.pdf|~|enfield_0030+image-low-jpg+image-low.jpg|~|enfield_0030+image-tb-jpg+image-tb.jpg
Active,enfield:0031,enfield,http://www.archive.org/details/annualreportofto1941enfi|~|annualreportofto1941enfi|~|enfield:0031,"Annual report of the Town of Enfield, New Hampshire, 1941",1941,Title varies|~|Imprint varies|~|Report year varies,"University of New Hampshire. Library. Digital Collections.|~|Scanned by Internet Archive, Open Content Alliance (2009)",,,Text,Enfield (N.H. : Town) -- Appropriations and expenditures -- Periodicals,Enfield (N.H. : Town),,,Eng,"[Enfield, N.H. : Abbott's Power Print]|~|University of New Hampshire. Library. Digital Collections.",enfield_0031+application-pdf+application.pdf|~|enfield_0031+image-low-jpg+image-low.jpg|~|enfield_0031+image-tb-jpg+image-tb.jpg
Active,enfield:0032,enfield,http://www.archive.org/details/annualreportofto1942enfi|~|annualreportofto1942enfi|~|enfield:0032,"Annual report of the Town of Enfield, New Hampshire, 1942",1942,Title varies|~|Imprint varies|~|Report year varies,"University of New Hampshire. Library. Digital Collections.|~|Scanned by Internet Archive, Open Content Alliance (2009)",,,Text,Enfield (N.H. : Town) -- Appropriations and expenditures -- Periodicals,Enfield (N.H. : Town),,,Eng,"[Enfield, N.H. : Abbott's Power Print]|~|University of New Hampshire. Library. Digital Collections.",enfield_0032+application-pdf+application.pdf|~|enfield_0032+image-low-jpg+image-low.jpg|~|enfield_0032+image-tb-jpg+image-tb.jpg
Active,enfield:0033,enfield,http://www.archive.org/details/annualreportofto1943enfi|~|annualreportofto1943enfi|~|enfield:0033,"Annual report of the Town of Enfield, New Hampshire, 1943",1943,Title varies|~|Imprint varies|~|Report year varies,"University of New Hampshire. Library. Digital Collections.|~|Scanned by Internet Archive, Open Content Alliance (2009)",,,Text,Enfield (N.H. : Town) -- Appropriations and expenditures -- Periodicals,Enfield (N.H. : Town),,,Eng,"[Enfield, N.H. : Abbott's Power Print]|~|University of New Hampshire. Library. Digital Collections.",enfield_0033+application-pdf+application.pdf|~|enfield_0033+image-low-jpg+image-low.jpg|~|enfield_0033+image-tb-jpg+image-tb.jpg
Active,enfield:0034,enfield,http://www.archive.org/details/annualreportofto1944enfi|~|annualreportofto1944enfi|~|enfield:0034,"Annual report of the Town of Enfield, New Hampshire, 1944",1944,Title varies|~|Imprint varies|~|Report year varies,"University of New Hampshire. Library. Digital Collections.|~|Scanned by Internet Archive, Open Content Alliance (2009)",,,Text,Enfield (N.H. : Town) -- Appropriations and expenditures -- Periodicals,Enfield (N.H. : Town),,,Eng,"[Enfield, N.H. : Abbott's Power Print]|~|University of New Hampshire. Library. Digital Collections.",enfield_0034+application-pdf+application.pdf|~|enfield_0034+image-low-jpg+image-low.jpg|~|enfield_0034+image-tb-jpg+image-tb.jpg
Active,enfield:0035,enfield,http://www.archive.org/details/annualreportofto4445enfi|~|annualreportofto4445enfi|~|enfield:0035,"Annual report of the Town of Enfield, New Hampshire, 1944",1945,Title varies|~|Imprint varies|~|Report year varies,"University of New Hampshire. Library. Digital Collections.|~|Scanned by Internet Archive, Open Content Alliance (2009)",,,Text,Enfield (N.H. : Town) -- Appropriations and expenditures -- Periodicals,Enfield (N.H. : Town),,,Eng,"[Enfield, N.H. : Abbott's Power Print]|~|University of New Hampshire. Library. Digital Collections.",enfield_0035+application-pdf+application.pdf|~|enfield_0035+image-low-jpg+image-low.jpg|~|enfield_0035+image-tb-jpg+image-tb.jpg
Active,enfield:0036,enfield,http://www.archive.org/details/annualreportofto1945enfi|~|annualreportofto1945enfi|~|enfield:0036,"Annual report of the Town of Enfield, New Hampshire, 1945",1946,Title varies|~|Imprint varies|~|Report year varies,"University of New Hampshire. Library. Digital Collections.|~|Scanned by Internet Archive, Open Content Alliance (2009)",,,Text,Enfield (N.H. : Town) -- Appropriations and expenditures -- Periodicals,Enfield (N.H. : Town),,,Eng,"[Enfield, N.H. : Abbott's Power Print]|~|University of New Hampshire. Library. Digital Collections.",enfield_0036+application-pdf+application.pdf|~|enfield_0036+image-low-jpg+image-low.jpg|~|enfield_0036+image-tb-jpg+image-tb.jpg
Active,enfield:0037,enfield,http://www.archive.org/details/annualreportofto1946enfi|~|annualreportofto1946enfi|~|enfield:0037,"Annual report of the Town of Enfield, New Hampshire, 1946",1947,Title varies|~|Imprint varies|~|Report year varies,"University of New Hampshire. Library. Digital Collections.|~|Scanned by Internet Archive, Open Content Alliance (2009)",,,Text,Enfield (N.H. : Town) -- Appropriations and expenditures -- Periodicals,Enfield (N.H. : Town),,,Eng,"[Enfield, N.H. : Abbott's Power Print]|~|University of New Hampshire. Library. Digital Collections.",enfield_0037+application-pdf+application.pdf|~|enfield_0037+image-low-jpg+image-low.jpg|~|enfield_0037+image-tb-jpg+image-tb.jpg
Active,enfield:0038,enfield,http://www.archive.org/details/annualreportofto1947enfi|~|annualreportofto1947enfi|~|enfield:0038,"Annual report of the Town of Enfield, New Hampshire, 1947",1948,Title varies|~|Imprint varies|~|Report year varies,"University of New Hampshire. Library. Digital Collections.|~|Scanned by Internet Archive, Open Content Alliance (2009)",,,Text,Enfield (N.H. : Town) -- Appropriations and expenditures -- Periodicals,Enfield (N.H. : Town),,,Eng,"[Enfield, N.H. : Abbott's Power Print]|~|University of New Hampshire. Library. Digital Collections.",enfield_0038+application-pdf+application.pdf|~|enfield_0038+image-low-jpg+image-low.jpg|~|enfield_0038+image-tb-jpg+image-tb.jpg
Active,enfield:0039,enfield,http://www.archive.org/details/annualreportofto1948enfi|~|annualreportofto1948enfi|~|enfield:0039,"Annual report of the Town of Enfield, New Hampshire, 1948",1949,Title varies|~|Imprint varies|~|Report year varies,"University of New Hampshire. Library. Digital Collections.|~|Scanned by Internet Archive, Open Content Alliance (2009)",,,Text,Enfield (N.H. : Town) -- Appropriations and expenditures -- Periodicals,Enfield (N.H. : Town),,,Eng,"[Enfield, N.H. : Abbott's Power Print]|~|University of New Hampshire. Library. Digital Collections.",enfield_0039+application-pdf+application.pdf|~|enfield_0039+image-low-jpg+image-low.jpg|~|enfield_0039+image-tb-jpg+image-tb.jpg
Active,enfield:0040,enfield,http://www.archive.org/details/annualreportofto1949enfi|~|annualreportofto1949enfi|~|enfield:0040,"Annual report of the Town of Enfield, New Hampshire, 1949",1950,Title varies|~|Imprint varies|~|Report year varies,"University of New Hampshire. Library. Digital Collections.|~|Scanned by Internet Archive, Open Content Alliance (2009)",,,Text,Enfield (N.H. : Town) -- Appropriations and expenditures -- Periodicals,Enfield (N.H. : Town),,,Eng,"[Enfield, N.H. : Abbott's Power Print]|~|University of New Hampshire. Library. Digital Collections.",enfield_0040+application-pdf+application.pdf|~|enfield_0040+image-low-jpg+image-low.jpg|~|enfield_0040+image-tb-jpg+image-tb.jpg
Active,enfield:0041,enfield,http://www.archive.org/details/annualreportofto1950enfi|~|annualreportofto1950enfi|~|enfield:0041,"Annual report of the Town of Enfield, New Hampshire, 1950",1951,Title varies|~|Imprint varies|~|Report year varies,"University of New Hampshire. Library. Digital Collections.|~|Scanned by Internet Archive, Open Content Alliance (2009)",,,Text,Enfield (N.H. : Town) -- Appropriations and expenditures -- Periodicals,Enfield (N.H. : Town),,,Eng,"[Enfield, N.H. : Abbott's Power Print]|~|University of New Hampshire. Library. Digital Collections.",enfield_0041+application-pdf+application.pdf|~|enfield_0041+image-low-jpg+image-low.jpg|~|enfield_0041+image-tb-jpg+image-tb.jpg
Active,enfield:0042,enfield,http://www.archive.org/details/annualreportofto1951enfi|~|annualreportofto1951enfi|~|enfield:0042,"Annual report of the Town of Enfield, New Hampshire, 1951",1952,Title varies|~|Imprint varies|~|Report year varies,"University of New Hampshire. Library. Digital Collections.|~|Scanned by Internet Archive, Open Content Alliance (2009)",,,Text,Enfield (N.H. : Town) -- Appropriations and expenditures -- Periodicals,Enfield (N.H. : Town),,,Eng,"[Enfield, N.H. : Abbott's Power Print]|~|University of New Hampshire. Library. Digital Collections.",enfield_0042+application-pdf+application.pdf|~|enfield_0042+image-low-jpg+image-low.jpg|~|enfield_0042+image-tb-jpg+image-tb.jpg
Active,enfield:0043,enfield,http://www.archive.org/details/annualreportofto1952enfi|~|annualreportofto1952enfi|~|enfield:0043,"Annual report of the Town of Enfield, New Hampshire, 1952",1953,Title varies|~|Imprint varies|~|Report year varies,"University of New Hampshire. Library. Digital Collections.|~|Scanned by Internet Archive, Open Content Alliance (2009)",,,Text,Enfield (N.H. : Town) -- Appropriations and expenditures -- Periodicals,Enfield (N.H. : Town),,,Eng,"[Enfield, N.H. : Abbott's Power Print]|~|University of New Hampshire. Library. Digital Collections.",enfield_0043+application-pdf+application.pdf|~|enfield_0043+image-low-jpg+image-low.jpg|~|enfield_0043+image-tb-jpg+image-tb.jpg
Active,enfield:0044,enfield,http://www.archive.org/details/annualreportofto1953enfi|~|annualreportofto1953enfi|~|enfield:0044,"Annual report of the Town of Enfield, New Hampshire, 1953",1954,Title varies|~|Imprint varies|~|Report year varies,"University of New Hampshire. Library. Digital Collections.|~|Scanned by Internet Archive, Open Content Alliance (2009)",,,Text,Enfield (N.H. : Town) -- Appropriations and expenditures -- Periodicals,Enfield (N.H. : Town),,,Eng,"[Enfield, N.H. : Abbott's Power Print]|~|University of New Hampshire. Library. Digital Collections.",enfield_0044+application-pdf+application.pdf|~|enfield_0044+image-low-jpg+image-low.jpg|~|enfield_0044+image-tb-jpg+image-tb.jpg
Active,enfield:0045,enfield,http://www.archive.org/details/annualreportofto1954enfi|~|annualreportofto1954enfi|~|enfield:0045,"Annual report of the Town of Enfield, New Hampshire, 1954",1955,Title varies|~|Imprint varies|~|Report year varies,"University of New Hampshire. Library. Digital Collections.|~|Scanned by Internet Archive, Open Content Alliance (2009)",,,Text,Enfield (N.H. : Town) -- Appropriations and expenditures -- Periodicals,Enfield (N.H. : Town),,,Eng,"[Enfield, N.H. : Abbott's Power Print]|~|University of New Hampshire. Library. Digital Collections.",enfield_0045+application-pdf+application.pdf|~|enfield_0045+image-low-jpg+image-low.jpg|~|enfield_0045+image-tb-jpg+image-tb.jpg
Active,enfield:0046,enfield,http://www.archive.org/details/annualreportofto1955enfi|~|annualreportofto1955enfi|~|enfield:0046,"Annual report of the Town of Enfield, New Hampshire, 1955",1956,Title varies|~|Imprint varies|~|Report year varies,"University of New Hampshire. Library. Digital Collections.|~|Scanned by Internet Archive, Open Content Alliance (2009)",,,Text,Enfield (N.H. : Town) -- Appropriations and expenditures -- Periodicals,Enfield (N.H. : Town),,,Eng,"[Enfield, N.H. : Abbott's Power Print]|~|University of New Hampshire. Library. Digital Collections.",enfield_0046+application-pdf+application.pdf|~|enfield_0046+image-low-jpg+image-low.jpg|~|enfield_0046+image-tb-jpg+image-tb.jpg
Active,enfield:0047,enfield,http://www.archive.org/details/annualreportofto1956enfi|~|annualreportofto1956enfi|~|enfield:0047,"Annual report of the Town of Enfield, New Hampshire, 1956",1957,Title varies|~|Imprint varies|~|Report year varies,"University of New Hampshire. Library. Digital Collections.|~|Scanned by Internet Archive, Open Content Alliance (2009)",,,Text,Enfield (N.H. : Town) -- Appropriations and expenditures -- Periodicals,Enfield (N.H. : Town),,,Eng,"[Enfield, N.H. : Abbott's Power Print]|~|University of New Hampshire. Library. Digital Collections.",enfield_0047+application-pdf+application.pdf|~|enfield_0047+image-low-jpg+image-low.jpg|~|enfield_0047+image-tb-jpg+image-tb.jpg
Active,enfield:0048,enfield,http://www.archive.org/details/annualreportofto1957enfi|~|annualreportofto1957enfi|~|enfield:0048,"Annual report of the Town of Enfield, New Hampshire, 1957",1958,Title varies|~|Imprint varies|~|Report year varies,"University of New Hampshire. Library. Digital Collections.|~|Scanned by Internet Archive, Open Content Alliance (2009)",,,Text,Enfield (N.H. : Town) -- Appropriations and expenditures -- Periodicals,Enfield (N.H. : Town),,,Eng,"[Enfield, N.H. : Abbott's Power Print]|~|University of New Hampshire. Library. Digital Collections.",enfield_0048+application-pdf+application.pdf|~|enfield_0048+image-low-jpg+image-low.jpg|~|enfield_0048+image-tb-jpg+image-tb.jpg
Active,enfield:0049,enfield,http://www.archive.org/details/annualreportofto1958enfi|~|annualreportofto1958enfi|~|enfield:0049,"Annual report of the Town of Enfield, New Hampshire, 1958",1959,Title varies|~|Imprint varies|~|Report year varies,"University of New Hampshire. Library. Digital Collections.|~|Scanned by Internet Archive, Open Content Alliance (2009)",,,Text,Enfield (N.H. : Town) -- Appropriations and expenditures -- Periodicals,Enfield (N.H. : Town),,,Eng,"[Enfield, N.H. : Abbott's Power Print]|~|University of New Hampshire. Library. Digital Collections.",enfield_0049+application-pdf+application.pdf|~|enfield_0049+image-low-jpg+image-low.jpg|~|enfield_0049+image-tb-jpg+image-tb.jpg
Active,enfield:0050,enfield,http://www.archive.org/details/annualreportofto1959enfi|~|annualreportofto1959enfi|~|enfield:0050,"Annual report of the Town of Enfield, New Hampshire, 1959",1960,Title varies|~|Imprint varies|~|Report year varies,"University of New Hampshire. Library. Digital Collections.|~|Scanned by Internet Archive, Open Content Alliance (2009)",,,Text,Enfield (N.H. : Town) -- Appropriations and expenditures -- Periodicals,Enfield (N.H. : Town),,,Eng,"[Enfield, N.H. : Abbott's Power Print]|~|University of New Hampshire. Library. Digital Collections.",enfield_0050+application-pdf+application.pdf|~|enfield_0050+image-low-jpg+image-low.jpg|~|enfield_0050+image-tb-jpg+image-tb.jpg
Active,enfield:0051,enfield,http://www.archive.org/details/annualreportofto1960enfi|~|annualreportofto1960enfi|~|enfield:0051,"Annual report of the Town of Enfield, New Hampshire, 1960",1961,Title varies|~|Imprint varies|~|Report year varies,"University of New Hampshire. Library. Digital Collections.|~|Scanned by Internet Archive, Open Content Alliance (2009)",,,Text,Enfield (N.H. : Town) -- Appropriations and expenditures -- Periodicals,Enfield (N.H. : Town),,,Eng,"[Enfield, N.H. : Abbott's Power Print]|~|University of New Hampshire. Library. Digital Collections.",enfield_0051+application-pdf+application.pdf|~|enfield_0051+image-low-jpg+image-low.jpg|~|enfield_0051+image-tb-jpg+image-tb.jpg
Active,enfield:0052,enfield,http://www.archive.org/details/annualreportofto1961enfi|~|annualreportofto1961enfi|~|enfield:0052,"Annual report of the Town of Enfield, New Hampshire, 1961",1962,Title varies|~|Imprint varies|~|Report year varies,"University of New Hampshire. Library. Digital Collections.|~|Scanned by Internet Archive, Open Content Alliance (2009)",,,Text,Enfield (N.H. : Town) -- Appropriations and expenditures -- Periodicals,Enfield (N.H. : Town),,,Eng,"[Enfield, N.H. : Abbott's Power Print]|~|University of New Hampshire. Library. Digital Collections.",enfield_0052+application-pdf+application.pdf|~|enfield_0052+image-low-jpg+image-low.jpg|~|enfield_0052+image-tb-jpg+image-tb.jpg
Active,enfield:0053,enfield,http://www.archive.org/details/annualreportofto1962enfi|~|annualreportofto1962enfi|~|enfield:0053,"Annual report of the Town of Enfield, New Hampshire, 1962",1963,Title varies|~|Imprint varies|~|Report year varies,"University of New Hampshire. Library. Digital Collections.|~|Scanned by Internet Archive, Open Content Alliance (2009)",,,Text,Enfield (N.H. : Town) -- Appropriations and expenditures -- Periodicals,Enfield (N.H. : Town),,,Eng,"[Enfield, N.H. : Abbott's Power Print]|~|University of New Hampshire. Library. Digital Collections.",enfield_0053+application-pdf+application.pdf|~|enfield_0053+image-low-jpg+image-low.jpg|~|enfield_0053+image-tb-jpg+image-tb.jpg
Active,enfield:0054,enfield,http://www.archive.org/details/annualreportofto1963enfi|~|annualreportofto1963enfi|~|enfield:0054,"Annual report of the Town of Enfield, New Hampshire, 1963",1964,Title varies|~|Imprint varies|~|Report year varies,"University of New Hampshire. Library. Digital Collections.|~|Scanned by Internet Archive, Open Content Alliance (2009)",,,Text,Enfield (N.H. : Town) -- Appropriations and expenditures -- Periodicals,Enfield (N.H. : Town),,,Eng,"[Enfield, N.H. : Abbott's Power Print]|~|University of New Hampshire. Library. Digital Collections.",enfield_0054+application-pdf+application.pdf|~|enfield_0054+image-low-jpg+image-low.jpg|~|enfield_0054+image-tb-jpg+image-tb.jpg
Active,enfield:0055,enfield,http://www.archive.org/details/annualreportofto1964enfi|~|annualreportofto1964enfi|~|enfield:0055,"Annual report of the Town of Enfield, New Hampshire, 1964",1965,Title varies|~|Imprint varies|~|Report year varies,"University of New Hampshire. Library. Digital Collections.|~|Scanned by Internet Archive, Open Content Alliance (2009)",,,Text,Enfield (N.H. : Town) -- Appropriations and expenditures -- Periodicals,Enfield (N.H. : Town),,,Eng,"[Enfield, N.H. : Abbott's Power Print]|~|University of New Hampshire. Library. Digital Collections.",enfield_0055+application-pdf+application.pdf|~|enfield_0055+image-low-jpg+image-low.jpg|~|enfield_0055+image-tb-jpg+image-tb.jpg
Active,enfield:0056,enfield,http://www.archive.org/details/annualreportofto1965enfi|~|annualreportofto1965enfi|~|enfield:0056,"Annual report of the Town of Enfield, New Hampshire, 1965",1966,Title varies|~|Imprint varies|~|Report year varies,"University of New Hampshire. Library. Digital Collections.|~|Scanned by Internet Archive, Open Content Alliance (2009)",,,Text,Enfield (N.H. : Town) -- Appropriations and expenditures -- Periodicals,Enfield (N.H. : Town),,,Eng,"[Enfield, N.H. : Abbott's Power Print]|~|University of New Hampshire. Library. Digital Collections.",enfield_0056+application-pdf+application.pdf|~|enfield_0056+image-low-jpg+image-low.jpg|~|enfield_0056+image-tb-jpg+image-tb.jpg
Active,enfield:0057,enfield,http://www.archive.org/details/annualreportofto1966enfi|~|annualreportofto1966enfi|~|enfield:0057,"Annual report of the Town of Enfield, New Hampshire, 1966",1967,Title varies|~|Imprint varies|~|Report year varies,"University of New Hampshire. Library. Digital Collections.|~|Scanned by Internet Archive, Open Content Alliance (2009)",,,Text,Enfield (N.H. : Town) -- Appropriations and expenditures -- Periodicals,Enfield (N.H. : Town),,,Eng,"[Enfield, N.H. : Abbott's Power Print]|~|University of New Hampshire. Library. Digital Collections.",enfield_0057+application-pdf+application.pdf|~|enfield_0057+image-low-jpg+image-low.jpg|~|enfield_0057+image-tb-jpg+image-tb.jpg
Active,enfield:0058,enfield,http://www.archive.org/details/annualreportofto1967enfi|~|annualreportofto1967enfi|~|enfield:0058,"Annual report of the Town of Enfield, New Hampshire, 1967",1968,Title varies|~|Imprint varies|~|Report year varies,"University of New Hampshire. Library. Digital Collections.|~|Scanned by Internet Archive, Open Content Alliance (2009)",,,Text,Enfield (N.H. : Town) -- Appropriations and expenditures -- Periodicals,Enfield (N.H. : Town),,,Eng,"[Enfield, N.H. : Abbott's Power Print]|~|University of New Hampshire. Library. Digital Collections.",enfield_0058+application-pdf+application.pdf|~|enfield_0058+image-low-jpg+image-low.jpg|~|enfield_0058+image-tb-jpg+image-tb.jpg
Active,enfield:0059,enfield,http://www.archive.org/details/annualreportofto1968enfi|~|annualreportofto1968enfi|~|enfield:0059,"Annual report of the Town of Enfield, New Hampshire, 1968",1969,Title varies|~|Imprint varies|~|Report year varies,"University of New Hampshire. Library. Digital Collections.|~|Scanned by Internet Archive, Open Content Alliance (2009)",,,Text,Enfield (N.H. : Town) -- Appropriations and expenditures -- Periodicals,Enfield (N.H. : Town),,,Eng,"[Enfield, N.H. : Abbott's Power Print]|~|University of New Hampshire. Library. Digital Collections.",enfield_0059+application-pdf+application.pdf|~|enfield_0059+image-low-jpg+image-low.jpg|~|enfield_0059+image-tb-jpg+image-tb.jpg
Active,enfield:0060,enfield,http://www.archive.org/details/annualreportofto1969enfi|~|annualreportofto1969enfi|~|enfield:0060,"Annual report of the Town of Enfield, New Hampshire, 1969",1970,Title varies|~|Imprint varies|~|Report year varies,"University of New Hampshire. Library. Digital Collections.|~|Scanned by Internet Archive, Open Content Alliance (2009)",,,Text,Enfield (N.H. : Town) -- Appropriations and expenditures -- Periodicals,Enfield (N.H. : Town),,,Eng,"[Enfield, N.H. : Abbott's Power Print]|~|University of New Hampshire. Library. Digital Collections.",enfield_0060+application-pdf+application.pdf|~|enfield_0060+image-low-jpg+image-low.jpg|~|enfield_0060+image-tb-jpg+image-tb.jpg
Active,enfield:0061,enfield,http://www.archive.org/details/annualreportofto1970enfi|~|annualreportofto1970enfi|~|enfield:0061,"Annual report of the Town of Enfield, New Hampshire, 1970",1971,Title varies|~|Imprint varies|~|Report year varies,"University of New Hampshire. Library. Digital Collections.|~|Scanned by Internet Archive, Open Content Alliance (2009)",,,Text,Enfield (N.H. : Town) -- Appropriations and expenditures -- Periodicals,Enfield (N.H. : Town),,,Eng,"[Enfield, N.H. : Abbott's Power Print]|~|University of New Hampshire. Library. Digital Collections.",enfield_0061+application-pdf+application.pdf|~|enfield_0061+image-low-jpg+image-low.jpg|~|enfield_0061+image-tb-jpg+image-tb.jpg
Active,enfield:0062,enfield,http://www.archive.org/details/annualreportofto1971enfi|~|annualreportofto1971enfi|~|enfield:0062,"Annual report of the Town of Enfield, New Hampshire, 1971",1972,Title varies|~|Imprint varies|~|Report year varies,"University of New Hampshire. Library. Digital Collections.|~|Scanned by Internet Archive, Open Content Alliance (2009)",,,Text,Enfield (N.H. : Town) -- Appropriations and expenditures -- Periodicals,Enfield (N.H. : Town),,,Eng,"[Enfield, N.H. : Abbott's Power Print]|~|University of New Hampshire. Library. Digital Collections.",enfield_0062+application-pdf+application.pdf|~|enfield_0062+image-low-jpg+image-low.jpg|~|enfield_0062+image-tb-jpg+image-tb.jpg
Active,enfield:0063,enfield,http://www.archive.org/details/annualreportofto1972enfi|~|annualreportofto1972enfi|~|enfield:0063,"Annual report of the Town of Enfield, New Hampshire, 1972",1973,Title varies|~|Imprint varies|~|Report year varies,"University of New Hampshire. Library. Digital Collections.|~|Scanned by Internet Archive, Open Content Alliance (2009)",,,Text,Enfield (N.H. : Town) -- Appropriations and expenditures -- Periodicals,Enfield (N.H. : Town),,,Eng,"[Enfield, N.H. : Abbott's Power Print]|~|University of New Hampshire. Library. Digital Collections.",enfield_0063+application-pdf+application.pdf|~|enfield_0063+image-low-jpg+image-low.jpg|~|enfield_0063+image-tb-jpg+image-tb.jpg
Active,enfield:0064,enfield,http://www.archive.org/details/annualreportofto1973enfi|~|annualreportofto1973enfi|~|enfield:0064,"Annual report of the Town of Enfield, New Hampshire, 1973",1974,Title varies|~|Imprint varies|~|Report year varies,"University of New Hampshire. Library. Digital Collections.|~|Scanned by Internet Archive, Open Content Alliance (2009)",,,Text,Enfield (N.H. : Town) -- Appropriations and expenditures -- Periodicals,Enfield (N.H. : Town),,,Eng,"[Enfield, N.H. : Abbott's Power Print]|~|University of New Hampshire. Library. Digital Collections.",enfield_0064+application-pdf+application.pdf|~|enfield_0064+image-low-jpg+image-low.jpg|~|enfield_0064+image-tb-jpg+image-tb.jpg
Active,enfield:0065,enfield,http://www.archive.org/details/annualreportofto1974enfi|~|annualreportofto1974enfi|~|enfield:0065,"Annual report of the Town of Enfield, New Hampshire, 1974",1975,Title varies|~|Imprint varies|~|Report year varies,"University of New Hampshire. Library. Digital Collections.|~|Scanned by Internet Archive, Open Content Alliance (2009)",,,Text,Enfield (N.H. : Town) -- Appropriations and expenditures -- Periodicals,Enfield (N.H. : Town),,,Eng,"[Enfield, N.H. : Abbott's Power Print]|~|University of New Hampshire. Library. Digital Collections.",enfield_0065+application-pdf+application.pdf|~|enfield_0065+image-low-jpg+image-low.jpg|~|enfield_0065+image-tb-jpg+image-tb.jpg
Active,enfield:0066,enfield,http://www.archive.org/details/annualreportofto1975enfi|~|annualreportofto1975enfi|~|enfield:0066,"Annual report of the Town of Enfield, New Hampshire, 1975",1976,Title varies|~|Imprint varies|~|Report year varies,"University of New Hampshire. Library. Digital Collections.|~|Scanned by Internet Archive, Open Content Alliance (2009)",,,Text,Enfield (N.H. : Town) -- Appropriations and expenditures -- Periodicals,Enfield (N.H. : Town),,,Eng,"[Enfield, N.H. : Abbott's Power Print]|~|University of New Hampshire. Library. Digital Collections.",enfield_0066+application-pdf+application.pdf|~|enfield_0066+image-low-jpg+image-low.jpg|~|enfield_0066+image-tb-jpg+image-tb.jpg
Active,enfield:0067,enfield,http://www.archive.org/details/annualreportofto1976enfi|~|annualreportofto1976enfi|~|enfield:0067,"Annual report of the Town of Enfield, New Hampshire, 1976",1977,Title varies|~|Imprint varies|~|Report year varies,"University of New Hampshire. Library. Digital Collections.|~|Scanned by Internet Archive, Open Content Alliance (2009)",,,Text,Enfield (N.H. : Town) -- Appropriations and expenditures -- Periodicals,Enfield (N.H. : Town),,,Eng,"[Enfield, N.H. : Abbott's Power Print]|~|University of New Hampshire. Library. Digital Collections.",enfield_0067+application-pdf+application.pdf|~|enfield_0067+image-low-jpg+image-low.jpg|~|enfield_0067+image-tb-jpg+image-tb.jpg
Active,enfield:0068,enfield,http://www.archive.org/details/annualreportofto1977enfi|~|annualreportofto1977enfi|~|enfield:0068,"Annual report of the Town of Enfield, New Hampshire, 1977",1978,Title varies|~|Imprint varies|~|Report year varies,"University of New Hampshire. Library. Digital Collections.|~|Scanned by Internet Archive, Open Content Alliance (2009)",,,Text,Enfield (N.H. : Town) -- Appropriations and expenditures -- Periodicals,Enfield (N.H. : Town),,,Eng,"[Enfield, N.H. : Abbott's Power Print]|~|University of New Hampshire. Library. Digital Collections.",enfield_0068+application-pdf+application.pdf|~|enfield_0068+image-low-jpg+image-low.jpg|~|enfield_0068+image-tb-jpg+image-tb.jpg
Active,enfield:0069,enfield,http://www.archive.org/details/annualreportofto1978enfi|~|annualreportofto1978enfi|~|enfield:0069,"Annual report of the Town of Enfield, New Hampshire, 1978",1979,Title varies|~|Imprint varies|~|Report year varies,"University of New Hampshire. Library. Digital Collections.|~|Scanned by Internet Archive, Open Content Alliance (2009)",,,Text,Enfield (N.H. : Town) -- Appropriations and expenditures -- Periodicals,Enfield (N.H. : Town),,,Eng,"[Enfield, N.H. : Abbott's Power Print]|~|University of New Hampshire. Library. Digital Collections.",enfield_0069+application-pdf+application.pdf|~|enfield_0069+image-low-jpg+image-low.jpg|~|enfield_0069+image-tb-jpg+image-tb.jpg
Active,enfield:0070,enfield,http://www.archive.org/details/annualreportofto1979enfi|~|annualreportofto1979enfi|~|enfield:0070,"Annual report of the Town of Enfield, New Hampshire, 1979",1980,Title varies|~|Imprint varies|~|Report year varies,"University of New Hampshire. Library. Digital Collections.|~|Scanned by Internet Archive, Open Content Alliance (2009)",,,Text,Enfield (N.H. : Town) -- Appropriations and expenditures -- Periodicals,Enfield (N.H. : Town),,,Eng,"[Enfield, N.H. : Abbott's Power Print]|~|University of New Hampshire. Library. Digital Collections.",enfield_0070+application-pdf+application.pdf|~|enfield_0070+image-low-jpg+image-low.jpg|~|enfield_0070+image-tb-jpg+image-tb.jpg
Active,enfield:0071,enfield,http://www.archive.org/details/annualreportofto1980enfi|~|annualreportofto1980enfi|~|enfield:0071,"Annual report of the Town of Enfield, New Hampshire, 1980",1981,Title varies|~|Imprint varies|~|Report year varies,"University of New Hampshire. Library. Digital Collections.|~|Scanned by Internet Archive, Open Content Alliance (2009)",,,Text,Enfield (N.H. : Town) -- Appropriations and expenditures -- Periodicals,Enfield (N.H. : Town),,,Eng,"[Enfield, N.H. : Abbott's Power Print]|~|University of New Hampshire. Library. Digital Collections.",enfield_0071+application-pdf+application.pdf|~|enfield_0071+image-low-jpg+image-low.jpg|~|enfield_0071+image-tb-jpg+image-tb.jpg
Active,enfield:0072,enfield,http://www.archive.org/details/annualreportofto1981enfi|~|annualreportofto1981enfi|~|enfield:0072,"Annual report of the Town of Enfield, New Hampshire, 1981",1982,Title varies|~|Imprint varies|~|Report year varies,"University of New Hampshire. Library. Digital Collections.|~|Scanned by Internet Archive, Open Content Alliance (2009)",,,Text,Enfield (N.H. : Town) -- Appropriations and expenditures -- Periodicals,Enfield (N.H. : Town),,,Eng,"[Enfield, N.H. : Abbott's Power Print]|~|University of New Hampshire. Library. Digital Collections.",enfield_0072+application-pdf+application.pdf|~|enfield_0072+image-low-jpg+image-low.jpg|~|enfield_0072+image-tb-jpg+image-tb.jpg
Active,enfield:0073,enfield,http://www.archive.org/details/annualreportofto1982enfi|~|annualreportofto1982enfi|~|enfield:0073,"Annual report of the Town of Enfield, New Hampshire, 1982",1983,Title varies|~|Imprint varies|~|Report year varies,"University of New Hampshire. Library. Digital Collections.|~|Scanned by Internet Archive, Open Content Alliance (2009)",,,Text,Enfield (N.H. : Town) -- Appropriations and expenditures -- Periodicals,Enfield (N.H. : Town),,,Eng,"[Enfield, N.H. : Abbott's Power Print]|~|University of New Hampshire. Library. Digital Collections.",enfield_0073+application-pdf+application.pdf|~|enfield_0073+image-low-jpg+image-low.jpg|~|enfield_0073+image-tb-jpg+image-tb.jpg
Active,enfield:0074,enfield,http://www.archive.org/details/annualreportofto1983enfi|~|annualreportofto1983enfi|~|enfield:0074,"Annual report of the Town of Enfield, New Hampshire, 1983",1984,Title varies|~|Imprint varies|~|Report year varies,"University of New Hampshire. Library. Digital Collections.|~|Scanned by Internet Archive, Open Content Alliance (2009)",,,Text,Enfield (N.H. : Town) -- Appropriations and expenditures -- Periodicals,Enfield (N.H. : Town),,,Eng,"[Enfield, N.H. : Abbott's Power Print]|~|University of New Hampshire. Library. Digital Collections.",enfield_0074+application-pdf+application.pdf|~|enfield_0074+image-low-jpg+image-low.jpg|~|enfield_0074+image-tb-jpg+image-tb.jpg
Active,enfield:0075,enfield,http://www.archive.org/details/annualreportofto1984enfi|~|annualreportofto1984enfi|~|enfield:0075,"Annual report of the Town of Enfield, New Hampshire, 1984",1985,Title varies|~|Imprint varies|~|Report year varies,"University of New Hampshire. Library. Digital Collections.|~|Scanned by Internet Archive, Open Content Alliance (2009)",,,Text,Enfield (N.H. : Town) -- Appropriations and expenditures -- Periodicals,Enfield (N.H. : Town),,,Eng,"[Enfield, N.H. : Abbott's Power Print]|~|University of New Hampshire. Library. Digital Collections.",enfield_0075+application-pdf+application.pdf|~|enfield_0075+image-low-jpg+image-low.jpg|~|enfield_0075+image-tb-jpg+image-tb.jpg
Active,enfield:0076,enfield,http://www.archive.org/details/annualreportofto1985enfi|~|annualreportofto1985enfi|~|enfield:0076,"Annual report of the Town of Enfield, New Hampshire, 1985",1986,Title varies|~|Imprint varies|~|Report year varies,"University of New Hampshire. Library. Digital Collections.|~|Scanned by Internet Archive, Open Content Alliance (2009)",,,Text,Enfield (N.H. : Town) -- Appropriations and expenditures -- Periodicals,Enfield (N.H. : Town),,,Eng,"[Enfield, N.H. : Abbott's Power Print]|~|University of New Hampshire. Library. Digital Collections.",enfield_0076+application-pdf+application.pdf|~|enfield_0076+image-low-jpg+image-low.jpg|~|enfield_0076+image-tb-jpg+image-tb.jpg
Active,enfield:0077,enfield,http://www.archive.org/details/annualreportofto1986enfi|~|annualreportofto1986enfi|~|enfield:0077,"Annual report of the Town of Enfield, New Hampshire, 1986",1987,Title varies|~|Imprint varies|~|Report year varies,"University of New Hampshire. Library. Digital Collections.|~|Scanned by Internet Archive, Open Content Alliance (2009)",,,Text,Enfield (N.H. : Town) -- Appropriations and expenditures -- Periodicals,Enfield (N.H. : Town),,,Eng,"[Enfield, N.H. : Abbott's Power Print]|~|University of New Hampshire. Library. Digital Collections.",enfield_0077+application-pdf+application.pdf|~|enfield_0077+image-low-jpg+image-low.jpg|~|enfield_0077+image-tb-jpg+image-tb.jpg
Active,enfield:0078,enfield,http://www.archive.org/details/annualreportofto1987enfi|~|annualreportofto1987enfi|~|enfield:0078,"Annual report of the Town of Enfield, New Hampshire, 1987",1988,Title varies|~|Imprint varies|~|Report year varies,"University of New Hampshire. Library. Digital Collections.|~|Scanned by Internet Archive, Open Content Alliance (2009)",,,Text,Enfield (N.H. : Town) -- Appropriations and expenditures -- Periodicals,Enfield (N.H. : Town),,,Eng,"[Enfield, N.H. : Abbott's Power Print]|~|University of New Hampshire. Library. Digital Collections.",enfield_0078+application-pdf+application.pdf|~|enfield_0078+image-low-jpg+image-low.jpg|~|enfield_0078+image-tb-jpg+image-tb.jpg
Active,enfield:0079,enfield,http://www.archive.org/details/annualreportofto1988enfi|~|annualreportofto1988enfi|~|enfield:0079,"Annual report of the Town of Enfield, New Hampshire, 1988",1989,Title varies|~|Imprint varies|~|Report year varies,"University of New Hampshire. Library. Digital Collections.|~|Scanned by Internet Archive, Open Content Alliance (2009)",,,Text,Enfield (N.H. : Town) -- Appropriations and expenditures -- Periodicals,Enfield (N.H. : Town),,,Eng,"[Enfield, N.H. : Abbott's Power Print]|~|University of New Hampshire. Library. Digital Collections.",enfield_0079+application-pdf+application.pdf|~|enfield_0079+image-low-jpg+image-low.jpg|~|enfield_0079+image-tb-jpg+image-tb.jpg
Active,enfield:0080,enfield,http://www.archive.org/details/annualreportofto1989enfi|~|annualreportofto1989enfi|~|enfield:0080,"Annual report of the Town of Enfield, New Hampshire, 1989",1990,Title varies|~|Imprint varies|~|Report year varies,"University of New Hampshire. Library. Digital Collections.|~|Scanned by Internet Archive, Open Content Alliance (2009)",,,Text,Enfield (N.H. : Town) -- Appropriations and expenditures -- Periodicals,Enfield (N.H. : Town),,,Eng,"[Enfield, N.H. : Abbott's Power Print]|~|University of New Hampshire. Library. Digital Collections.",enfield_0080+application-pdf+application.pdf|~|enfield_0080+image-low-jpg+image-low.jpg|~|enfield_0080+image-tb-jpg+image-tb.jpg
Active,enfield:0081,enfield,http://www.archive.org/details/annualreportofto1990enfi|~|annualreportofto1990enfi|~|enfield:0081,"Annual report of the Town of Enfield, New Hampshire, 1990",1991,Title varies|~|Imprint varies|~|Report year varies,"University of New Hampshire. Library. Digital Collections.|~|Scanned by Internet Archive, Open Content Alliance (2009)",,,Text,Enfield (N.H. : Town) -- Appropriations and expenditures -- Periodicals,Enfield (N.H. : Town),,,Eng,"[Enfield, N.H. : Abbott's Power Print]|~|University of New Hampshire. Library. Digital Collections.",enfield_0081+application-pdf+application.pdf|~|enfield_0081+image-low-jpg+image-low.jpg|~|enfield_0081+image-tb-jpg+image-tb.jpg
Active,enfield:0082,enfield,http://www.archive.org/details/annualreportofto1991enfi|~|annualreportofto1991enfi|~|enfield:0082,"Annual report of the Town of Enfield, New Hampshire, 1991",1992,Title varies|~|Imprint varies|~|Report year varies,"University of New Hampshire. Library. Digital Collections.|~|Scanned by Internet Archive, Open Content Alliance (2009)",,,Text,Enfield (N.H. : Town) -- Appropriations and expenditures -- Periodicals,Enfield (N.H. : Town),,,Eng,"[Enfield, N.H. : Abbott's Power Print]|~|University of New Hampshire. Library. Digital Collections.",enfield_0082+application-pdf+application.pdf|~|enfield_0082+image-low-jpg+image-low.jpg|~|enfield_0082+image-tb-jpg+image-tb.jpg
Active,enfield:0083,enfield,http://www.archive.org/details/annualreportofto1992enfi|~|annualreportofto1992enfi|~|enfield:0083,"Annual report of the Town of Enfield, New Hampshire, 1992",1993,Title varies|~|Imprint varies|~|Report year varies,"University of New Hampshire. Library. Digital Collections.|~|Scanned by Internet Archive, Open Content Alliance (2009)",,,Text,Enfield (N.H. : Town) -- Appropriations and expenditures -- Periodicals,Enfield (N.H. : Town),,,Eng,"[Enfield, N.H. : Abbott's Power Print]|~|University of New Hampshire. Library. Digital Collections.",enfield_0083+application-pdf+application.pdf|~|enfield_0083+image-low-jpg+image-low.jpg|~|enfield_0083+image-tb-jpg+image-tb.jpg
Active,enfield:0084,enfield,http://www.archive.org/details/annualreportofto1993enfi|~|annualreportofto1993enfi|~|enfield:0084,"Annual report of the Town of Enfield, New Hampshire, 1993",1994,Title varies|~|Imprint varies|~|Report year varies,"University of New Hampshire. Library. Digital Collections.|~|Scanned by Internet Archive, Open Content Alliance (2009)",,,Text,Enfield (N.H. : Town) -- Appropriations and expenditures -- Periodicals,Enfield (N.H. : Town),,,Eng,"[Enfield, N.H. : Abbott's Power Print]|~|University of New Hampshire. Library. Digital Collections.",enfield_0084+application-pdf+application.pdf|~|enfield_0084+image-low-jpg+image-low.jpg|~|enfield_0084+image-tb-jpg+image-tb.jpg
Active,enfield:0085,enfield,http://www.archive.org/details/annualreportofto1994enfi|~|annualreportofto1994enfi|~|enfield:0085,"Annual report of the Town of Enfield, New Hampshire, 1994",1995,Title varies|~|Imprint varies|~|Report year varies,"University of New Hampshire. Library. Digital Collections.|~|Scanned by Internet Archive, Open Content Alliance (2009)",,,Text,Enfield (N.H. : Town) -- Appropriations and expenditures -- Periodicals,Enfield (N.H. : Town),,,Eng,"[Enfield, N.H. : Abbott's Power Print]|~|University of New Hampshire. Library. Digital Collections.",enfield_0085+application-pdf+application.pdf|~|enfield_0085+image-low-jpg+image-low.jpg|~|enfield_0085+image-tb-jpg+image-tb.jpg
Active,enfield:0086,enfield,http://www.archive.org/details/annualreportofto1995enfi|~|annualreportofto1995enfi|~|enfield:0086,"Annual report of the Town of Enfield, New Hampshire, 1995",1996,Title varies|~|Imprint varies|~|Report year varies,"University of New Hampshire. Library. Digital Collections.|~|Scanned by Internet Archive, Open Content Alliance (2009)",,,Text,Enfield (N.H. : Town) -- Appropriations and expenditures -- Periodicals,Enfield (N.H. : Town),,,Eng,"[Enfield, N.H. : Abbott's Power Print]|~|University of New Hampshire. Library. Digital Collections.",enfield_0086+application-pdf+application.pdf|~|enfield_0086+image-low-jpg+image-low.jpg|~|enfield_0086+image-tb-jpg+image-tb.jpg
Active,enfield:0087,enfield,http://www.archive.org/details/annualreportofto1996enfi|~|annualreportofto1996enfi|~|enfield:0087,"Annual report of the Town of Enfield, New Hampshire, 1996",1997,Title varies|~|Imprint varies|~|Report year varies,"University of New Hampshire. Library. Digital Collections.|~|Scanned by Internet Archive, Open Content Alliance (2009)",,,Text,Enfield (N.H. : Town) -- Appropriations and expenditures -- Periodicals,Enfield (N.H. : Town),,,Eng,"[Enfield, N.H. : Abbott's Power Print]|~|University of New Hampshire. Library. Digital Collections.",enfield_0087+application-pdf+application.pdf|~|enfield_0087+image-low-jpg+image-low.jpg|~|enfield_0087+image-tb-jpg+image-tb.jpg
Active,enfield:0088,enfield,http://www.archive.org/details/annualreportofto1997enfi|~|annualreportofto1997enfi|~|enfield:0088,"Annual report of the Town of Enfield, New Hampshire, 1997",1998,Title varies|~|Imprint varies|~|Report year varies,"University of New Hampshire. Library. Digital Collections.|~|Scanned by Internet Archive, Open Content Alliance (2009)",,,Text,Enfield (N.H. : Town) -- Appropriations and expenditures -- Periodicals,Enfield (N.H. : Town),,,Eng,"[Enfield, N.H. : Abbott's Power Print]|~|University of New Hampshire. Library. Digital Collections.",enfield_0088+application-pdf+application.pdf|~|enfield_0088+image-low-jpg+image-low.jpg|~|enfield_0088+image-tb-jpg+image-tb.jpg
Active,enfield:0089,enfield,http://www.archive.org/details/annualreportofto1998enfi|~|annualreportofto1998enfi|~|enfield:0089,"Annual report of the Town of Enfield, New Hampshire, 1998",1999,Title varies|~|Imprint varies|~|Report year varies,"University of New Hampshire. Library. Digital Collections.|~|Scanned by Internet Archive, Open Content Alliance (2009)",,,Text,Enfield (N.H. : Town) -- Appropriations and expenditures -- Periodicals,Enfield (N.H. : Town),,,Eng,"[Enfield, N.H. : Abbott's Power Print]|~|University of New Hampshire. Library. Digital Collections.",enfield_0089+application-pdf+application.pdf|~|enfield_0089+image-low-jpg+image-low.jpg|~|enfield_0089+image-tb-jpg+image-tb.jpg
Active,enfield:0090,enfield,http://www.archive.org/details/addendumtoan1998enfi|~|addendumtoan1998enfi|~|enfield:0090,"Addendum to annual report of the Town of Enfield, New Hampshire, 1998",1999,Title varies|~|Imprint varies|~|Report year varies,"University of New Hampshire. Library. Digital Collections.|~|Scanned by Internet Archive, Open Content Alliance (2009)",,,Text,Enfield (N.H. : Town) -- Appropriations and expenditures -- Periodicals,Enfield (N.H. : Town),,,Eng,"[Enfield, N.H. : Abbott's Power Print]|~|University of New Hampshire. Library. Digital Collections.",enfield_0090+application-pdf+application.pdf|~|enfield_0090+image-low-jpg+image-low.jpg|~|enfield_0090+image-tb-jpg+image-tb.jpg
Active,enfield:0091,enfield,http://www.archive.org/details/annualreportofto1999enfi|~|annualreportofto1999enfi|~|enfield:0091,"Annual report of the Town of Enfield, New Hampshire, 1999",2000,Title varies|~|Imprint varies|~|Report year varies,"University of New Hampshire. Library. Digital Collections.|~|Scanned by Internet Archive, Open Content Alliance (2009)",,,Text,Enfield (N.H. : Town) -- Appropriations and expenditures -- Periodicals,Enfield (N.H. : Town),,,Eng,"[Enfield, N.H. : Abbott's Power Print]|~|University of New Hampshire. Library. Digital Collections.",enfield_0091+application-pdf+application.pdf|~|enfield_0091+image-low-jpg+image-low.jpg|~|enfield_0091+image-tb-jpg+image-tb.jpg
Active,enfield:0092,enfield,http://www.archive.org/details/addendumtoan1999enfi|~|addendumtoan1999enfi|~|enfield:0092,"Addendum to annual report of the Town of Enfield, New Hampshire, 1999",2000,Title varies|~|Imprint varies|~|Report year varies,"University of New Hampshire. Library. Digital Collections.|~|Scanned by Internet Archive, Open Content Alliance (2009)",,,Text,Enfield (N.H. : Town) -- Appropriations and expenditures -- Periodicals,Enfield (N.H. : Town),,,Eng,"[Enfield, N.H. : Abbott's Power Print]|~|University of New Hampshire. Library. Digital Collections.",enfield_0092+application-pdf+application.pdf|~|enfield_0092+image-low-jpg+image-low.jpg|~|enfield_0092+image-tb-jpg+image-tb.jpg
Active,enfield:0093,enfield,http://www.archive.org/details/annualreportofto2000enfi|~|annualreportofto2000enfi|~|enfield:0093,"Annual report of the Town of Enfield, New Hampshire, 2000",2001,Title varies|~|Imprint varies|~|Report year varies,"University of New Hampshire. Library. Digital Collections.|~|Scanned by Internet Archive, Open Content Alliance (2009)",,,Text,Enfield (N.H. : Town) -- Appropriations and expenditures -- Periodicals,Enfield (N.H. : Town),,,Eng,"[Enfield, N.H. : Abbott's Power Print]|~|University of New Hampshire. Library. Digital Collections.",enfield_0093+application-pdf+application.pdf|~|enfield_0093+image-low-jpg+image-low.jpg|~|enfield_0093+image-tb-jpg+image-tb.jpg
Active,enfield:0094,enfield,http://www.archive.org/details/annualreportofto2001enfi|~|annualreportofto2001enfi|~|enfield:0094,"Annual report of the Town of Enfield, New Hampshire, 2001",2002,Title varies|~|Imprint varies|~|Report year varies,"University of New Hampshire. Library. Digital Collections.|~|Scanned by Internet Archive, Open Content Alliance (2009)",,,Text,Enfield (N.H. : Town) -- Appropriations and expenditures -- Periodicals,Enfield (N.H. : Town),,,Eng,"[Enfield, N.H. : Abbott's Power Print]|~|University of New Hampshire. Library. Digital Collections.",enfield_0094+application-pdf+application.pdf|~|enfield_0094+image-low-jpg+image-low.jpg|~|enfield_0094+image-tb-jpg+image-tb.jpg
Active,enfield:0095,enfield,http://www.archive.org/details/annualreportofto2002enfi|~|annualreportofto2002enfi|~|enfield:0095,"Annual report of the Town of Enfield, New Hampshire, 2002",2003,Title varies|~|Imprint varies|~|Report year varies,"University of New Hampshire. Library. Digital Collections.|~|Scanned by Internet Archive, Open Content Alliance (2009)",,,Text,Enfield (N.H. : Town) -- Appropriations and expenditures -- Periodicals,Enfield (N.H. : Town),,,Eng,"[Enfield, N.H. : Abbott's Power Print]|~|University of New Hampshire. Library. Digital Collections.",enfield_0095+application-pdf+application.pdf|~|enfield_0095+image-low-jpg+image-low.jpg|~|enfield_0095+image-tb-jpg+image-tb.jpg
Active,enfield:0096,enfield,http://www.archive.org/details/annualreportofto2003enfi|~|annualreportofto2003enfi|~|enfield:0096,"Annual report of the Town of Enfield, New Hampshire, 2003",2004,Title varies|~|Imprint varies|~|Report year varies,"University of New Hampshire. Library. Digital Collections.|~|Scanned by Internet Archive, Open Content Alliance (2009)",,,Text,Enfield (N.H. : Town) -- Appropriations and expenditures -- Periodicals,Enfield (N.H. : Town),,,Eng,"[Enfield, N.H. : Abbott's Power Print]|~|University of New Hampshire. Library. Digital Collections.",enfield_0096+application-pdf+application.pdf|~|enfield_0096+image-low-jpg+image-low.jpg|~|enfield_0096+image-tb-jpg+image-tb.jpg
Active,enfield:0097,enfield,http://www.archive.org/details/annualreportofto2004enfi|~|annualreportofto2004enfi|~|enfield:0097,"Annual report of the Town of Enfield, New Hampshire, 2004",2005,Title varies|~|Imprint varies|~|Report year varies,"University of New Hampshire. Library. Digital Collections.|~|Scanned by Internet Archive, Open Content Alliance (2009)",,,Text,Enfield (N.H. : Town) -- Appropriations and expenditures -- Periodicals,Enfield (N.H. : Town),,,Eng,"[Enfield, N.H. : Abbott's Power Print]|~|University of New Hampshire. Library. Digital Collections.",enfield_0097+application-pdf+application.pdf|~|enfield_0097+image-low-jpg+image-low.jpg|~|enfield_0097+image-tb-jpg+image-tb.jpg
Active,enfield:0098,enfield,http://www.archive.org/details/annualreportofto2005enfi|~|annualreportofto2005enfi|~|enfield:0098,"Annual report of the Town of Enfield, New Hampshire, 2005",2006,Title varies|~|Imprint varies|~|Report year varies,"University of New Hampshire. Library. Digital Collections.|~|Scanned by Internet Archive, Open Content Alliance (2009)",,,Text,Enfield (N.H. : Town) -- Appropriations and expenditures -- Periodicals,Enfield (N.H. : Town),,,Eng,"[Enfield, N.H. : Abbott's Power Print]|~|University of New Hampshire. Library. Digital Collections.",enfield_0098+application-pdf+application.pdf|~|enfield_0098+image-low-jpg+image-low.jpg|~|enfield_0098+image-tb-jpg+image-tb.jpg
Active,enfield:0099,enfield,http://www.archive.org/details/annualreportofto2006enfi|~|annualreportofto2006enfi|~|enfield:0099,"Annual report of the Town of Enfield, New Hampshire, 2006",2007,Title varies|~|Imprint varies|~|Report year varies,"University of New Hampshire. Library. Digital Collections.|~|Scanned by Internet Archive, Open Content Alliance (2009)",,,Text,Enfield (N.H. : Town) -- Appropriations and expenditures -- Periodicals,Enfield (N.H. : Town),,,Eng,"[Enfield, N.H. : Abbott's Power Print]|~|University of New Hampshire. Library. Digital Collections.",enfield_0099+application-pdf+application.pdf|~|enfield_0099+image-low-jpg+image-low.jpg|~|enfield_0099+image-tb-jpg+image-tb.jpg
Active,enfield:0100,enfield,http://www.archive.org/details/annualreportofto2007enfi|~|annualreportofto2007enfi|~|enfield:0100,"Annual report of the Town of Enfield, New Hampshire, 2007",2008,Title varies|~|Imprint varies|~|Report year varies,"University of New Hampshire. Library. Digital Collections.|~|Scanned by Internet Archive, Open Content Alliance (2009)",,,Text,Enfield (N.H. : Town) -- Appropriations and expenditures -- Periodicals,Enfield (N.H. : Town),,,Eng,"[Enfield, N.H. : Abbott's Power Print]|~|University of New Hampshire. Library. Digital Collections.",enfield_0100+application-pdf+application.pdf|~|enfield_0100+image-low-jpg+image-low.jpg|~|enfield_0100+image-tb-jpg+image-tb.jpg
Active,enfield:0101,enfield,http://www.archive.org/details/annualreportofto2008enfi|~|annualreportofto2008enfi|~|enfield:0101,"Annual report of the Town of Enfield, New Hampshire, 2008",2009,Title varies|~|Imprint varies|~|Report year varies,"University of New Hampshire. Library. Digital Collections.|~|Scanned by Internet Archive, Open Content Alliance (2009)",,,Text,Enfield (N.H. : Town) -- Appropriations and expenditures -- Periodicals,Enfield (N.H. : Town),,,Eng,"[Enfield, N.H. : Abbott's Power Print]|~|University of New Hampshire. Library. Digital Collections.",enfield_0101+application-pdf+application.pdf|~|enfield_0101+image-low-jpg+image-low.jpg|~|enfield_0101+image-tb-jpg+image-tb.jpg
Active,enfield:1000,enfield,enfield:1000|~|annualreport2010enfield,"Annual report of the Town of Enfield, New Hampshire, 2010",2011,Title varies|~|Imprint varies|~|Report year varies,University of New Hampshire. Library. Digital Collections.,,,Text,Enfield (N.H. : Town) -- Appropriations and expenditures -- Periodicals,Enfield (N.H. : Town),,,Eng,"[Enfield, N.H. : The Town]|~|University of New Hampshire. Library. Digital Collections.",enfield_1000+application-pdf+application.pdf|~|enfield_1000+image-low-jpg+image-low.jpg|~|enfield_1000+image-tb-jpg+image-tb.jpg
Active,enfield:1001,enfield,enfield:1001|~|annualreport2011enfield,"Annual report of the Town of Enfield, New Hampshire, 2011",2012,Title varies|~|Imprint varies|~|Report year varies,University of New Hampshire. Library. Digital Collections.,,,Text,Enfield (N.H. : Town) -- Appropriations and expenditures -- Periodicals,Enfield (N.H. : Town),,,Eng,"[Enfield, N.H. : The Town]|~|University of New Hampshire. Library. Digital Collections.",enfield_1001+application-pdf+application.pdf|~|enfield_1001+image-low-jpg+image-low.jpg|~|enfield_1001+image-tb-jpg+image-tb.jpg
