state,pid,collection,dcterms:identifier,dcterms:title,dcterms:date,dcterms:description,dcterms:contributor,dcterms:rights,dcterms:format,dcterms:type,dcterms:subject,dcterms:creator,dcterms:relation,dcterms:coverage,dcterms:language,dcterms:publisher,files
Active,grantham:0001,grantham,http://www.archive.org/details/annualreportofto1905gran|~|annualreportofto1905gran|~|grantham:0001,"Annual report of the Town of Grantham, New Hampshire, 1905",1905,Title varies|~|Imprint varies|~|Report year varies,"University of New Hampshire. Library. Digital Collections.|~|Scanned by Internet Archive, Open Content Alliance (2010)",,,Text,Grantham (N.H. : Town) -- Appropriations and expenditures -- Periodicals,Grantham (N.H. : Town),,,Eng,"[Grantham, N.H. : Howe's Steam Power Press]|~|University of New Hampshire. Library. Digital Collections.",grantham_0001+application-pdf+application.pdf|~|grantham_0001+image-low-jpg+image-low.jpg|~|grantham_0001+image-tb-jpg+image-tb.jpg
Active,grantham:0002,grantham,http://www.archive.org/details/annualreportofto1906gran|~|annualreportofto1906gran|~|grantham:0002,"Annual report of the Town of Grantham, New Hampshire, 1906",1906,Title varies|~|Imprint varies|~|Report year varies,"University of New Hampshire. Library. Digital Collections.|~|Scanned by Internet Archive, Open Content Alliance (2010)",,,Text,Grantham (N.H. : Town) -- Appropriations and expenditures -- Periodicals,Grantham (N.H. : Town),,,Eng,"[Grantham, N.H. : Howe's Steam Power Press]|~|University of New Hampshire. Library. Digital Collections.",grantham_0002+application-pdf+application.pdf|~|grantham_0002+image-low-jpg+image-low.jpg|~|grantham_0002+image-tb-jpg+image-tb.jpg
Active,grantham:0003,grantham,http://www.archive.org/details/annualreportofto1907gran|~|annualreportofto1907gran|~|grantham:0003,"Annual report of the Town of Grantham, New Hampshire, 1907",1907,Title varies|~|Imprint varies|~|Report year varies,"University of New Hampshire. Library. Digital Collections.|~|Scanned by Internet Archive, Open Content Alliance (2010)",,,Text,Grantham (N.H. : Town) -- Appropriations and expenditures -- Periodicals,Grantham (N.H. : Town),,,Eng,"[Grantham, N.H. : Howe's Steam Power Press]|~|University of New Hampshire. Library. Digital Collections.",grantham_0003+application-pdf+application.pdf|~|grantham_0003+image-low-jpg+image-low.jpg|~|grantham_0003+image-tb-jpg+image-tb.jpg
Active,grantham:0004,grantham,http://www.archive.org/details/annualreportofto1909gran|~|annualreportofto1909gran|~|grantham:0004,"Annual report of the Town of Grantham, New Hampshire, 1909",1909,Title varies|~|Imprint varies|~|Report year varies,"University of New Hampshire. Library. Digital Collections.|~|Scanned by Internet Archive, Open Content Alliance (2010)",,,Text,Grantham (N.H. : Town) -- Appropriations and expenditures -- Periodicals,Grantham (N.H. : Town),,,Eng,"[Grantham, N.H. : Howe's Steam Power Press]|~|University of New Hampshire. Library. Digital Collections.",grantham_0004+application-pdf+application.pdf|~|grantham_0004+image-low-jpg+image-low.jpg|~|grantham_0004+image-tb-jpg+image-tb.jpg
Active,grantham:0005,grantham,http://www.archive.org/details/annualreportofto1910gran|~|annualreportofto1910gran|~|grantham:0005,"Annual report of the Town of Grantham, New Hampshire, 1910",1910,Title varies|~|Imprint varies|~|Report year varies,"University of New Hampshire. Library. Digital Collections.|~|Scanned by Internet Archive, Open Content Alliance (2010)",,,Text,Grantham (N.H. : Town) -- Appropriations and expenditures -- Periodicals,Grantham (N.H. : Town),,,Eng,"[Grantham, N.H. : Howe's Steam Power Press]|~|University of New Hampshire. Library. Digital Collections.",grantham_0005+application-pdf+application.pdf|~|grantham_0005+image-low-jpg+image-low.jpg|~|grantham_0005+image-tb-jpg+image-tb.jpg
Active,grantham:0006,grantham,http://www.archive.org/details/annualreportofto1914gran|~|annualreportofto1914gran|~|grantham:0006,"Annual report of the Town of Grantham, New Hampshire, 1914",1914,Title varies|~|Imprint varies|~|Report year varies,"University of New Hampshire. Library. Digital Collections.|~|Scanned by Internet Archive, Open Content Alliance (2010)",,,Text,Grantham (N.H. : Town) -- Appropriations and expenditures -- Periodicals,Grantham (N.H. : Town),,,Eng,"[Grantham, N.H. : Howe's Steam Power Press]|~|University of New Hampshire. Library. Digital Collections.",grantham_0006+application-pdf+application.pdf|~|grantham_0006+image-low-jpg+image-low.jpg|~|grantham_0006+image-tb-jpg+image-tb.jpg
Active,grantham:0007,grantham,http://www.archive.org/details/annualreportofto1916gran|~|annualreportofto1916gran|~|grantham:0007,"Annual report of the Town of Grantham, New Hampshire, 1916",1916,Title varies|~|Imprint varies|~|Report year varies,"University of New Hampshire. Library. Digital Collections.|~|Scanned by Internet Archive, Open Content Alliance (2010)",,,Text,Grantham (N.H. : Town) -- Appropriations and expenditures -- Periodicals,Grantham (N.H. : Town),,,Eng,"[Grantham, N.H. : Howe's Steam Power Press]|~|University of New Hampshire. Library. Digital Collections.",grantham_0007+application-pdf+application.pdf|~|grantham_0007+image-low-jpg+image-low.jpg|~|grantham_0007+image-tb-jpg+image-tb.jpg
Active,grantham:0008,grantham,http://www.archive.org/details/annualreportofto1918gran|~|annualreportofto1918gran|~|grantham:0008,"Annual report of the Town of Grantham, New Hampshire, 1918",1918,Title varies|~|Imprint varies|~|Report year varies,"University of New Hampshire. Library. Digital Collections.|~|Scanned by Internet Archive, Open Content Alliance (2010)",,,Text,Grantham (N.H. : Town) -- Appropriations and expenditures -- Periodicals,Grantham (N.H. : Town),,,Eng,"[Grantham, N.H. : Howe's Steam Power Press]|~|University of New Hampshire. Library. Digital Collections.",grantham_0008+application-pdf+application.pdf|~|grantham_0008+image-low-jpg+image-low.jpg|~|grantham_0008+image-tb-jpg+image-tb.jpg
Active,grantham:0009,grantham,http://www.archive.org/details/annualreportofto1920gran|~|annualreportofto1920gran|~|grantham:0009,"Annual report of the Town of Grantham, New Hampshire, 1920",1920,Title varies|~|Imprint varies|~|Report year varies,"University of New Hampshire. Library. Digital Collections.|~|Scanned by Internet Archive, Open Content Alliance (2010)",,,Text,Grantham (N.H. : Town) -- Appropriations and expenditures -- Periodicals,Grantham (N.H. : Town),,,Eng,"[Grantham, N.H. : Howe's Steam Power Press]|~|University of New Hampshire. Library. Digital Collections.",grantham_0009+application-pdf+application.pdf|~|grantham_0009+image-low-jpg+image-low.jpg|~|grantham_0009+image-tb-jpg+image-tb.jpg
Active,grantham:0010,grantham,http://www.archive.org/details/annualreportofto1921gran|~|annualreportofto1921gran|~|grantham:0010,"Annual report of the Town of Grantham, New Hampshire, 1921",1921,Title varies|~|Imprint varies|~|Report year varies,"University of New Hampshire. Library. Digital Collections.|~|Scanned by Internet Archive, Open Content Alliance (2010)",,,Text,Grantham (N.H. : Town) -- Appropriations and expenditures -- Periodicals,Grantham (N.H. : Town),,,Eng,"[Grantham, N.H. : Howe's Steam Power Press]|~|University of New Hampshire. Library. Digital Collections.",grantham_0010+application-pdf+application.pdf|~|grantham_0010+image-low-jpg+image-low.jpg|~|grantham_0010+image-tb-jpg+image-tb.jpg
Active,grantham:0011,grantham,http://www.archive.org/details/annualreportofto1923gran|~|annualreportofto1923gran|~|grantham:0011,"Annual report of the Town of Grantham, New Hampshire, 1923",1923,Title varies|~|Imprint varies|~|Report year varies,"University of New Hampshire. Library. Digital Collections.|~|Scanned by Internet Archive, Open Content Alliance (2010)",,,Text,Grantham (N.H. : Town) -- Appropriations and expenditures -- Periodicals,Grantham (N.H. : Town),,,Eng,"[Grantham, N.H. : Howe's Steam Power Press]|~|University of New Hampshire. Library. Digital Collections.",grantham_0011+application-pdf+application.pdf|~|grantham_0011+image-low-jpg+image-low.jpg|~|grantham_0011+image-tb-jpg+image-tb.jpg
Active,grantham:0012,grantham,http://www.archive.org/details/annualreportofto1925gran|~|annualreportofto1925gran|~|grantham:0012,"Annual report of the Town of Grantham, New Hampshire, 1925",1925,Title varies|~|Imprint varies|~|Report year varies,"University of New Hampshire. Library. Digital Collections.|~|Scanned by Internet Archive, Open Content Alliance (2010)",,,Text,Grantham (N.H. : Town) -- Appropriations and expenditures -- Periodicals,Grantham (N.H. : Town),,,Eng,"[Grantham, N.H. : Howe's Steam Power Press]|~|University of New Hampshire. Library. Digital Collections.",grantham_0012+application-pdf+application.pdf|~|grantham_0012+image-low-jpg+image-low.jpg|~|grantham_0012+image-tb-jpg+image-tb.jpg
Active,grantham:0013,grantham,http://www.archive.org/details/annualreportofto1926gran|~|annualreportofto1926gran|~|grantham:0013,"Annual report of the Town of Grantham, New Hampshire, 1926",1926,Title varies|~|Imprint varies|~|Report year varies,"University of New Hampshire. Library. Digital Collections.|~|Scanned by Internet Archive, Open Content Alliance (2010)",,,Text,Grantham (N.H. : Town) -- Appropriations and expenditures -- Periodicals,Grantham (N.H. : Town),,,Eng,"[Grantham, N.H. : Howe's Steam Power Press]|~|University of New Hampshire. Library. Digital Collections.",grantham_0013+application-pdf+application.pdf|~|grantham_0013+image-low-jpg+image-low.jpg|~|grantham_0013+image-tb-jpg+image-tb.jpg
Active,grantham:0014,grantham,http://www.archive.org/details/annualreportofto1927gran|~|annualreportofto1927gran|~|grantham:0014,"Annual report of the Town of Grantham, New Hampshire, 1927",1927,Title varies|~|Imprint varies|~|Report year varies,"University of New Hampshire. Library. Digital Collections.|~|Scanned by Internet Archive, Open Content Alliance (2010)",,,Text,Grantham (N.H. : Town) -- Appropriations and expenditures -- Periodicals,Grantham (N.H. : Town),,,Eng,"[Grantham, N.H. : Howe's Steam Power Press]|~|University of New Hampshire. Library. Digital Collections.",grantham_0014+application-pdf+application.pdf|~|grantham_0014+image-low-jpg+image-low.jpg|~|grantham_0014+image-tb-jpg+image-tb.jpg
Active,grantham:0015,grantham,http://www.archive.org/details/annualreportofto1928gran|~|annualreportofto1928gran|~|grantham:0015,"Annual report of the Town of Grantham, New Hampshire, 1928",1928,Title varies|~|Imprint varies|~|Report year varies,"University of New Hampshire. Library. Digital Collections.|~|Scanned by Internet Archive, Open Content Alliance (2010)",,,Text,Grantham (N.H. : Town) -- Appropriations and expenditures -- Periodicals,Grantham (N.H. : Town),,,Eng,"[Grantham, N.H. : Howe's Steam Power Press]|~|University of New Hampshire. Library. Digital Collections.",grantham_0015+application-pdf+application.pdf|~|grantham_0015+image-low-jpg+image-low.jpg|~|grantham_0015+image-tb-jpg+image-tb.jpg
Active,grantham:0016,grantham,http://www.archive.org/details/annualreportofto1929gran|~|annualreportofto1929gran|~|grantham:0016,"Annual report of the Town of Grantham, New Hampshire, 1929",1929,Title varies|~|Imprint varies|~|Report year varies,"University of New Hampshire. Library. Digital Collections.|~|Scanned by Internet Archive, Open Content Alliance (2010)",,,Text,Grantham (N.H. : Town) -- Appropriations and expenditures -- Periodicals,Grantham (N.H. : Town),,,Eng,"[Grantham, N.H. : Howe's Steam Power Press]|~|University of New Hampshire. Library. Digital Collections.",grantham_0016+application-pdf+application.pdf|~|grantham_0016+image-low-jpg+image-low.jpg|~|grantham_0016+image-tb-jpg+image-tb.jpg
Active,grantham:0017,grantham,http://www.archive.org/details/annualreportofto1930gran|~|annualreportofto1930gran|~|grantham:0017,"Annual report of the Town of Grantham, New Hampshire, 1930",1930,Title varies|~|Imprint varies|~|Report year varies,"University of New Hampshire. Library. Digital Collections.|~|Scanned by Internet Archive, Open Content Alliance (2010)",,,Text,Grantham (N.H. : Town) -- Appropriations and expenditures -- Periodicals,Grantham (N.H. : Town),,,Eng,"[Grantham, N.H. : Howe's Steam Power Press]|~|University of New Hampshire. Library. Digital Collections.",grantham_0017+application-pdf+application.pdf|~|grantham_0017+image-low-jpg+image-low.jpg|~|grantham_0017+image-tb-jpg+image-tb.jpg
Active,grantham:0018,grantham,http://www.archive.org/details/annualreportofto1931gran|~|annualreportofto1931gran|~|grantham:0018,"Annual report of the Town of Grantham, New Hampshire, 1931",1931,Title varies|~|Imprint varies|~|Report year varies,"University of New Hampshire. Library. Digital Collections.|~|Scanned by Internet Archive, Open Content Alliance (2010)",,,Text,Grantham (N.H. : Town) -- Appropriations and expenditures -- Periodicals,Grantham (N.H. : Town),,,Eng,"[Grantham, N.H. : Howe's Steam Power Press]|~|University of New Hampshire. Library. Digital Collections.",grantham_0018+application-pdf+application.pdf|~|grantham_0018+image-low-jpg+image-low.jpg|~|grantham_0018+image-tb-jpg+image-tb.jpg
Active,grantham:0019,grantham,http://www.archive.org/details/annualreportofto1932gran|~|annualreportofto1932gran|~|grantham:0019,"Annual report of the Town of Grantham, New Hampshire, 1932",1932,Title varies|~|Imprint varies|~|Report year varies,"University of New Hampshire. Library. Digital Collections.|~|Scanned by Internet Archive, Open Content Alliance (2010)",,,Text,Grantham (N.H. : Town) -- Appropriations and expenditures -- Periodicals,Grantham (N.H. : Town),,,Eng,"[Grantham, N.H. : Howe's Steam Power Press]|~|University of New Hampshire. Library. Digital Collections.",grantham_0019+application-pdf+application.pdf|~|grantham_0019+image-low-jpg+image-low.jpg|~|grantham_0019+image-tb-jpg+image-tb.jpg
Active,grantham:0020,grantham,http://www.archive.org/details/annualreportofto1933gran|~|annualreportofto1933gran|~|grantham:0020,"Annual report of the Town of Grantham, New Hampshire, 1933",1933,Title varies|~|Imprint varies|~|Report year varies,"University of New Hampshire. Library. Digital Collections.|~|Scanned by Internet Archive, Open Content Alliance (2010)",,,Text,Grantham (N.H. : Town) -- Appropriations and expenditures -- Periodicals,Grantham (N.H. : Town),,,Eng,"[Grantham, N.H. : Howe's Steam Power Press]|~|University of New Hampshire. Library. Digital Collections.",grantham_0020+application-pdf+application.pdf|~|grantham_0020+image-low-jpg+image-low.jpg|~|grantham_0020+image-tb-jpg+image-tb.jpg
Active,grantham:0021,grantham,http://www.archive.org/details/annualreportofto1934gran|~|annualreportofto1934gran|~|grantham:0021,"Annual report of the Town of Grantham, New Hampshire, 1934",1934,Title varies|~|Imprint varies|~|Report year varies,"University of New Hampshire. Library. Digital Collections.|~|Scanned by Internet Archive, Open Content Alliance (2010)",,,Text,Grantham (N.H. : Town) -- Appropriations and expenditures -- Periodicals,Grantham (N.H. : Town),,,Eng,"[Grantham, N.H. : Howe's Steam Power Press]|~|University of New Hampshire. Library. Digital Collections.",grantham_0021+application-pdf+application.pdf|~|grantham_0021+image-low-jpg+image-low.jpg|~|grantham_0021+image-tb-jpg+image-tb.jpg
Active,grantham:0022,grantham,http://www.archive.org/details/annualreportofto1935gran|~|annualreportofto1935gran|~|grantham:0022,"Annual report of the Town of Grantham, New Hampshire, 1935",1935,Title varies|~|Imprint varies|~|Report year varies,"University of New Hampshire. Library. Digital Collections.|~|Scanned by Internet Archive, Open Content Alliance (2010)",,,Text,Grantham (N.H. : Town) -- Appropriations and expenditures -- Periodicals,Grantham (N.H. : Town),,,Eng,"[Grantham, N.H. : Howe's Steam Power Press]|~|University of New Hampshire. Library. Digital Collections.",grantham_0022+application-pdf+application.pdf|~|grantham_0022+image-low-jpg+image-low.jpg|~|grantham_0022+image-tb-jpg+image-tb.jpg
Active,grantham:0023,grantham,http://www.archive.org/details/annualreportofto1936gran|~|annualreportofto1936gran|~|grantham:0023,"Annual report of the Town of Grantham, New Hampshire, 1936",1936,Title varies|~|Imprint varies|~|Report year varies,"University of New Hampshire. Library. Digital Collections.|~|Scanned by Internet Archive, Open Content Alliance (2010)",,,Text,Grantham (N.H. : Town) -- Appropriations and expenditures -- Periodicals,Grantham (N.H. : Town),,,Eng,"[Grantham, N.H. : Howe's Steam Power Press]|~|University of New Hampshire. Library. Digital Collections.",grantham_0023+application-pdf+application.pdf|~|grantham_0023+image-low-jpg+image-low.jpg|~|grantham_0023+image-tb-jpg+image-tb.jpg
Active,grantham:0024,grantham,http://www.archive.org/details/annualreportofto1937gran|~|annualreportofto1937gran|~|grantham:0024,"Annual report of the Town of Grantham, New Hampshire, 1937",1937,Title varies|~|Imprint varies|~|Report year varies,"University of New Hampshire. Library. Digital Collections.|~|Scanned by Internet Archive, Open Content Alliance (2010)",,,Text,Grantham (N.H. : Town) -- Appropriations and expenditures -- Periodicals,Grantham (N.H. : Town),,,Eng,"[Grantham, N.H. : Howe's Steam Power Press]|~|University of New Hampshire. Library. Digital Collections.",grantham_0024+application-pdf+application.pdf|~|grantham_0024+image-low-jpg+image-low.jpg|~|grantham_0024+image-tb-jpg+image-tb.jpg
Active,grantham:0025,grantham,http://www.archive.org/details/annualreportofto1938gran|~|annualreportofto1938gran|~|grantham:0025,"Annual report of the Town of Grantham, New Hampshire, 1938",1938,Title varies|~|Imprint varies|~|Report year varies,"University of New Hampshire. Library. Digital Collections.|~|Scanned by Internet Archive, Open Content Alliance (2010)",,,Text,Grantham (N.H. : Town) -- Appropriations and expenditures -- Periodicals,Grantham (N.H. : Town),,,Eng,"[Grantham, N.H. : Howe's Steam Power Press]|~|University of New Hampshire. Library. Digital Collections.",grantham_0025+application-pdf+application.pdf|~|grantham_0025+image-low-jpg+image-low.jpg|~|grantham_0025+image-tb-jpg+image-tb.jpg
Active,grantham:0026,grantham,http://www.archive.org/details/annualreportofto1939gran|~|annualreportofto1939gran|~|grantham:0026,"Annual report of the Town of Grantham, New Hampshire, 1939",1939,Title varies|~|Imprint varies|~|Report year varies,"University of New Hampshire. Library. Digital Collections.|~|Scanned by Internet Archive, Open Content Alliance (2010)",,,Text,Grantham (N.H. : Town) -- Appropriations and expenditures -- Periodicals,Grantham (N.H. : Town),,,Eng,"[Grantham, N.H. : Howe's Steam Power Press]|~|University of New Hampshire. Library. Digital Collections.",grantham_0026+application-pdf+application.pdf|~|grantham_0026+image-low-jpg+image-low.jpg|~|grantham_0026+image-tb-jpg+image-tb.jpg
Active,grantham:0027,grantham,http://www.archive.org/details/annualreportofto1940gran|~|annualreportofto1940gran|~|grantham:0027,"Annual report of the Town of Grantham, New Hampshire, 1940",1940,Title varies|~|Imprint varies|~|Report year varies,"University of New Hampshire. Library. Digital Collections.|~|Scanned by Internet Archive, Open Content Alliance (2010)",,,Text,Grantham (N.H. : Town) -- Appropriations and expenditures -- Periodicals,Grantham (N.H. : Town),,,Eng,"[Grantham, N.H. : Howe's Steam Power Press]|~|University of New Hampshire. Library. Digital Collections.",grantham_0027+application-pdf+application.pdf|~|grantham_0027+image-low-jpg+image-low.jpg|~|grantham_0027+image-tb-jpg+image-tb.jpg
Active,grantham:0028,grantham,http://www.archive.org/details/annualreportofto1941gran|~|annualreportofto1941gran|~|grantham:0028,"Annual report of the Town of Grantham, New Hampshire, 1941",1941,Title varies|~|Imprint varies|~|Report year varies,"University of New Hampshire. Library. Digital Collections.|~|Scanned by Internet Archive, Open Content Alliance (2010)",,,Text,Grantham (N.H. : Town) -- Appropriations and expenditures -- Periodicals,Grantham (N.H. : Town),,,Eng,"[Grantham, N.H. : Howe's Steam Power Press]|~|University of New Hampshire. Library. Digital Collections.",grantham_0028+application-pdf+application.pdf|~|grantham_0028+image-low-jpg+image-low.jpg|~|grantham_0028+image-tb-jpg+image-tb.jpg
Active,grantham:0029,grantham,http://www.archive.org/details/annualreportofto1942gran|~|annualreportofto1942gran|~|grantham:0029,"Annual report of the Town of Grantham, New Hampshire, 1942",1942,Title varies|~|Imprint varies|~|Report year varies,"University of New Hampshire. Library. Digital Collections.|~|Scanned by Internet Archive, Open Content Alliance (2010)",,,Text,Grantham (N.H. : Town) -- Appropriations and expenditures -- Periodicals,Grantham (N.H. : Town),,,Eng,"[Grantham, N.H. : Howe's Steam Power Press]|~|University of New Hampshire. Library. Digital Collections.",grantham_0029+application-pdf+application.pdf|~|grantham_0029+image-low-jpg+image-low.jpg|~|grantham_0029+image-tb-jpg+image-tb.jpg
Active,grantham:0030,grantham,http://www.archive.org/details/annualreportofto1943gran|~|annualreportofto1943gran|~|grantham:0030,"Annual report of the Town of Grantham, New Hampshire, 1943",1943,Title varies|~|Imprint varies|~|Report year varies,"University of New Hampshire. Library. Digital Collections.|~|Scanned by Internet Archive, Open Content Alliance (2010)",,,Text,Grantham (N.H. : Town) -- Appropriations and expenditures -- Periodicals,Grantham (N.H. : Town),,,Eng,"[Grantham, N.H. : Howe's Steam Power Press]|~|University of New Hampshire. Library. Digital Collections.",grantham_0030+application-pdf+application.pdf|~|grantham_0030+image-low-jpg+image-low.jpg|~|grantham_0030+image-tb-jpg+image-tb.jpg
Active,grantham:0031,grantham,http://www.archive.org/details/annualreportofto1944gran|~|annualreportofto1944gran|~|grantham:0031,"Annual report of the Town of Grantham, New Hampshire, 1944",1944,Title varies|~|Imprint varies|~|Report year varies,"University of New Hampshire. Library. Digital Collections.|~|Scanned by Internet Archive, Open Content Alliance (2010)",,,Text,Grantham (N.H. : Town) -- Appropriations and expenditures -- Periodicals,Grantham (N.H. : Town),,,Eng,"[Grantham, N.H. : Howe's Steam Power Press]|~|University of New Hampshire. Library. Digital Collections.",grantham_0031+application-pdf+application.pdf|~|grantham_0031+image-low-jpg+image-low.jpg|~|grantham_0031+image-tb-jpg+image-tb.jpg
Active,grantham:0032,grantham,http://www.archive.org/details/annualreportofto44gran|~|annualreportofto44gran|~|grantham:0032,"Annual report of the Town of Grantham, New Hampshire, 1944",1945,Title varies|~|Imprint varies|~|Report year varies,"University of New Hampshire. Library. Digital Collections.|~|Scanned by Internet Archive, Open Content Alliance (2010)",,,Text,Grantham (N.H. : Town) -- Appropriations and expenditures -- Periodicals,Grantham (N.H. : Town),,,Eng,"[Grantham, N.H. : Howe's Steam Power Press]|~|University of New Hampshire. Library. Digital Collections.",grantham_0032+application-pdf+application.pdf|~|grantham_0032+image-low-jpg+image-low.jpg|~|grantham_0032+image-tb-jpg+image-tb.jpg
Active,grantham:0033,grantham,http://www.archive.org/details/annualreportofto1945gran|~|annualreportofto1945gran|~|grantham:0033,"Annual report of the Town of Grantham, New Hampshire, 1945",1946,Title varies|~|Imprint varies|~|Report year varies,"University of New Hampshire. Library. Digital Collections.|~|Scanned by Internet Archive, Open Content Alliance (2010)",,,Text,Grantham (N.H. : Town) -- Appropriations and expenditures -- Periodicals,Grantham (N.H. : Town),,,Eng,"[Grantham, N.H. : Howe's Steam Power Press]|~|University of New Hampshire. Library. Digital Collections.",grantham_0033+application-pdf+application.pdf|~|grantham_0033+image-low-jpg+image-low.jpg|~|grantham_0033+image-tb-jpg+image-tb.jpg
Active,grantham:0034,grantham,http://www.archive.org/details/annualreportofto1946gran|~|annualreportofto1946gran|~|grantham:0034,"Annual report of the Town of Grantham, New Hampshire, 1946",1947,Title varies|~|Imprint varies|~|Report year varies,"University of New Hampshire. Library. Digital Collections.|~|Scanned by Internet Archive, Open Content Alliance (2010)",,,Text,Grantham (N.H. : Town) -- Appropriations and expenditures -- Periodicals,Grantham (N.H. : Town),,,Eng,"[Grantham, N.H. : Howe's Steam Power Press]|~|University of New Hampshire. Library. Digital Collections.",grantham_0034+application-pdf+application.pdf|~|grantham_0034+image-low-jpg+image-low.jpg|~|grantham_0034+image-tb-jpg+image-tb.jpg
Active,grantham:0035,grantham,http://www.archive.org/details/annualreportofto1947gran|~|annualreportofto1947gran|~|grantham:0035,"Annual report of the Town of Grantham, New Hampshire, 1947",1948,Title varies|~|Imprint varies|~|Report year varies,"University of New Hampshire. Library. Digital Collections.|~|Scanned by Internet Archive, Open Content Alliance (2010)",,,Text,Grantham (N.H. : Town) -- Appropriations and expenditures -- Periodicals,Grantham (N.H. : Town),,,Eng,"[Grantham, N.H. : Howe's Steam Power Press]|~|University of New Hampshire. Library. Digital Collections.",grantham_0035+application-pdf+application.pdf|~|grantham_0035+image-low-jpg+image-low.jpg|~|grantham_0035+image-tb-jpg+image-tb.jpg
Active,grantham:0036,grantham,http://www.archive.org/details/annualreportofto1948gran|~|annualreportofto1948gran|~|grantham:0036,"Annual report of the Town of Grantham, New Hampshire, 1948",1949,Title varies|~|Imprint varies|~|Report year varies,"University of New Hampshire. Library. Digital Collections.|~|Scanned by Internet Archive, Open Content Alliance (2010)",,,Text,Grantham (N.H. : Town) -- Appropriations and expenditures -- Periodicals,Grantham (N.H. : Town),,,Eng,"[Grantham, N.H. : Howe's Steam Power Press]|~|University of New Hampshire. Library. Digital Collections.",grantham_0036+application-pdf+application.pdf|~|grantham_0036+image-low-jpg+image-low.jpg|~|grantham_0036+image-tb-jpg+image-tb.jpg
Active,grantham:0037,grantham,http://www.archive.org/details/annualreportofto1949gran|~|annualreportofto1949gran|~|grantham:0037,"Annual report of the Town of Grantham, New Hampshire, 1949",1950,Title varies|~|Imprint varies|~|Report year varies,"University of New Hampshire. Library. Digital Collections.|~|Scanned by Internet Archive, Open Content Alliance (2010)",,,Text,Grantham (N.H. : Town) -- Appropriations and expenditures -- Periodicals,Grantham (N.H. : Town),,,Eng,"[Grantham, N.H. : Howe's Steam Power Press]|~|University of New Hampshire. Library. Digital Collections.",grantham_0037+application-pdf+application.pdf|~|grantham_0037+image-low-jpg+image-low.jpg|~|grantham_0037+image-tb-jpg+image-tb.jpg
Active,grantham:0038,grantham,http://www.archive.org/details/annualreportofto1950gran|~|annualreportofto1950gran|~|grantham:0038,"Annual report of the Town of Grantham, New Hampshire, 1950",1951,Title varies|~|Imprint varies|~|Report year varies,"University of New Hampshire. Library. Digital Collections.|~|Scanned by Internet Archive, Open Content Alliance (2010)",,,Text,Grantham (N.H. : Town) -- Appropriations and expenditures -- Periodicals,Grantham (N.H. : Town),,,Eng,"[Grantham, N.H. : Howe's Steam Power Press]|~|University of New Hampshire. Library. Digital Collections.",grantham_0038+application-pdf+application.pdf|~|grantham_0038+image-low-jpg+image-low.jpg|~|grantham_0038+image-tb-jpg+image-tb.jpg
Active,grantham:0039,grantham,http://www.archive.org/details/annualreportofto1951gran|~|annualreportofto1951gran|~|grantham:0039,"Annual report of the Town of Grantham, New Hampshire, 1951",1952,Title varies|~|Imprint varies|~|Report year varies,"University of New Hampshire. Library. Digital Collections.|~|Scanned by Internet Archive, Open Content Alliance (2010)",,,Text,Grantham (N.H. : Town) -- Appropriations and expenditures -- Periodicals,Grantham (N.H. : Town),,,Eng,"[Grantham, N.H. : Howe's Steam Power Press]|~|University of New Hampshire. Library. Digital Collections.",grantham_0039+application-pdf+application.pdf|~|grantham_0039+image-low-jpg+image-low.jpg|~|grantham_0039+image-tb-jpg+image-tb.jpg
Active,grantham:0040,grantham,http://www.archive.org/details/annualreportofto1952gran|~|annualreportofto1952gran|~|grantham:0040,"Annual report of the Town of Grantham, New Hampshire, 1952",1953,Title varies|~|Imprint varies|~|Report year varies,"University of New Hampshire. Library. Digital Collections.|~|Scanned by Internet Archive, Open Content Alliance (2010)",,,Text,Grantham (N.H. : Town) -- Appropriations and expenditures -- Periodicals,Grantham (N.H. : Town),,,Eng,"[Grantham, N.H. : Howe's Steam Power Press]|~|University of New Hampshire. Library. Digital Collections.",grantham_0040+application-pdf+application.pdf|~|grantham_0040+image-low-jpg+image-low.jpg|~|grantham_0040+image-tb-jpg+image-tb.jpg
Active,grantham:0041,grantham,http://www.archive.org/details/annualreportofto1953gran|~|annualreportofto1953gran|~|grantham:0041,"Annual report of the Town of Grantham, New Hampshire, 1953",1954,Title varies|~|Imprint varies|~|Report year varies,"University of New Hampshire. Library. Digital Collections.|~|Scanned by Internet Archive, Open Content Alliance (2010)",,,Text,Grantham (N.H. : Town) -- Appropriations and expenditures -- Periodicals,Grantham (N.H. : Town),,,Eng,"[Grantham, N.H. : Howe's Steam Power Press]|~|University of New Hampshire. Library. Digital Collections.",grantham_0041+application-pdf+application.pdf|~|grantham_0041+image-low-jpg+image-low.jpg|~|grantham_0041+image-tb-jpg+image-tb.jpg
Active,grantham:0042,grantham,http://www.archive.org/details/annualreportofto1954gran|~|annualreportofto1954gran|~|grantham:0042,"Annual report of the Town of Grantham, New Hampshire, 1954",1955,Title varies|~|Imprint varies|~|Report year varies,"University of New Hampshire. Library. Digital Collections.|~|Scanned by Internet Archive, Open Content Alliance (2010)",,,Text,Grantham (N.H. : Town) -- Appropriations and expenditures -- Periodicals,Grantham (N.H. : Town),,,Eng,"[Grantham, N.H. : Howe's Steam Power Press]|~|University of New Hampshire. Library. Digital Collections.",grantham_0042+application-pdf+application.pdf|~|grantham_0042+image-low-jpg+image-low.jpg|~|grantham_0042+image-tb-jpg+image-tb.jpg
Active,grantham:0043,grantham,http://www.archive.org/details/annualreportofto1955gran|~|annualreportofto1955gran|~|grantham:0043,"Annual report of the Town of Grantham, New Hampshire, 1955",1956,Title varies|~|Imprint varies|~|Report year varies,"University of New Hampshire. Library. Digital Collections.|~|Scanned by Internet Archive, Open Content Alliance (2010)",,,Text,Grantham (N.H. : Town) -- Appropriations and expenditures -- Periodicals,Grantham (N.H. : Town),,,Eng,"[Grantham, N.H. : Howe's Steam Power Press]|~|University of New Hampshire. Library. Digital Collections.",grantham_0043+application-pdf+application.pdf|~|grantham_0043+image-low-jpg+image-low.jpg|~|grantham_0043+image-tb-jpg+image-tb.jpg
Active,grantham:0044,grantham,http://www.archive.org/details/annualreportofto1956gran|~|annualreportofto1956gran|~|grantham:0044,"Annual report of the Town of Grantham, New Hampshire, 1956",1957,Title varies|~|Imprint varies|~|Report year varies,"University of New Hampshire. Library. Digital Collections.|~|Scanned by Internet Archive, Open Content Alliance (2010)",,,Text,Grantham (N.H. : Town) -- Appropriations and expenditures -- Periodicals,Grantham (N.H. : Town),,,Eng,"[Grantham, N.H. : Howe's Steam Power Press]|~|University of New Hampshire. Library. Digital Collections.",grantham_0044+application-pdf+application.pdf|~|grantham_0044+image-low-jpg+image-low.jpg|~|grantham_0044+image-tb-jpg+image-tb.jpg
Active,grantham:0045,grantham,http://www.archive.org/details/annualreportofto1957gran|~|annualreportofto1957gran|~|grantham:0045,"Annual report of the Town of Grantham, New Hampshire, 1957",1958,Title varies|~|Imprint varies|~|Report year varies,"University of New Hampshire. Library. Digital Collections.|~|Scanned by Internet Archive, Open Content Alliance (2010)",,,Text,Grantham (N.H. : Town) -- Appropriations and expenditures -- Periodicals,Grantham (N.H. : Town),,,Eng,"[Grantham, N.H. : Howe's Steam Power Press]|~|University of New Hampshire. Library. Digital Collections.",grantham_0045+application-pdf+application.pdf|~|grantham_0045+image-low-jpg+image-low.jpg|~|grantham_0045+image-tb-jpg+image-tb.jpg
Active,grantham:0046,grantham,http://www.archive.org/details/annualreportofto1958gran|~|annualreportofto1958gran|~|grantham:0046,"Annual report of the Town of Grantham, New Hampshire, 1958",1959,Title varies|~|Imprint varies|~|Report year varies,"University of New Hampshire. Library. Digital Collections.|~|Scanned by Internet Archive, Open Content Alliance (2010)",,,Text,Grantham (N.H. : Town) -- Appropriations and expenditures -- Periodicals,Grantham (N.H. : Town),,,Eng,"[Grantham, N.H. : Howe's Steam Power Press]|~|University of New Hampshire. Library. Digital Collections.",grantham_0046+application-pdf+application.pdf|~|grantham_0046+image-low-jpg+image-low.jpg|~|grantham_0046+image-tb-jpg+image-tb.jpg
Active,grantham:0047,grantham,http://www.archive.org/details/annualreportofto1959gran|~|annualreportofto1959gran|~|grantham:0047,"Annual report of the Town of Grantham, New Hampshire, 1959",1960,Title varies|~|Imprint varies|~|Report year varies,"University of New Hampshire. Library. Digital Collections.|~|Scanned by Internet Archive, Open Content Alliance (2010)",,,Text,Grantham (N.H. : Town) -- Appropriations and expenditures -- Periodicals,Grantham (N.H. : Town),,,Eng,"[Grantham, N.H. : Howe's Steam Power Press]|~|University of New Hampshire. Library. Digital Collections.",grantham_0047+application-pdf+application.pdf|~|grantham_0047+image-low-jpg+image-low.jpg|~|grantham_0047+image-tb-jpg+image-tb.jpg
Active,grantham:0048,grantham,http://www.archive.org/details/annualreportofto1960gran|~|annualreportofto1960gran|~|grantham:0048,"Annual report of the Town of Grantham, New Hampshire, 1960",1961,Title varies|~|Imprint varies|~|Report year varies,"University of New Hampshire. Library. Digital Collections.|~|Scanned by Internet Archive, Open Content Alliance (2010)",,,Text,Grantham (N.H. : Town) -- Appropriations and expenditures -- Periodicals,Grantham (N.H. : Town),,,Eng,"[Grantham, N.H. : Howe's Steam Power Press]|~|University of New Hampshire. Library. Digital Collections.",grantham_0048+application-pdf+application.pdf|~|grantham_0048+image-low-jpg+image-low.jpg|~|grantham_0048+image-tb-jpg+image-tb.jpg
Active,grantham:0049,grantham,http://www.archive.org/details/annualreportofto1961gran|~|annualreportofto1961gran|~|grantham:0049,"Annual report of the Town of Grantham, New Hampshire, 1961",1962,Title varies|~|Imprint varies|~|Report year varies,"University of New Hampshire. Library. Digital Collections.|~|Scanned by Internet Archive, Open Content Alliance (2010)",,,Text,Grantham (N.H. : Town) -- Appropriations and expenditures -- Periodicals,Grantham (N.H. : Town),,,Eng,"[Grantham, N.H. : Howe's Steam Power Press]|~|University of New Hampshire. Library. Digital Collections.",grantham_0049+application-pdf+application.pdf|~|grantham_0049+image-low-jpg+image-low.jpg|~|grantham_0049+image-tb-jpg+image-tb.jpg
Active,grantham:0050,grantham,http://www.archive.org/details/annualreportofto1962gran|~|annualreportofto1962gran|~|grantham:0050,"Annual report of the Town of Grantham, New Hampshire, 1962",1963,Title varies|~|Imprint varies|~|Report year varies,"University of New Hampshire. Library. Digital Collections.|~|Scanned by Internet Archive, Open Content Alliance (2010)",,,Text,Grantham (N.H. : Town) -- Appropriations and expenditures -- Periodicals,Grantham (N.H. : Town),,,Eng,"[Grantham, N.H. : Howe's Steam Power Press]|~|University of New Hampshire. Library. Digital Collections.",grantham_0050+application-pdf+application.pdf|~|grantham_0050+image-low-jpg+image-low.jpg|~|grantham_0050+image-tb-jpg+image-tb.jpg
Active,grantham:0051,grantham,http://www.archive.org/details/annualreportofto1963gran|~|annualreportofto1963gran|~|grantham:0051,"Annual report of the Town of Grantham, New Hampshire, 1963",1964,Title varies|~|Imprint varies|~|Report year varies,"University of New Hampshire. Library. Digital Collections.|~|Scanned by Internet Archive, Open Content Alliance (2010)",,,Text,Grantham (N.H. : Town) -- Appropriations and expenditures -- Periodicals,Grantham (N.H. : Town),,,Eng,"[Grantham, N.H. : Howe's Steam Power Press]|~|University of New Hampshire. Library. Digital Collections.",grantham_0051+application-pdf+application.pdf|~|grantham_0051+image-low-jpg+image-low.jpg|~|grantham_0051+image-tb-jpg+image-tb.jpg
Active,grantham:0052,grantham,http://www.archive.org/details/annualreportofto1964gran|~|annualreportofto1964gran|~|grantham:0052,"Annual report of the Town of Grantham, New Hampshire, 1964",1965,Title varies|~|Imprint varies|~|Report year varies,"University of New Hampshire. Library. Digital Collections.|~|Scanned by Internet Archive, Open Content Alliance (2010)",,,Text,Grantham (N.H. : Town) -- Appropriations and expenditures -- Periodicals,Grantham (N.H. : Town),,,Eng,"[Grantham, N.H. : Howe's Steam Power Press]|~|University of New Hampshire. Library. Digital Collections.",grantham_0052+application-pdf+application.pdf|~|grantham_0052+image-low-jpg+image-low.jpg|~|grantham_0052+image-tb-jpg+image-tb.jpg
Active,grantham:0053,grantham,http://www.archive.org/details/annualreportofto1965gran|~|annualreportofto1965gran|~|grantham:0053,"Annual report of the Town of Grantham, New Hampshire, 1965",1966,Title varies|~|Imprint varies|~|Report year varies,"University of New Hampshire. Library. Digital Collections.|~|Scanned by Internet Archive, Open Content Alliance (2010)",,,Text,Grantham (N.H. : Town) -- Appropriations and expenditures -- Periodicals,Grantham (N.H. : Town),,,Eng,"[Grantham, N.H. : Howe's Steam Power Press]|~|University of New Hampshire. Library. Digital Collections.",grantham_0053+application-pdf+application.pdf|~|grantham_0053+image-low-jpg+image-low.jpg|~|grantham_0053+image-tb-jpg+image-tb.jpg
Active,grantham:0054,grantham,http://www.archive.org/details/annualreportofto1966gran|~|annualreportofto1966gran|~|grantham:0054,"Annual report of the Town of Grantham, New Hampshire, 1966",1967,Title varies|~|Imprint varies|~|Report year varies,"University of New Hampshire. Library. Digital Collections.|~|Scanned by Internet Archive, Open Content Alliance (2010)",,,Text,Grantham (N.H. : Town) -- Appropriations and expenditures -- Periodicals,Grantham (N.H. : Town),,,Eng,"[Grantham, N.H. : Howe's Steam Power Press]|~|University of New Hampshire. Library. Digital Collections.",grantham_0054+application-pdf+application.pdf|~|grantham_0054+image-low-jpg+image-low.jpg|~|grantham_0054+image-tb-jpg+image-tb.jpg
Active,grantham:0055,grantham,http://www.archive.org/details/annualreportofto1967gran|~|annualreportofto1967gran|~|grantham:0055,"Annual report of the Town of Grantham, New Hampshire, 1967",1968,Title varies|~|Imprint varies|~|Report year varies,"University of New Hampshire. Library. Digital Collections.|~|Scanned by Internet Archive, Open Content Alliance (2010)",,,Text,Grantham (N.H. : Town) -- Appropriations and expenditures -- Periodicals,Grantham (N.H. : Town),,,Eng,"[Grantham, N.H. : Howe's Steam Power Press]|~|University of New Hampshire. Library. Digital Collections.",grantham_0055+application-pdf+application.pdf|~|grantham_0055+image-low-jpg+image-low.jpg|~|grantham_0055+image-tb-jpg+image-tb.jpg
Active,grantham:0056,grantham,http://www.archive.org/details/annualreportofto1968gran|~|annualreportofto1968gran|~|grantham:0056,"Annual report of the Town of Grantham, New Hampshire, 1968",1969,Title varies|~|Imprint varies|~|Report year varies,"University of New Hampshire. Library. Digital Collections.|~|Scanned by Internet Archive, Open Content Alliance (2010)",,,Text,Grantham (N.H. : Town) -- Appropriations and expenditures -- Periodicals,Grantham (N.H. : Town),,,Eng,"[Grantham, N.H. : Howe's Steam Power Press]|~|University of New Hampshire. Library. Digital Collections.",grantham_0056+application-pdf+application.pdf|~|grantham_0056+image-low-jpg+image-low.jpg|~|grantham_0056+image-tb-jpg+image-tb.jpg
Active,grantham:0057,grantham,http://www.archive.org/details/annualreportofto1969gran|~|annualreportofto1969gran|~|grantham:0057,"Annual report of the Town of Grantham, New Hampshire, 1969",1970,Title varies|~|Imprint varies|~|Report year varies,"University of New Hampshire. Library. Digital Collections.|~|Scanned by Internet Archive, Open Content Alliance (2010)",,,Text,Grantham (N.H. : Town) -- Appropriations and expenditures -- Periodicals,Grantham (N.H. : Town),,,Eng,"[Grantham, N.H. : Howe's Steam Power Press]|~|University of New Hampshire. Library. Digital Collections.",grantham_0057+application-pdf+application.pdf|~|grantham_0057+image-low-jpg+image-low.jpg|~|grantham_0057+image-tb-jpg+image-tb.jpg
Active,grantham:0058,grantham,http://www.archive.org/details/annualreportofto1970gran|~|annualreportofto1970gran|~|grantham:0058,"Annual report of the Town of Grantham, New Hampshire, 1970",1971,Title varies|~|Imprint varies|~|Report year varies,"University of New Hampshire. Library. Digital Collections.|~|Scanned by Internet Archive, Open Content Alliance (2010)",,,Text,Grantham (N.H. : Town) -- Appropriations and expenditures -- Periodicals,Grantham (N.H. : Town),,,Eng,"[Grantham, N.H. : Howe's Steam Power Press]|~|University of New Hampshire. Library. Digital Collections.",grantham_0058+application-pdf+application.pdf|~|grantham_0058+image-low-jpg+image-low.jpg|~|grantham_0058+image-tb-jpg+image-tb.jpg
Active,grantham:0059,grantham,http://www.archive.org/details/annualreportofto1971gran|~|annualreportofto1971gran|~|grantham:0059,"Annual report of the Town of Grantham, New Hampshire, 1971",1972,Title varies|~|Imprint varies|~|Report year varies,"University of New Hampshire. Library. Digital Collections.|~|Scanned by Internet Archive, Open Content Alliance (2010)",,,Text,Grantham (N.H. : Town) -- Appropriations and expenditures -- Periodicals,Grantham (N.H. : Town),,,Eng,"[Grantham, N.H. : Howe's Steam Power Press]|~|University of New Hampshire. Library. Digital Collections.",grantham_0059+application-pdf+application.pdf|~|grantham_0059+image-low-jpg+image-low.jpg|~|grantham_0059+image-tb-jpg+image-tb.jpg
Active,grantham:0060,grantham,http://www.archive.org/details/annualreportofto1972gran|~|annualreportofto1972gran|~|grantham:0060,"Annual report of the Town of Grantham, New Hampshire, 1972",1973,Title varies|~|Imprint varies|~|Report year varies,"University of New Hampshire. Library. Digital Collections.|~|Scanned by Internet Archive, Open Content Alliance (2010)",,,Text,Grantham (N.H. : Town) -- Appropriations and expenditures -- Periodicals,Grantham (N.H. : Town),,,Eng,"[Grantham, N.H. : Howe's Steam Power Press]|~|University of New Hampshire. Library. Digital Collections.",grantham_0060+application-pdf+application.pdf|~|grantham_0060+image-low-jpg+image-low.jpg|~|grantham_0060+image-tb-jpg+image-tb.jpg
Active,grantham:0061,grantham,http://www.archive.org/details/annualreportofto1973gran|~|annualreportofto1973gran|~|grantham:0061,"Annual report of the Town of Grantham, New Hampshire, 1973",1974,Title varies|~|Imprint varies|~|Report year varies,"University of New Hampshire. Library. Digital Collections.|~|Scanned by Internet Archive, Open Content Alliance (2010)",,,Text,Grantham (N.H. : Town) -- Appropriations and expenditures -- Periodicals,Grantham (N.H. : Town),,,Eng,"[Grantham, N.H. : Howe's Steam Power Press]|~|University of New Hampshire. Library. Digital Collections.",grantham_0061+application-pdf+application.pdf|~|grantham_0061+image-low-jpg+image-low.jpg|~|grantham_0061+image-tb-jpg+image-tb.jpg
Active,grantham:0062,grantham,http://www.archive.org/details/annualreportofto1974gran|~|annualreportofto1974gran|~|grantham:0062,"Annual report of the Town of Grantham, New Hampshire, 1974",1975,Title varies|~|Imprint varies|~|Report year varies,"University of New Hampshire. Library. Digital Collections.|~|Scanned by Internet Archive, Open Content Alliance (2010)",,,Text,Grantham (N.H. : Town) -- Appropriations and expenditures -- Periodicals,Grantham (N.H. : Town),,,Eng,"[Grantham, N.H. : Howe's Steam Power Press]|~|University of New Hampshire. Library. Digital Collections.",grantham_0062+application-pdf+application.pdf|~|grantham_0062+image-low-jpg+image-low.jpg|~|grantham_0062+image-tb-jpg+image-tb.jpg
Active,grantham:0063,grantham,http://www.archive.org/details/annualreportofto1975gran|~|annualreportofto1975gran|~|grantham:0063,"Annual report of the Town of Grantham, New Hampshire, 1975",1976,Title varies|~|Imprint varies|~|Report year varies,"University of New Hampshire. Library. Digital Collections.|~|Scanned by Internet Archive, Open Content Alliance (2010)",,,Text,Grantham (N.H. : Town) -- Appropriations and expenditures -- Periodicals,Grantham (N.H. : Town),,,Eng,"[Grantham, N.H. : Howe's Steam Power Press]|~|University of New Hampshire. Library. Digital Collections.",grantham_0063+application-pdf+application.pdf|~|grantham_0063+image-low-jpg+image-low.jpg|~|grantham_0063+image-tb-jpg+image-tb.jpg
Active,grantham:0064,grantham,http://www.archive.org/details/annualreportofto1976gran|~|annualreportofto1976gran|~|grantham:0064,"Annual report of the Town of Grantham, New Hampshire, 1976",1977,Title varies|~|Imprint varies|~|Report year varies,"University of New Hampshire. Library. Digital Collections.|~|Scanned by Internet Archive, Open Content Alliance (2010)",,,Text,Grantham (N.H. : Town) -- Appropriations and expenditures -- Periodicals,Grantham (N.H. : Town),,,Eng,"[Grantham, N.H. : Howe's Steam Power Press]|~|University of New Hampshire. Library. Digital Collections.",grantham_0064+application-pdf+application.pdf|~|grantham_0064+image-low-jpg+image-low.jpg|~|grantham_0064+image-tb-jpg+image-tb.jpg
Active,grantham:0065,grantham,http://www.archive.org/details/annualreportofto1977gran|~|annualreportofto1977gran|~|grantham:0065,"Annual report of the Town of Grantham, New Hampshire, 1977",1978,Title varies|~|Imprint varies|~|Report year varies,"University of New Hampshire. Library. Digital Collections.|~|Scanned by Internet Archive, Open Content Alliance (2010)",,,Text,Grantham (N.H. : Town) -- Appropriations and expenditures -- Periodicals,Grantham (N.H. : Town),,,Eng,"[Grantham, N.H. : Howe's Steam Power Press]|~|University of New Hampshire. Library. Digital Collections.",grantham_0065+application-pdf+application.pdf|~|grantham_0065+image-low-jpg+image-low.jpg|~|grantham_0065+image-tb-jpg+image-tb.jpg
Active,grantham:0066,grantham,http://www.archive.org/details/annualreportofto1978gran|~|annualreportofto1978gran|~|grantham:0066,"Annual report of the Town of Grantham, New Hampshire, 1978",1979,Title varies|~|Imprint varies|~|Report year varies,"University of New Hampshire. Library. Digital Collections.|~|Scanned by Internet Archive, Open Content Alliance (2010)",,,Text,Grantham (N.H. : Town) -- Appropriations and expenditures -- Periodicals,Grantham (N.H. : Town),,,Eng,"[Grantham, N.H. : Howe's Steam Power Press]|~|University of New Hampshire. Library. Digital Collections.",grantham_0066+application-pdf+application.pdf|~|grantham_0066+image-low-jpg+image-low.jpg|~|grantham_0066+image-tb-jpg+image-tb.jpg
Active,grantham:0067,grantham,http://www.archive.org/details/annualreportofto1979gran|~|annualreportofto1979gran|~|grantham:0067,"Annual report of the Town of Grantham, New Hampshire, 1979",1980,Title varies|~|Imprint varies|~|Report year varies,"University of New Hampshire. Library. Digital Collections.|~|Scanned by Internet Archive, Open Content Alliance (2010)",,,Text,Grantham (N.H. : Town) -- Appropriations and expenditures -- Periodicals,Grantham (N.H. : Town),,,Eng,"[Grantham, N.H. : Howe's Steam Power Press]|~|University of New Hampshire. Library. Digital Collections.",grantham_0067+application-pdf+application.pdf|~|grantham_0067+image-low-jpg+image-low.jpg|~|grantham_0067+image-tb-jpg+image-tb.jpg
Active,grantham:0068,grantham,http://www.archive.org/details/annualreportofto1980gran|~|annualreportofto1980gran|~|grantham:0068,"Annual report of the Town of Grantham, New Hampshire, 1980",1981,Title varies|~|Imprint varies|~|Report year varies,"University of New Hampshire. Library. Digital Collections.|~|Scanned by Internet Archive, Open Content Alliance (2010)",,,Text,Grantham (N.H. : Town) -- Appropriations and expenditures -- Periodicals,Grantham (N.H. : Town),,,Eng,"[Grantham, N.H. : Howe's Steam Power Press]|~|University of New Hampshire. Library. Digital Collections.",grantham_0068+application-pdf+application.pdf|~|grantham_0068+image-low-jpg+image-low.jpg|~|grantham_0068+image-tb-jpg+image-tb.jpg
Active,grantham:0069,grantham,http://www.archive.org/details/annualreportofto1981gran|~|annualreportofto1981gran|~|grantham:0069,"Annual report of the Town of Grantham, New Hampshire, 1981",1982,Title varies|~|Imprint varies|~|Report year varies,"University of New Hampshire. Library. Digital Collections.|~|Scanned by Internet Archive, Open Content Alliance (2010)",,,Text,Grantham (N.H. : Town) -- Appropriations and expenditures -- Periodicals,Grantham (N.H. : Town),,,Eng,"[Grantham, N.H. : Howe's Steam Power Press]|~|University of New Hampshire. Library. Digital Collections.",grantham_0069+application-pdf+application.pdf|~|grantham_0069+image-low-jpg+image-low.jpg|~|grantham_0069+image-tb-jpg+image-tb.jpg
Active,grantham:0070,grantham,http://www.archive.org/details/annualreportofto1982gran|~|annualreportofto1982gran|~|grantham:0070,"Annual report of the Town of Grantham, New Hampshire, 1982",1983,Title varies|~|Imprint varies|~|Report year varies,"University of New Hampshire. Library. Digital Collections.|~|Scanned by Internet Archive, Open Content Alliance (2010)",,,Text,Grantham (N.H. : Town) -- Appropriations and expenditures -- Periodicals,Grantham (N.H. : Town),,,Eng,"[Grantham, N.H. : Howe's Steam Power Press]|~|University of New Hampshire. Library. Digital Collections.",grantham_0070+application-pdf+application.pdf|~|grantham_0070+image-low-jpg+image-low.jpg|~|grantham_0070+image-tb-jpg+image-tb.jpg
Active,grantham:0071,grantham,http://www.archive.org/details/annualreportofto1983gran|~|annualreportofto1983gran|~|grantham:0071,"Annual report of the Town of Grantham, New Hampshire, 1983",1984,Title varies|~|Imprint varies|~|Report year varies,"University of New Hampshire. Library. Digital Collections.|~|Scanned by Internet Archive, Open Content Alliance (2010)",,,Text,Grantham (N.H. : Town) -- Appropriations and expenditures -- Periodicals,Grantham (N.H. : Town),,,Eng,"[Grantham, N.H. : Howe's Steam Power Press]|~|University of New Hampshire. Library. Digital Collections.",grantham_0071+application-pdf+application.pdf|~|grantham_0071+image-low-jpg+image-low.jpg|~|grantham_0071+image-tb-jpg+image-tb.jpg
Active,grantham:0072,grantham,http://www.archive.org/details/annualreportofto1984gran|~|annualreportofto1984gran|~|grantham:0072,"Annual report of the Town of Grantham, New Hampshire, 1984",1985,Title varies|~|Imprint varies|~|Report year varies,"University of New Hampshire. Library. Digital Collections.|~|Scanned by Internet Archive, Open Content Alliance (2010)",,,Text,Grantham (N.H. : Town) -- Appropriations and expenditures -- Periodicals,Grantham (N.H. : Town),,,Eng,"[Grantham, N.H. : Howe's Steam Power Press]|~|University of New Hampshire. Library. Digital Collections.",grantham_0072+application-pdf+application.pdf|~|grantham_0072+image-low-jpg+image-low.jpg|~|grantham_0072+image-tb-jpg+image-tb.jpg
Active,grantham:0073,grantham,http://www.archive.org/details/annualreportofto1985gran|~|annualreportofto1985gran|~|grantham:0073,"Annual report of the Town of Grantham, New Hampshire, 1985",1986,Title varies|~|Imprint varies|~|Report year varies,"University of New Hampshire. Library. Digital Collections.|~|Scanned by Internet Archive, Open Content Alliance (2010)",,,Text,Grantham (N.H. : Town) -- Appropriations and expenditures -- Periodicals,Grantham (N.H. : Town),,,Eng,"[Grantham, N.H. : Howe's Steam Power Press]|~|University of New Hampshire. Library. Digital Collections.",grantham_0073+application-pdf+application.pdf|~|grantham_0073+image-low-jpg+image-low.jpg|~|grantham_0073+image-tb-jpg+image-tb.jpg
Active,grantham:0074,grantham,http://www.archive.org/details/annualreportofto1986gran|~|annualreportofto1986gran|~|grantham:0074,"Annual report of the Town of Grantham, New Hampshire, 1986",1987,Title varies|~|Imprint varies|~|Report year varies,"University of New Hampshire. Library. Digital Collections.|~|Scanned by Internet Archive, Open Content Alliance (2010)",,,Text,Grantham (N.H. : Town) -- Appropriations and expenditures -- Periodicals,Grantham (N.H. : Town),,,Eng,"[Grantham, N.H. : Howe's Steam Power Press]|~|University of New Hampshire. Library. Digital Collections.",grantham_0074+application-pdf+application.pdf|~|grantham_0074+image-low-jpg+image-low.jpg|~|grantham_0074+image-tb-jpg+image-tb.jpg
Active,grantham:0075,grantham,http://www.archive.org/details/annualreportofto1987gran|~|annualreportofto1987gran|~|grantham:0075,"Annual report of the Town of Grantham, New Hampshire, 1987",1988,Title varies|~|Imprint varies|~|Report year varies,"University of New Hampshire. Library. Digital Collections.|~|Scanned by Internet Archive, Open Content Alliance (2010)",,,Text,Grantham (N.H. : Town) -- Appropriations and expenditures -- Periodicals,Grantham (N.H. : Town),,,Eng,"[Grantham, N.H. : Howe's Steam Power Press]|~|University of New Hampshire. Library. Digital Collections.",grantham_0075+application-pdf+application.pdf|~|grantham_0075+image-low-jpg+image-low.jpg|~|grantham_0075+image-tb-jpg+image-tb.jpg
Active,grantham:0076,grantham,http://www.archive.org/details/annualreportofto1988gran|~|annualreportofto1988gran|~|grantham:0076,"Annual report of the Town of Grantham, New Hampshire, 1988",1989,Title varies|~|Imprint varies|~|Report year varies,"University of New Hampshire. Library. Digital Collections.|~|Scanned by Internet Archive, Open Content Alliance (2010)",,,Text,Grantham (N.H. : Town) -- Appropriations and expenditures -- Periodicals,Grantham (N.H. : Town),,,Eng,"[Grantham, N.H. : Howe's Steam Power Press]|~|University of New Hampshire. Library. Digital Collections.",grantham_0076+application-pdf+application.pdf|~|grantham_0076+image-low-jpg+image-low.jpg|~|grantham_0076+image-tb-jpg+image-tb.jpg
Active,grantham:0077,grantham,http://www.archive.org/details/annualreportofto1989gran|~|annualreportofto1989gran|~|grantham:0077,"Annual report of the Town of Grantham, New Hampshire, 1989",1990,Title varies|~|Imprint varies|~|Report year varies,"University of New Hampshire. Library. Digital Collections.|~|Scanned by Internet Archive, Open Content Alliance (2010)",,,Text,Grantham (N.H. : Town) -- Appropriations and expenditures -- Periodicals,Grantham (N.H. : Town),,,Eng,"[Grantham, N.H. : Howe's Steam Power Press]|~|University of New Hampshire. Library. Digital Collections.",grantham_0077+application-pdf+application.pdf|~|grantham_0077+image-low-jpg+image-low.jpg|~|grantham_0077+image-tb-jpg+image-tb.jpg
Active,grantham:0078,grantham,http://www.archive.org/details/annualreportofto1990gran|~|annualreportofto1990gran|~|grantham:0078,"Annual report of the Town of Grantham, New Hampshire, 1990",1991,Title varies|~|Imprint varies|~|Report year varies,"University of New Hampshire. Library. Digital Collections.|~|Scanned by Internet Archive, Open Content Alliance (2010)",,,Text,Grantham (N.H. : Town) -- Appropriations and expenditures -- Periodicals,Grantham (N.H. : Town),,,Eng,"[Grantham, N.H. : Howe's Steam Power Press]|~|University of New Hampshire. Library. Digital Collections.",grantham_0078+application-pdf+application.pdf|~|grantham_0078+image-low-jpg+image-low.jpg|~|grantham_0078+image-tb-jpg+image-tb.jpg
Active,grantham:0079,grantham,http://www.archive.org/details/annualreportofto1991gran|~|annualreportofto1991gran|~|grantham:0079,"Annual report of the Town of Grantham, New Hampshire, 1991",1992,Title varies|~|Imprint varies|~|Report year varies,"University of New Hampshire. Library. Digital Collections.|~|Scanned by Internet Archive, Open Content Alliance (2010)",,,Text,Grantham (N.H. : Town) -- Appropriations and expenditures -- Periodicals,Grantham (N.H. : Town),,,Eng,"[Grantham, N.H. : Howe's Steam Power Press]|~|University of New Hampshire. Library. Digital Collections.",grantham_0079+application-pdf+application.pdf|~|grantham_0079+image-low-jpg+image-low.jpg|~|grantham_0079+image-tb-jpg+image-tb.jpg
Active,grantham:0080,grantham,http://www.archive.org/details/annualreportofto1992gran|~|annualreportofto1992gran|~|grantham:0080,"Annual report of the Town of Grantham, New Hampshire, 1992",1993,Title varies|~|Imprint varies|~|Report year varies,"University of New Hampshire. Library. Digital Collections.|~|Scanned by Internet Archive, Open Content Alliance (2010)",,,Text,Grantham (N.H. : Town) -- Appropriations and expenditures -- Periodicals,Grantham (N.H. : Town),,,Eng,"[Grantham, N.H. : Howe's Steam Power Press]|~|University of New Hampshire. Library. Digital Collections.",grantham_0080+application-pdf+application.pdf|~|grantham_0080+image-low-jpg+image-low.jpg|~|grantham_0080+image-tb-jpg+image-tb.jpg
Active,grantham:0081,grantham,http://www.archive.org/details/annualreportofto1993gran|~|annualreportofto1993gran|~|grantham:0081,"Annual report of the Town of Grantham, New Hampshire, 1993",1994,Title varies|~|Imprint varies|~|Report year varies,"University of New Hampshire. Library. Digital Collections.|~|Scanned by Internet Archive, Open Content Alliance (2010)",,,Text,Grantham (N.H. : Town) -- Appropriations and expenditures -- Periodicals,Grantham (N.H. : Town),,,Eng,"[Grantham, N.H. : Howe's Steam Power Press]|~|University of New Hampshire. Library. Digital Collections.",grantham_0081+application-pdf+application.pdf|~|grantham_0081+image-low-jpg+image-low.jpg|~|grantham_0081+image-tb-jpg+image-tb.jpg
Active,grantham:0082,grantham,http://www.archive.org/details/annualreportofto1994gran|~|annualreportofto1994gran|~|grantham:0082,"Annual report of the Town of Grantham, New Hampshire, 1994",1995,Title varies|~|Imprint varies|~|Report year varies,"University of New Hampshire. Library. Digital Collections.|~|Scanned by Internet Archive, Open Content Alliance (2010)",,,Text,Grantham (N.H. : Town) -- Appropriations and expenditures -- Periodicals,Grantham (N.H. : Town),,,Eng,"[Grantham, N.H. : Howe's Steam Power Press]|~|University of New Hampshire. Library. Digital Collections.",grantham_0082+application-pdf+application.pdf|~|grantham_0082+image-low-jpg+image-low.jpg|~|grantham_0082+image-tb-jpg+image-tb.jpg
Active,grantham:0083,grantham,http://www.archive.org/details/annualreportofto1996gran|~|annualreportofto1996gran|~|grantham:0083,"Annual report of the Town of Grantham, New Hampshire, 1996",1997,Title varies|~|Imprint varies|~|Report year varies,"University of New Hampshire. Library. Digital Collections.|~|Scanned by Internet Archive, Open Content Alliance (2010)",,,Text,Grantham (N.H. : Town) -- Appropriations and expenditures -- Periodicals,Grantham (N.H. : Town),,,Eng,"[Grantham, N.H. : Howe's Steam Power Press]|~|University of New Hampshire. Library. Digital Collections.",grantham_0083+application-pdf+application.pdf|~|grantham_0083+image-low-jpg+image-low.jpg|~|grantham_0083+image-tb-jpg+image-tb.jpg
Active,grantham:0084,grantham,http://www.archive.org/details/annualreportofto1997gran|~|annualreportofto1997gran|~|grantham:0084,"Annual report of the Town of Grantham, New Hampshire, 1997",1998,Title varies|~|Imprint varies|~|Report year varies,"University of New Hampshire. Library. Digital Collections.|~|Scanned by Internet Archive, Open Content Alliance (2010)",,,Text,Grantham (N.H. : Town) -- Appropriations and expenditures -- Periodicals,Grantham (N.H. : Town),,,Eng,"[Grantham, N.H. : Howe's Steam Power Press]|~|University of New Hampshire. Library. Digital Collections.",grantham_0084+application-pdf+application.pdf|~|grantham_0084+image-low-jpg+image-low.jpg|~|grantham_0084+image-tb-jpg+image-tb.jpg
Active,grantham:0085,grantham,http://www.archive.org/details/annualreportofto1998gran|~|annualreportofto1998gran|~|grantham:0085,"Annual report of the Town of Grantham, New Hampshire, 1998",1999,Title varies|~|Imprint varies|~|Report year varies,"University of New Hampshire. Library. Digital Collections.|~|Scanned by Internet Archive, Open Content Alliance (2010)",,,Text,Grantham (N.H. : Town) -- Appropriations and expenditures -- Periodicals,Grantham (N.H. : Town),,,Eng,"[Grantham, N.H. : Howe's Steam Power Press]|~|University of New Hampshire. Library. Digital Collections.",grantham_0085+application-pdf+application.pdf|~|grantham_0085+image-low-jpg+image-low.jpg|~|grantham_0085+image-tb-jpg+image-tb.jpg
Active,grantham:0086,grantham,http://www.archive.org/details/annualreportofto1999gran|~|annualreportofto1999gran|~|grantham:0086,"Annual report of the Town of Grantham, New Hampshire, 1999",2000,Title varies|~|Imprint varies|~|Report year varies,"University of New Hampshire. Library. Digital Collections.|~|Scanned by Internet Archive, Open Content Alliance (2010)",,,Text,Grantham (N.H. : Town) -- Appropriations and expenditures -- Periodicals,Grantham (N.H. : Town),,,Eng,"[Grantham, N.H. : Howe's Steam Power Press]|~|University of New Hampshire. Library. Digital Collections.",grantham_0086+application-pdf+application.pdf|~|grantham_0086+image-low-jpg+image-low.jpg|~|grantham_0086+image-tb-jpg+image-tb.jpg
Active,grantham:0087,grantham,http://www.archive.org/details/eastmanvillagedi1999gran|~|eastmanvillagedi1999gran|~|grantham:0087,"Annual report of the Eastman Village District, New Hampshire, 1999",2000,Title varies|~|Imprint varies|~|Report year varies,"University of New Hampshire. Library. Digital Collections.|~|Scanned by Internet Archive, Open Content Alliance (2010)",,,Text,Eastman -- Appropriations and expenditures -- Periodicals|~|Grantham (N.H. : Town) -- Appropriations and expenditures -- Periodicals,Eastman Village District,,,Eng,"[Grantham, N.H. : Eastman Village District]|~|University of New Hampshire. Library. Digital Collections.",grantham_0087+application-pdf+application.pdf|~|grantham_0087+image-low-jpg+image-low.jpg|~|grantham_0087+image-tb-jpg+image-tb.jpg
Active,grantham:0088,grantham,http://www.archive.org/details/annualreportofto2000gran|~|annualreportofto2000gran|~|grantham:0088,"Annual report of the Town of Grantham, New Hampshire, 2000",2001,Title varies|~|Imprint varies|~|Report year varies,"University of New Hampshire. Library. Digital Collections.|~|Scanned by Internet Archive, Open Content Alliance (2010)",,,Text,Grantham (N.H. : Town) -- Appropriations and expenditures -- Periodicals,Grantham (N.H. : Town),,,Eng,"[Grantham, N.H. : Howe's Steam Power Press]|~|University of New Hampshire. Library. Digital Collections.",grantham_0088+application-pdf+application.pdf|~|grantham_0088+image-low-jpg+image-low.jpg|~|grantham_0088+image-tb-jpg+image-tb.jpg
Active,grantham:0089,grantham,http://www.archive.org/details/annualreportofto2001gran|~|annualreportofto2001gran|~|grantham:0089,"Annual report of the Town of Grantham, New Hampshire, 2001",2002,Title varies|~|Imprint varies|~|Report year varies,"University of New Hampshire. Library. Digital Collections.|~|Scanned by Internet Archive, Open Content Alliance (2010)",,,Text,Grantham (N.H. : Town) -- Appropriations and expenditures -- Periodicals,Grantham (N.H. : Town),,,Eng,"[Grantham, N.H. : Howe's Steam Power Press]|~|University of New Hampshire. Library. Digital Collections.",grantham_0089+application-pdf+application.pdf|~|grantham_0089+image-low-jpg+image-low.jpg|~|grantham_0089+image-tb-jpg+image-tb.jpg
Active,grantham:0090,grantham,http://www.archive.org/details/annualreportofto2002gran|~|annualreportofto2002gran|~|grantham:0090,"Annual report of the Town of Grantham, New Hampshire, 2002",2003,Title varies|~|Imprint varies|~|Report year varies,"University of New Hampshire. Library. Digital Collections.|~|Scanned by Internet Archive, Open Content Alliance (2010)",,,Text,Grantham (N.H. : Town) -- Appropriations and expenditures -- Periodicals,Grantham (N.H. : Town),,,Eng,"[Grantham, N.H. : Howe's Steam Power Press]|~|University of New Hampshire. Library. Digital Collections.",grantham_0090+application-pdf+application.pdf|~|grantham_0090+image-low-jpg+image-low.jpg|~|grantham_0090+image-tb-jpg+image-tb.jpg
Active,grantham:0091,grantham,http://www.archive.org/details/annualreportofto2003gran|~|annualreportofto2003gran|~|grantham:0091,"Annual report of the Town of Grantham, New Hampshire, 2003",2004,Title varies|~|Imprint varies|~|Report year varies,"University of New Hampshire. Library. Digital Collections.|~|Scanned by Internet Archive, Open Content Alliance (2010)",,,Text,Grantham (N.H. : Town) -- Appropriations and expenditures -- Periodicals,Grantham (N.H. : Town),,,Eng,"[Grantham, N.H. : Howe's Steam Power Press]|~|University of New Hampshire. Library. Digital Collections.",grantham_0091+application-pdf+application.pdf|~|grantham_0091+image-low-jpg+image-low.jpg|~|grantham_0091+image-tb-jpg+image-tb.jpg
Active,grantham:0092,grantham,http://www.archive.org/details/annualreportofto2004gran|~|annualreportofto2004gran|~|grantham:0092,"Annual report of the Town of Grantham, New Hampshire, 2004",2005,Title varies|~|Imprint varies|~|Report year varies,"University of New Hampshire. Library. Digital Collections.|~|Scanned by Internet Archive, Open Content Alliance (2010)",,,Text,Grantham (N.H. : Town) -- Appropriations and expenditures -- Periodicals,Grantham (N.H. : Town),,,Eng,"[Grantham, N.H. : Howe's Steam Power Press]|~|University of New Hampshire. Library. Digital Collections.",grantham_0092+application-pdf+application.pdf|~|grantham_0092+image-low-jpg+image-low.jpg|~|grantham_0092+image-tb-jpg+image-tb.jpg
Active,grantham:0093,grantham,http://www.archive.org/details/annualreportofto2005gran|~|annualreportofto2005gran|~|grantham:0093,"Annual report of the Town of Grantham, New Hampshire, 2005",2006,Title varies|~|Imprint varies|~|Report year varies,"University of New Hampshire. Library. Digital Collections.|~|Scanned by Internet Archive, Open Content Alliance (2010)",,,Text,Grantham (N.H. : Town) -- Appropriations and expenditures -- Periodicals,Grantham (N.H. : Town),,,Eng,"[Grantham, N.H. : Howe's Steam Power Press]|~|University of New Hampshire. Library. Digital Collections.",grantham_0093+application-pdf+application.pdf|~|grantham_0093+image-low-jpg+image-low.jpg|~|grantham_0093+image-tb-jpg+image-tb.jpg
Active,grantham:0094,grantham,http://www.archive.org/details/annualreportofto2006gran|~|annualreportofto2006gran|~|grantham:0094,"Annual report of the Town of Grantham, New Hampshire, 2006",2007,Title varies|~|Imprint varies|~|Report year varies,"University of New Hampshire. Library. Digital Collections.|~|Scanned by Internet Archive, Open Content Alliance (2010)",,,Text,Grantham (N.H. : Town) -- Appropriations and expenditures -- Periodicals,Grantham (N.H. : Town),,,Eng,"[Grantham, N.H. : Howe's Steam Power Press]|~|University of New Hampshire. Library. Digital Collections.",grantham_0094+application-pdf+application.pdf|~|grantham_0094+image-low-jpg+image-low.jpg|~|grantham_0094+image-tb-jpg+image-tb.jpg
Active,grantham:0095,grantham,http://www.archive.org/details/annualreportofto2007gran|~|annualreportofto2007gran|~|grantham:0095,"Annual report of the Town of Grantham, New Hampshire, 2007",2008,Title varies|~|Imprint varies|~|Report year varies,"University of New Hampshire. Library. Digital Collections.|~|Scanned by Internet Archive, Open Content Alliance (2010)",,,Text,Grantham (N.H. : Town) -- Appropriations and expenditures -- Periodicals,Grantham (N.H. : Town),,,Eng,"[Grantham, N.H. : Howe's Steam Power Press]|~|University of New Hampshire. Library. Digital Collections.",grantham_0095+application-pdf+application.pdf|~|grantham_0095+image-low-jpg+image-low.jpg|~|grantham_0095+image-tb-jpg+image-tb.jpg
Active,grantham:0096,grantham,http://www.archive.org/details/annualreportofto2008gran|~|annualreportofto2008gran|~|grantham:0096,"Annual report of the Town of Grantham, New Hampshire, 2008",2009,Title varies|~|Imprint varies|~|Report year varies,"University of New Hampshire. Library. Digital Collections.|~|Scanned by Internet Archive, Open Content Alliance (2010)",,,Text,Grantham (N.H. : Town) -- Appropriations and expenditures -- Periodicals,Grantham (N.H. : Town),,,Eng,"[Grantham, N.H. : Howe's Steam Power Press]|~|University of New Hampshire. Library. Digital Collections.",grantham_0096+application-pdf+application.pdf|~|grantham_0096+image-low-jpg+image-low.jpg|~|grantham_0096+image-tb-jpg+image-tb.jpg
Active,grantham:0097,grantham,http://www.archive.org/details/annualreportofto2009gran|~|annualreportofto2009gran|~|grantham:0097,"Annual report of the Town of Grantham, New Hampshire, 2009",2010,Title varies|~|Imprint varies|~|Report year varies,"University of New Hampshire. Library. Digital Collections.|~|Scanned by Internet Archive, Open Content Alliance (2010)",,,Text,Grantham (N.H. : Town) -- Appropriations and expenditures -- Periodicals,Grantham (N.H. : Town),,,Eng,"[Grantham, N.H. : Howe's Steam Power Press]|~|University of New Hampshire. Library. Digital Collections.",grantham_0097+application-pdf+application.pdf|~|grantham_0097+image-low-jpg+image-low.jpg|~|grantham_0097+image-tb-jpg+image-tb.jpg
