state,pid,collection,dcterms:identifier,dcterms:title,dcterms:date,dcterms:description,dcterms:contributor,dcterms:rights,dcterms:format,dcterms:type,dcterms:subject,dcterms:creator,dcterms:relation,dcterms:coverage,dcterms:language,dcterms:publisher,files
Active,greenland:0001,greenland,http://www.archive.org/details/annualreportofto1884gree|~|annualreportofto1884gree|~|greenland:0001,"Annual report of the Town of Greenland, New Hampshire, 1884",1884,Title varies|~|Imprint varies|~|Report year varies,"University of New Hampshire. Library. Digital Collections.|~|Scanned by Internet Archive, Open Content Alliance (2010)",,,Text,Greenland (N.H. : Town) -- Appropriations and expenditures -- Periodicals,Greenland (N.H. : Town),,,Eng,"[Greenland, N.H. : The Town]|~|University of New Hampshire. Library. Digital Collections.",greenland_0001+application-pdf+application.pdf|~|greenland_0001+image-low-jpg+image-low.jpg|~|greenland_0001+image-tb-jpg+image-tb.jpg
Active,greenland:0002,greenland,http://www.archive.org/details/annualreportofto1920gree2|~|annualreportofto1920gree2|~|greenland:0002,"Annual report of the Town of Greenland, New Hampshire, 1920",1920,Title varies|~|Imprint varies|~|Report year varies,"University of New Hampshire. Library. Digital Collections.|~|Scanned by Internet Archive, Open Content Alliance (2010)",,,Text,Greenland (N.H. : Town) -- Appropriations and expenditures -- Periodicals,Greenland (N.H. : Town),,,Eng,"[Greenland, N.H. : The Town]|~|University of New Hampshire. Library. Digital Collections.",greenland_0002+application-pdf+application.pdf|~|greenland_0002+image-low-jpg+image-low.jpg|~|greenland_0002+image-tb-jpg+image-tb.jpg
Active,greenland:0003,greenland,http://www.archive.org/details/annualreportofto1924gree2|~|annualreportofto1924gree2|~|greenland:0003,"Annual report of the Town of Greenland, New Hampshire, 1924",1924,Title varies|~|Imprint varies|~|Report year varies,"University of New Hampshire. Library. Digital Collections.|~|Scanned by Internet Archive, Open Content Alliance (2010)",,,Text,Greenland (N.H. : Town) -- Appropriations and expenditures -- Periodicals,Greenland (N.H. : Town),,,Eng,"[Greenland, N.H. : The Town]|~|University of New Hampshire. Library. Digital Collections.",greenland_0003+application-pdf+application.pdf|~|greenland_0003+image-low-jpg+image-low.jpg|~|greenland_0003+image-tb-jpg+image-tb.jpg
Active,greenland:0004,greenland,http://www.archive.org/details/annualreportofto1929gree2|~|annualreportofto1929gree2|~|greenland:0004,"Annual report of the Town of Greenland, New Hampshire, 1929",1929,Title varies|~|Imprint varies|~|Report year varies,"University of New Hampshire. Library. Digital Collections.|~|Scanned by Internet Archive, Open Content Alliance (2010)",,,Text,Greenland (N.H. : Town) -- Appropriations and expenditures -- Periodicals,Greenland (N.H. : Town),,,Eng,"[Greenland, N.H. : The Town]|~|University of New Hampshire. Library. Digital Collections.",greenland_0004+application-pdf+application.pdf|~|greenland_0004+image-low-jpg+image-low.jpg|~|greenland_0004+image-tb-jpg+image-tb.jpg
Active,greenland:0005,greenland,http://www.archive.org/details/annualreportofto1935gree2|~|annualreportofto1935gree2|~|greenland:0005,"Annual report of the Town of Greenland, New Hampshire, 1935",1935,Title varies|~|Imprint varies|~|Report year varies,"University of New Hampshire. Library. Digital Collections.|~|Scanned by Internet Archive, Open Content Alliance (2010)",,,Text,Greenland (N.H. : Town) -- Appropriations and expenditures -- Periodicals,Greenland (N.H. : Town),,,Eng,"[Greenland, N.H. : The Town]|~|University of New Hampshire. Library. Digital Collections.",greenland_0005+application-pdf+application.pdf|~|greenland_0005+image-low-jpg+image-low.jpg|~|greenland_0005+image-tb-jpg+image-tb.jpg
Active,greenland:0006,greenland,http://www.archive.org/details/annualreportofto1936gree2|~|annualreportofto1936gree2|~|greenland:0006,"Annual report of the Town of Greenland, New Hampshire, 1936",1936,Title varies|~|Imprint varies|~|Report year varies,"University of New Hampshire. Library. Digital Collections.|~|Scanned by Internet Archive, Open Content Alliance (2010)",,,Text,Greenland (N.H. : Town) -- Appropriations and expenditures -- Periodicals,Greenland (N.H. : Town),,,Eng,"[Greenland, N.H. : The Town]|~|University of New Hampshire. Library. Digital Collections.",greenland_0006+application-pdf+application.pdf|~|greenland_0006+image-low-jpg+image-low.jpg|~|greenland_0006+image-tb-jpg+image-tb.jpg
Active,greenland:0007,greenland,http://www.archive.org/details/annualreportofto1937gree2|~|annualreportofto1937gree2|~|greenland:0007,"Annual report of the Town of Greenland, New Hampshire, 1937",1937,Title varies|~|Imprint varies|~|Report year varies,"University of New Hampshire. Library. Digital Collections.|~|Scanned by Internet Archive, Open Content Alliance (2010)",,,Text,Greenland (N.H. : Town) -- Appropriations and expenditures -- Periodicals,Greenland (N.H. : Town),,,Eng,"[Greenland, N.H. : The Town]|~|University of New Hampshire. Library. Digital Collections.",greenland_0007+application-pdf+application.pdf|~|greenland_0007+image-low-jpg+image-low.jpg|~|greenland_0007+image-tb-jpg+image-tb.jpg
Active,greenland:0008,greenland,http://www.archive.org/details/annualreportofto1938gree2|~|annualreportofto1938gree2|~|greenland:0008,"Annual report of the Town of Greenland, New Hampshire, 1938",1938,Title varies|~|Imprint varies|~|Report year varies,"University of New Hampshire. Library. Digital Collections.|~|Scanned by Internet Archive, Open Content Alliance (2010)",,,Text,Greenland (N.H. : Town) -- Appropriations and expenditures -- Periodicals,Greenland (N.H. : Town),,,Eng,"[Greenland, N.H. : The Town]|~|University of New Hampshire. Library. Digital Collections.",greenland_0008+application-pdf+application.pdf|~|greenland_0008+image-low-jpg+image-low.jpg|~|greenland_0008+image-tb-jpg+image-tb.jpg
Active,greenland:0009,greenland,http://www.archive.org/details/annualreportofto1939gree2|~|annualreportofto1939gree2|~|greenland:0009,"Annual report of the Town of Greenland, New Hampshire, 1939",1939,Title varies|~|Imprint varies|~|Report year varies,"University of New Hampshire. Library. Digital Collections.|~|Scanned by Internet Archive, Open Content Alliance (2010)",,,Text,Greenland (N.H. : Town) -- Appropriations and expenditures -- Periodicals,Greenland (N.H. : Town),,,Eng,"[Greenland, N.H. : The Town]|~|University of New Hampshire. Library. Digital Collections.",greenland_0009+application-pdf+application.pdf|~|greenland_0009+image-low-jpg+image-low.jpg|~|greenland_0009+image-tb-jpg+image-tb.jpg
Active,greenland:0010,greenland,http://www.archive.org/details/annualreportofto1940gree2|~|annualreportofto1940gree2|~|greenland:0010,"Annual report of the Town of Greenland, New Hampshire, 1940",1940,Title varies|~|Imprint varies|~|Report year varies,"University of New Hampshire. Library. Digital Collections.|~|Scanned by Internet Archive, Open Content Alliance (2010)",,,Text,Greenland (N.H. : Town) -- Appropriations and expenditures -- Periodicals,Greenland (N.H. : Town),,,Eng,"[Greenland, N.H. : The Town]|~|University of New Hampshire. Library. Digital Collections.",greenland_0010+application-pdf+application.pdf|~|greenland_0010+image-low-jpg+image-low.jpg|~|greenland_0010+image-tb-jpg+image-tb.jpg
Active,greenland:0011,greenland,http://www.archive.org/details/annualreportofto1941gree2|~|annualreportofto1941gree2|~|greenland:0011,"Annual report of the Town of Greenland, New Hampshire, 1941",1941,Title varies|~|Imprint varies|~|Report year varies,"University of New Hampshire. Library. Digital Collections.|~|Scanned by Internet Archive, Open Content Alliance (2010)",,,Text,Greenland (N.H. : Town) -- Appropriations and expenditures -- Periodicals,Greenland (N.H. : Town),,,Eng,"[Greenland, N.H. : The Town]|~|University of New Hampshire. Library. Digital Collections.",greenland_0011+application-pdf+application.pdf|~|greenland_0011+image-low-jpg+image-low.jpg|~|greenland_0011+image-tb-jpg+image-tb.jpg
Active,greenland:0012,greenland,http://www.archive.org/details/annualreportofto1942gree2|~|annualreportofto1942gree2|~|greenland:0012,"Annual report of the Town of Greenland, New Hampshire, 1942",1942,Title varies|~|Imprint varies|~|Report year varies,"University of New Hampshire. Library. Digital Collections.|~|Scanned by Internet Archive, Open Content Alliance (2010)",,,Text,Greenland (N.H. : Town) -- Appropriations and expenditures -- Periodicals,Greenland (N.H. : Town),,,Eng,"[Greenland, N.H. : The Town]|~|University of New Hampshire. Library. Digital Collections.",greenland_0012+application-pdf+application.pdf|~|greenland_0012+image-low-jpg+image-low.jpg|~|greenland_0012+image-tb-jpg+image-tb.jpg
Active,greenland:0013,greenland,http://www.archive.org/details/annualreportofto1943gree2|~|annualreportofto1943gree2|~|greenland:0013,"Annual report of the Town of Greenland, New Hampshire, 1943",1943,Title varies|~|Imprint varies|~|Report year varies,"University of New Hampshire. Library. Digital Collections.|~|Scanned by Internet Archive, Open Content Alliance (2010)",,,Text,Greenland (N.H. : Town) -- Appropriations and expenditures -- Periodicals,Greenland (N.H. : Town),,,Eng,"[Greenland, N.H. : The Town]|~|University of New Hampshire. Library. Digital Collections.",greenland_0013+application-pdf+application.pdf|~|greenland_0013+image-low-jpg+image-low.jpg|~|greenland_0013+image-tb-jpg+image-tb.jpg
Active,greenland:0014,greenland,http://www.archive.org/details/annualreportofto1944gree2|~|annualreportofto1944gree2|~|greenland:0014,"Annual report of the Town of Greenland, New Hampshire, 1944",1944,Title varies|~|Imprint varies|~|Report year varies,"University of New Hampshire. Library. Digital Collections.|~|Scanned by Internet Archive, Open Content Alliance (2010)",,,Text,Greenland (N.H. : Town) -- Appropriations and expenditures -- Periodicals,Greenland (N.H. : Town),,,Eng,"[Greenland, N.H. : The Town]|~|University of New Hampshire. Library. Digital Collections.",greenland_0014+application-pdf+application.pdf|~|greenland_0014+image-low-jpg+image-low.jpg|~|greenland_0014+image-tb-jpg+image-tb.jpg
Active,greenland:0015,greenland,http://www.archive.org/details/annualreportofto44gree2|~|annualreportofto44gree2|~|greenland:0015,"Annual report of the Town of Greenland, New Hampshire, 1944",1945,Title varies|~|Imprint varies|~|Report year varies,"University of New Hampshire. Library. Digital Collections.|~|Scanned by Internet Archive, Open Content Alliance (2010)",,,Text,Greenland (N.H. : Town) -- Appropriations and expenditures -- Periodicals,Greenland (N.H. : Town),,,Eng,"[Greenland, N.H. : The Town]|~|University of New Hampshire. Library. Digital Collections.",greenland_0015+application-pdf+application.pdf|~|greenland_0015+image-low-jpg+image-low.jpg|~|greenland_0015+image-tb-jpg+image-tb.jpg
Active,greenland:0016,greenland,http://www.archive.org/details/annualreportofto1945gree2|~|annualreportofto1945gree2|~|greenland:0016,"Annual report of the Town of Greenland, New Hampshire, 1945",1946,Title varies|~|Imprint varies|~|Report year varies,"University of New Hampshire. Library. Digital Collections.|~|Scanned by Internet Archive, Open Content Alliance (2010)",,,Text,Greenland (N.H. : Town) -- Appropriations and expenditures -- Periodicals,Greenland (N.H. : Town),,,Eng,"[Greenland, N.H. : The Town]|~|University of New Hampshire. Library. Digital Collections.",greenland_0016+application-pdf+application.pdf|~|greenland_0016+image-low-jpg+image-low.jpg|~|greenland_0016+image-tb-jpg+image-tb.jpg
Active,greenland:0017,greenland,http://www.archive.org/details/annualreportofto1946gree2|~|annualreportofto1946gree2|~|greenland:0017,"Annual report of the Town of Greenland, New Hampshire, 1946",1947,Title varies|~|Imprint varies|~|Report year varies,"University of New Hampshire. Library. Digital Collections.|~|Scanned by Internet Archive, Open Content Alliance (2010)",,,Text,Greenland (N.H. : Town) -- Appropriations and expenditures -- Periodicals,Greenland (N.H. : Town),,,Eng,"[Greenland, N.H. : The Town]|~|University of New Hampshire. Library. Digital Collections.",greenland_0017+application-pdf+application.pdf|~|greenland_0017+image-low-jpg+image-low.jpg|~|greenland_0017+image-tb-jpg+image-tb.jpg
Active,greenland:0018,greenland,http://www.archive.org/details/annualreportofto1947gree2|~|annualreportofto1947gree2|~|greenland:0018,"Annual report of the Town of Greenland, New Hampshire, 1947",1948,Title varies|~|Imprint varies|~|Report year varies,"University of New Hampshire. Library. Digital Collections.|~|Scanned by Internet Archive, Open Content Alliance (2010)",,,Text,Greenland (N.H. : Town) -- Appropriations and expenditures -- Periodicals,Greenland (N.H. : Town),,,Eng,"[Greenland, N.H. : The Town]|~|University of New Hampshire. Library. Digital Collections.",greenland_0018+application-pdf+application.pdf|~|greenland_0018+image-low-jpg+image-low.jpg|~|greenland_0018+image-tb-jpg+image-tb.jpg
Active,greenland:0019,greenland,http://www.archive.org/details/annualreportofto1948gree2|~|annualreportofto1948gree2|~|greenland:0019,"Annual report of the Town of Greenland, New Hampshire, 1948",1949,Title varies|~|Imprint varies|~|Report year varies,"University of New Hampshire. Library. Digital Collections.|~|Scanned by Internet Archive, Open Content Alliance (2010)",,,Text,Greenland (N.H. : Town) -- Appropriations and expenditures -- Periodicals,Greenland (N.H. : Town),,,Eng,"[Greenland, N.H. : The Town]|~|University of New Hampshire. Library. Digital Collections.",greenland_0019+application-pdf+application.pdf|~|greenland_0019+image-low-jpg+image-low.jpg|~|greenland_0019+image-tb-jpg+image-tb.jpg
Active,greenland:0020,greenland,http://www.archive.org/details/annualreportofto1949gree2|~|annualreportofto1949gree2|~|greenland:0020,"Annual report of the Town of Greenland, New Hampshire, 1949",1950,Title varies|~|Imprint varies|~|Report year varies,"University of New Hampshire. Library. Digital Collections.|~|Scanned by Internet Archive, Open Content Alliance (2010)",,,Text,Greenland (N.H. : Town) -- Appropriations and expenditures -- Periodicals,Greenland (N.H. : Town),,,Eng,"[Greenland, N.H. : The Town]|~|University of New Hampshire. Library. Digital Collections.",greenland_0020+application-pdf+application.pdf|~|greenland_0020+image-low-jpg+image-low.jpg|~|greenland_0020+image-tb-jpg+image-tb.jpg
Active,greenland:0021,greenland,http://www.archive.org/details/annualreportofto1950gree2|~|annualreportofto1950gree2|~|greenland:0021,"Annual report of the Town of Greenland, New Hampshire, 1950",1951,Title varies|~|Imprint varies|~|Report year varies,"University of New Hampshire. Library. Digital Collections.|~|Scanned by Internet Archive, Open Content Alliance (2010)",,,Text,Greenland (N.H. : Town) -- Appropriations and expenditures -- Periodicals,Greenland (N.H. : Town),,,Eng,"[Greenland, N.H. : The Town]|~|University of New Hampshire. Library. Digital Collections.",greenland_0021+application-pdf+application.pdf|~|greenland_0021+image-low-jpg+image-low.jpg|~|greenland_0021+image-tb-jpg+image-tb.jpg
Active,greenland:0022,greenland,http://www.archive.org/details/annualreportofto1951gree2|~|annualreportofto1951gree2|~|greenland:0022,"Annual report of the Town of Greenland, New Hampshire, 1951",1952,Title varies|~|Imprint varies|~|Report year varies,"University of New Hampshire. Library. Digital Collections.|~|Scanned by Internet Archive, Open Content Alliance (2010)",,,Text,Greenland (N.H. : Town) -- Appropriations and expenditures -- Periodicals,Greenland (N.H. : Town),,,Eng,"[Greenland, N.H. : The Town]|~|University of New Hampshire. Library. Digital Collections.",greenland_0022+application-pdf+application.pdf|~|greenland_0022+image-low-jpg+image-low.jpg|~|greenland_0022+image-tb-jpg+image-tb.jpg
Active,greenland:0023,greenland,http://www.archive.org/details/annualreportofto1952gree2|~|annualreportofto1952gree2|~|greenland:0023,"Annual report of the Town of Greenland, New Hampshire, 1952",1953,Title varies|~|Imprint varies|~|Report year varies,"University of New Hampshire. Library. Digital Collections.|~|Scanned by Internet Archive, Open Content Alliance (2010)",,,Text,Greenland (N.H. : Town) -- Appropriations and expenditures -- Periodicals,Greenland (N.H. : Town),,,Eng,"[Greenland, N.H. : The Town]|~|University of New Hampshire. Library. Digital Collections.",greenland_0023+application-pdf+application.pdf|~|greenland_0023+image-low-jpg+image-low.jpg|~|greenland_0023+image-tb-jpg+image-tb.jpg
Active,greenland:0024,greenland,http://www.archive.org/details/annualreportofto1953gree2|~|annualreportofto1953gree2|~|greenland:0024,"Annual report of the Town of Greenland, New Hampshire, 1953",1954,Title varies|~|Imprint varies|~|Report year varies,"University of New Hampshire. Library. Digital Collections.|~|Scanned by Internet Archive, Open Content Alliance (2010)",,,Text,Greenland (N.H. : Town) -- Appropriations and expenditures -- Periodicals,Greenland (N.H. : Town),,,Eng,"[Greenland, N.H. : The Town]|~|University of New Hampshire. Library. Digital Collections.",greenland_0024+application-pdf+application.pdf|~|greenland_0024+image-low-jpg+image-low.jpg|~|greenland_0024+image-tb-jpg+image-tb.jpg
Active,greenland:0025,greenland,http://www.archive.org/details/annualreportofto1954gree2|~|annualreportofto1954gree2|~|greenland:0025,"Annual report of the Town of Greenland, New Hampshire, 1954",1955,Title varies|~|Imprint varies|~|Report year varies,"University of New Hampshire. Library. Digital Collections.|~|Scanned by Internet Archive, Open Content Alliance (2010)",,,Text,Greenland (N.H. : Town) -- Appropriations and expenditures -- Periodicals,Greenland (N.H. : Town),,,Eng,"[Greenland, N.H. : The Town]|~|University of New Hampshire. Library. Digital Collections.",greenland_0025+application-pdf+application.pdf|~|greenland_0025+image-low-jpg+image-low.jpg|~|greenland_0025+image-tb-jpg+image-tb.jpg
Active,greenland:0026,greenland,http://www.archive.org/details/annualreportofto1955gree2|~|annualreportofto1955gree2|~|greenland:0026,"Annual report of the Town of Greenland, New Hampshire, 1955",1956,Title varies|~|Imprint varies|~|Report year varies,"University of New Hampshire. Library. Digital Collections.|~|Scanned by Internet Archive, Open Content Alliance (2010)",,,Text,Greenland (N.H. : Town) -- Appropriations and expenditures -- Periodicals,Greenland (N.H. : Town),,,Eng,"[Greenland, N.H. : The Town]|~|University of New Hampshire. Library. Digital Collections.",greenland_0026+application-pdf+application.pdf|~|greenland_0026+image-low-jpg+image-low.jpg|~|greenland_0026+image-tb-jpg+image-tb.jpg
Active,greenland:0027,greenland,http://www.archive.org/details/annualreportofto1956gree2|~|annualreportofto1956gree2|~|greenland:0027,"Annual report of the Town of Greenland, New Hampshire, 1956",1957,Title varies|~|Imprint varies|~|Report year varies,"University of New Hampshire. Library. Digital Collections.|~|Scanned by Internet Archive, Open Content Alliance (2010)",,,Text,Greenland (N.H. : Town) -- Appropriations and expenditures -- Periodicals,Greenland (N.H. : Town),,,Eng,"[Greenland, N.H. : The Town]|~|University of New Hampshire. Library. Digital Collections.",greenland_0027+application-pdf+application.pdf|~|greenland_0027+image-low-jpg+image-low.jpg|~|greenland_0027+image-tb-jpg+image-tb.jpg
Active,greenland:0028,greenland,http://www.archive.org/details/annualreportofto1957gree2|~|annualreportofto1957gree2|~|greenland:0028,"Annual report of the Town of Greenland, New Hampshire, 1957",1958,Title varies|~|Imprint varies|~|Report year varies,"University of New Hampshire. Library. Digital Collections.|~|Scanned by Internet Archive, Open Content Alliance (2010)",,,Text,Greenland (N.H. : Town) -- Appropriations and expenditures -- Periodicals,Greenland (N.H. : Town),,,Eng,"[Greenland, N.H. : The Town]|~|University of New Hampshire. Library. Digital Collections.",greenland_0028+application-pdf+application.pdf|~|greenland_0028+image-low-jpg+image-low.jpg|~|greenland_0028+image-tb-jpg+image-tb.jpg
Active,greenland:0029,greenland,http://www.archive.org/details/annualreportofto1958gree2|~|annualreportofto1958gree2|~|greenland:0029,"Annual report of the Town of Greenland, New Hampshire, 1958",1959,Title varies|~|Imprint varies|~|Report year varies,"University of New Hampshire. Library. Digital Collections.|~|Scanned by Internet Archive, Open Content Alliance (2010)",,,Text,Greenland (N.H. : Town) -- Appropriations and expenditures -- Periodicals,Greenland (N.H. : Town),,,Eng,"[Greenland, N.H. : The Town]|~|University of New Hampshire. Library. Digital Collections.",greenland_0029+application-pdf+application.pdf|~|greenland_0029+image-low-jpg+image-low.jpg|~|greenland_0029+image-tb-jpg+image-tb.jpg
Active,greenland:0030,greenland,http://www.archive.org/details/annualreportofto1959gree2|~|annualreportofto1959gree2|~|greenland:0030,"Annual report of the Town of Greenland, New Hampshire, 1959",1960,Title varies|~|Imprint varies|~|Report year varies,"University of New Hampshire. Library. Digital Collections.|~|Scanned by Internet Archive, Open Content Alliance (2010)",,,Text,Greenland (N.H. : Town) -- Appropriations and expenditures -- Periodicals,Greenland (N.H. : Town),,,Eng,"[Greenland, N.H. : The Town]|~|University of New Hampshire. Library. Digital Collections.",greenland_0030+application-pdf+application.pdf|~|greenland_0030+image-low-jpg+image-low.jpg|~|greenland_0030+image-tb-jpg+image-tb.jpg
Active,greenland:0031,greenland,http://www.archive.org/details/annualreportofto1960gree2|~|annualreportofto1960gree2|~|greenland:0031,"Annual report of the Town of Greenland, New Hampshire, 1960",1961,Title varies|~|Imprint varies|~|Report year varies,"University of New Hampshire. Library. Digital Collections.|~|Scanned by Internet Archive, Open Content Alliance (2010)",,,Text,Greenland (N.H. : Town) -- Appropriations and expenditures -- Periodicals,Greenland (N.H. : Town),,,Eng,"[Greenland, N.H. : The Town]|~|University of New Hampshire. Library. Digital Collections.",greenland_0031+application-pdf+application.pdf|~|greenland_0031+image-low-jpg+image-low.jpg|~|greenland_0031+image-tb-jpg+image-tb.jpg
Active,greenland:0032,greenland,http://www.archive.org/details/annualreportofto1961gree|~|annualreportofto1961gree|~|greenland:0032,"Annual report of the Town of Greenland, New Hampshire, 1961",1962,Title varies|~|Imprint varies|~|Report year varies,"University of New Hampshire. Library. Digital Collections.|~|Scanned by Internet Archive, Open Content Alliance (2010)",,,Text,Greenland (N.H. : Town) -- Appropriations and expenditures -- Periodicals,Greenland (N.H. : Town),,,Eng,"[Greenland, N.H. : The Town]|~|University of New Hampshire. Library. Digital Collections.",greenland_0032+application-pdf+application.pdf|~|greenland_0032+image-low-jpg+image-low.jpg|~|greenland_0032+image-tb-jpg+image-tb.jpg
Active,greenland:0033,greenland,http://www.archive.org/details/annualreportofto1962gree2|~|annualreportofto1962gree2|~|greenland:0033,"Annual report of the Town of Greenland, New Hampshire, 1962",1963,Title varies|~|Imprint varies|~|Report year varies,"University of New Hampshire. Library. Digital Collections.|~|Scanned by Internet Archive, Open Content Alliance (2010)",,,Text,Greenland (N.H. : Town) -- Appropriations and expenditures -- Periodicals,Greenland (N.H. : Town),,,Eng,"[Greenland, N.H. : The Town]|~|University of New Hampshire. Library. Digital Collections.",greenland_0033+application-pdf+application.pdf|~|greenland_0033+image-low-jpg+image-low.jpg|~|greenland_0033+image-tb-jpg+image-tb.jpg
Active,greenland:0034,greenland,http://www.archive.org/details/annualreportofto1963gree2|~|annualreportofto1963gree2|~|greenland:0034,"Annual report of the Town of Greenland, New Hampshire, 1963",1964,Title varies|~|Imprint varies|~|Report year varies,"University of New Hampshire. Library. Digital Collections.|~|Scanned by Internet Archive, Open Content Alliance (2010)",,,Text,Greenland (N.H. : Town) -- Appropriations and expenditures -- Periodicals,Greenland (N.H. : Town),,,Eng,"[Greenland, N.H. : The Town]|~|University of New Hampshire. Library. Digital Collections.",greenland_0034+application-pdf+application.pdf|~|greenland_0034+image-low-jpg+image-low.jpg|~|greenland_0034+image-tb-jpg+image-tb.jpg
Active,greenland:0035,greenland,http://www.archive.org/details/annualreportofto1964gree2|~|annualreportofto1964gree2|~|greenland:0035,"Annual report of the Town of Greenland, New Hampshire, 1964",1965,Title varies|~|Imprint varies|~|Report year varies,"University of New Hampshire. Library. Digital Collections.|~|Scanned by Internet Archive, Open Content Alliance (2010)",,,Text,Greenland (N.H. : Town) -- Appropriations and expenditures -- Periodicals,Greenland (N.H. : Town),,,Eng,"[Greenland, N.H. : The Town]|~|University of New Hampshire. Library. Digital Collections.",greenland_0035+application-pdf+application.pdf|~|greenland_0035+image-low-jpg+image-low.jpg|~|greenland_0035+image-tb-jpg+image-tb.jpg
Active,greenland:0036,greenland,http://www.archive.org/details/annualreportofto1965gree2|~|annualreportofto1965gree2|~|greenland:0036,"Annual report of the Town of Greenland, New Hampshire, 1965",1966,Title varies|~|Imprint varies|~|Report year varies,"University of New Hampshire. Library. Digital Collections.|~|Scanned by Internet Archive, Open Content Alliance (2010)",,,Text,Greenland (N.H. : Town) -- Appropriations and expenditures -- Periodicals,Greenland (N.H. : Town),,,Eng,"[Greenland, N.H. : The Town]|~|University of New Hampshire. Library. Digital Collections.",greenland_0036+application-pdf+application.pdf|~|greenland_0036+image-low-jpg+image-low.jpg|~|greenland_0036+image-tb-jpg+image-tb.jpg
Active,greenland:0037,greenland,http://www.archive.org/details/annualreportofto1966gree2|~|annualreportofto1966gree2|~|greenland:0037,"Annual report of the Town of Greenland, New Hampshire, 1966",1967,Title varies|~|Imprint varies|~|Report year varies,"University of New Hampshire. Library. Digital Collections.|~|Scanned by Internet Archive, Open Content Alliance (2010)",,,Text,Greenland (N.H. : Town) -- Appropriations and expenditures -- Periodicals,Greenland (N.H. : Town),,,Eng,"[Greenland, N.H. : The Town]|~|University of New Hampshire. Library. Digital Collections.",greenland_0037+application-pdf+application.pdf|~|greenland_0037+image-low-jpg+image-low.jpg|~|greenland_0037+image-tb-jpg+image-tb.jpg
Active,greenland:0038,greenland,http://www.archive.org/details/annualreportofto1967gree2|~|annualreportofto1967gree2|~|greenland:0038,"Annual report of the Town of Greenland, New Hampshire, 1967",1968,Title varies|~|Imprint varies|~|Report year varies,"University of New Hampshire. Library. Digital Collections.|~|Scanned by Internet Archive, Open Content Alliance (2010)",,,Text,Greenland (N.H. : Town) -- Appropriations and expenditures -- Periodicals,Greenland (N.H. : Town),,,Eng,"[Greenland, N.H. : The Town]|~|University of New Hampshire. Library. Digital Collections.",greenland_0038+application-pdf+application.pdf|~|greenland_0038+image-low-jpg+image-low.jpg|~|greenland_0038+image-tb-jpg+image-tb.jpg
Active,greenland:0039,greenland,http://www.archive.org/details/annualreportofto1968gree2|~|annualreportofto1968gree2|~|greenland:0039,"Annual report of the Town of Greenland, New Hampshire, 1968",1969,Title varies|~|Imprint varies|~|Report year varies,"University of New Hampshire. Library. Digital Collections.|~|Scanned by Internet Archive, Open Content Alliance (2010)",,,Text,Greenland (N.H. : Town) -- Appropriations and expenditures -- Periodicals,Greenland (N.H. : Town),,,Eng,"[Greenland, N.H. : The Town]|~|University of New Hampshire. Library. Digital Collections.",greenland_0039+application-pdf+application.pdf|~|greenland_0039+image-low-jpg+image-low.jpg|~|greenland_0039+image-tb-jpg+image-tb.jpg
Active,greenland:0040,greenland,http://www.archive.org/details/annualreportofto1969gree2|~|annualreportofto1969gree2|~|greenland:0040,"Annual report of the Town of Greenland, New Hampshire, 1969",1970,Title varies|~|Imprint varies|~|Report year varies,"University of New Hampshire. Library. Digital Collections.|~|Scanned by Internet Archive, Open Content Alliance (2010)",,,Text,Greenland (N.H. : Town) -- Appropriations and expenditures -- Periodicals,Greenland (N.H. : Town),,,Eng,"[Greenland, N.H. : The Town]|~|University of New Hampshire. Library. Digital Collections.",greenland_0040+application-pdf+application.pdf|~|greenland_0040+image-low-jpg+image-low.jpg|~|greenland_0040+image-tb-jpg+image-tb.jpg
Active,greenland:0041,greenland,http://www.archive.org/details/annualreportofto1970gree2|~|annualreportofto1970gree2|~|greenland:0041,"Annual report of the Town of Greenland, New Hampshire, 1970",1971,Title varies|~|Imprint varies|~|Report year varies,"University of New Hampshire. Library. Digital Collections.|~|Scanned by Internet Archive, Open Content Alliance (2010)",,,Text,Greenland (N.H. : Town) -- Appropriations and expenditures -- Periodicals,Greenland (N.H. : Town),,,Eng,"[Greenland, N.H. : The Town]|~|University of New Hampshire. Library. Digital Collections.",greenland_0041+application-pdf+application.pdf|~|greenland_0041+image-low-jpg+image-low.jpg|~|greenland_0041+image-tb-jpg+image-tb.jpg
Active,greenland:0042,greenland,http://www.archive.org/details/annualreportofto1971gree2|~|annualreportofto1971gree2|~|greenland:0042,"Annual report of the Town of Greenland, New Hampshire, 1971",1972,Title varies|~|Imprint varies|~|Report year varies,"University of New Hampshire. Library. Digital Collections.|~|Scanned by Internet Archive, Open Content Alliance (2010)",,,Text,Greenland (N.H. : Town) -- Appropriations and expenditures -- Periodicals,Greenland (N.H. : Town),,,Eng,"[Greenland, N.H. : The Town]|~|University of New Hampshire. Library. Digital Collections.",greenland_0042+application-pdf+application.pdf|~|greenland_0042+image-low-jpg+image-low.jpg|~|greenland_0042+image-tb-jpg+image-tb.jpg
Active,greenland:0043,greenland,http://www.archive.org/details/annualreportofto1972gree2|~|annualreportofto1972gree2|~|greenland:0043,"Annual report of the Town of Greenland, New Hampshire, 1972",1973,Title varies|~|Imprint varies|~|Report year varies,"University of New Hampshire. Library. Digital Collections.|~|Scanned by Internet Archive, Open Content Alliance (2010)",,,Text,Greenland (N.H. : Town) -- Appropriations and expenditures -- Periodicals,Greenland (N.H. : Town),,,Eng,"[Greenland, N.H. : The Town]|~|University of New Hampshire. Library. Digital Collections.",greenland_0043+application-pdf+application.pdf|~|greenland_0043+image-low-jpg+image-low.jpg|~|greenland_0043+image-tb-jpg+image-tb.jpg
Active,greenland:0044,greenland,http://www.archive.org/details/annualreportofto1973gree2|~|annualreportofto1973gree2|~|greenland:0044,"Annual report of the Town of Greenland, New Hampshire, 1973",1974,Title varies|~|Imprint varies|~|Report year varies,"University of New Hampshire. Library. Digital Collections.|~|Scanned by Internet Archive, Open Content Alliance (2010)",,,Text,Greenland (N.H. : Town) -- Appropriations and expenditures -- Periodicals,Greenland (N.H. : Town),,,Eng,"[Greenland, N.H. : The Town]|~|University of New Hampshire. Library. Digital Collections.",greenland_0044+application-pdf+application.pdf|~|greenland_0044+image-low-jpg+image-low.jpg|~|greenland_0044+image-tb-jpg+image-tb.jpg
Active,greenland:0045,greenland,http://www.archive.org/details/annualreportofto1974gree2|~|annualreportofto1974gree2|~|greenland:0045,"Annual report of the Town of Greenland, New Hampshire, 1974",1975,Title varies|~|Imprint varies|~|Report year varies,"University of New Hampshire. Library. Digital Collections.|~|Scanned by Internet Archive, Open Content Alliance (2010)",,,Text,Greenland (N.H. : Town) -- Appropriations and expenditures -- Periodicals,Greenland (N.H. : Town),,,Eng,"[Greenland, N.H. : The Town]|~|University of New Hampshire. Library. Digital Collections.",greenland_0045+application-pdf+application.pdf|~|greenland_0045+image-low-jpg+image-low.jpg|~|greenland_0045+image-tb-jpg+image-tb.jpg
Active,greenland:0046,greenland,http://www.archive.org/details/annualreportofto1976gree2|~|annualreportofto1976gree2|~|greenland:0046,"Annual report of the Town of Greenland, New Hampshire, 1976",1977,Title varies|~|Imprint varies|~|Report year varies,"University of New Hampshire. Library. Digital Collections.|~|Scanned by Internet Archive, Open Content Alliance (2010)",,,Text,Greenland (N.H. : Town) -- Appropriations and expenditures -- Periodicals,Greenland (N.H. : Town),,,Eng,"[Greenland, N.H. : The Town]|~|University of New Hampshire. Library. Digital Collections.",greenland_0046+application-pdf+application.pdf|~|greenland_0046+image-low-jpg+image-low.jpg|~|greenland_0046+image-tb-jpg+image-tb.jpg
Active,greenland:0047,greenland,http://www.archive.org/details/annualreportofto1977gree2|~|annualreportofto1977gree2|~|greenland:0047,"Annual report of the Town of Greenland, New Hampshire, 1977",1978,Title varies|~|Imprint varies|~|Report year varies,"University of New Hampshire. Library. Digital Collections.|~|Scanned by Internet Archive, Open Content Alliance (2010)",,,Text,Greenland (N.H. : Town) -- Appropriations and expenditures -- Periodicals,Greenland (N.H. : Town),,,Eng,"[Greenland, N.H. : The Town]|~|University of New Hampshire. Library. Digital Collections.",greenland_0047+application-pdf+application.pdf|~|greenland_0047+image-low-jpg+image-low.jpg|~|greenland_0047+image-tb-jpg+image-tb.jpg
Active,greenland:0048,greenland,http://www.archive.org/details/annualreportofto1978gree2|~|annualreportofto1978gree2|~|greenland:0048,"Annual report of the Town of Greenland, New Hampshire, 1978",1979,Title varies|~|Imprint varies|~|Report year varies,"University of New Hampshire. Library. Digital Collections.|~|Scanned by Internet Archive, Open Content Alliance (2010)",,,Text,Greenland (N.H. : Town) -- Appropriations and expenditures -- Periodicals,Greenland (N.H. : Town),,,Eng,"[Greenland, N.H. : The Town]|~|University of New Hampshire. Library. Digital Collections.",greenland_0048+application-pdf+application.pdf|~|greenland_0048+image-low-jpg+image-low.jpg|~|greenland_0048+image-tb-jpg+image-tb.jpg
Active,greenland:0049,greenland,http://www.archive.org/details/annualreportofto1979gree2|~|annualreportofto1979gree2|~|greenland:0049,"Annual report of the Town of Greenland, New Hampshire, 1979",1980,Title varies|~|Imprint varies|~|Report year varies,"University of New Hampshire. Library. Digital Collections.|~|Scanned by Internet Archive, Open Content Alliance (2010)",,,Text,Greenland (N.H. : Town) -- Appropriations and expenditures -- Periodicals,Greenland (N.H. : Town),,,Eng,"[Greenland, N.H. : The Town]|~|University of New Hampshire. Library. Digital Collections.",greenland_0049+application-pdf+application.pdf|~|greenland_0049+image-low-jpg+image-low.jpg|~|greenland_0049+image-tb-jpg+image-tb.jpg
Active,greenland:0050,greenland,http://www.archive.org/details/annualreportofto1980gree2|~|annualreportofto1980gree2|~|greenland:0050,"Annual report of the Town of Greenland, New Hampshire, 1980",1981,Title varies|~|Imprint varies|~|Report year varies,"University of New Hampshire. Library. Digital Collections.|~|Scanned by Internet Archive, Open Content Alliance (2010)",,,Text,Greenland (N.H. : Town) -- Appropriations and expenditures -- Periodicals,Greenland (N.H. : Town),,,Eng,"[Greenland, N.H. : The Town]|~|University of New Hampshire. Library. Digital Collections.",greenland_0050+application-pdf+application.pdf|~|greenland_0050+image-low-jpg+image-low.jpg|~|greenland_0050+image-tb-jpg+image-tb.jpg
Active,greenland:0051,greenland,http://www.archive.org/details/annualreportofto1981gree2|~|annualreportofto1981gree2|~|greenland:0051,"Annual report of the Town of Greenland, New Hampshire, 1981",1982,Title varies|~|Imprint varies|~|Report year varies,"University of New Hampshire. Library. Digital Collections.|~|Scanned by Internet Archive, Open Content Alliance (2010)",,,Text,Greenland (N.H. : Town) -- Appropriations and expenditures -- Periodicals,Greenland (N.H. : Town),,,Eng,"[Greenland, N.H. : The Town]|~|University of New Hampshire. Library. Digital Collections.",greenland_0051+application-pdf+application.pdf|~|greenland_0051+image-low-jpg+image-low.jpg|~|greenland_0051+image-tb-jpg+image-tb.jpg
Active,greenland:0052,greenland,http://www.archive.org/details/annualreportofto1982gree2|~|annualreportofto1982gree2|~|greenland:0052,"Annual report of the Town of Greenland, New Hampshire, 1982",1983,Title varies|~|Imprint varies|~|Report year varies,"University of New Hampshire. Library. Digital Collections.|~|Scanned by Internet Archive, Open Content Alliance (2010)",,,Text,Greenland (N.H. : Town) -- Appropriations and expenditures -- Periodicals,Greenland (N.H. : Town),,,Eng,"[Greenland, N.H. : The Town]|~|University of New Hampshire. Library. Digital Collections.",greenland_0052+application-pdf+application.pdf|~|greenland_0052+image-low-jpg+image-low.jpg|~|greenland_0052+image-tb-jpg+image-tb.jpg
Active,greenland:0053,greenland,http://www.archive.org/details/annualreportofto1983gree2|~|annualreportofto1983gree2|~|greenland:0053,"Annual report of the Town of Greenland, New Hampshire, 1983",1984,Title varies|~|Imprint varies|~|Report year varies,"University of New Hampshire. Library. Digital Collections.|~|Scanned by Internet Archive, Open Content Alliance (2010)",,,Text,Greenland (N.H. : Town) -- Appropriations and expenditures -- Periodicals,Greenland (N.H. : Town),,,Eng,"[Greenland, N.H. : The Town]|~|University of New Hampshire. Library. Digital Collections.",greenland_0053+application-pdf+application.pdf|~|greenland_0053+image-low-jpg+image-low.jpg|~|greenland_0053+image-tb-jpg+image-tb.jpg
Active,greenland:0054,greenland,http://www.archive.org/details/annualreportofto1984gree|~|annualreportofto1984gree|~|greenland:0054,"Annual report of the Town of Greenland, New Hampshire, 1984",1985,Title varies|~|Imprint varies|~|Report year varies,"University of New Hampshire. Library. Digital Collections.|~|Scanned by Internet Archive, Open Content Alliance (2010)",,,Text,Greenland (N.H. : Town) -- Appropriations and expenditures -- Periodicals,Greenland (N.H. : Town),,,Eng,"[Greenland, N.H. : The Town]|~|University of New Hampshire. Library. Digital Collections.",greenland_0054+application-pdf+application.pdf|~|greenland_0054+image-low-jpg+image-low.jpg|~|greenland_0054+image-tb-jpg+image-tb.jpg
Active,greenland:0055,greenland,http://www.archive.org/details/annualreportofto1985gree2|~|annualreportofto1985gree2|~|greenland:0055,"Annual report of the Town of Greenland, New Hampshire, 1985",1986,Title varies|~|Imprint varies|~|Report year varies,"University of New Hampshire. Library. Digital Collections.|~|Scanned by Internet Archive, Open Content Alliance (2010)",,,Text,Greenland (N.H. : Town) -- Appropriations and expenditures -- Periodicals,Greenland (N.H. : Town),,,Eng,"[Greenland, N.H. : The Town]|~|University of New Hampshire. Library. Digital Collections.",greenland_0055+application-pdf+application.pdf|~|greenland_0055+image-low-jpg+image-low.jpg|~|greenland_0055+image-tb-jpg+image-tb.jpg
Active,greenland:0056,greenland,http://www.archive.org/details/annualreportofto1986gree2|~|annualreportofto1986gree2|~|greenland:0056,"Annual report of the Town of Greenland, New Hampshire, 1986",1987,Title varies|~|Imprint varies|~|Report year varies,"University of New Hampshire. Library. Digital Collections.|~|Scanned by Internet Archive, Open Content Alliance (2010)",,,Text,Greenland (N.H. : Town) -- Appropriations and expenditures -- Periodicals,Greenland (N.H. : Town),,,Eng,"[Greenland, N.H. : The Town]|~|University of New Hampshire. Library. Digital Collections.",greenland_0056+application-pdf+application.pdf|~|greenland_0056+image-low-jpg+image-low.jpg|~|greenland_0056+image-tb-jpg+image-tb.jpg
Active,greenland:0057,greenland,http://www.archive.org/details/annualreportofto1987gree2|~|annualreportofto1987gree2|~|greenland:0057,"Annual report of the Town of Greenland, New Hampshire, 1987",1988,Title varies|~|Imprint varies|~|Report year varies,"University of New Hampshire. Library. Digital Collections.|~|Scanned by Internet Archive, Open Content Alliance (2010)",,,Text,Greenland (N.H. : Town) -- Appropriations and expenditures -- Periodicals,Greenland (N.H. : Town),,,Eng,"[Greenland, N.H. : The Town]|~|University of New Hampshire. Library. Digital Collections.",greenland_0057+application-pdf+application.pdf|~|greenland_0057+image-low-jpg+image-low.jpg|~|greenland_0057+image-tb-jpg+image-tb.jpg
Active,greenland:0058,greenland,http://www.archive.org/details/annualreportofto1988gree2|~|annualreportofto1988gree2|~|greenland:0058,"Annual report of the Town of Greenland, New Hampshire, 1988",1989,Title varies|~|Imprint varies|~|Report year varies,"University of New Hampshire. Library. Digital Collections.|~|Scanned by Internet Archive, Open Content Alliance (2010)",,,Text,Greenland (N.H. : Town) -- Appropriations and expenditures -- Periodicals,Greenland (N.H. : Town),,,Eng,"[Greenland, N.H. : The Town]|~|University of New Hampshire. Library. Digital Collections.",greenland_0058+application-pdf+application.pdf|~|greenland_0058+image-low-jpg+image-low.jpg|~|greenland_0058+image-tb-jpg+image-tb.jpg
Active,greenland:0059,greenland,http://www.archive.org/details/annualreportofto1989gree2|~|annualreportofto1989gree2|~|greenland:0059,"Annual report of the Town of Greenland, New Hampshire, 1989",1990,Title varies|~|Imprint varies|~|Report year varies,"University of New Hampshire. Library. Digital Collections.|~|Scanned by Internet Archive, Open Content Alliance (2010)",,,Text,Greenland (N.H. : Town) -- Appropriations and expenditures -- Periodicals,Greenland (N.H. : Town),,,Eng,"[Greenland, N.H. : The Town]|~|University of New Hampshire. Library. Digital Collections.",greenland_0059+application-pdf+application.pdf|~|greenland_0059+image-low-jpg+image-low.jpg|~|greenland_0059+image-tb-jpg+image-tb.jpg
Active,greenland:0060,greenland,http://www.archive.org/details/annualreportofto1990gree2|~|annualreportofto1990gree2|~|greenland:0060,"Annual report of the Town of Greenland, New Hampshire, 1990",1991,Title varies|~|Imprint varies|~|Report year varies,"University of New Hampshire. Library. Digital Collections.|~|Scanned by Internet Archive, Open Content Alliance (2010)",,,Text,Greenland (N.H. : Town) -- Appropriations and expenditures -- Periodicals,Greenland (N.H. : Town),,,Eng,"[Greenland, N.H. : The Town]|~|University of New Hampshire. Library. Digital Collections.",greenland_0060+application-pdf+application.pdf|~|greenland_0060+image-low-jpg+image-low.jpg|~|greenland_0060+image-tb-jpg+image-tb.jpg
Active,greenland:0061,greenland,http://www.archive.org/details/annualreportofto1991gree2|~|annualreportofto1991gree2|~|greenland:0061,"Annual report of the Town of Greenland, New Hampshire, 1991",1992,Title varies|~|Imprint varies|~|Report year varies,"University of New Hampshire. Library. Digital Collections.|~|Scanned by Internet Archive, Open Content Alliance (2010)",,,Text,Greenland (N.H. : Town) -- Appropriations and expenditures -- Periodicals,Greenland (N.H. : Town),,,Eng,"[Greenland, N.H. : The Town]|~|University of New Hampshire. Library. Digital Collections.",greenland_0061+application-pdf+application.pdf|~|greenland_0061+image-low-jpg+image-low.jpg|~|greenland_0061+image-tb-jpg+image-tb.jpg
Active,greenland:0062,greenland,http://www.archive.org/details/annualreportofto1992gree2|~|annualreportofto1992gree2|~|greenland:0062,"Annual report of the Town of Greenland, New Hampshire, 1992",1993,Title varies|~|Imprint varies|~|Report year varies,"University of New Hampshire. Library. Digital Collections.|~|Scanned by Internet Archive, Open Content Alliance (2010)",,,Text,Greenland (N.H. : Town) -- Appropriations and expenditures -- Periodicals,Greenland (N.H. : Town),,,Eng,"[Greenland, N.H. : The Town]|~|University of New Hampshire. Library. Digital Collections.",greenland_0062+application-pdf+application.pdf|~|greenland_0062+image-low-jpg+image-low.jpg|~|greenland_0062+image-tb-jpg+image-tb.jpg
Active,greenland:0063,greenland,http://www.archive.org/details/annualreportofto1993gree2|~|annualreportofto1993gree2|~|greenland:0063,"Annual report of the Town of Greenland, New Hampshire, 1993",1994,Title varies|~|Imprint varies|~|Report year varies,"University of New Hampshire. Library. Digital Collections.|~|Scanned by Internet Archive, Open Content Alliance (2010)",,,Text,Greenland (N.H. : Town) -- Appropriations and expenditures -- Periodicals,Greenland (N.H. : Town),,,Eng,"[Greenland, N.H. : The Town]|~|University of New Hampshire. Library. Digital Collections.",greenland_0063+application-pdf+application.pdf|~|greenland_0063+image-low-jpg+image-low.jpg|~|greenland_0063+image-tb-jpg+image-tb.jpg
Active,greenland:0064,greenland,http://www.archive.org/details/annualreportofto1994gree2|~|annualreportofto1994gree2|~|greenland:0064,"Annual report of the Town of Greenland, New Hampshire, 1994",1995,Title varies|~|Imprint varies|~|Report year varies,"University of New Hampshire. Library. Digital Collections.|~|Scanned by Internet Archive, Open Content Alliance (2010)",,,Text,Greenland (N.H. : Town) -- Appropriations and expenditures -- Periodicals,Greenland (N.H. : Town),,,Eng,"[Greenland, N.H. : The Town]|~|University of New Hampshire. Library. Digital Collections.",greenland_0064+application-pdf+application.pdf|~|greenland_0064+image-low-jpg+image-low.jpg|~|greenland_0064+image-tb-jpg+image-tb.jpg
Active,greenland:0065,greenland,http://www.archive.org/details/annualreportofto1995gree2|~|annualreportofto1995gree2|~|greenland:0065,"Annual report of the Town of Greenland, New Hampshire, 1995",1996,Title varies|~|Imprint varies|~|Report year varies,"University of New Hampshire. Library. Digital Collections.|~|Scanned by Internet Archive, Open Content Alliance (2010)",,,Text,Greenland (N.H. : Town) -- Appropriations and expenditures -- Periodicals,Greenland (N.H. : Town),,,Eng,"[Greenland, N.H. : The Town]|~|University of New Hampshire. Library. Digital Collections.",greenland_0065+application-pdf+application.pdf|~|greenland_0065+image-low-jpg+image-low.jpg|~|greenland_0065+image-tb-jpg+image-tb.jpg
Active,greenland:0066,greenland,http://www.archive.org/details/annualreportofto1996gree2|~|annualreportofto1996gree2|~|greenland:0066,"Annual report of the Town of Greenland, New Hampshire, 1996",1997,Title varies|~|Imprint varies|~|Report year varies,"University of New Hampshire. Library. Digital Collections.|~|Scanned by Internet Archive, Open Content Alliance (2010)",,,Text,Greenland (N.H. : Town) -- Appropriations and expenditures -- Periodicals,Greenland (N.H. : Town),,,Eng,"[Greenland, N.H. : The Town]|~|University of New Hampshire. Library. Digital Collections.",greenland_0066+application-pdf+application.pdf|~|greenland_0066+image-low-jpg+image-low.jpg|~|greenland_0066+image-tb-jpg+image-tb.jpg
Active,greenland:0067,greenland,http://www.archive.org/details/annualreportofto1997gree2|~|annualreportofto1997gree2|~|greenland:0067,"Annual report of the Town of Greenland, New Hampshire, 1997",1998,Title varies|~|Imprint varies|~|Report year varies,"University of New Hampshire. Library. Digital Collections.|~|Scanned by Internet Archive, Open Content Alliance (2010)",,,Text,Greenland (N.H. : Town) -- Appropriations and expenditures -- Periodicals,Greenland (N.H. : Town),,,Eng,"[Greenland, N.H. : The Town]|~|University of New Hampshire. Library. Digital Collections.",greenland_0067+application-pdf+application.pdf|~|greenland_0067+image-low-jpg+image-low.jpg|~|greenland_0067+image-tb-jpg+image-tb.jpg
Active,greenland:0068,greenland,http://www.archive.org/details/annualreportofto1998gree2|~|annualreportofto1998gree2|~|greenland:0068,"Annual report of the Town of Greenland, New Hampshire, 1998",1999,Title varies|~|Imprint varies|~|Report year varies,"University of New Hampshire. Library. Digital Collections.|~|Scanned by Internet Archive, Open Content Alliance (2010)",,,Text,Greenland (N.H. : Town) -- Appropriations and expenditures -- Periodicals,Greenland (N.H. : Town),,,Eng,"[Greenland, N.H. : The Town]|~|University of New Hampshire. Library. Digital Collections.",greenland_0068+application-pdf+application.pdf|~|greenland_0068+image-low-jpg+image-low.jpg|~|greenland_0068+image-tb-jpg+image-tb.jpg
Active,greenland:0069,greenland,http://www.archive.org/details/annualreportofto1999gree2|~|annualreportofto1999gree2|~|greenland:0069,"Annual report of the Town of Greenland, New Hampshire, 1999",2000,Title varies|~|Imprint varies|~|Report year varies,"University of New Hampshire. Library. Digital Collections.|~|Scanned by Internet Archive, Open Content Alliance (2010)",,,Text,Greenland (N.H. : Town) -- Appropriations and expenditures -- Periodicals,Greenland (N.H. : Town),,,Eng,"[Greenland, N.H. : The Town]|~|University of New Hampshire. Library. Digital Collections.",greenland_0069+application-pdf+application.pdf|~|greenland_0069+image-low-jpg+image-low.jpg|~|greenland_0069+image-tb-jpg+image-tb.jpg
Active,greenland:0070,greenland,http://www.archive.org/details/annualreportofto2000gree2|~|annualreportofto2000gree2|~|greenland:0070,"Annual report of the Town of Greenland, New Hampshire, 2000",2001,Title varies|~|Imprint varies|~|Report year varies,"University of New Hampshire. Library. Digital Collections.|~|Scanned by Internet Archive, Open Content Alliance (2010)",,,Text,Greenland (N.H. : Town) -- Appropriations and expenditures -- Periodicals,Greenland (N.H. : Town),,,Eng,"[Greenland, N.H. : The Town]|~|University of New Hampshire. Library. Digital Collections.",greenland_0070+application-pdf+application.pdf|~|greenland_0070+image-low-jpg+image-low.jpg|~|greenland_0070+image-tb-jpg+image-tb.jpg
Active,greenland:0071,greenland,http://www.archive.org/details/annualreportofto2001gree2|~|annualreportofto2001gree2|~|greenland:0071,"Annual report of the Town of Greenland, New Hampshire, 2001",2002,Title varies|~|Imprint varies|~|Report year varies,"University of New Hampshire. Library. Digital Collections.|~|Scanned by Internet Archive, Open Content Alliance (2010)",,,Text,Greenland (N.H. : Town) -- Appropriations and expenditures -- Periodicals,Greenland (N.H. : Town),,,Eng,"[Greenland, N.H. : The Town]|~|University of New Hampshire. Library. Digital Collections.",greenland_0071+application-pdf+application.pdf|~|greenland_0071+image-low-jpg+image-low.jpg|~|greenland_0071+image-tb-jpg+image-tb.jpg
Active,greenland:0072,greenland,http://www.archive.org/details/annualreportofto2002gree2|~|annualreportofto2002gree2|~|greenland:0072,"Annual report of the Town of Greenland, New Hampshire, 2002",2003,Title varies|~|Imprint varies|~|Report year varies,"University of New Hampshire. Library. Digital Collections.|~|Scanned by Internet Archive, Open Content Alliance (2010)",,,Text,Greenland (N.H. : Town) -- Appropriations and expenditures -- Periodicals,Greenland (N.H. : Town),,,Eng,"[Greenland, N.H. : The Town]|~|University of New Hampshire. Library. Digital Collections.",greenland_0072+application-pdf+application.pdf|~|greenland_0072+image-low-jpg+image-low.jpg|~|greenland_0072+image-tb-jpg+image-tb.jpg
Active,greenland:0073,greenland,http://www.archive.org/details/annualreportofto2003gree2|~|annualreportofto2003gree2|~|greenland:0073,"Annual report of the Town of Greenland, New Hampshire, 2003",2004,Title varies|~|Imprint varies|~|Report year varies,"University of New Hampshire. Library. Digital Collections.|~|Scanned by Internet Archive, Open Content Alliance (2010)",,,Text,Greenland (N.H. : Town) -- Appropriations and expenditures -- Periodicals,Greenland (N.H. : Town),,,Eng,"[Greenland, N.H. : The Town]|~|University of New Hampshire. Library. Digital Collections.",greenland_0073+application-pdf+application.pdf|~|greenland_0073+image-low-jpg+image-low.jpg|~|greenland_0073+image-tb-jpg+image-tb.jpg
Active,greenland:0074,greenland,http://www.archive.org/details/annualreportofto2004gree2|~|annualreportofto2004gree2|~|greenland:0074,"Annual report of the Town of Greenland, New Hampshire, 2004",2005,Title varies|~|Imprint varies|~|Report year varies,"University of New Hampshire. Library. Digital Collections.|~|Scanned by Internet Archive, Open Content Alliance (2010)",,,Text,Greenland (N.H. : Town) -- Appropriations and expenditures -- Periodicals,Greenland (N.H. : Town),,,Eng,"[Greenland, N.H. : The Town]|~|University of New Hampshire. Library. Digital Collections.",greenland_0074+application-pdf+application.pdf|~|greenland_0074+image-low-jpg+image-low.jpg|~|greenland_0074+image-tb-jpg+image-tb.jpg
Active,greenland:0075,greenland,http://www.archive.org/details/annualreportofto2007gree|~|annualreportofto2007gree|~|greenland:0075,"Annual report of the Town of Greenland, New Hampshire, 2007",2008,Title varies|~|Imprint varies|~|Report year varies,"University of New Hampshire. Library. Digital Collections.|~|Scanned by Internet Archive, Open Content Alliance (2010)",,,Text,Greenland (N.H. : Town) -- Appropriations and expenditures -- Periodicals,Greenland (N.H. : Town),,,Eng,"[Greenland, N.H. : The Town]|~|University of New Hampshire. Library. Digital Collections.",greenland_0075+application-pdf+application.pdf|~|greenland_0075+image-low-jpg+image-low.jpg|~|greenland_0075+image-tb-jpg+image-tb.jpg
Active,greenland:0076,greenland,http://www.archive.org/details/annualreportofto2008gree|~|annualreportofto2008gree|~|greenland:0076,"Annual report of the Town of Greenland, New Hampshire, 2008",2009,Title varies|~|Imprint varies|~|Report year varies,"University of New Hampshire. Library. Digital Collections.|~|Scanned by Internet Archive, Open Content Alliance (2010)",,,Text,Greenland (N.H. : Town) -- Appropriations and expenditures -- Periodicals,Greenland (N.H. : Town),,,Eng,"[Greenland, N.H. : The Town]|~|University of New Hampshire. Library. Digital Collections.",greenland_0076+application-pdf+application.pdf|~|greenland_0076+image-low-jpg+image-low.jpg|~|greenland_0076+image-tb-jpg+image-tb.jpg
Active,greenland:0077,greenland,http://www.archive.org/details/annualreportofto2009gree|~|annualreportofto2009gree|~|greenland:0077,"Annual report of the Town of Greenland, New Hampshire, 2009",2010,Title varies|~|Imprint varies|~|Report year varies,"University of New Hampshire. Library. Digital Collections.|~|Scanned by Internet Archive, Open Content Alliance (2010)",,,Text,Greenland (N.H. : Town) -- Appropriations and expenditures -- Periodicals,Greenland (N.H. : Town),,,Eng,"[Greenland, N.H. : The Town]|~|University of New Hampshire. Library. Digital Collections.",greenland_0077+application-pdf+application.pdf|~|greenland_0077+image-low-jpg+image-low.jpg|~|greenland_0077+image-tb-jpg+image-tb.jpg
