state,pid,collection,dcterms:identifier,dcterms:title,dcterms:date,dcterms:description,dcterms:contributor,dcterms:rights,dcterms:format,dcterms:type,dcterms:subject,dcterms:creator,dcterms:relation,dcterms:coverage,dcterms:language,dcterms:publisher,files
Active,greenville:0001,greenville,http://www.archive.org/details/annualreportofto1917gr|~|annualreportofto1917gr|~|greenville:0001,"Annual report of the Town of Greenville, New Hampshire, 1917",1917,Title varies|~|Imprint varies|~|Report year varies,"University of New Hampshire. Library. Digital Collections.|~|Scanned by Internet Archive, Open Content Alliance (2010)",,,Text,Greenville (N.H. : Town) -- Appropriations and expenditures -- Periodicals,Greenville (N.H. : Town),,,Eng,"[Greenville, N.H. : The Town]|~|University of New Hampshire. Library. Digital Collections.",greenville_0001+application-pdf+application.pdf|~|greenville_0001+image-low-jpg+image-low.jpg|~|greenville_0001+image-tb-jpg+image-tb.jpg
Active,greenville:0002,greenville,http://www.archive.org/details/annualreportofto1925gr|~|annualreportofto1925gr|~|greenville:0002,"Annual report of the Town of Greenville, New Hampshire, 1925",1925,Title varies|~|Imprint varies|~|Report year varies,"University of New Hampshire. Library. Digital Collections.|~|Scanned by Internet Archive, Open Content Alliance (2010)",,,Text,Greenville (N.H. : Town) -- Appropriations and expenditures -- Periodicals,Greenville (N.H. : Town),,,Eng,"[Greenville, N.H. : The Town]|~|University of New Hampshire. Library. Digital Collections.",greenville_0002+application-pdf+application.pdf|~|greenville_0002+image-low-jpg+image-low.jpg|~|greenville_0002+image-tb-jpg+image-tb.jpg
Active,greenville:0003,greenville,http://www.archive.org/details/annualreportofto1934gr|~|annualreportofto1934gr|~|greenville:0003,"Annual report of the Town of Greenville, New Hampshire, 1934",1934,Title varies|~|Imprint varies|~|Report year varies,"University of New Hampshire. Library. Digital Collections.|~|Scanned by Internet Archive, Open Content Alliance (2010)",,,Text,Greenville (N.H. : Town) -- Appropriations and expenditures -- Periodicals,Greenville (N.H. : Town),,,Eng,"[Greenville, N.H. : The Town]|~|University of New Hampshire. Library. Digital Collections.",greenville_0003+application-pdf+application.pdf|~|greenville_0003+image-low-jpg+image-low.jpg|~|greenville_0003+image-tb-jpg+image-tb.jpg
Active,greenville:0004,greenville,http://www.archive.org/details/annualreportofto1935gr|~|annualreportofto1935gr|~|greenville:0004,"Annual report of the Town of Greenville, New Hampshire, 1935",1935,Title varies|~|Imprint varies|~|Report year varies,"University of New Hampshire. Library. Digital Collections.|~|Scanned by Internet Archive, Open Content Alliance (2010)",,,Text,Greenville (N.H. : Town) -- Appropriations and expenditures -- Periodicals,Greenville (N.H. : Town),,,Eng,"[Greenville, N.H. : The Town]|~|University of New Hampshire. Library. Digital Collections.",greenville_0004+application-pdf+application.pdf|~|greenville_0004+image-low-jpg+image-low.jpg|~|greenville_0004+image-tb-jpg+image-tb.jpg
Active,greenville:0005,greenville,http://www.archive.org/details/annualreportofto1937gr|~|annualreportofto1937gr|~|greenville:0005,"Annual report of the Town of Greenville, New Hampshire, 1937",1937,Title varies|~|Imprint varies|~|Report year varies,"University of New Hampshire. Library. Digital Collections.|~|Scanned by Internet Archive, Open Content Alliance (2010)",,,Text,Greenville (N.H. : Town) -- Appropriations and expenditures -- Periodicals,Greenville (N.H. : Town),,,Eng,"[Greenville, N.H. : The Town]|~|University of New Hampshire. Library. Digital Collections.",greenville_0005+application-pdf+application.pdf|~|greenville_0005+image-low-jpg+image-low.jpg|~|greenville_0005+image-tb-jpg+image-tb.jpg
Active,greenville:0006,greenville,http://www.archive.org/details/annualreportofto1938gr|~|annualreportofto1938gr|~|greenville:0006,"Annual report of the Town of Greenville, New Hampshire, 1938",1938,Title varies|~|Imprint varies|~|Report year varies,"University of New Hampshire. Library. Digital Collections.|~|Scanned by Internet Archive, Open Content Alliance (2010)",,,Text,Greenville (N.H. : Town) -- Appropriations and expenditures -- Periodicals,Greenville (N.H. : Town),,,Eng,"[Greenville, N.H. : The Town]|~|University of New Hampshire. Library. Digital Collections.",greenville_0006+application-pdf+application.pdf|~|greenville_0006+image-low-jpg+image-low.jpg|~|greenville_0006+image-tb-jpg+image-tb.jpg
Active,greenville:0007,greenville,http://www.archive.org/details/annualreportofto1939gr|~|annualreportofto1939gr|~|greenville:0007,"Annual report of the Town of Greenville, New Hampshire, 1939",1939,Title varies|~|Imprint varies|~|Report year varies,"University of New Hampshire. Library. Digital Collections.|~|Scanned by Internet Archive, Open Content Alliance (2010)",,,Text,Greenville (N.H. : Town) -- Appropriations and expenditures -- Periodicals,Greenville (N.H. : Town),,,Eng,"[Greenville, N.H. : The Town]|~|University of New Hampshire. Library. Digital Collections.",greenville_0007+application-pdf+application.pdf|~|greenville_0007+image-low-jpg+image-low.jpg|~|greenville_0007+image-tb-jpg+image-tb.jpg
Active,greenville:0008,greenville,http://www.archive.org/details/annualreportofto1940gr|~|annualreportofto1940gr|~|greenville:0008,"Annual report of the Town of Greenville, New Hampshire, 1940",1940,Title varies|~|Imprint varies|~|Report year varies,"University of New Hampshire. Library. Digital Collections.|~|Scanned by Internet Archive, Open Content Alliance (2010)",,,Text,Greenville (N.H. : Town) -- Appropriations and expenditures -- Periodicals,Greenville (N.H. : Town),,,Eng,"[Greenville, N.H. : The Town]|~|University of New Hampshire. Library. Digital Collections.",greenville_0008+application-pdf+application.pdf|~|greenville_0008+image-low-jpg+image-low.jpg|~|greenville_0008+image-tb-jpg+image-tb.jpg
Active,greenville:0009,greenville,http://www.archive.org/details/annualreportofto1941gr|~|annualreportofto1941gr|~|greenville:0009,"Annual report of the Town of Greenville, New Hampshire, 1941",1941,Title varies|~|Imprint varies|~|Report year varies,"University of New Hampshire. Library. Digital Collections.|~|Scanned by Internet Archive, Open Content Alliance (2010)",,,Text,Greenville (N.H. : Town) -- Appropriations and expenditures -- Periodicals,Greenville (N.H. : Town),,,Eng,"[Greenville, N.H. : The Town]|~|University of New Hampshire. Library. Digital Collections.",greenville_0009+application-pdf+application.pdf|~|greenville_0009+image-low-jpg+image-low.jpg|~|greenville_0009+image-tb-jpg+image-tb.jpg
Active,greenville:0010,greenville,http://www.archive.org/details/annualreportofto1942gr|~|annualreportofto1942gr|~|greenville:0010,"Annual report of the Town of Greenville, New Hampshire, 1942",1942,Title varies|~|Imprint varies|~|Report year varies,"University of New Hampshire. Library. Digital Collections.|~|Scanned by Internet Archive, Open Content Alliance (2010)",,,Text,Greenville (N.H. : Town) -- Appropriations and expenditures -- Periodicals,Greenville (N.H. : Town),,,Eng,"[Greenville, N.H. : The Town]|~|University of New Hampshire. Library. Digital Collections.",greenville_0010+application-pdf+application.pdf|~|greenville_0010+image-low-jpg+image-low.jpg|~|greenville_0010+image-tb-jpg+image-tb.jpg
Active,greenville:0011,greenville,http://www.archive.org/details/annualreportofto1943gr|~|annualreportofto1943gr|~|greenville:0011,"Annual report of the Town of Greenville, New Hampshire, 1943",1943,Title varies|~|Imprint varies|~|Report year varies,"University of New Hampshire. Library. Digital Collections.|~|Scanned by Internet Archive, Open Content Alliance (2010)",,,Text,Greenville (N.H. : Town) -- Appropriations and expenditures -- Periodicals,Greenville (N.H. : Town),,,Eng,"[Greenville, N.H. : The Town]|~|University of New Hampshire. Library. Digital Collections.",greenville_0011+application-pdf+application.pdf|~|greenville_0011+image-low-jpg+image-low.jpg|~|greenville_0011+image-tb-jpg+image-tb.jpg
Active,greenville:0012,greenville,http://www.archive.org/details/annualreportofto1944gr|~|annualreportofto1944gr|~|greenville:0012,"Annual report of the Town of Greenville, New Hampshire, 1944",1944,Title varies|~|Imprint varies|~|Report year varies,"University of New Hampshire. Library. Digital Collections.|~|Scanned by Internet Archive, Open Content Alliance (2010)",,,Text,Greenville (N.H. : Town) -- Appropriations and expenditures -- Periodicals,Greenville (N.H. : Town),,,Eng,"[Greenville, N.H. : The Town]|~|University of New Hampshire. Library. Digital Collections.",greenville_0012+application-pdf+application.pdf|~|greenville_0012+image-low-jpg+image-low.jpg|~|greenville_0012+image-tb-jpg+image-tb.jpg
Active,greenville:0013,greenville,http://www.archive.org/details/annualreportofto44gr|~|annualreportofto44gr|~|greenville:0013,"Annual report of the Town of Greenville, New Hampshire, 1944",1945,Title varies|~|Imprint varies|~|Report year varies,"University of New Hampshire. Library. Digital Collections.|~|Scanned by Internet Archive, Open Content Alliance (2010)",,,Text,Greenville (N.H. : Town) -- Appropriations and expenditures -- Periodicals,Greenville (N.H. : Town),,,Eng,"[Greenville, N.H. : The Town]|~|University of New Hampshire. Library. Digital Collections.",greenville_0013+application-pdf+application.pdf|~|greenville_0013+image-low-jpg+image-low.jpg|~|greenville_0013+image-tb-jpg+image-tb.jpg
Active,greenville:0014,greenville,http://www.archive.org/details/annualreportofto1945gr|~|annualreportofto1945gr|~|greenville:0014,"Annual report of the Town of Greenville, New Hampshire, 1945",1946,Title varies|~|Imprint varies|~|Report year varies,"University of New Hampshire. Library. Digital Collections.|~|Scanned by Internet Archive, Open Content Alliance (2010)",,,Text,Greenville (N.H. : Town) -- Appropriations and expenditures -- Periodicals,Greenville (N.H. : Town),,,Eng,"[Greenville, N.H. : The Town]|~|University of New Hampshire. Library. Digital Collections.",greenville_0014+application-pdf+application.pdf|~|greenville_0014+image-low-jpg+image-low.jpg|~|greenville_0014+image-tb-jpg+image-tb.jpg
Active,greenville:0015,greenville,http://www.archive.org/details/annualreportofto1946gr|~|annualreportofto1946gr|~|greenville:0015,"Annual report of the Town of Greenville, New Hampshire, 1946",1947,Title varies|~|Imprint varies|~|Report year varies,"University of New Hampshire. Library. Digital Collections.|~|Scanned by Internet Archive, Open Content Alliance (2010)",,,Text,Greenville (N.H. : Town) -- Appropriations and expenditures -- Periodicals,Greenville (N.H. : Town),,,Eng,"[Greenville, N.H. : The Town]|~|University of New Hampshire. Library. Digital Collections.",greenville_0015+application-pdf+application.pdf|~|greenville_0015+image-low-jpg+image-low.jpg|~|greenville_0015+image-tb-jpg+image-tb.jpg
Active,greenville:0016,greenville,http://www.archive.org/details/annualreportofto1947gr|~|annualreportofto1947gr|~|greenville:0016,"Annual report of the Town of Greenville, New Hampshire, 1947",1948,Title varies|~|Imprint varies|~|Report year varies,"University of New Hampshire. Library. Digital Collections.|~|Scanned by Internet Archive, Open Content Alliance (2010)",,,Text,Greenville (N.H. : Town) -- Appropriations and expenditures -- Periodicals,Greenville (N.H. : Town),,,Eng,"[Greenville, N.H. : The Town]|~|University of New Hampshire. Library. Digital Collections.",greenville_0016+application-pdf+application.pdf|~|greenville_0016+image-low-jpg+image-low.jpg|~|greenville_0016+image-tb-jpg+image-tb.jpg
Active,greenville:0017,greenville,http://www.archive.org/details/annualreportofto1948gr|~|annualreportofto1948gr|~|greenville:0017,"Annual report of the Town of Greenville, New Hampshire, 1948",1949,Title varies|~|Imprint varies|~|Report year varies,"University of New Hampshire. Library. Digital Collections.|~|Scanned by Internet Archive, Open Content Alliance (2010)",,,Text,Greenville (N.H. : Town) -- Appropriations and expenditures -- Periodicals,Greenville (N.H. : Town),,,Eng,"[Greenville, N.H. : The Town]|~|University of New Hampshire. Library. Digital Collections.",greenville_0017+application-pdf+application.pdf|~|greenville_0017+image-low-jpg+image-low.jpg|~|greenville_0017+image-tb-jpg+image-tb.jpg
Active,greenville:0018,greenville,http://www.archive.org/details/annualreportofto1949gr|~|annualreportofto1949gr|~|greenville:0018,"Annual report of the Town of Greenville, New Hampshire, 1949",1950,Title varies|~|Imprint varies|~|Report year varies,"University of New Hampshire. Library. Digital Collections.|~|Scanned by Internet Archive, Open Content Alliance (2010)",,,Text,Greenville (N.H. : Town) -- Appropriations and expenditures -- Periodicals,Greenville (N.H. : Town),,,Eng,"[Greenville, N.H. : The Town]|~|University of New Hampshire. Library. Digital Collections.",greenville_0018+application-pdf+application.pdf|~|greenville_0018+image-low-jpg+image-low.jpg|~|greenville_0018+image-tb-jpg+image-tb.jpg
Active,greenville:0019,greenville,http://www.archive.org/details/annualreportofto1950gr|~|annualreportofto1950gr|~|greenville:0019,"Annual report of the Town of Greenville, New Hampshire, 1950",1951,Title varies|~|Imprint varies|~|Report year varies,"University of New Hampshire. Library. Digital Collections.|~|Scanned by Internet Archive, Open Content Alliance (2010)",,,Text,Greenville (N.H. : Town) -- Appropriations and expenditures -- Periodicals,Greenville (N.H. : Town),,,Eng,"[Greenville, N.H. : The Town]|~|University of New Hampshire. Library. Digital Collections.",greenville_0019+application-pdf+application.pdf|~|greenville_0019+image-low-jpg+image-low.jpg|~|greenville_0019+image-tb-jpg+image-tb.jpg
Active,greenville:0020,greenville,http://www.archive.org/details/annualreportofto1951gr|~|annualreportofto1951gr|~|greenville:0020,"Annual report of the Town of Greenville, New Hampshire, 1951",1952,Title varies|~|Imprint varies|~|Report year varies,"University of New Hampshire. Library. Digital Collections.|~|Scanned by Internet Archive, Open Content Alliance (2010)",,,Text,Greenville (N.H. : Town) -- Appropriations and expenditures -- Periodicals,Greenville (N.H. : Town),,,Eng,"[Greenville, N.H. : The Town]|~|University of New Hampshire. Library. Digital Collections.",greenville_0020+application-pdf+application.pdf|~|greenville_0020+image-low-jpg+image-low.jpg|~|greenville_0020+image-tb-jpg+image-tb.jpg
Active,greenville:0021,greenville,http://www.archive.org/details/annualreportofto1952gr|~|annualreportofto1952gr|~|greenville:0021,"Annual report of the Town of Greenville, New Hampshire, 1952",1953,Title varies|~|Imprint varies|~|Report year varies,"University of New Hampshire. Library. Digital Collections.|~|Scanned by Internet Archive, Open Content Alliance (2010)",,,Text,Greenville (N.H. : Town) -- Appropriations and expenditures -- Periodicals,Greenville (N.H. : Town),,,Eng,"[Greenville, N.H. : The Town]|~|University of New Hampshire. Library. Digital Collections.",greenville_0021+application-pdf+application.pdf|~|greenville_0021+image-low-jpg+image-low.jpg|~|greenville_0021+image-tb-jpg+image-tb.jpg
Active,greenville:0022,greenville,http://www.archive.org/details/annualreportofto1953gr|~|annualreportofto1953gr|~|greenville:0022,"Annual report of the Town of Greenville, New Hampshire, 1953",1954,Title varies|~|Imprint varies|~|Report year varies,"University of New Hampshire. Library. Digital Collections.|~|Scanned by Internet Archive, Open Content Alliance (2010)",,,Text,Greenville (N.H. : Town) -- Appropriations and expenditures -- Periodicals,Greenville (N.H. : Town),,,Eng,"[Greenville, N.H. : The Town]|~|University of New Hampshire. Library. Digital Collections.",greenville_0022+application-pdf+application.pdf|~|greenville_0022+image-low-jpg+image-low.jpg|~|greenville_0022+image-tb-jpg+image-tb.jpg
Active,greenville:0023,greenville,http://www.archive.org/details/annualreportofto1954gr|~|annualreportofto1954gr|~|greenville:0023,"Annual report of the Town of Greenville, New Hampshire, 1954",1955,Title varies|~|Imprint varies|~|Report year varies,"University of New Hampshire. Library. Digital Collections.|~|Scanned by Internet Archive, Open Content Alliance (2010)",,,Text,Greenville (N.H. : Town) -- Appropriations and expenditures -- Periodicals,Greenville (N.H. : Town),,,Eng,"[Greenville, N.H. : The Town]|~|University of New Hampshire. Library. Digital Collections.",greenville_0023+application-pdf+application.pdf|~|greenville_0023+image-low-jpg+image-low.jpg|~|greenville_0023+image-tb-jpg+image-tb.jpg
Active,greenville:0024,greenville,http://www.archive.org/details/annualreportofto1955gr|~|annualreportofto1955gr|~|greenville:0024,"Annual report of the Town of Greenville, New Hampshire, 1955",1956,Title varies|~|Imprint varies|~|Report year varies,"University of New Hampshire. Library. Digital Collections.|~|Scanned by Internet Archive, Open Content Alliance (2010)",,,Text,Greenville (N.H. : Town) -- Appropriations and expenditures -- Periodicals,Greenville (N.H. : Town),,,Eng,"[Greenville, N.H. : The Town]|~|University of New Hampshire. Library. Digital Collections.",greenville_0024+application-pdf+application.pdf|~|greenville_0024+image-low-jpg+image-low.jpg|~|greenville_0024+image-tb-jpg+image-tb.jpg
Active,greenville:0025,greenville,http://www.archive.org/details/annualreportofto1956gr|~|annualreportofto1956gr|~|greenville:0025,"Annual report of the Town of Greenville, New Hampshire, 1956",1957,Title varies|~|Imprint varies|~|Report year varies,"University of New Hampshire. Library. Digital Collections.|~|Scanned by Internet Archive, Open Content Alliance (2010)",,,Text,Greenville (N.H. : Town) -- Appropriations and expenditures -- Periodicals,Greenville (N.H. : Town),,,Eng,"[Greenville, N.H. : The Town]|~|University of New Hampshire. Library. Digital Collections.",greenville_0025+application-pdf+application.pdf|~|greenville_0025+image-low-jpg+image-low.jpg|~|greenville_0025+image-tb-jpg+image-tb.jpg
Active,greenville:0026,greenville,http://www.archive.org/details/annualreportofto1957gr|~|annualreportofto1957gr|~|greenville:0026,"Annual report of the Town of Greenville, New Hampshire, 1957",1958,Title varies|~|Imprint varies|~|Report year varies,"University of New Hampshire. Library. Digital Collections.|~|Scanned by Internet Archive, Open Content Alliance (2010)",,,Text,Greenville (N.H. : Town) -- Appropriations and expenditures -- Periodicals,Greenville (N.H. : Town),,,Eng,"[Greenville, N.H. : The Town]|~|University of New Hampshire. Library. Digital Collections.",greenville_0026+application-pdf+application.pdf|~|greenville_0026+image-low-jpg+image-low.jpg|~|greenville_0026+image-tb-jpg+image-tb.jpg
Active,greenville:0027,greenville,http://www.archive.org/details/annualreportofto1958gr|~|annualreportofto1958gr|~|greenville:0027,"Annual report of the Town of Greenville, New Hampshire, 1958",1959,Title varies|~|Imprint varies|~|Report year varies,"University of New Hampshire. Library. Digital Collections.|~|Scanned by Internet Archive, Open Content Alliance (2010)",,,Text,Greenville (N.H. : Town) -- Appropriations and expenditures -- Periodicals,Greenville (N.H. : Town),,,Eng,"[Greenville, N.H. : The Town]|~|University of New Hampshire. Library. Digital Collections.",greenville_0027+application-pdf+application.pdf|~|greenville_0027+image-low-jpg+image-low.jpg|~|greenville_0027+image-tb-jpg+image-tb.jpg
Active,greenville:0028,greenville,http://www.archive.org/details/annualreportofto1959gr|~|annualreportofto1959gr|~|greenville:0028,"Annual report of the Town of Greenville, New Hampshire, 1959",1960,Title varies|~|Imprint varies|~|Report year varies,"University of New Hampshire. Library. Digital Collections.|~|Scanned by Internet Archive, Open Content Alliance (2010)",,,Text,Greenville (N.H. : Town) -- Appropriations and expenditures -- Periodicals,Greenville (N.H. : Town),,,Eng,"[Greenville, N.H. : The Town]|~|University of New Hampshire. Library. Digital Collections.",greenville_0028+application-pdf+application.pdf|~|greenville_0028+image-low-jpg+image-low.jpg|~|greenville_0028+image-tb-jpg+image-tb.jpg
Active,greenville:0029,greenville,http://www.archive.org/details/annualreportofto1960gr|~|annualreportofto1960gr|~|greenville:0029,"Annual report of the Town of Greenville, New Hampshire, 1960",1961,Title varies|~|Imprint varies|~|Report year varies,"University of New Hampshire. Library. Digital Collections.|~|Scanned by Internet Archive, Open Content Alliance (2010)",,,Text,Greenville (N.H. : Town) -- Appropriations and expenditures -- Periodicals,Greenville (N.H. : Town),,,Eng,"[Greenville, N.H. : The Town]|~|University of New Hampshire. Library. Digital Collections.",greenville_0029+application-pdf+application.pdf|~|greenville_0029+image-low-jpg+image-low.jpg|~|greenville_0029+image-tb-jpg+image-tb.jpg
Active,greenville:0030,greenville,http://www.archive.org/details/annualreportofto1961gr|~|annualreportofto1961gr|~|greenville:0030,"Annual report of the Town of Greenville, New Hampshire, 1961",1962,Title varies|~|Imprint varies|~|Report year varies,"University of New Hampshire. Library. Digital Collections.|~|Scanned by Internet Archive, Open Content Alliance (2010)",,,Text,Greenville (N.H. : Town) -- Appropriations and expenditures -- Periodicals,Greenville (N.H. : Town),,,Eng,"[Greenville, N.H. : The Town]|~|University of New Hampshire. Library. Digital Collections.",greenville_0030+application-pdf+application.pdf|~|greenville_0030+image-low-jpg+image-low.jpg|~|greenville_0030+image-tb-jpg+image-tb.jpg
Active,greenville:0031,greenville,http://www.archive.org/details/annualreportofto1962gr|~|annualreportofto1962gr|~|greenville:0031,"Annual report of the Town of Greenville, New Hampshire, 1962",1963,Title varies|~|Imprint varies|~|Report year varies,"University of New Hampshire. Library. Digital Collections.|~|Scanned by Internet Archive, Open Content Alliance (2010)",,,Text,Greenville (N.H. : Town) -- Appropriations and expenditures -- Periodicals,Greenville (N.H. : Town),,,Eng,"[Greenville, N.H. : The Town]|~|University of New Hampshire. Library. Digital Collections.",greenville_0031+application-pdf+application.pdf|~|greenville_0031+image-low-jpg+image-low.jpg|~|greenville_0031+image-tb-jpg+image-tb.jpg
Active,greenville:0032,greenville,http://www.archive.org/details/annualreportofto1963gr|~|annualreportofto1963gr|~|greenville:0032,"Annual report of the Town of Greenville, New Hampshire, 1963",1964,Title varies|~|Imprint varies|~|Report year varies,"University of New Hampshire. Library. Digital Collections.|~|Scanned by Internet Archive, Open Content Alliance (2010)",,,Text,Greenville (N.H. : Town) -- Appropriations and expenditures -- Periodicals,Greenville (N.H. : Town),,,Eng,"[Greenville, N.H. : The Town]|~|University of New Hampshire. Library. Digital Collections.",greenville_0032+application-pdf+application.pdf|~|greenville_0032+image-low-jpg+image-low.jpg|~|greenville_0032+image-tb-jpg+image-tb.jpg
Active,greenville:0033,greenville,http://www.archive.org/details/annualreportofto1964gr|~|annualreportofto1964gr|~|greenville:0033,"Annual report of the Town of Greenville, New Hampshire, 1964",1965,Title varies|~|Imprint varies|~|Report year varies,"University of New Hampshire. Library. Digital Collections.|~|Scanned by Internet Archive, Open Content Alliance (2010)",,,Text,Greenville (N.H. : Town) -- Appropriations and expenditures -- Periodicals,Greenville (N.H. : Town),,,Eng,"[Greenville, N.H. : The Town]|~|University of New Hampshire. Library. Digital Collections.",greenville_0033+application-pdf+application.pdf|~|greenville_0033+image-low-jpg+image-low.jpg|~|greenville_0033+image-tb-jpg+image-tb.jpg
Active,greenville:0034,greenville,http://www.archive.org/details/annualreportofto1966gr|~|annualreportofto1966gr|~|greenville:0034,"Annual report of the Town of Greenville, New Hampshire, 1966",1967,Title varies|~|Imprint varies|~|Report year varies,"University of New Hampshire. Library. Digital Collections.|~|Scanned by Internet Archive, Open Content Alliance (2010)",,,Text,Greenville (N.H. : Town) -- Appropriations and expenditures -- Periodicals,Greenville (N.H. : Town),,,Eng,"[Greenville, N.H. : The Town]|~|University of New Hampshire. Library. Digital Collections.",greenville_0034+application-pdf+application.pdf|~|greenville_0034+image-low-jpg+image-low.jpg|~|greenville_0034+image-tb-jpg+image-tb.jpg
Active,greenville:0035,greenville,http://www.archive.org/details/annualreportofto1967gr|~|annualreportofto1967gr|~|greenville:0035,"Annual report of the Town of Greenville, New Hampshire, 1967",1968,Title varies|~|Imprint varies|~|Report year varies,"University of New Hampshire. Library. Digital Collections.|~|Scanned by Internet Archive, Open Content Alliance (2010)",,,Text,Greenville (N.H. : Town) -- Appropriations and expenditures -- Periodicals,Greenville (N.H. : Town),,,Eng,"[Greenville, N.H. : The Town]|~|University of New Hampshire. Library. Digital Collections.",greenville_0035+application-pdf+application.pdf|~|greenville_0035+image-low-jpg+image-low.jpg|~|greenville_0035+image-tb-jpg+image-tb.jpg
Active,greenville:0036,greenville,http://www.archive.org/details/annualreportofto1968gr|~|annualreportofto1968gr|~|greenville:0036,"Annual report of the Town of Greenville, New Hampshire, 1968",1969,Title varies|~|Imprint varies|~|Report year varies,"University of New Hampshire. Library. Digital Collections.|~|Scanned by Internet Archive, Open Content Alliance (2010)",,,Text,Greenville (N.H. : Town) -- Appropriations and expenditures -- Periodicals,Greenville (N.H. : Town),,,Eng,"[Greenville, N.H. : The Town]|~|University of New Hampshire. Library. Digital Collections.",greenville_0036+application-pdf+application.pdf|~|greenville_0036+image-low-jpg+image-low.jpg|~|greenville_0036+image-tb-jpg+image-tb.jpg
Active,greenville:0037,greenville,http://www.archive.org/details/annualreportofto1969gr|~|annualreportofto1969gr|~|greenville:0037,"Annual report of the Town of Greenville, New Hampshire, 1969",1970,Title varies|~|Imprint varies|~|Report year varies,"University of New Hampshire. Library. Digital Collections.|~|Scanned by Internet Archive, Open Content Alliance (2010)",,,Text,Greenville (N.H. : Town) -- Appropriations and expenditures -- Periodicals,Greenville (N.H. : Town),,,Eng,"[Greenville, N.H. : The Town]|~|University of New Hampshire. Library. Digital Collections.",greenville_0037+application-pdf+application.pdf|~|greenville_0037+image-low-jpg+image-low.jpg|~|greenville_0037+image-tb-jpg+image-tb.jpg
Active,greenville:0038,greenville,http://www.archive.org/details/annualreportofto1970gr|~|annualreportofto1970gr|~|greenville:0038,"Annual report of the Town of Greenville, New Hampshire, 1970",1971,Title varies|~|Imprint varies|~|Report year varies,"University of New Hampshire. Library. Digital Collections.|~|Scanned by Internet Archive, Open Content Alliance (2010)",,,Text,Greenville (N.H. : Town) -- Appropriations and expenditures -- Periodicals,Greenville (N.H. : Town),,,Eng,"[Greenville, N.H. : The Town]|~|University of New Hampshire. Library. Digital Collections.",greenville_0038+application-pdf+application.pdf|~|greenville_0038+image-low-jpg+image-low.jpg|~|greenville_0038+image-tb-jpg+image-tb.jpg
Active,greenville:0039,greenville,http://www.archive.org/details/annualreportofto1971gr|~|annualreportofto1971gr|~|greenville:0039,"Annual report of the Town of Greenville, New Hampshire, 1971",1972,Title varies|~|Imprint varies|~|Report year varies,"University of New Hampshire. Library. Digital Collections.|~|Scanned by Internet Archive, Open Content Alliance (2010)",,,Text,Greenville (N.H. : Town) -- Appropriations and expenditures -- Periodicals,Greenville (N.H. : Town),,,Eng,"[Greenville, N.H. : The Town]|~|University of New Hampshire. Library. Digital Collections.",greenville_0039+application-pdf+application.pdf|~|greenville_0039+image-low-jpg+image-low.jpg|~|greenville_0039+image-tb-jpg+image-tb.jpg
Active,greenville:0040,greenville,http://www.archive.org/details/annualreportofto1972gr|~|annualreportofto1972gr|~|greenville:0040,"Annual report of the Town of Greenville, New Hampshire, 1972",1973,Title varies|~|Imprint varies|~|Report year varies,"University of New Hampshire. Library. Digital Collections.|~|Scanned by Internet Archive, Open Content Alliance (2010)",,,Text,Greenville (N.H. : Town) -- Appropriations and expenditures -- Periodicals,Greenville (N.H. : Town),,,Eng,"[Greenville, N.H. : The Town]|~|University of New Hampshire. Library. Digital Collections.",greenville_0040+application-pdf+application.pdf|~|greenville_0040+image-low-jpg+image-low.jpg|~|greenville_0040+image-tb-jpg+image-tb.jpg
Active,greenville:0041,greenville,http://www.archive.org/details/annualreportofto1973gr|~|annualreportofto1973gr|~|greenville:0041,"Annual report of the Town of Greenville, New Hampshire, 1973",1974,Title varies|~|Imprint varies|~|Report year varies,"University of New Hampshire. Library. Digital Collections.|~|Scanned by Internet Archive, Open Content Alliance (2010)",,,Text,Greenville (N.H. : Town) -- Appropriations and expenditures -- Periodicals,Greenville (N.H. : Town),,,Eng,"[Greenville, N.H. : The Town]|~|University of New Hampshire. Library. Digital Collections.",greenville_0041+application-pdf+application.pdf|~|greenville_0041+image-low-jpg+image-low.jpg|~|greenville_0041+image-tb-jpg+image-tb.jpg
Active,greenville:0042,greenville,http://www.archive.org/details/annualreportofto1974gr|~|annualreportofto1974gr|~|greenville:0042,"Annual report of the Town of Greenville, New Hampshire, 1974",1975,Title varies|~|Imprint varies|~|Report year varies,"University of New Hampshire. Library. Digital Collections.|~|Scanned by Internet Archive, Open Content Alliance (2010)",,,Text,Greenville (N.H. : Town) -- Appropriations and expenditures -- Periodicals,Greenville (N.H. : Town),,,Eng,"[Greenville, N.H. : The Town]|~|University of New Hampshire. Library. Digital Collections.",greenville_0042+application-pdf+application.pdf|~|greenville_0042+image-low-jpg+image-low.jpg|~|greenville_0042+image-tb-jpg+image-tb.jpg
Active,greenville:0043,greenville,http://www.archive.org/details/annualreportofto1975gr|~|annualreportofto1975gr|~|greenville:0043,"Annual report of the Town of Greenville, New Hampshire, 1975",1976,Title varies|~|Imprint varies|~|Report year varies,"University of New Hampshire. Library. Digital Collections.|~|Scanned by Internet Archive, Open Content Alliance (2010)",,,Text,Greenville (N.H. : Town) -- Appropriations and expenditures -- Periodicals,Greenville (N.H. : Town),,,Eng,"[Greenville, N.H. : The Town]|~|University of New Hampshire. Library. Digital Collections.",greenville_0043+application-pdf+application.pdf|~|greenville_0043+image-low-jpg+image-low.jpg|~|greenville_0043+image-tb-jpg+image-tb.jpg
Active,greenville:0044,greenville,http://www.archive.org/details/annualreportofto1976gr|~|annualreportofto1976gr|~|greenville:0044,"Annual report of the Town of Greenville, New Hampshire, 1976",1977,Title varies|~|Imprint varies|~|Report year varies,"University of New Hampshire. Library. Digital Collections.|~|Scanned by Internet Archive, Open Content Alliance (2010)",,,Text,Greenville (N.H. : Town) -- Appropriations and expenditures -- Periodicals,Greenville (N.H. : Town),,,Eng,"[Greenville, N.H. : The Town]|~|University of New Hampshire. Library. Digital Collections.",greenville_0044+application-pdf+application.pdf|~|greenville_0044+image-low-jpg+image-low.jpg|~|greenville_0044+image-tb-jpg+image-tb.jpg
Active,greenville:0045,greenville,http://www.archive.org/details/annualreportofto1977gr|~|annualreportofto1977gr|~|greenville:0045,"Annual report of the Town of Greenville, New Hampshire, 1977",1978,Title varies|~|Imprint varies|~|Report year varies,"University of New Hampshire. Library. Digital Collections.|~|Scanned by Internet Archive, Open Content Alliance (2010)",,,Text,Greenville (N.H. : Town) -- Appropriations and expenditures -- Periodicals,Greenville (N.H. : Town),,,Eng,"[Greenville, N.H. : The Town]|~|University of New Hampshire. Library. Digital Collections.",greenville_0045+application-pdf+application.pdf|~|greenville_0045+image-low-jpg+image-low.jpg|~|greenville_0045+image-tb-jpg+image-tb.jpg
Active,greenville:0046,greenville,http://www.archive.org/details/annualreportofto1978gr|~|annualreportofto1978gr|~|greenville:0046,"Annual report of the Town of Greenville, New Hampshire, 1978",1979,Title varies|~|Imprint varies|~|Report year varies,"University of New Hampshire. Library. Digital Collections.|~|Scanned by Internet Archive, Open Content Alliance (2010)",,,Text,Greenville (N.H. : Town) -- Appropriations and expenditures -- Periodicals,Greenville (N.H. : Town),,,Eng,"[Greenville, N.H. : The Town]|~|University of New Hampshire. Library. Digital Collections.",greenville_0046+application-pdf+application.pdf|~|greenville_0046+image-low-jpg+image-low.jpg|~|greenville_0046+image-tb-jpg+image-tb.jpg
Active,greenville:0047,greenville,http://www.archive.org/details/annualreportofto1979gr|~|annualreportofto1979gr|~|greenville:0047,"Annual report of the Town of Greenville, New Hampshire, 1979",1980,Title varies|~|Imprint varies|~|Report year varies,"University of New Hampshire. Library. Digital Collections.|~|Scanned by Internet Archive, Open Content Alliance (2010)",,,Text,Greenville (N.H. : Town) -- Appropriations and expenditures -- Periodicals,Greenville (N.H. : Town),,,Eng,"[Greenville, N.H. : The Town]|~|University of New Hampshire. Library. Digital Collections.",greenville_0047+application-pdf+application.pdf|~|greenville_0047+image-low-jpg+image-low.jpg|~|greenville_0047+image-tb-jpg+image-tb.jpg
Active,greenville:0048,greenville,http://www.archive.org/details/annualreportofto1980gr|~|annualreportofto1980gr|~|greenville:0048,"Annual report of the Town of Greenville, New Hampshire, 1980",1981,Title varies|~|Imprint varies|~|Report year varies,"University of New Hampshire. Library. Digital Collections.|~|Scanned by Internet Archive, Open Content Alliance (2010)",,,Text,Greenville (N.H. : Town) -- Appropriations and expenditures -- Periodicals,Greenville (N.H. : Town),,,Eng,"[Greenville, N.H. : The Town]|~|University of New Hampshire. Library. Digital Collections.",greenville_0048+application-pdf+application.pdf|~|greenville_0048+image-low-jpg+image-low.jpg|~|greenville_0048+image-tb-jpg+image-tb.jpg
Active,greenville:0049,greenville,http://www.archive.org/details/annualreportofto1981gr|~|annualreportofto1981gr|~|greenville:0049,"Annual report of the Town of Greenville, New Hampshire, 1981",1982,Title varies|~|Imprint varies|~|Report year varies,"University of New Hampshire. Library. Digital Collections.|~|Scanned by Internet Archive, Open Content Alliance (2010)",,,Text,Greenville (N.H. : Town) -- Appropriations and expenditures -- Periodicals,Greenville (N.H. : Town),,,Eng,"[Greenville, N.H. : The Town]|~|University of New Hampshire. Library. Digital Collections.",greenville_0049+application-pdf+application.pdf|~|greenville_0049+image-low-jpg+image-low.jpg|~|greenville_0049+image-tb-jpg+image-tb.jpg
Active,greenville:0050,greenville,http://www.archive.org/details/annualreportofto1982gr|~|annualreportofto1982gr|~|greenville:0050,"Annual report of the Town of Greenville, New Hampshire, 1982",1983,Title varies|~|Imprint varies|~|Report year varies,"University of New Hampshire. Library. Digital Collections.|~|Scanned by Internet Archive, Open Content Alliance (2010)",,,Text,Greenville (N.H. : Town) -- Appropriations and expenditures -- Periodicals,Greenville (N.H. : Town),,,Eng,"[Greenville, N.H. : The Town]|~|University of New Hampshire. Library. Digital Collections.",greenville_0050+application-pdf+application.pdf|~|greenville_0050+image-low-jpg+image-low.jpg|~|greenville_0050+image-tb-jpg+image-tb.jpg
Active,greenville:0051,greenville,http://www.archive.org/details/annualreportofto1983gr|~|annualreportofto1983gr|~|greenville:0051,"Annual report of the Town of Greenville, New Hampshire, 1983",1984,Title varies|~|Imprint varies|~|Report year varies,"University of New Hampshire. Library. Digital Collections.|~|Scanned by Internet Archive, Open Content Alliance (2010)",,,Text,Greenville (N.H. : Town) -- Appropriations and expenditures -- Periodicals,Greenville (N.H. : Town),,,Eng,"[Greenville, N.H. : The Town]|~|University of New Hampshire. Library. Digital Collections.",greenville_0051+application-pdf+application.pdf|~|greenville_0051+image-low-jpg+image-low.jpg|~|greenville_0051+image-tb-jpg+image-tb.jpg
Active,greenville:0052,greenville,http://www.archive.org/details/annualreportofto1996gr|~|annualreportofto1996gr|~|greenville:0052,"Annual report of the Town of Greenville, New Hampshire, 1996",1997,Title varies|~|Imprint varies|~|Report year varies,"University of New Hampshire. Library. Digital Collections.|~|Scanned by Internet Archive, Open Content Alliance (2010)",,,Text,Greenville (N.H. : Town) -- Appropriations and expenditures -- Periodicals,Greenville (N.H. : Town),,,Eng,"[Greenville, N.H. : The Town]|~|University of New Hampshire. Library. Digital Collections.",greenville_0052+application-pdf+application.pdf|~|greenville_0052+image-low-jpg+image-low.jpg|~|greenville_0052+image-tb-jpg+image-tb.jpg
Active,greenville:0053,greenville,http://www.archive.org/details/annualreportofto1997gr|~|annualreportofto1997gr|~|greenville:0053,"Annual report of the Town of Greenville, New Hampshire, 1997",1998,Title varies|~|Imprint varies|~|Report year varies,"University of New Hampshire. Library. Digital Collections.|~|Scanned by Internet Archive, Open Content Alliance (2010)",,,Text,Greenville (N.H. : Town) -- Appropriations and expenditures -- Periodicals,Greenville (N.H. : Town),,,Eng,"[Greenville, N.H. : The Town]|~|University of New Hampshire. Library. Digital Collections.",greenville_0053+application-pdf+application.pdf|~|greenville_0053+image-low-jpg+image-low.jpg|~|greenville_0053+image-tb-jpg+image-tb.jpg
Active,greenville:0054,greenville,http://www.archive.org/details/annualreportofto1998gr|~|annualreportofto1998gr|~|greenville:0054,"Annual report of the Town of Greenville, New Hampshire, 1998",1999,Title varies|~|Imprint varies|~|Report year varies,"University of New Hampshire. Library. Digital Collections.|~|Scanned by Internet Archive, Open Content Alliance (2010)",,,Text,Greenville (N.H. : Town) -- Appropriations and expenditures -- Periodicals,Greenville (N.H. : Town),,,Eng,"[Greenville, N.H. : The Town]|~|University of New Hampshire. Library. Digital Collections.",greenville_0054+application-pdf+application.pdf|~|greenville_0054+image-low-jpg+image-low.jpg|~|greenville_0054+image-tb-jpg+image-tb.jpg
Active,greenville:0055,greenville,http://www.archive.org/details/annualreportofto1999gr|~|annualreportofto1999gr|~|greenville:0055,"Annual report of the Town of Greenville, New Hampshire, 1999",2000,Title varies|~|Imprint varies|~|Report year varies,"University of New Hampshire. Library. Digital Collections.|~|Scanned by Internet Archive, Open Content Alliance (2010)",,,Text,Greenville (N.H. : Town) -- Appropriations and expenditures -- Periodicals,Greenville (N.H. : Town),,,Eng,"[Greenville, N.H. : The Town]|~|University of New Hampshire. Library. Digital Collections.",greenville_0055+application-pdf+application.pdf|~|greenville_0055+image-low-jpg+image-low.jpg|~|greenville_0055+image-tb-jpg+image-tb.jpg
Active,greenville:0056,greenville,http://www.archive.org/details/annualreportofto2000gr|~|annualreportofto2000gr|~|greenville:0056,"Annual report of the Town of Greenville, New Hampshire, 2000",2001,Title varies|~|Imprint varies|~|Report year varies,"University of New Hampshire. Library. Digital Collections.|~|Scanned by Internet Archive, Open Content Alliance (2010)",,,Text,Greenville (N.H. : Town) -- Appropriations and expenditures -- Periodicals,Greenville (N.H. : Town),,,Eng,"[Greenville, N.H. : The Town]|~|University of New Hampshire. Library. Digital Collections.",greenville_0056+application-pdf+application.pdf|~|greenville_0056+image-low-jpg+image-low.jpg|~|greenville_0056+image-tb-jpg+image-tb.jpg
Active,greenville:0057,greenville,http://www.archive.org/details/annualreportofto2001gr|~|annualreportofto2001gr|~|greenville:0057,"Annual report of the Town of Greenville, New Hampshire, 2001",2002,Title varies|~|Imprint varies|~|Report year varies,"University of New Hampshire. Library. Digital Collections.|~|Scanned by Internet Archive, Open Content Alliance (2010)",,,Text,Greenville (N.H. : Town) -- Appropriations and expenditures -- Periodicals,Greenville (N.H. : Town),,,Eng,"[Greenville, N.H. : The Town]|~|University of New Hampshire. Library. Digital Collections.",greenville_0057+application-pdf+application.pdf|~|greenville_0057+image-low-jpg+image-low.jpg|~|greenville_0057+image-tb-jpg+image-tb.jpg
Active,greenville:0058,greenville,http://www.archive.org/details/annualreportofto2002gr|~|annualreportofto2002gr|~|greenville:0058,"Annual report of the Town of Greenville, New Hampshire, 2002",2003,Title varies|~|Imprint varies|~|Report year varies,"University of New Hampshire. Library. Digital Collections.|~|Scanned by Internet Archive, Open Content Alliance (2010)",,,Text,Greenville (N.H. : Town) -- Appropriations and expenditures -- Periodicals,Greenville (N.H. : Town),,,Eng,"[Greenville, N.H. : The Town]|~|University of New Hampshire. Library. Digital Collections.",greenville_0058+application-pdf+application.pdf|~|greenville_0058+image-low-jpg+image-low.jpg|~|greenville_0058+image-tb-jpg+image-tb.jpg
Active,greenville:0059,greenville,http://www.archive.org/details/annualreportofto2003gr|~|annualreportofto2003gr|~|greenville:0059,"Annual report of the Town of Greenville, New Hampshire, 2003",2004,Title varies|~|Imprint varies|~|Report year varies,"University of New Hampshire. Library. Digital Collections.|~|Scanned by Internet Archive, Open Content Alliance (2010)",,,Text,Greenville (N.H. : Town) -- Appropriations and expenditures -- Periodicals,Greenville (N.H. : Town),,,Eng,"[Greenville, N.H. : The Town]|~|University of New Hampshire. Library. Digital Collections.",greenville_0059+application-pdf+application.pdf|~|greenville_0059+image-low-jpg+image-low.jpg|~|greenville_0059+image-tb-jpg+image-tb.jpg
Active,greenville:1000,greenville,greenville:1000|~|annualreport2006greenville,"Annual report of the Town of Greenville, New Hampshire, 2006",2007,Title varies|~|Imprint varies|~|Report year varies,University of New Hampshire. Library. Digital Collections.,,,Text,Greenville (N.H. : Town) -- Appropriations and expenditures -- Periodicals,Greenville (N.H. : Town),,,Eng,"[Greenville, N.H. : The Town]|~|University of New Hampshire. Library. Digital Collections.",greenville_1000+application-pdf+application.pdf|~|greenville_1000+image-low-jpg+image-low.jpg|~|greenville_1000+image-tb-jpg+image-tb.jpg
Active,greenville:1001,greenville,greenville:1001|~|annualreport2007greenville,"Annual report of the Town of Greenville, New Hampshire, 2007",2008,Title varies|~|Imprint varies|~|Report year varies,University of New Hampshire. Library. Digital Collections.,,,Text,Greenville (N.H. : Town) -- Appropriations and expenditures -- Periodicals,Greenville (N.H. : Town),,,Eng,"[Greenville, N.H. : The Town]|~|University of New Hampshire. Library. Digital Collections.",greenville_1001+application-pdf+application.pdf|~|greenville_1001+image-low-jpg+image-low.jpg|~|greenville_1001+image-tb-jpg+image-tb.jpg
Active,greenville:1002,greenville,greenville:1002|~|annualreport2008greenville,"Annual report of the Town of Greenville, New Hampshire, 2008",2009,Title varies|~|Imprint varies|~|Report year varies,University of New Hampshire. Library. Digital Collections.,,,Text,Greenville (N.H. : Town) -- Appropriations and expenditures -- Periodicals,Greenville (N.H. : Town),,,Eng,"[Greenville, N.H. : The Town]|~|University of New Hampshire. Library. Digital Collections.",greenville_1002+application-pdf+application.pdf|~|greenville_1002+image-low-jpg+image-low.jpg|~|greenville_1002+image-tb-jpg+image-tb.jpg
Active,greenville:1003,greenville,greenville:1003|~|annualreport2009greenville,"Annual report of the Town of Greenville, New Hampshire, 2009",2010,Title varies|~|Imprint varies|~|Report year varies,University of New Hampshire. Library. Digital Collections.,,,Text,Greenville (N.H. : Town) -- Appropriations and expenditures -- Periodicals,Greenville (N.H. : Town),,,Eng,"[Greenville, N.H. : The Town]|~|University of New Hampshire. Library. Digital Collections.",greenville_1003+application-pdf+application.pdf|~|greenville_1003+image-low-jpg+image-low.jpg|~|greenville_1003+image-tb-jpg+image-tb.jpg
Active,greenville:1004,greenville,greenville:1004|~|annualreport2010greenville,"Annual report of the Town of Greenville, New Hampshire, 2010",2011,Title varies|~|Imprint varies|~|Report year varies,University of New Hampshire. Library. Digital Collections.,,,Text,Greenville (N.H. : Town) -- Appropriations and expenditures -- Periodicals,Greenville (N.H. : Town),,,Eng,"[Greenville, N.H. : The Town]|~|University of New Hampshire. Library. Digital Collections.",greenville_1004+application-pdf+application.pdf|~|greenville_1004+image-low-jpg+image-low.jpg|~|greenville_1004+image-tb-jpg+image-tb.jpg
Active,greenville:1005,greenville,greenville:1005|~|annualreport2011greenville,"Annual report of the Town of Greenville, New Hampshire, 2011",2012,Title varies|~|Imprint varies|~|Report year varies,University of New Hampshire. Library. Digital Collections.,,,Text,Greenville (N.H. : Town) -- Appropriations and expenditures -- Periodicals,Greenville (N.H. : Town),,,Eng,"[Greenville, N.H. : The Town]|~|University of New Hampshire. Library. Digital Collections.",greenville_1005+application-pdf+application.pdf|~|greenville_1005+image-low-jpg+image-low.jpg|~|greenville_1005+image-tb-jpg+image-tb.jpg
