state,pid,collection,dcterms:identifier,dcterms:title,dcterms:date,dcterms:description,dcterms:contributor,dcterms:rights,dcterms:format,dcterms:type,dcterms:subject,dcterms:creator,dcterms:relation,dcterms:coverage,dcterms:language,dcterms:publisher,files
Active,hamptonfalls:0001,hamptonfalls,http://www.archive.org/details/annualreportofto1867hamp|~|annualreportofto1867hamp|~|hamptonfalls:0001,"Annual report of the Town of Hampton Falls, New Hampshire, 1867",1867,Title varies|~|Imprint varies|~|Report year varies,"University of New Hampshire. Library. Digital Collections.|~|Scanned by Internet Archive, Open Content Alliance (2010)",,,Text,Hampton Falls (N.H. : Town) -- Appropriations and expenditures -- Periodicals,Hampton Falls (N.H. : Town),,,Eng,"[Hampton Falls, N.H. : The Town]|~|University of New Hampshire. Library. Digital Collections.",hamptonfalls_0001+application-pdf+application.pdf|~|hamptonfalls_0001+image-low-jpg+image-low.jpg|~|hamptonfalls_0001+image-tb-jpg+image-tb.jpg
Active,hamptonfalls:0002,hamptonfalls,http://www.archive.org/details/annualreportofto1882hamp|~|annualreportofto1882hamp|~|hamptonfalls:0002,"Annual report of the Town of Hampton Falls, New Hampshire, 1882",1882,Title varies|~|Imprint varies|~|Report year varies,"University of New Hampshire. Library. Digital Collections.|~|Scanned by Internet Archive, Open Content Alliance (2010)",,,Text,Hampton Falls (N.H. : Town) -- Appropriations and expenditures -- Periodicals,Hampton Falls (N.H. : Town),,,Eng,"[Hampton Falls, N.H. : The Town]|~|University of New Hampshire. Library. Digital Collections.",hamptonfalls_0002+application-pdf+application.pdf|~|hamptonfalls_0002+image-low-jpg+image-low.jpg|~|hamptonfalls_0002+image-tb-jpg+image-tb.jpg
Active,hamptonfalls:0003,hamptonfalls,http://www.archive.org/details/annualreportofto1884hamp|~|annualreportofto1884hamp|~|hamptonfalls:0003,"Annual report of the Town of Hampton Falls, New Hampshire, 1884",1884,Title varies|~|Imprint varies|~|Report year varies,"University of New Hampshire. Library. Digital Collections.|~|Scanned by Internet Archive, Open Content Alliance (2010)",,,Text,Hampton Falls (N.H. : Town) -- Appropriations and expenditures -- Periodicals,Hampton Falls (N.H. : Town),,,Eng,"[Hampton Falls, N.H. : The Town]|~|University of New Hampshire. Library. Digital Collections.",hamptonfalls_0003+application-pdf+application.pdf|~|hamptonfalls_0003+image-low-jpg+image-low.jpg|~|hamptonfalls_0003+image-tb-jpg+image-tb.jpg
Active,hamptonfalls:0004,hamptonfalls,http://www.archive.org/details/annualreportofto1890hamp|~|annualreportofto1890hamp|~|hamptonfalls:0004,"Annual report of the Town of Hampton Falls, New Hampshire, 1890",1890,Title varies|~|Imprint varies|~|Report year varies,"University of New Hampshire. Library. Digital Collections.|~|Scanned by Internet Archive, Open Content Alliance (2010)",,,Text,Hampton Falls (N.H. : Town) -- Appropriations and expenditures -- Periodicals,Hampton Falls (N.H. : Town),,,Eng,"[Hampton Falls, N.H. : The Town]|~|University of New Hampshire. Library. Digital Collections.",hamptonfalls_0004+application-pdf+application.pdf|~|hamptonfalls_0004+image-low-jpg+image-low.jpg|~|hamptonfalls_0004+image-tb-jpg+image-tb.jpg
Active,hamptonfalls:0005,hamptonfalls,http://www.archive.org/details/annualreportofto1892hamp|~|annualreportofto1892hamp|~|hamptonfalls:0005,"Annual report of the Town of Hampton Falls, New Hampshire, 1892",1892,Title varies|~|Imprint varies|~|Report year varies,"University of New Hampshire. Library. Digital Collections.|~|Scanned by Internet Archive, Open Content Alliance (2010)",,,Text,Hampton Falls (N.H. : Town) -- Appropriations and expenditures -- Periodicals,Hampton Falls (N.H. : Town),,,Eng,"[Hampton Falls, N.H. : The Town]|~|University of New Hampshire. Library. Digital Collections.",hamptonfalls_0005+application-pdf+application.pdf|~|hamptonfalls_0005+image-low-jpg+image-low.jpg|~|hamptonfalls_0005+image-tb-jpg+image-tb.jpg
Active,hamptonfalls:0006,hamptonfalls,http://www.archive.org/details/annualreportofto1909hamp|~|annualreportofto1909hamp|~|hamptonfalls:0006,"Annual report of the Town of Hampton Falls, New Hampshire, 1909",1909,Title varies|~|Imprint varies|~|Report year varies,"University of New Hampshire. Library. Digital Collections.|~|Scanned by Internet Archive, Open Content Alliance (2010)",,,Text,Hampton Falls (N.H. : Town) -- Appropriations and expenditures -- Periodicals,Hampton Falls (N.H. : Town),,,Eng,"[Hampton Falls, N.H. : The Town]|~|University of New Hampshire. Library. Digital Collections.",hamptonfalls_0006+application-pdf+application.pdf|~|hamptonfalls_0006+image-low-jpg+image-low.jpg|~|hamptonfalls_0006+image-tb-jpg+image-tb.jpg
Active,hamptonfalls:0007,hamptonfalls,http://www.archive.org/details/annualreportofto1910hamp2|~|annualreportofto1910hamp2|~|hamptonfalls:0007,"Annual report of the Town of Hampton Falls, New Hampshire, 1910",1910,Title varies|~|Imprint varies|~|Report year varies,"University of New Hampshire. Library. Digital Collections.|~|Scanned by Internet Archive, Open Content Alliance (2010)",,,Text,Hampton Falls (N.H. : Town) -- Appropriations and expenditures -- Periodicals,Hampton Falls (N.H. : Town),,,Eng,"[Hampton Falls, N.H. : The Town]|~|University of New Hampshire. Library. Digital Collections.",hamptonfalls_0007+application-pdf+application.pdf|~|hamptonfalls_0007+image-low-jpg+image-low.jpg|~|hamptonfalls_0007+image-tb-jpg+image-tb.jpg
Active,hamptonfalls:0008,hamptonfalls,http://www.archive.org/details/annualreportofto1912hamp2|~|annualreportofto1912hamp2|~|hamptonfalls:0008,"Annual report of the Town of Hampton Falls, New Hampshire, 1912",1912,Title varies|~|Imprint varies|~|Report year varies,"University of New Hampshire. Library. Digital Collections.|~|Scanned by Internet Archive, Open Content Alliance (2010)",,,Text,Hampton Falls (N.H. : Town) -- Appropriations and expenditures -- Periodicals,Hampton Falls (N.H. : Town),,,Eng,"[Hampton Falls, N.H. : The Town]|~|University of New Hampshire. Library. Digital Collections.",hamptonfalls_0008+application-pdf+application.pdf|~|hamptonfalls_0008+image-low-jpg+image-low.jpg|~|hamptonfalls_0008+image-tb-jpg+image-tb.jpg
Active,hamptonfalls:0009,hamptonfalls,http://www.archive.org/details/annualreportofto1914hamp2|~|annualreportofto1914hamp2|~|hamptonfalls:0009,"Annual report of the Town of Hampton Falls, New Hampshire, 1914",1914,Title varies|~|Imprint varies|~|Report year varies,"University of New Hampshire. Library. Digital Collections.|~|Scanned by Internet Archive, Open Content Alliance (2010)",,,Text,Hampton Falls (N.H. : Town) -- Appropriations and expenditures -- Periodicals,Hampton Falls (N.H. : Town),,,Eng,"[Hampton Falls, N.H. : The Town]|~|University of New Hampshire. Library. Digital Collections.",hamptonfalls_0009+application-pdf+application.pdf|~|hamptonfalls_0009+image-low-jpg+image-low.jpg|~|hamptonfalls_0009+image-tb-jpg+image-tb.jpg
Active,hamptonfalls:0010,hamptonfalls,http://www.archive.org/details/annualreportofto1915hamp|~|annualreportofto1915hamp|~|hamptonfalls:0010,"Annual report of the Town of Hampton Falls, New Hampshire, 1915",1915,Title varies|~|Imprint varies|~|Report year varies,"University of New Hampshire. Library. Digital Collections.|~|Scanned by Internet Archive, Open Content Alliance (2010)",,,Text,Hampton Falls (N.H. : Town) -- Appropriations and expenditures -- Periodicals,Hampton Falls (N.H. : Town),,,Eng,"[Hampton Falls, N.H. : The Town]|~|University of New Hampshire. Library. Digital Collections.",hamptonfalls_0010+application-pdf+application.pdf|~|hamptonfalls_0010+image-low-jpg+image-low.jpg|~|hamptonfalls_0010+image-tb-jpg+image-tb.jpg
Active,hamptonfalls:0011,hamptonfalls,http://www.archive.org/details/annualreportofto1917hamp|~|annualreportofto1917hamp|~|hamptonfalls:0011,"Annual report of the Town of Hampton Falls, New Hampshire, 1917",1917,Title varies|~|Imprint varies|~|Report year varies,"University of New Hampshire. Library. Digital Collections.|~|Scanned by Internet Archive, Open Content Alliance (2010)",,,Text,Hampton Falls (N.H. : Town) -- Appropriations and expenditures -- Periodicals,Hampton Falls (N.H. : Town),,,Eng,"[Hampton Falls, N.H. : The Town]|~|University of New Hampshire. Library. Digital Collections.",hamptonfalls_0011+application-pdf+application.pdf|~|hamptonfalls_0011+image-low-jpg+image-low.jpg|~|hamptonfalls_0011+image-tb-jpg+image-tb.jpg
Active,hamptonfalls:0012,hamptonfalls,http://www.archive.org/details/annualreportofto1919hamp2|~|annualreportofto1919hamp2|~|hamptonfalls:0012,"Annual report of the Town of Hampton Falls, New Hampshire, 1919",1919,Title varies|~|Imprint varies|~|Report year varies,"University of New Hampshire. Library. Digital Collections.|~|Scanned by Internet Archive, Open Content Alliance (2010)",,,Text,Hampton Falls (N.H. : Town) -- Appropriations and expenditures -- Periodicals,Hampton Falls (N.H. : Town),,,Eng,"[Hampton Falls, N.H. : The Town]|~|University of New Hampshire. Library. Digital Collections.",hamptonfalls_0012+application-pdf+application.pdf|~|hamptonfalls_0012+image-low-jpg+image-low.jpg|~|hamptonfalls_0012+image-tb-jpg+image-tb.jpg
Active,hamptonfalls:0013,hamptonfalls,http://www.archive.org/details/annualreportofto1921hamp|~|annualreportofto1921hamp|~|hamptonfalls:0013,"Annual report of the Town of Hampton Falls, New Hampshire, 1921",1921,Title varies|~|Imprint varies|~|Report year varies,"University of New Hampshire. Library. Digital Collections.|~|Scanned by Internet Archive, Open Content Alliance (2010)",,,Text,Hampton Falls (N.H. : Town) -- Appropriations and expenditures -- Periodicals,Hampton Falls (N.H. : Town),,,Eng,"[Hampton Falls, N.H. : The Town]|~|University of New Hampshire. Library. Digital Collections.",hamptonfalls_0013+application-pdf+application.pdf|~|hamptonfalls_0013+image-low-jpg+image-low.jpg|~|hamptonfalls_0013+image-tb-jpg+image-tb.jpg
Active,hamptonfalls:0014,hamptonfalls,http://www.archive.org/details/annualreportofto1922hamp|~|annualreportofto1922hamp|~|hamptonfalls:0014,"Annual report of the Town of Hampton Falls, New Hampshire, 1922",1922,Title varies|~|Imprint varies|~|Report year varies,"University of New Hampshire. Library. Digital Collections.|~|Scanned by Internet Archive, Open Content Alliance (2010)",,,Text,Hampton Falls (N.H. : Town) -- Appropriations and expenditures -- Periodicals,Hampton Falls (N.H. : Town),,,Eng,"[Hampton Falls, N.H. : The Town]|~|University of New Hampshire. Library. Digital Collections.",hamptonfalls_0014+application-pdf+application.pdf|~|hamptonfalls_0014+image-low-jpg+image-low.jpg|~|hamptonfalls_0014+image-tb-jpg+image-tb.jpg
Active,hamptonfalls:0015,hamptonfalls,http://www.archive.org/details/annualreportofto1923hamp2|~|annualreportofto1923hamp2|~|hamptonfalls:0015,"Annual report of the Town of Hampton Falls, New Hampshire, 1923",1923,Title varies|~|Imprint varies|~|Report year varies,"University of New Hampshire. Library. Digital Collections.|~|Scanned by Internet Archive, Open Content Alliance (2010)",,,Text,Hampton Falls (N.H. : Town) -- Appropriations and expenditures -- Periodicals,Hampton Falls (N.H. : Town),,,Eng,"[Hampton Falls, N.H. : The Town]|~|University of New Hampshire. Library. Digital Collections.",hamptonfalls_0015+application-pdf+application.pdf|~|hamptonfalls_0015+image-low-jpg+image-low.jpg|~|hamptonfalls_0015+image-tb-jpg+image-tb.jpg
Active,hamptonfalls:0016,hamptonfalls,http://www.archive.org/details/annualreportofto1925hamp3|~|annualreportofto1925hamp3|~|hamptonfalls:0016,"Annual report of the Town of Hampton Falls, New Hampshire, 1925",1925,Title varies|~|Imprint varies|~|Report year varies,"University of New Hampshire. Library. Digital Collections.|~|Scanned by Internet Archive, Open Content Alliance (2010)",,,Text,Hampton Falls (N.H. : Town) -- Appropriations and expenditures -- Periodicals,Hampton Falls (N.H. : Town),,,Eng,"[Hampton Falls, N.H. : The Town]|~|University of New Hampshire. Library. Digital Collections.",hamptonfalls_0016+application-pdf+application.pdf|~|hamptonfalls_0016+image-low-jpg+image-low.jpg|~|hamptonfalls_0016+image-tb-jpg+image-tb.jpg
Active,hamptonfalls:0017,hamptonfalls,http://www.archive.org/details/annualreportofto1926hamp3|~|annualreportofto1926hamp3|~|hamptonfalls:0017,"Annual report of the Town of Hampton Falls, New Hampshire, 1926",1926,Title varies|~|Imprint varies|~|Report year varies,"University of New Hampshire. Library. Digital Collections.|~|Scanned by Internet Archive, Open Content Alliance (2010)",,,Text,Hampton Falls (N.H. : Town) -- Appropriations and expenditures -- Periodicals,Hampton Falls (N.H. : Town),,,Eng,"[Hampton Falls, N.H. : The Town]|~|University of New Hampshire. Library. Digital Collections.",hamptonfalls_0017+application-pdf+application.pdf|~|hamptonfalls_0017+image-low-jpg+image-low.jpg|~|hamptonfalls_0017+image-tb-jpg+image-tb.jpg
Active,hamptonfalls:0018,hamptonfalls,http://www.archive.org/details/annualreportofto1927hamp3|~|annualreportofto1927hamp3|~|hamptonfalls:0018,"Annual report of the Town of Hampton Falls, New Hampshire, 1927",1927,Title varies|~|Imprint varies|~|Report year varies,"University of New Hampshire. Library. Digital Collections.|~|Scanned by Internet Archive, Open Content Alliance (2010)",,,Text,Hampton Falls (N.H. : Town) -- Appropriations and expenditures -- Periodicals,Hampton Falls (N.H. : Town),,,Eng,"[Hampton Falls, N.H. : The Town]|~|University of New Hampshire. Library. Digital Collections.",hamptonfalls_0018+application-pdf+application.pdf|~|hamptonfalls_0018+image-low-jpg+image-low.jpg|~|hamptonfalls_0018+image-tb-jpg+image-tb.jpg
Active,hamptonfalls:0019,hamptonfalls,http://www.archive.org/details/annualreportofto1928hamp|~|annualreportofto1928hamp|~|hamptonfalls:0019,"Annual report of the Town of Hampton Falls, New Hampshire, 1928",1928,Title varies|~|Imprint varies|~|Report year varies,"University of New Hampshire. Library. Digital Collections.|~|Scanned by Internet Archive, Open Content Alliance (2010)",,,Text,Hampton Falls (N.H. : Town) -- Appropriations and expenditures -- Periodicals,Hampton Falls (N.H. : Town),,,Eng,"[Hampton Falls, N.H. : The Town]|~|University of New Hampshire. Library. Digital Collections.",hamptonfalls_0019+application-pdf+application.pdf|~|hamptonfalls_0019+image-low-jpg+image-low.jpg|~|hamptonfalls_0019+image-tb-jpg+image-tb.jpg
Active,hamptonfalls:0020,hamptonfalls,http://www.archive.org/details/annualreportofto1929hamp3|~|annualreportofto1929hamp3|~|hamptonfalls:0020,"Annual report of the Town of Hampton Falls, New Hampshire, 1929",1929,Title varies|~|Imprint varies|~|Report year varies,"University of New Hampshire. Library. Digital Collections.|~|Scanned by Internet Archive, Open Content Alliance (2010)",,,Text,Hampton Falls (N.H. : Town) -- Appropriations and expenditures -- Periodicals,Hampton Falls (N.H. : Town),,,Eng,"[Hampton Falls, N.H. : The Town]|~|University of New Hampshire. Library. Digital Collections.",hamptonfalls_0020+application-pdf+application.pdf|~|hamptonfalls_0020+image-low-jpg+image-low.jpg|~|hamptonfalls_0020+image-tb-jpg+image-tb.jpg
Active,hamptonfalls:0021,hamptonfalls,http://www.archive.org/details/annualreportofto1930hamp3|~|annualreportofto1930hamp3|~|hamptonfalls:0021,"Annual report of the Town of Hampton Falls, New Hampshire, 1930",1930,Title varies|~|Imprint varies|~|Report year varies,"University of New Hampshire. Library. Digital Collections.|~|Scanned by Internet Archive, Open Content Alliance (2010)",,,Text,Hampton Falls (N.H. : Town) -- Appropriations and expenditures -- Periodicals,Hampton Falls (N.H. : Town),,,Eng,"[Hampton Falls, N.H. : The Town]|~|University of New Hampshire. Library. Digital Collections.",hamptonfalls_0021+application-pdf+application.pdf|~|hamptonfalls_0021+image-low-jpg+image-low.jpg|~|hamptonfalls_0021+image-tb-jpg+image-tb.jpg
Active,hamptonfalls:0022,hamptonfalls,http://www.archive.org/details/annualreportofto1932hamp3|~|annualreportofto1932hamp3|~|hamptonfalls:0022,"Annual report of the Town of Hampton Falls, New Hampshire, 1932",1932,Title varies|~|Imprint varies|~|Report year varies,"University of New Hampshire. Library. Digital Collections.|~|Scanned by Internet Archive, Open Content Alliance (2010)",,,Text,Hampton Falls (N.H. : Town) -- Appropriations and expenditures -- Periodicals,Hampton Falls (N.H. : Town),,,Eng,"[Hampton Falls, N.H. : The Town]|~|University of New Hampshire. Library. Digital Collections.",hamptonfalls_0022+application-pdf+application.pdf|~|hamptonfalls_0022+image-low-jpg+image-low.jpg|~|hamptonfalls_0022+image-tb-jpg+image-tb.jpg
Active,hamptonfalls:0023,hamptonfalls,http://www.archive.org/details/annualreportofto1933hamp3|~|annualreportofto1933hamp3|~|hamptonfalls:0023,"Annual report of the Town of Hampton Falls, New Hampshire, 1933",1933,Title varies|~|Imprint varies|~|Report year varies,"University of New Hampshire. Library. Digital Collections.|~|Scanned by Internet Archive, Open Content Alliance (2010)",,,Text,Hampton Falls (N.H. : Town) -- Appropriations and expenditures -- Periodicals,Hampton Falls (N.H. : Town),,,Eng,"[Hampton Falls, N.H. : The Town]|~|University of New Hampshire. Library. Digital Collections.",hamptonfalls_0023+application-pdf+application.pdf|~|hamptonfalls_0023+image-low-jpg+image-low.jpg|~|hamptonfalls_0023+image-tb-jpg+image-tb.jpg
Active,hamptonfalls:0024,hamptonfalls,http://www.archive.org/details/annualreportofto1934hamp3|~|annualreportofto1934hamp3|~|hamptonfalls:0024,"Annual report of the Town of Hampton Falls, New Hampshire, 1934",1934,Title varies|~|Imprint varies|~|Report year varies,"University of New Hampshire. Library. Digital Collections.|~|Scanned by Internet Archive, Open Content Alliance (2010)",,,Text,Hampton Falls (N.H. : Town) -- Appropriations and expenditures -- Periodicals,Hampton Falls (N.H. : Town),,,Eng,"[Hampton Falls, N.H. : The Town]|~|University of New Hampshire. Library. Digital Collections.",hamptonfalls_0024+application-pdf+application.pdf|~|hamptonfalls_0024+image-low-jpg+image-low.jpg|~|hamptonfalls_0024+image-tb-jpg+image-tb.jpg
Active,hamptonfalls:0025,hamptonfalls,http://www.archive.org/details/annualreportofto1936hamp3|~|annualreportofto1936hamp3|~|hamptonfalls:0025,"Annual report of the Town of Hampton Falls, New Hampshire, 1936",1936,Title varies|~|Imprint varies|~|Report year varies,"University of New Hampshire. Library. Digital Collections.|~|Scanned by Internet Archive, Open Content Alliance (2010)",,,Text,Hampton Falls (N.H. : Town) -- Appropriations and expenditures -- Periodicals,Hampton Falls (N.H. : Town),,,Eng,"[Hampton Falls, N.H. : The Town]|~|University of New Hampshire. Library. Digital Collections.",hamptonfalls_0025+application-pdf+application.pdf|~|hamptonfalls_0025+image-low-jpg+image-low.jpg|~|hamptonfalls_0025+image-tb-jpg+image-tb.jpg
Active,hamptonfalls:0026,hamptonfalls,http://www.archive.org/details/annualreportofto1937hamp3|~|annualreportofto1937hamp3|~|hamptonfalls:0026,"Annual report of the Town of Hampton Falls, New Hampshire, 1937",1937,Title varies|~|Imprint varies|~|Report year varies,"University of New Hampshire. Library. Digital Collections.|~|Scanned by Internet Archive, Open Content Alliance (2010)",,,Text,Hampton Falls (N.H. : Town) -- Appropriations and expenditures -- Periodicals,Hampton Falls (N.H. : Town),,,Eng,"[Hampton Falls, N.H. : The Town]|~|University of New Hampshire. Library. Digital Collections.",hamptonfalls_0026+application-pdf+application.pdf|~|hamptonfalls_0026+image-low-jpg+image-low.jpg|~|hamptonfalls_0026+image-tb-jpg+image-tb.jpg
Active,hamptonfalls:0027,hamptonfalls,http://www.archive.org/details/annualreportofto1938hamp3|~|annualreportofto1938hamp3|~|hamptonfalls:0027,"Annual report of the Town of Hampton Falls, New Hampshire, 1938",1938,Title varies|~|Imprint varies|~|Report year varies,"University of New Hampshire. Library. Digital Collections.|~|Scanned by Internet Archive, Open Content Alliance (2010)",,,Text,Hampton Falls (N.H. : Town) -- Appropriations and expenditures -- Periodicals,Hampton Falls (N.H. : Town),,,Eng,"[Hampton Falls, N.H. : The Town]|~|University of New Hampshire. Library. Digital Collections.",hamptonfalls_0027+application-pdf+application.pdf|~|hamptonfalls_0027+image-low-jpg+image-low.jpg|~|hamptonfalls_0027+image-tb-jpg+image-tb.jpg
Active,hamptonfalls:0028,hamptonfalls,http://www.archive.org/details/annualreportofto1939hamp3|~|annualreportofto1939hamp3|~|hamptonfalls:0028,"Annual report of the Town of Hampton Falls, New Hampshire, 1939",1939,Title varies|~|Imprint varies|~|Report year varies,"University of New Hampshire. Library. Digital Collections.|~|Scanned by Internet Archive, Open Content Alliance (2010)",,,Text,Hampton Falls (N.H. : Town) -- Appropriations and expenditures -- Periodicals,Hampton Falls (N.H. : Town),,,Eng,"[Hampton Falls, N.H. : The Town]|~|University of New Hampshire. Library. Digital Collections.",hamptonfalls_0028+application-pdf+application.pdf|~|hamptonfalls_0028+image-low-jpg+image-low.jpg|~|hamptonfalls_0028+image-tb-jpg+image-tb.jpg
Active,hamptonfalls:0029,hamptonfalls,http://www.archive.org/details/annualreportofto1940hamp3|~|annualreportofto1940hamp3|~|hamptonfalls:0029,"Annual report of the Town of Hampton Falls, New Hampshire, 1940",1940,Title varies|~|Imprint varies|~|Report year varies,"University of New Hampshire. Library. Digital Collections.|~|Scanned by Internet Archive, Open Content Alliance (2010)",,,Text,Hampton Falls (N.H. : Town) -- Appropriations and expenditures -- Periodicals,Hampton Falls (N.H. : Town),,,Eng,"[Hampton Falls, N.H. : The Town]|~|University of New Hampshire. Library. Digital Collections.",hamptonfalls_0029+application-pdf+application.pdf|~|hamptonfalls_0029+image-low-jpg+image-low.jpg|~|hamptonfalls_0029+image-tb-jpg+image-tb.jpg
Active,hamptonfalls:0030,hamptonfalls,http://www.archive.org/details/annualreportofto1941hamp3|~|annualreportofto1941hamp3|~|hamptonfalls:0030,"Annual report of the Town of Hampton Falls, New Hampshire, 1941",1941,Title varies|~|Imprint varies|~|Report year varies,"University of New Hampshire. Library. Digital Collections.|~|Scanned by Internet Archive, Open Content Alliance (2010)",,,Text,Hampton Falls (N.H. : Town) -- Appropriations and expenditures -- Periodicals,Hampton Falls (N.H. : Town),,,Eng,"[Hampton Falls, N.H. : The Town]|~|University of New Hampshire. Library. Digital Collections.",hamptonfalls_0030+application-pdf+application.pdf|~|hamptonfalls_0030+image-low-jpg+image-low.jpg|~|hamptonfalls_0030+image-tb-jpg+image-tb.jpg
Active,hamptonfalls:0031,hamptonfalls,http://www.archive.org/details/annualreportofto1942hamp3|~|annualreportofto1942hamp3|~|hamptonfalls:0031,"Annual report of the Town of Hampton Falls, New Hampshire, 1942",1942,Title varies|~|Imprint varies|~|Report year varies,"University of New Hampshire. Library. Digital Collections.|~|Scanned by Internet Archive, Open Content Alliance (2010)",,,Text,Hampton Falls (N.H. : Town) -- Appropriations and expenditures -- Periodicals,Hampton Falls (N.H. : Town),,,Eng,"[Hampton Falls, N.H. : The Town]|~|University of New Hampshire. Library. Digital Collections.",hamptonfalls_0031+application-pdf+application.pdf|~|hamptonfalls_0031+image-low-jpg+image-low.jpg|~|hamptonfalls_0031+image-tb-jpg+image-tb.jpg
Active,hamptonfalls:0032,hamptonfalls,http://www.archive.org/details/annualreportofto1943hamp3|~|annualreportofto1943hamp3|~|hamptonfalls:0032,"Annual report of the Town of Hampton Falls, New Hampshire, 1943",1943,Title varies|~|Imprint varies|~|Report year varies,"University of New Hampshire. Library. Digital Collections.|~|Scanned by Internet Archive, Open Content Alliance (2010)",,,Text,Hampton Falls (N.H. : Town) -- Appropriations and expenditures -- Periodicals,Hampton Falls (N.H. : Town),,,Eng,"[Hampton Falls, N.H. : The Town]|~|University of New Hampshire. Library. Digital Collections.",hamptonfalls_0032+application-pdf+application.pdf|~|hamptonfalls_0032+image-low-jpg+image-low.jpg|~|hamptonfalls_0032+image-tb-jpg+image-tb.jpg
Active,hamptonfalls:0033,hamptonfalls,http://www.archive.org/details/annualreportofto1944hamp3|~|annualreportofto1944hamp3|~|hamptonfalls:0033,"Annual report of the Town of Hampton Falls, New Hampshire, 1944",1944,Title varies|~|Imprint varies|~|Report year varies,"University of New Hampshire. Library. Digital Collections.|~|Scanned by Internet Archive, Open Content Alliance (2010)",,,Text,Hampton Falls (N.H. : Town) -- Appropriations and expenditures -- Periodicals,Hampton Falls (N.H. : Town),,,Eng,"[Hampton Falls, N.H. : The Town]|~|University of New Hampshire. Library. Digital Collections.",hamptonfalls_0033+application-pdf+application.pdf|~|hamptonfalls_0033+image-low-jpg+image-low.jpg|~|hamptonfalls_0033+image-tb-jpg+image-tb.jpg
Active,hamptonfalls:0034,hamptonfalls,http://www.archive.org/details/annualreportofto44hamp3|~|annualreportofto44hamp3|~|hamptonfalls:0034,"Annual report of the Town of Hampton Falls, New Hampshire, 1944",1945,Title varies|~|Imprint varies|~|Report year varies,"University of New Hampshire. Library. Digital Collections.|~|Scanned by Internet Archive, Open Content Alliance (2010)",,,Text,Hampton Falls (N.H. : Town) -- Appropriations and expenditures -- Periodicals,Hampton Falls (N.H. : Town),,,Eng,"[Hampton Falls, N.H. : The Town]|~|University of New Hampshire. Library. Digital Collections.",hamptonfalls_0034+application-pdf+application.pdf|~|hamptonfalls_0034+image-low-jpg+image-low.jpg|~|hamptonfalls_0034+image-tb-jpg+image-tb.jpg
Active,hamptonfalls:0035,hamptonfalls,http://www.archive.org/details/annualreportofto1945hamp3|~|annualreportofto1945hamp3|~|hamptonfalls:0035,"Annual report of the Town of Hampton Falls, New Hampshire, 1945",1946,Title varies|~|Imprint varies|~|Report year varies,"University of New Hampshire. Library. Digital Collections.|~|Scanned by Internet Archive, Open Content Alliance (2010)",,,Text,Hampton Falls (N.H. : Town) -- Appropriations and expenditures -- Periodicals,Hampton Falls (N.H. : Town),,,Eng,"[Hampton Falls, N.H. : The Town]|~|University of New Hampshire. Library. Digital Collections.",hamptonfalls_0035+application-pdf+application.pdf|~|hamptonfalls_0035+image-low-jpg+image-low.jpg|~|hamptonfalls_0035+image-tb-jpg+image-tb.jpg
Active,hamptonfalls:0036,hamptonfalls,http://www.archive.org/details/annualreportofto1946hamp3|~|annualreportofto1946hamp3|~|hamptonfalls:0036,"Annual report of the Town of Hampton Falls, New Hampshire, 1946",1947,Title varies|~|Imprint varies|~|Report year varies,"University of New Hampshire. Library. Digital Collections.|~|Scanned by Internet Archive, Open Content Alliance (2010)",,,Text,Hampton Falls (N.H. : Town) -- Appropriations and expenditures -- Periodicals,Hampton Falls (N.H. : Town),,,Eng,"[Hampton Falls, N.H. : The Town]|~|University of New Hampshire. Library. Digital Collections.",hamptonfalls_0036+application-pdf+application.pdf|~|hamptonfalls_0036+image-low-jpg+image-low.jpg|~|hamptonfalls_0036+image-tb-jpg+image-tb.jpg
Active,hamptonfalls:0037,hamptonfalls,http://www.archive.org/details/annualreportofto1947hamp3|~|annualreportofto1947hamp3|~|hamptonfalls:0037,"Annual report of the Town of Hampton Falls, New Hampshire, 1947",1948,Title varies|~|Imprint varies|~|Report year varies,"University of New Hampshire. Library. Digital Collections.|~|Scanned by Internet Archive, Open Content Alliance (2010)",,,Text,Hampton Falls (N.H. : Town) -- Appropriations and expenditures -- Periodicals,Hampton Falls (N.H. : Town),,,Eng,"[Hampton Falls, N.H. : The Town]|~|University of New Hampshire. Library. Digital Collections.",hamptonfalls_0037+application-pdf+application.pdf|~|hamptonfalls_0037+image-low-jpg+image-low.jpg|~|hamptonfalls_0037+image-tb-jpg+image-tb.jpg
Active,hamptonfalls:0038,hamptonfalls,http://www.archive.org/details/annualreportofto1948hamp3|~|annualreportofto1948hamp3|~|hamptonfalls:0038,"Annual report of the Town of Hampton Falls, New Hampshire, 1948",1949,Title varies|~|Imprint varies|~|Report year varies,"University of New Hampshire. Library. Digital Collections.|~|Scanned by Internet Archive, Open Content Alliance (2010)",,,Text,Hampton Falls (N.H. : Town) -- Appropriations and expenditures -- Periodicals,Hampton Falls (N.H. : Town),,,Eng,"[Hampton Falls, N.H. : The Town]|~|University of New Hampshire. Library. Digital Collections.",hamptonfalls_0038+application-pdf+application.pdf|~|hamptonfalls_0038+image-low-jpg+image-low.jpg|~|hamptonfalls_0038+image-tb-jpg+image-tb.jpg
Active,hamptonfalls:0039,hamptonfalls,http://www.archive.org/details/annualreportofto1949hamp3|~|annualreportofto1949hamp3|~|hamptonfalls:0039,"Annual report of the Town of Hampton Falls, New Hampshire, 1949",1950,Title varies|~|Imprint varies|~|Report year varies,"University of New Hampshire. Library. Digital Collections.|~|Scanned by Internet Archive, Open Content Alliance (2010)",,,Text,Hampton Falls (N.H. : Town) -- Appropriations and expenditures -- Periodicals,Hampton Falls (N.H. : Town),,,Eng,"[Hampton Falls, N.H. : The Town]|~|University of New Hampshire. Library. Digital Collections.",hamptonfalls_0039+application-pdf+application.pdf|~|hamptonfalls_0039+image-low-jpg+image-low.jpg|~|hamptonfalls_0039+image-tb-jpg+image-tb.jpg
Active,hamptonfalls:0040,hamptonfalls,http://www.archive.org/details/annualreportofto1950hamp3|~|annualreportofto1950hamp3|~|hamptonfalls:0040,"Annual report of the Town of Hampton Falls, New Hampshire, 1950",1951,Title varies|~|Imprint varies|~|Report year varies,"University of New Hampshire. Library. Digital Collections.|~|Scanned by Internet Archive, Open Content Alliance (2010)",,,Text,Hampton Falls (N.H. : Town) -- Appropriations and expenditures -- Periodicals,Hampton Falls (N.H. : Town),,,Eng,"[Hampton Falls, N.H. : The Town]|~|University of New Hampshire. Library. Digital Collections.",hamptonfalls_0040+application-pdf+application.pdf|~|hamptonfalls_0040+image-low-jpg+image-low.jpg|~|hamptonfalls_0040+image-tb-jpg+image-tb.jpg
Active,hamptonfalls:0041,hamptonfalls,http://www.archive.org/details/annualreportofto1951hamp3|~|annualreportofto1951hamp3|~|hamptonfalls:0041,"Annual report of the Town of Hampton Falls, New Hampshire, 1951",1952,Title varies|~|Imprint varies|~|Report year varies,"University of New Hampshire. Library. Digital Collections.|~|Scanned by Internet Archive, Open Content Alliance (2010)",,,Text,Hampton Falls (N.H. : Town) -- Appropriations and expenditures -- Periodicals,Hampton Falls (N.H. : Town),,,Eng,"[Hampton Falls, N.H. : The Town]|~|University of New Hampshire. Library. Digital Collections.",hamptonfalls_0041+application-pdf+application.pdf|~|hamptonfalls_0041+image-low-jpg+image-low.jpg|~|hamptonfalls_0041+image-tb-jpg+image-tb.jpg
Active,hamptonfalls:0042,hamptonfalls,http://www.archive.org/details/annualreportofto1952hamp3|~|annualreportofto1952hamp3|~|hamptonfalls:0042,"Annual report of the Town of Hampton Falls, New Hampshire, 1952",1953,Title varies|~|Imprint varies|~|Report year varies,"University of New Hampshire. Library. Digital Collections.|~|Scanned by Internet Archive, Open Content Alliance (2010)",,,Text,Hampton Falls (N.H. : Town) -- Appropriations and expenditures -- Periodicals,Hampton Falls (N.H. : Town),,,Eng,"[Hampton Falls, N.H. : The Town]|~|University of New Hampshire. Library. Digital Collections.",hamptonfalls_0042+application-pdf+application.pdf|~|hamptonfalls_0042+image-low-jpg+image-low.jpg|~|hamptonfalls_0042+image-tb-jpg+image-tb.jpg
Active,hamptonfalls:0043,hamptonfalls,http://www.archive.org/details/annualreportofto1953hamp3|~|annualreportofto1953hamp3|~|hamptonfalls:0043,"Annual report of the Town of Hampton Falls, New Hampshire, 1953",1954,Title varies|~|Imprint varies|~|Report year varies,"University of New Hampshire. Library. Digital Collections.|~|Scanned by Internet Archive, Open Content Alliance (2010)",,,Text,Hampton Falls (N.H. : Town) -- Appropriations and expenditures -- Periodicals,Hampton Falls (N.H. : Town),,,Eng,"[Hampton Falls, N.H. : The Town]|~|University of New Hampshire. Library. Digital Collections.",hamptonfalls_0043+application-pdf+application.pdf|~|hamptonfalls_0043+image-low-jpg+image-low.jpg|~|hamptonfalls_0043+image-tb-jpg+image-tb.jpg
Active,hamptonfalls:0044,hamptonfalls,http://www.archive.org/details/annualreportofto1954hamp3|~|annualreportofto1954hamp3|~|hamptonfalls:0044,"Annual report of the Town of Hampton Falls, New Hampshire, 1954",1955,Title varies|~|Imprint varies|~|Report year varies,"University of New Hampshire. Library. Digital Collections.|~|Scanned by Internet Archive, Open Content Alliance (2010)",,,Text,Hampton Falls (N.H. : Town) -- Appropriations and expenditures -- Periodicals,Hampton Falls (N.H. : Town),,,Eng,"[Hampton Falls, N.H. : The Town]|~|University of New Hampshire. Library. Digital Collections.",hamptonfalls_0044+application-pdf+application.pdf|~|hamptonfalls_0044+image-low-jpg+image-low.jpg|~|hamptonfalls_0044+image-tb-jpg+image-tb.jpg
Active,hamptonfalls:0045,hamptonfalls,http://www.archive.org/details/annualreportofto1955hamp3|~|annualreportofto1955hamp3|~|hamptonfalls:0045,"Annual report of the Town of Hampton Falls, New Hampshire, 1955",1956,Title varies|~|Imprint varies|~|Report year varies,"University of New Hampshire. Library. Digital Collections.|~|Scanned by Internet Archive, Open Content Alliance (2010)",,,Text,Hampton Falls (N.H. : Town) -- Appropriations and expenditures -- Periodicals,Hampton Falls (N.H. : Town),,,Eng,"[Hampton Falls, N.H. : The Town]|~|University of New Hampshire. Library. Digital Collections.",hamptonfalls_0045+application-pdf+application.pdf|~|hamptonfalls_0045+image-low-jpg+image-low.jpg|~|hamptonfalls_0045+image-tb-jpg+image-tb.jpg
Active,hamptonfalls:0046,hamptonfalls,http://www.archive.org/details/annualreportofto1956hamp3|~|annualreportofto1956hamp3|~|hamptonfalls:0046,"Annual report of the Town of Hampton Falls, New Hampshire, 1956",1957,Title varies|~|Imprint varies|~|Report year varies,"University of New Hampshire. Library. Digital Collections.|~|Scanned by Internet Archive, Open Content Alliance (2010)",,,Text,Hampton Falls (N.H. : Town) -- Appropriations and expenditures -- Periodicals,Hampton Falls (N.H. : Town),,,Eng,"[Hampton Falls, N.H. : The Town]|~|University of New Hampshire. Library. Digital Collections.",hamptonfalls_0046+application-pdf+application.pdf|~|hamptonfalls_0046+image-low-jpg+image-low.jpg|~|hamptonfalls_0046+image-tb-jpg+image-tb.jpg
Active,hamptonfalls:0047,hamptonfalls,http://www.archive.org/details/annualreportofto1957hamp3|~|annualreportofto1957hamp3|~|hamptonfalls:0047,"Annual report of the Town of Hampton Falls, New Hampshire, 1957",1958,Title varies|~|Imprint varies|~|Report year varies,"University of New Hampshire. Library. Digital Collections.|~|Scanned by Internet Archive, Open Content Alliance (2010)",,,Text,Hampton Falls (N.H. : Town) -- Appropriations and expenditures -- Periodicals,Hampton Falls (N.H. : Town),,,Eng,"[Hampton Falls, N.H. : The Town]|~|University of New Hampshire. Library. Digital Collections.",hamptonfalls_0047+application-pdf+application.pdf|~|hamptonfalls_0047+image-low-jpg+image-low.jpg|~|hamptonfalls_0047+image-tb-jpg+image-tb.jpg
Active,hamptonfalls:0048,hamptonfalls,http://www.archive.org/details/annualreportofto1958hamp3|~|annualreportofto1958hamp3|~|hamptonfalls:0048,"Annual report of the Town of Hampton Falls, New Hampshire, 1958",1959,Title varies|~|Imprint varies|~|Report year varies,"University of New Hampshire. Library. Digital Collections.|~|Scanned by Internet Archive, Open Content Alliance (2010)",,,Text,Hampton Falls (N.H. : Town) -- Appropriations and expenditures -- Periodicals,Hampton Falls (N.H. : Town),,,Eng,"[Hampton Falls, N.H. : The Town]|~|University of New Hampshire. Library. Digital Collections.",hamptonfalls_0048+application-pdf+application.pdf|~|hamptonfalls_0048+image-low-jpg+image-low.jpg|~|hamptonfalls_0048+image-tb-jpg+image-tb.jpg
Active,hamptonfalls:0049,hamptonfalls,http://www.archive.org/details/annualreportofto1959hamp3|~|annualreportofto1959hamp3|~|hamptonfalls:0049,"Annual report of the Town of Hampton Falls, New Hampshire, 1959",1960,Title varies|~|Imprint varies|~|Report year varies,"University of New Hampshire. Library. Digital Collections.|~|Scanned by Internet Archive, Open Content Alliance (2010)",,,Text,Hampton Falls (N.H. : Town) -- Appropriations and expenditures -- Periodicals,Hampton Falls (N.H. : Town),,,Eng,"[Hampton Falls, N.H. : The Town]|~|University of New Hampshire. Library. Digital Collections.",hamptonfalls_0049+application-pdf+application.pdf|~|hamptonfalls_0049+image-low-jpg+image-low.jpg|~|hamptonfalls_0049+image-tb-jpg+image-tb.jpg
Active,hamptonfalls:0050,hamptonfalls,http://www.archive.org/details/annualreportofto1960hamp3|~|annualreportofto1960hamp3|~|hamptonfalls:0050,"Annual report of the Town of Hampton Falls, New Hampshire, 1960",1961,Title varies|~|Imprint varies|~|Report year varies,"University of New Hampshire. Library. Digital Collections.|~|Scanned by Internet Archive, Open Content Alliance (2010)",,,Text,Hampton Falls (N.H. : Town) -- Appropriations and expenditures -- Periodicals,Hampton Falls (N.H. : Town),,,Eng,"[Hampton Falls, N.H. : The Town]|~|University of New Hampshire. Library. Digital Collections.",hamptonfalls_0050+application-pdf+application.pdf|~|hamptonfalls_0050+image-low-jpg+image-low.jpg|~|hamptonfalls_0050+image-tb-jpg+image-tb.jpg
Active,hamptonfalls:0051,hamptonfalls,http://www.archive.org/details/annualreportofto1961hamp3|~|annualreportofto1961hamp3|~|hamptonfalls:0051,"Annual report of the Town of Hampton Falls, New Hampshire, 1961",1962,Title varies|~|Imprint varies|~|Report year varies,"University of New Hampshire. Library. Digital Collections.|~|Scanned by Internet Archive, Open Content Alliance (2010)",,,Text,Hampton Falls (N.H. : Town) -- Appropriations and expenditures -- Periodicals,Hampton Falls (N.H. : Town),,,Eng,"[Hampton Falls, N.H. : The Town]|~|University of New Hampshire. Library. Digital Collections.",hamptonfalls_0051+application-pdf+application.pdf|~|hamptonfalls_0051+image-low-jpg+image-low.jpg|~|hamptonfalls_0051+image-tb-jpg+image-tb.jpg
Active,hamptonfalls:0052,hamptonfalls,http://www.archive.org/details/annualreportofto1962hamp3|~|annualreportofto1962hamp3|~|hamptonfalls:0052,"Annual report of the Town of Hampton Falls, New Hampshire, 1962",1963,Title varies|~|Imprint varies|~|Report year varies,"University of New Hampshire. Library. Digital Collections.|~|Scanned by Internet Archive, Open Content Alliance (2010)",,,Text,Hampton Falls (N.H. : Town) -- Appropriations and expenditures -- Periodicals,Hampton Falls (N.H. : Town),,,Eng,"[Hampton Falls, N.H. : The Town]|~|University of New Hampshire. Library. Digital Collections.",hamptonfalls_0052+application-pdf+application.pdf|~|hamptonfalls_0052+image-low-jpg+image-low.jpg|~|hamptonfalls_0052+image-tb-jpg+image-tb.jpg
Active,hamptonfalls:0053,hamptonfalls,http://www.archive.org/details/annualreportofto1963hamp3|~|annualreportofto1963hamp3|~|hamptonfalls:0053,"Annual report of the Town of Hampton Falls, New Hampshire, 1963",1964,Title varies|~|Imprint varies|~|Report year varies,"University of New Hampshire. Library. Digital Collections.|~|Scanned by Internet Archive, Open Content Alliance (2010)",,,Text,Hampton Falls (N.H. : Town) -- Appropriations and expenditures -- Periodicals,Hampton Falls (N.H. : Town),,,Eng,"[Hampton Falls, N.H. : The Town]|~|University of New Hampshire. Library. Digital Collections.",hamptonfalls_0053+application-pdf+application.pdf|~|hamptonfalls_0053+image-low-jpg+image-low.jpg|~|hamptonfalls_0053+image-tb-jpg+image-tb.jpg
Active,hamptonfalls:0054,hamptonfalls,http://www.archive.org/details/annualreportofto1964hamp3|~|annualreportofto1964hamp3|~|hamptonfalls:0054,"Annual report of the Town of Hampton Falls, New Hampshire, 1964",1965,Title varies|~|Imprint varies|~|Report year varies,"University of New Hampshire. Library. Digital Collections.|~|Scanned by Internet Archive, Open Content Alliance (2010)",,,Text,Hampton Falls (N.H. : Town) -- Appropriations and expenditures -- Periodicals,Hampton Falls (N.H. : Town),,,Eng,"[Hampton Falls, N.H. : The Town]|~|University of New Hampshire. Library. Digital Collections.",hamptonfalls_0054+application-pdf+application.pdf|~|hamptonfalls_0054+image-low-jpg+image-low.jpg|~|hamptonfalls_0054+image-tb-jpg+image-tb.jpg
Active,hamptonfalls:0055,hamptonfalls,http://www.archive.org/details/annualreportofto1965hamp3|~|annualreportofto1965hamp3|~|hamptonfalls:0055,"Annual report of the Town of Hampton Falls, New Hampshire, 1965",1966,Title varies|~|Imprint varies|~|Report year varies,"University of New Hampshire. Library. Digital Collections.|~|Scanned by Internet Archive, Open Content Alliance (2010)",,,Text,Hampton Falls (N.H. : Town) -- Appropriations and expenditures -- Periodicals,Hampton Falls (N.H. : Town),,,Eng,"[Hampton Falls, N.H. : The Town]|~|University of New Hampshire. Library. Digital Collections.",hamptonfalls_0055+application-pdf+application.pdf|~|hamptonfalls_0055+image-low-jpg+image-low.jpg|~|hamptonfalls_0055+image-tb-jpg+image-tb.jpg
Active,hamptonfalls:0056,hamptonfalls,http://www.archive.org/details/annualreportofto1966hamp3|~|annualreportofto1966hamp3|~|hamptonfalls:0056,"Annual report of the Town of Hampton Falls, New Hampshire, 1966",1967,Title varies|~|Imprint varies|~|Report year varies,"University of New Hampshire. Library. Digital Collections.|~|Scanned by Internet Archive, Open Content Alliance (2010)",,,Text,Hampton Falls (N.H. : Town) -- Appropriations and expenditures -- Periodicals,Hampton Falls (N.H. : Town),,,Eng,"[Hampton Falls, N.H. : The Town]|~|University of New Hampshire. Library. Digital Collections.",hamptonfalls_0056+application-pdf+application.pdf|~|hamptonfalls_0056+image-low-jpg+image-low.jpg|~|hamptonfalls_0056+image-tb-jpg+image-tb.jpg
Active,hamptonfalls:0057,hamptonfalls,http://www.archive.org/details/annualreportofto1967hamp3|~|annualreportofto1967hamp3|~|hamptonfalls:0057,"Annual report of the Town of Hampton Falls, New Hampshire, 1967",1968,Title varies|~|Imprint varies|~|Report year varies,"University of New Hampshire. Library. Digital Collections.|~|Scanned by Internet Archive, Open Content Alliance (2010)",,,Text,Hampton Falls (N.H. : Town) -- Appropriations and expenditures -- Periodicals,Hampton Falls (N.H. : Town),,,Eng,"[Hampton Falls, N.H. : The Town]|~|University of New Hampshire. Library. Digital Collections.",hamptonfalls_0057+application-pdf+application.pdf|~|hamptonfalls_0057+image-low-jpg+image-low.jpg|~|hamptonfalls_0057+image-tb-jpg+image-tb.jpg
Active,hamptonfalls:0058,hamptonfalls,http://www.archive.org/details/annualreportofto1968hamp3|~|annualreportofto1968hamp3|~|hamptonfalls:0058,"Annual report of the Town of Hampton Falls, New Hampshire, 1968",1969,Title varies|~|Imprint varies|~|Report year varies,"University of New Hampshire. Library. Digital Collections.|~|Scanned by Internet Archive, Open Content Alliance (2010)",,,Text,Hampton Falls (N.H. : Town) -- Appropriations and expenditures -- Periodicals,Hampton Falls (N.H. : Town),,,Eng,"[Hampton Falls, N.H. : The Town]|~|University of New Hampshire. Library. Digital Collections.",hamptonfalls_0058+application-pdf+application.pdf|~|hamptonfalls_0058+image-low-jpg+image-low.jpg|~|hamptonfalls_0058+image-tb-jpg+image-tb.jpg
Active,hamptonfalls:0059,hamptonfalls,http://www.archive.org/details/annualreportofto1969hamp3|~|annualreportofto1969hamp3|~|hamptonfalls:0059,"Annual report of the Town of Hampton Falls, New Hampshire, 1969",1970,Title varies|~|Imprint varies|~|Report year varies,"University of New Hampshire. Library. Digital Collections.|~|Scanned by Internet Archive, Open Content Alliance (2010)",,,Text,Hampton Falls (N.H. : Town) -- Appropriations and expenditures -- Periodicals,Hampton Falls (N.H. : Town),,,Eng,"[Hampton Falls, N.H. : The Town]|~|University of New Hampshire. Library. Digital Collections.",hamptonfalls_0059+application-pdf+application.pdf|~|hamptonfalls_0059+image-low-jpg+image-low.jpg|~|hamptonfalls_0059+image-tb-jpg+image-tb.jpg
Active,hamptonfalls:0060,hamptonfalls,http://www.archive.org/details/annualreportofto1970hamp3|~|annualreportofto1970hamp3|~|hamptonfalls:0060,"Annual report of the Town of Hampton Falls, New Hampshire, 1970",1971,Title varies|~|Imprint varies|~|Report year varies,"University of New Hampshire. Library. Digital Collections.|~|Scanned by Internet Archive, Open Content Alliance (2010)",,,Text,Hampton Falls (N.H. : Town) -- Appropriations and expenditures -- Periodicals,Hampton Falls (N.H. : Town),,,Eng,"[Hampton Falls, N.H. : The Town]|~|University of New Hampshire. Library. Digital Collections.",hamptonfalls_0060+application-pdf+application.pdf|~|hamptonfalls_0060+image-low-jpg+image-low.jpg|~|hamptonfalls_0060+image-tb-jpg+image-tb.jpg
Active,hamptonfalls:0061,hamptonfalls,http://www.archive.org/details/annualreportofto1971hamp3|~|annualreportofto1971hamp3|~|hamptonfalls:0061,"Annual report of the Town of Hampton Falls, New Hampshire, 1971",1972,Title varies|~|Imprint varies|~|Report year varies,"University of New Hampshire. Library. Digital Collections.|~|Scanned by Internet Archive, Open Content Alliance (2010)",,,Text,Hampton Falls (N.H. : Town) -- Appropriations and expenditures -- Periodicals,Hampton Falls (N.H. : Town),,,Eng,"[Hampton Falls, N.H. : The Town]|~|University of New Hampshire. Library. Digital Collections.",hamptonfalls_0061+application-pdf+application.pdf|~|hamptonfalls_0061+image-low-jpg+image-low.jpg|~|hamptonfalls_0061+image-tb-jpg+image-tb.jpg
Active,hamptonfalls:0062,hamptonfalls,http://www.archive.org/details/annualreportofto1972hamp3|~|annualreportofto1972hamp3|~|hamptonfalls:0062,"Annual report of the Town of Hampton Falls, New Hampshire, 1972",1973,Title varies|~|Imprint varies|~|Report year varies,"University of New Hampshire. Library. Digital Collections.|~|Scanned by Internet Archive, Open Content Alliance (2010)",,,Text,Hampton Falls (N.H. : Town) -- Appropriations and expenditures -- Periodicals,Hampton Falls (N.H. : Town),,,Eng,"[Hampton Falls, N.H. : The Town]|~|University of New Hampshire. Library. Digital Collections.",hamptonfalls_0062+application-pdf+application.pdf|~|hamptonfalls_0062+image-low-jpg+image-low.jpg|~|hamptonfalls_0062+image-tb-jpg+image-tb.jpg
Active,hamptonfalls:0063,hamptonfalls,http://www.archive.org/details/annualreportofto1973hamp3|~|annualreportofto1973hamp3|~|hamptonfalls:0063,"Annual report of the Town of Hampton Falls, New Hampshire, 1973",1974,Title varies|~|Imprint varies|~|Report year varies,"University of New Hampshire. Library. Digital Collections.|~|Scanned by Internet Archive, Open Content Alliance (2010)",,,Text,Hampton Falls (N.H. : Town) -- Appropriations and expenditures -- Periodicals,Hampton Falls (N.H. : Town),,,Eng,"[Hampton Falls, N.H. : The Town]|~|University of New Hampshire. Library. Digital Collections.",hamptonfalls_0063+application-pdf+application.pdf|~|hamptonfalls_0063+image-low-jpg+image-low.jpg|~|hamptonfalls_0063+image-tb-jpg+image-tb.jpg
Active,hamptonfalls:0064,hamptonfalls,http://www.archive.org/details/annualreportofto1974hamp3|~|annualreportofto1974hamp3|~|hamptonfalls:0064,"Annual report of the Town of Hampton Falls, New Hampshire, 1974",1975,Title varies|~|Imprint varies|~|Report year varies,"University of New Hampshire. Library. Digital Collections.|~|Scanned by Internet Archive, Open Content Alliance (2010)",,,Text,Hampton Falls (N.H. : Town) -- Appropriations and expenditures -- Periodicals,Hampton Falls (N.H. : Town),,,Eng,"[Hampton Falls, N.H. : The Town]|~|University of New Hampshire. Library. Digital Collections.",hamptonfalls_0064+application-pdf+application.pdf|~|hamptonfalls_0064+image-low-jpg+image-low.jpg|~|hamptonfalls_0064+image-tb-jpg+image-tb.jpg
Active,hamptonfalls:0065,hamptonfalls,http://www.archive.org/details/annualreportofto1975hamp3|~|annualreportofto1975hamp3|~|hamptonfalls:0065,"Annual report of the Town of Hampton Falls, New Hampshire, 1975",1976,Title varies|~|Imprint varies|~|Report year varies,"University of New Hampshire. Library. Digital Collections.|~|Scanned by Internet Archive, Open Content Alliance (2010)",,,Text,Hampton Falls (N.H. : Town) -- Appropriations and expenditures -- Periodicals,Hampton Falls (N.H. : Town),,,Eng,"[Hampton Falls, N.H. : The Town]|~|University of New Hampshire. Library. Digital Collections.",hamptonfalls_0065+application-pdf+application.pdf|~|hamptonfalls_0065+image-low-jpg+image-low.jpg|~|hamptonfalls_0065+image-tb-jpg+image-tb.jpg
Active,hamptonfalls:0066,hamptonfalls,http://www.archive.org/details/annualreportofto1976hamp3|~|annualreportofto1976hamp3|~|hamptonfalls:0066,"Annual report of the Town of Hampton Falls, New Hampshire, 1976",1977,Title varies|~|Imprint varies|~|Report year varies,"University of New Hampshire. Library. Digital Collections.|~|Scanned by Internet Archive, Open Content Alliance (2010)",,,Text,Hampton Falls (N.H. : Town) -- Appropriations and expenditures -- Periodicals,Hampton Falls (N.H. : Town),,,Eng,"[Hampton Falls, N.H. : The Town]|~|University of New Hampshire. Library. Digital Collections.",hamptonfalls_0066+application-pdf+application.pdf|~|hamptonfalls_0066+image-low-jpg+image-low.jpg|~|hamptonfalls_0066+image-tb-jpg+image-tb.jpg
Active,hamptonfalls:0067,hamptonfalls,http://www.archive.org/details/annualreportofto1977hamp3|~|annualreportofto1977hamp3|~|hamptonfalls:0067,"Annual report of the Town of Hampton Falls, New Hampshire, 1977",1978,Title varies|~|Imprint varies|~|Report year varies,"University of New Hampshire. Library. Digital Collections.|~|Scanned by Internet Archive, Open Content Alliance (2010)",,,Text,Hampton Falls (N.H. : Town) -- Appropriations and expenditures -- Periodicals,Hampton Falls (N.H. : Town),,,Eng,"[Hampton Falls, N.H. : The Town]|~|University of New Hampshire. Library. Digital Collections.",hamptonfalls_0067+application-pdf+application.pdf|~|hamptonfalls_0067+image-low-jpg+image-low.jpg|~|hamptonfalls_0067+image-tb-jpg+image-tb.jpg
Active,hamptonfalls:0068,hamptonfalls,http://www.archive.org/details/annualreportofto1978hamp3|~|annualreportofto1978hamp3|~|hamptonfalls:0068,"Annual report of the Town of Hampton Falls, New Hampshire, 1978",1979,Title varies|~|Imprint varies|~|Report year varies,"University of New Hampshire. Library. Digital Collections.|~|Scanned by Internet Archive, Open Content Alliance (2010)",,,Text,Hampton Falls (N.H. : Town) -- Appropriations and expenditures -- Periodicals,Hampton Falls (N.H. : Town),,,Eng,"[Hampton Falls, N.H. : The Town]|~|University of New Hampshire. Library. Digital Collections.",hamptonfalls_0068+application-pdf+application.pdf|~|hamptonfalls_0068+image-low-jpg+image-low.jpg|~|hamptonfalls_0068+image-tb-jpg+image-tb.jpg
Active,hamptonfalls:0069,hamptonfalls,http://www.archive.org/details/annualreportofto1979hamp3|~|annualreportofto1979hamp3|~|hamptonfalls:0069,"Annual report of the Town of Hampton Falls, New Hampshire, 1979",1980,Title varies|~|Imprint varies|~|Report year varies,"University of New Hampshire. Library. Digital Collections.|~|Scanned by Internet Archive, Open Content Alliance (2010)",,,Text,Hampton Falls (N.H. : Town) -- Appropriations and expenditures -- Periodicals,Hampton Falls (N.H. : Town),,,Eng,"[Hampton Falls, N.H. : The Town]|~|University of New Hampshire. Library. Digital Collections.",hamptonfalls_0069+application-pdf+application.pdf|~|hamptonfalls_0069+image-low-jpg+image-low.jpg|~|hamptonfalls_0069+image-tb-jpg+image-tb.jpg
Active,hamptonfalls:0070,hamptonfalls,http://www.archive.org/details/annualreportofto1980hamp3|~|annualreportofto1980hamp3|~|hamptonfalls:0070,"Annual report of the Town of Hampton Falls, New Hampshire, 1980",1981,Title varies|~|Imprint varies|~|Report year varies,"University of New Hampshire. Library. Digital Collections.|~|Scanned by Internet Archive, Open Content Alliance (2010)",,,Text,Hampton Falls (N.H. : Town) -- Appropriations and expenditures -- Periodicals,Hampton Falls (N.H. : Town),,,Eng,"[Hampton Falls, N.H. : The Town]|~|University of New Hampshire. Library. Digital Collections.",hamptonfalls_0070+application-pdf+application.pdf|~|hamptonfalls_0070+image-low-jpg+image-low.jpg|~|hamptonfalls_0070+image-tb-jpg+image-tb.jpg
Active,hamptonfalls:0071,hamptonfalls,http://www.archive.org/details/annualreportofto1981hamp3|~|annualreportofto1981hamp3|~|hamptonfalls:0071,"Annual report of the Town of Hampton Falls, New Hampshire, 1981",1982,Title varies|~|Imprint varies|~|Report year varies,"University of New Hampshire. Library. Digital Collections.|~|Scanned by Internet Archive, Open Content Alliance (2010)",,,Text,Hampton Falls (N.H. : Town) -- Appropriations and expenditures -- Periodicals,Hampton Falls (N.H. : Town),,,Eng,"[Hampton Falls, N.H. : The Town]|~|University of New Hampshire. Library. Digital Collections.",hamptonfalls_0071+application-pdf+application.pdf|~|hamptonfalls_0071+image-low-jpg+image-low.jpg|~|hamptonfalls_0071+image-tb-jpg+image-tb.jpg
Active,hamptonfalls:0072,hamptonfalls,http://www.archive.org/details/annualreportofto1982hamp3|~|annualreportofto1982hamp3|~|hamptonfalls:0072,"Annual report of the Town of Hampton Falls, New Hampshire, 1982",1983,Title varies|~|Imprint varies|~|Report year varies,"University of New Hampshire. Library. Digital Collections.|~|Scanned by Internet Archive, Open Content Alliance (2010)",,,Text,Hampton Falls (N.H. : Town) -- Appropriations and expenditures -- Periodicals,Hampton Falls (N.H. : Town),,,Eng,"[Hampton Falls, N.H. : The Town]|~|University of New Hampshire. Library. Digital Collections.",hamptonfalls_0072+application-pdf+application.pdf|~|hamptonfalls_0072+image-low-jpg+image-low.jpg|~|hamptonfalls_0072+image-tb-jpg+image-tb.jpg
Active,hamptonfalls:0073,hamptonfalls,http://www.archive.org/details/annualreportofto1983hamp3|~|annualreportofto1983hamp3|~|hamptonfalls:0073,"Annual report of the Town of Hampton Falls, New Hampshire, 1983",1984,Title varies|~|Imprint varies|~|Report year varies,"University of New Hampshire. Library. Digital Collections.|~|Scanned by Internet Archive, Open Content Alliance (2010)",,,Text,Hampton Falls (N.H. : Town) -- Appropriations and expenditures -- Periodicals,Hampton Falls (N.H. : Town),,,Eng,"[Hampton Falls, N.H. : The Town]|~|University of New Hampshire. Library. Digital Collections.",hamptonfalls_0073+application-pdf+application.pdf|~|hamptonfalls_0073+image-low-jpg+image-low.jpg|~|hamptonfalls_0073+image-tb-jpg+image-tb.jpg
Active,hamptonfalls:0074,hamptonfalls,http://www.archive.org/details/annualreportofto1984hamp3|~|annualreportofto1984hamp3|~|hamptonfalls:0074,"Annual report of the Town of Hampton Falls, New Hampshire, 1984",1985,Title varies|~|Imprint varies|~|Report year varies,"University of New Hampshire. Library. Digital Collections.|~|Scanned by Internet Archive, Open Content Alliance (2010)",,,Text,Hampton Falls (N.H. : Town) -- Appropriations and expenditures -- Periodicals,Hampton Falls (N.H. : Town),,,Eng,"[Hampton Falls, N.H. : The Town]|~|University of New Hampshire. Library. Digital Collections.",hamptonfalls_0074+application-pdf+application.pdf|~|hamptonfalls_0074+image-low-jpg+image-low.jpg|~|hamptonfalls_0074+image-tb-jpg+image-tb.jpg
Active,hamptonfalls:0075,hamptonfalls,http://www.archive.org/details/annualreportofto1985hamp3|~|annualreportofto1985hamp3|~|hamptonfalls:0075,"Annual report of the Town of Hampton Falls, New Hampshire, 1985",1986,Title varies|~|Imprint varies|~|Report year varies,"University of New Hampshire. Library. Digital Collections.|~|Scanned by Internet Archive, Open Content Alliance (2010)",,,Text,Hampton Falls (N.H. : Town) -- Appropriations and expenditures -- Periodicals,Hampton Falls (N.H. : Town),,,Eng,"[Hampton Falls, N.H. : The Town]|~|University of New Hampshire. Library. Digital Collections.",hamptonfalls_0075+application-pdf+application.pdf|~|hamptonfalls_0075+image-low-jpg+image-low.jpg|~|hamptonfalls_0075+image-tb-jpg+image-tb.jpg
Active,hamptonfalls:0076,hamptonfalls,http://www.archive.org/details/annualreportofto1986hamp3|~|annualreportofto1986hamp3|~|hamptonfalls:0076,"Annual report of the Town of Hampton Falls, New Hampshire, 1986",1987,Title varies|~|Imprint varies|~|Report year varies,"University of New Hampshire. Library. Digital Collections.|~|Scanned by Internet Archive, Open Content Alliance (2010)",,,Text,Hampton Falls (N.H. : Town) -- Appropriations and expenditures -- Periodicals,Hampton Falls (N.H. : Town),,,Eng,"[Hampton Falls, N.H. : The Town]|~|University of New Hampshire. Library. Digital Collections.",hamptonfalls_0076+application-pdf+application.pdf|~|hamptonfalls_0076+image-low-jpg+image-low.jpg|~|hamptonfalls_0076+image-tb-jpg+image-tb.jpg
Active,hamptonfalls:0077,hamptonfalls,http://www.archive.org/details/annualreportofto1987hamp3|~|annualreportofto1987hamp3|~|hamptonfalls:0077,"Annual report of the Town of Hampton Falls, New Hampshire, 1987",1988,Title varies|~|Imprint varies|~|Report year varies,"University of New Hampshire. Library. Digital Collections.|~|Scanned by Internet Archive, Open Content Alliance (2010)",,,Text,Hampton Falls (N.H. : Town) -- Appropriations and expenditures -- Periodicals,Hampton Falls (N.H. : Town),,,Eng,"[Hampton Falls, N.H. : The Town]|~|University of New Hampshire. Library. Digital Collections.",hamptonfalls_0077+application-pdf+application.pdf|~|hamptonfalls_0077+image-low-jpg+image-low.jpg|~|hamptonfalls_0077+image-tb-jpg+image-tb.jpg
Active,hamptonfalls:0078,hamptonfalls,http://www.archive.org/details/annualreportofto1988hamp3|~|annualreportofto1988hamp3|~|hamptonfalls:0078,"Annual report of the Town of Hampton Falls, New Hampshire, 1988",1989,Title varies|~|Imprint varies|~|Report year varies,"University of New Hampshire. Library. Digital Collections.|~|Scanned by Internet Archive, Open Content Alliance (2010)",,,Text,Hampton Falls (N.H. : Town) -- Appropriations and expenditures -- Periodicals,Hampton Falls (N.H. : Town),,,Eng,"[Hampton Falls, N.H. : The Town]|~|University of New Hampshire. Library. Digital Collections.",hamptonfalls_0078+application-pdf+application.pdf|~|hamptonfalls_0078+image-low-jpg+image-low.jpg|~|hamptonfalls_0078+image-tb-jpg+image-tb.jpg
Active,hamptonfalls:0079,hamptonfalls,http://www.archive.org/details/annualreportofto1989hamp3|~|annualreportofto1989hamp3|~|hamptonfalls:0079,"Annual report of the Town of Hampton Falls, New Hampshire, 1989",1990,Title varies|~|Imprint varies|~|Report year varies,"University of New Hampshire. Library. Digital Collections.|~|Scanned by Internet Archive, Open Content Alliance (2010)",,,Text,Hampton Falls (N.H. : Town) -- Appropriations and expenditures -- Periodicals,Hampton Falls (N.H. : Town),,,Eng,"[Hampton Falls, N.H. : The Town]|~|University of New Hampshire. Library. Digital Collections.",hamptonfalls_0079+application-pdf+application.pdf|~|hamptonfalls_0079+image-low-jpg+image-low.jpg|~|hamptonfalls_0079+image-tb-jpg+image-tb.jpg
Active,hamptonfalls:0080,hamptonfalls,http://www.archive.org/details/annualreportofto1990hamp3|~|annualreportofto1990hamp3|~|hamptonfalls:0080,"Annual report of the Town of Hampton Falls, New Hampshire, 1990",1991,Title varies|~|Imprint varies|~|Report year varies,"University of New Hampshire. Library. Digital Collections.|~|Scanned by Internet Archive, Open Content Alliance (2010)",,,Text,Hampton Falls (N.H. : Town) -- Appropriations and expenditures -- Periodicals,Hampton Falls (N.H. : Town),,,Eng,"[Hampton Falls, N.H. : The Town]|~|University of New Hampshire. Library. Digital Collections.",hamptonfalls_0080+application-pdf+application.pdf|~|hamptonfalls_0080+image-low-jpg+image-low.jpg|~|hamptonfalls_0080+image-tb-jpg+image-tb.jpg
Active,hamptonfalls:0081,hamptonfalls,http://www.archive.org/details/annualreportofto1991hamp3|~|annualreportofto1991hamp3|~|hamptonfalls:0081,"Annual report of the Town of Hampton Falls, New Hampshire, 1991",1992,Title varies|~|Imprint varies|~|Report year varies,"University of New Hampshire. Library. Digital Collections.|~|Scanned by Internet Archive, Open Content Alliance (2010)",,,Text,Hampton Falls (N.H. : Town) -- Appropriations and expenditures -- Periodicals,Hampton Falls (N.H. : Town),,,Eng,"[Hampton Falls, N.H. : The Town]|~|University of New Hampshire. Library. Digital Collections.",hamptonfalls_0081+application-pdf+application.pdf|~|hamptonfalls_0081+image-low-jpg+image-low.jpg|~|hamptonfalls_0081+image-tb-jpg+image-tb.jpg
Active,hamptonfalls:0082,hamptonfalls,http://www.archive.org/details/annualreportofto1993hamp3|~|annualreportofto1993hamp3|~|hamptonfalls:0082,"Annual report of the Town of Hampton Falls, New Hampshire, 1993",1994,Title varies|~|Imprint varies|~|Report year varies,"University of New Hampshire. Library. Digital Collections.|~|Scanned by Internet Archive, Open Content Alliance (2010)",,,Text,Hampton Falls (N.H. : Town) -- Appropriations and expenditures -- Periodicals,Hampton Falls (N.H. : Town),,,Eng,"[Hampton Falls, N.H. : The Town]|~|University of New Hampshire. Library. Digital Collections.",hamptonfalls_0082+application-pdf+application.pdf|~|hamptonfalls_0082+image-low-jpg+image-low.jpg|~|hamptonfalls_0082+image-tb-jpg+image-tb.jpg
Active,hamptonfalls:0083,hamptonfalls,http://www.archive.org/details/annualreportofto1994hamp3|~|annualreportofto1994hamp3|~|hamptonfalls:0083,"Annual report of the Town of Hampton Falls, New Hampshire, 1994",1995,Title varies|~|Imprint varies|~|Report year varies,"University of New Hampshire. Library. Digital Collections.|~|Scanned by Internet Archive, Open Content Alliance (2010)",,,Text,Hampton Falls (N.H. : Town) -- Appropriations and expenditures -- Periodicals,Hampton Falls (N.H. : Town),,,Eng,"[Hampton Falls, N.H. : The Town]|~|University of New Hampshire. Library. Digital Collections.",hamptonfalls_0083+application-pdf+application.pdf|~|hamptonfalls_0083+image-low-jpg+image-low.jpg|~|hamptonfalls_0083+image-tb-jpg+image-tb.jpg
Active,hamptonfalls:0084,hamptonfalls,http://www.archive.org/details/annualreportofto1995hamp3|~|annualreportofto1995hamp3|~|hamptonfalls:0084,"Annual report of the Town of Hampton Falls, New Hampshire, 1995",1996,Title varies|~|Imprint varies|~|Report year varies,"University of New Hampshire. Library. Digital Collections.|~|Scanned by Internet Archive, Open Content Alliance (2010)",,,Text,Hampton Falls (N.H. : Town) -- Appropriations and expenditures -- Periodicals,Hampton Falls (N.H. : Town),,,Eng,"[Hampton Falls, N.H. : The Town]|~|University of New Hampshire. Library. Digital Collections.",hamptonfalls_0084+application-pdf+application.pdf|~|hamptonfalls_0084+image-low-jpg+image-low.jpg|~|hamptonfalls_0084+image-tb-jpg+image-tb.jpg
Active,hamptonfalls:0085,hamptonfalls,http://www.archive.org/details/annualreportofto1996hamp3|~|annualreportofto1996hamp3|~|hamptonfalls:0085,"Annual report of the Town of Hampton Falls, New Hampshire, 1996",1997,Title varies|~|Imprint varies|~|Report year varies,"University of New Hampshire. Library. Digital Collections.|~|Scanned by Internet Archive, Open Content Alliance (2010)",,,Text,Hampton Falls (N.H. : Town) -- Appropriations and expenditures -- Periodicals,Hampton Falls (N.H. : Town),,,Eng,"[Hampton Falls, N.H. : The Town]|~|University of New Hampshire. Library. Digital Collections.",hamptonfalls_0085+application-pdf+application.pdf|~|hamptonfalls_0085+image-low-jpg+image-low.jpg|~|hamptonfalls_0085+image-tb-jpg+image-tb.jpg
Active,hamptonfalls:0086,hamptonfalls,http://www.archive.org/details/annualreportofto1997hamp3|~|annualreportofto1997hamp3|~|hamptonfalls:0086,"Annual report of the Town of Hampton Falls, New Hampshire, 1997",1998,Title varies|~|Imprint varies|~|Report year varies,"University of New Hampshire. Library. Digital Collections.|~|Scanned by Internet Archive, Open Content Alliance (2010)",,,Text,Hampton Falls (N.H. : Town) -- Appropriations and expenditures -- Periodicals,Hampton Falls (N.H. : Town),,,Eng,"[Hampton Falls, N.H. : The Town]|~|University of New Hampshire. Library. Digital Collections.",hamptonfalls_0086+application-pdf+application.pdf|~|hamptonfalls_0086+image-low-jpg+image-low.jpg|~|hamptonfalls_0086+image-tb-jpg+image-tb.jpg
Active,hamptonfalls:0087,hamptonfalls,http://www.archive.org/details/annualreportofto1998hamp3|~|annualreportofto1998hamp3|~|hamptonfalls:0087,"Annual report of the Town of Hampton Falls, New Hampshire, 1998",1999,Title varies|~|Imprint varies|~|Report year varies,"University of New Hampshire. Library. Digital Collections.|~|Scanned by Internet Archive, Open Content Alliance (2010)",,,Text,Hampton Falls (N.H. : Town) -- Appropriations and expenditures -- Periodicals,Hampton Falls (N.H. : Town),,,Eng,"[Hampton Falls, N.H. : The Town]|~|University of New Hampshire. Library. Digital Collections.",hamptonfalls_0087+application-pdf+application.pdf|~|hamptonfalls_0087+image-low-jpg+image-low.jpg|~|hamptonfalls_0087+image-tb-jpg+image-tb.jpg
Active,hamptonfalls:0088,hamptonfalls,http://www.archive.org/details/annualreportofto1999hamp3|~|annualreportofto1999hamp3|~|hamptonfalls:0088,"Annual report of the Town of Hampton Falls, New Hampshire, 1999",2000,Title varies|~|Imprint varies|~|Report year varies,"University of New Hampshire. Library. Digital Collections.|~|Scanned by Internet Archive, Open Content Alliance (2010)",,,Text,Hampton Falls (N.H. : Town) -- Appropriations and expenditures -- Periodicals,Hampton Falls (N.H. : Town),,,Eng,"[Hampton Falls, N.H. : The Town]|~|University of New Hampshire. Library. Digital Collections.",hamptonfalls_0088+application-pdf+application.pdf|~|hamptonfalls_0088+image-low-jpg+image-low.jpg|~|hamptonfalls_0088+image-tb-jpg+image-tb.jpg
Active,hamptonfalls:0089,hamptonfalls,http://www.archive.org/details/annualreportofto2000hamp3|~|annualreportofto2000hamp3|~|hamptonfalls:0089,"Annual report of the Town of Hampton Falls, New Hampshire, 2000",2001,Title varies|~|Imprint varies|~|Report year varies,"University of New Hampshire. Library. Digital Collections.|~|Scanned by Internet Archive, Open Content Alliance (2010)",,,Text,Hampton Falls (N.H. : Town) -- Appropriations and expenditures -- Periodicals,Hampton Falls (N.H. : Town),,,Eng,"[Hampton Falls, N.H. : The Town]|~|University of New Hampshire. Library. Digital Collections.",hamptonfalls_0089+application-pdf+application.pdf|~|hamptonfalls_0089+image-low-jpg+image-low.jpg|~|hamptonfalls_0089+image-tb-jpg+image-tb.jpg
Active,hamptonfalls:0090,hamptonfalls,http://www.archive.org/details/annualreportofto2001hamp3|~|annualreportofto2001hamp3|~|hamptonfalls:0090,"Annual report of the Town of Hampton Falls, New Hampshire, 2001",2002,Title varies|~|Imprint varies|~|Report year varies,"University of New Hampshire. Library. Digital Collections.|~|Scanned by Internet Archive, Open Content Alliance (2010)",,,Text,Hampton Falls (N.H. : Town) -- Appropriations and expenditures -- Periodicals,Hampton Falls (N.H. : Town),,,Eng,"[Hampton Falls, N.H. : The Town]|~|University of New Hampshire. Library. Digital Collections.",hamptonfalls_0090+application-pdf+application.pdf|~|hamptonfalls_0090+image-low-jpg+image-low.jpg|~|hamptonfalls_0090+image-tb-jpg+image-tb.jpg
Active,hamptonfalls:0091,hamptonfalls,http://www.archive.org/details/annualreportofto2002hamp3|~|annualreportofto2002hamp3|~|hamptonfalls:0091,"Annual report of the Town of Hampton Falls, New Hampshire, 2002",2003,Title varies|~|Imprint varies|~|Report year varies,"University of New Hampshire. Library. Digital Collections.|~|Scanned by Internet Archive, Open Content Alliance (2010)",,,Text,Hampton Falls (N.H. : Town) -- Appropriations and expenditures -- Periodicals,Hampton Falls (N.H. : Town),,,Eng,"[Hampton Falls, N.H. : The Town]|~|University of New Hampshire. Library. Digital Collections.",hamptonfalls_0091+application-pdf+application.pdf|~|hamptonfalls_0091+image-low-jpg+image-low.jpg|~|hamptonfalls_0091+image-tb-jpg+image-tb.jpg
Active,hamptonfalls:0092,hamptonfalls,http://www.archive.org/details/annualreportofto2003hamp3|~|annualreportofto2003hamp3|~|hamptonfalls:0092,"Annual report of the Town of Hampton Falls, New Hampshire, 2003",2004,Title varies|~|Imprint varies|~|Report year varies,"University of New Hampshire. Library. Digital Collections.|~|Scanned by Internet Archive, Open Content Alliance (2010)",,,Text,Hampton Falls (N.H. : Town) -- Appropriations and expenditures -- Periodicals,Hampton Falls (N.H. : Town),,,Eng,"[Hampton Falls, N.H. : The Town]|~|University of New Hampshire. Library. Digital Collections.",hamptonfalls_0092+application-pdf+application.pdf|~|hamptonfalls_0092+image-low-jpg+image-low.jpg|~|hamptonfalls_0092+image-tb-jpg+image-tb.jpg
Active,hamptonfalls:0093,hamptonfalls,http://www.archive.org/details/annualreportofto2004hamp3|~|annualreportofto2004hamp3|~|hamptonfalls:0093,"Annual report of the Town of Hampton Falls, New Hampshire, 2004",2005,Title varies|~|Imprint varies|~|Report year varies,"University of New Hampshire. Library. Digital Collections.|~|Scanned by Internet Archive, Open Content Alliance (2010)",,,Text,Hampton Falls (N.H. : Town) -- Appropriations and expenditures -- Periodicals,Hampton Falls (N.H. : Town),,,Eng,"[Hampton Falls, N.H. : The Town]|~|University of New Hampshire. Library. Digital Collections.",hamptonfalls_0093+application-pdf+application.pdf|~|hamptonfalls_0093+image-low-jpg+image-low.jpg|~|hamptonfalls_0093+image-tb-jpg+image-tb.jpg
Active,hamptonfalls:0094,hamptonfalls,http://www.archive.org/details/annualreportofto2005hamp3|~|annualreportofto2005hamp3|~|hamptonfalls:0094,"Annual report of the Town of Hampton Falls, New Hampshire, 2005",2006,Title varies|~|Imprint varies|~|Report year varies,"University of New Hampshire. Library. Digital Collections.|~|Scanned by Internet Archive, Open Content Alliance (2010)",,,Text,Hampton Falls (N.H. : Town) -- Appropriations and expenditures -- Periodicals,Hampton Falls (N.H. : Town),,,Eng,"[Hampton Falls, N.H. : The Town]|~|University of New Hampshire. Library. Digital Collections.",hamptonfalls_0094+application-pdf+application.pdf|~|hamptonfalls_0094+image-low-jpg+image-low.jpg|~|hamptonfalls_0094+image-tb-jpg+image-tb.jpg
Active,hamptonfalls:0095,hamptonfalls,http://www.archive.org/details/annualreportofto2006hamp3|~|annualreportofto2006hamp3|~|hamptonfalls:0095,"Annual report of the Town of Hampton Falls, New Hampshire, 2006",2007,Title varies|~|Imprint varies|~|Report year varies,"University of New Hampshire. Library. Digital Collections.|~|Scanned by Internet Archive, Open Content Alliance (2010)",,,Text,Hampton Falls (N.H. : Town) -- Appropriations and expenditures -- Periodicals,Hampton Falls (N.H. : Town),,,Eng,"[Hampton Falls, N.H. : The Town]|~|University of New Hampshire. Library. Digital Collections.",hamptonfalls_0095+application-pdf+application.pdf|~|hamptonfalls_0095+image-low-jpg+image-low.jpg|~|hamptonfalls_0095+image-tb-jpg+image-tb.jpg
Active,hamptonfalls:0096,hamptonfalls,http://www.archive.org/details/annualreportofto2007hamp3|~|annualreportofto2007hamp3|~|hamptonfalls:0096,"Annual report of the Town of Hampton Falls, New Hampshire, 2007",2008,Title varies|~|Imprint varies|~|Report year varies,"University of New Hampshire. Library. Digital Collections.|~|Scanned by Internet Archive, Open Content Alliance (2010)",,,Text,Hampton Falls (N.H. : Town) -- Appropriations and expenditures -- Periodicals,Hampton Falls (N.H. : Town),,,Eng,"[Hampton Falls, N.H. : The Town]|~|University of New Hampshire. Library. Digital Collections.",hamptonfalls_0096+application-pdf+application.pdf|~|hamptonfalls_0096+image-low-jpg+image-low.jpg|~|hamptonfalls_0096+image-tb-jpg+image-tb.jpg
Active,hamptonfalls:0097,hamptonfalls,http://www.archive.org/details/annualreportofto2008hamp3|~|annualreportofto2008hamp3|~|hamptonfalls:0097,"Annual report of the Town of Hampton Falls, New Hampshire, 2008",2009,Title varies|~|Imprint varies|~|Report year varies,"University of New Hampshire. Library. Digital Collections.|~|Scanned by Internet Archive, Open Content Alliance (2010)",,,Text,Hampton Falls (N.H. : Town) -- Appropriations and expenditures -- Periodicals,Hampton Falls (N.H. : Town),,,Eng,"[Hampton Falls, N.H. : The Town]|~|University of New Hampshire. Library. Digital Collections.",hamptonfalls_0097+application-pdf+application.pdf|~|hamptonfalls_0097+image-low-jpg+image-low.jpg|~|hamptonfalls_0097+image-tb-jpg+image-tb.jpg
Active,hamptonfalls:0098,hamptonfalls,http://www.archive.org/details/annualreportofto2009hamp3|~|annualreportofto2009hamp3|~|hamptonfalls:0098,"Annual report of the Town of Hampton Falls, New Hampshire, 2009",2010,Title varies|~|Imprint varies|~|Report year varies,"University of New Hampshire. Library. Digital Collections.|~|Scanned by Internet Archive, Open Content Alliance (2010)",,,Text,Hampton Falls (N.H. : Town) -- Appropriations and expenditures -- Periodicals,Hampton Falls (N.H. : Town),,,Eng,"[Hampton Falls, N.H. : The Town]|~|University of New Hampshire. Library. Digital Collections.",hamptonfalls_0098+application-pdf+application.pdf|~|hamptonfalls_0098+image-low-jpg+image-low.jpg|~|hamptonfalls_0098+image-tb-jpg+image-tb.jpg
