state,pid,collection,dcterms:identifier,dcterms:title,dcterms:date,dcterms:description,dcterms:contributor,dcterms:rights,dcterms:format,dcterms:type,dcterms:subject,dcterms:creator,dcterms:relation,dcterms:coverage,dcterms:language,dcterms:publisher,files
Active,lyme:0001,lyme,lyme:0001,"Annual report of the Town of Lyme, New Hampshire, 1994",1995,Title varies|~|Imprint varies|~|Report year varies,"University of New Hampshire. Library. Digital Collections.|~|Scanned by Internet Archive, Open Content Alliance (2012)",,,Text,Lyme (N.H. : Town) -- Appropriations and expenditures -- Periodicals,,,,Eng,Lyme (N.H. : Town),lyme_0001+application-pdf+application.pdf|~|lyme_0001+image-low-jpg+image-low.jpg|~|lyme_0001+image-tb-jpg+image-tb.jpg
Active,lyme:0002,lyme,lyme:0002,"Annual report of the Town of Lyme, New Hampshire, 1995",1996,Title varies|~|Imprint varies|~|Report year varies,"University of New Hampshire. Library. Digital Collections.|~|Scanned by Internet Archive, Open Content Alliance (2012)",,,Text,Lyme (N.H. : Town) -- Appropriations and expenditures -- Periodicals,,,,Eng,Lyme (N.H. : Town),lyme_0002+application-pdf+application.pdf|~|lyme_0002+image-low-jpg+image-low.jpg|~|lyme_0002+image-tb-jpg+image-tb.jpg
Active,lyme:0003,lyme,lyme:0003,"Annual report of the Town of Lyme, New Hampshire, 1996",1997,Title varies|~|Imprint varies|~|Report year varies,"University of New Hampshire. Library. Digital Collections.|~|Scanned by Internet Archive, Open Content Alliance (2012)",,,Text,Lyme (N.H. : Town) -- Appropriations and expenditures -- Periodicals,,,,Eng,Lyme (N.H. : Town),lyme_0003+application-pdf+application.pdf|~|lyme_0003+image-low-jpg+image-low.jpg|~|lyme_0003+image-tb-jpg+image-tb.jpg
Active,lyme:0004,lyme,lyme:0004,"Annual report of the Town of Lyme, New Hampshire, 1997",1998,Title varies|~|Imprint varies|~|Report year varies,"University of New Hampshire. Library. Digital Collections.|~|Scanned by Internet Archive, Open Content Alliance (2012)",,,Text,Lyme (N.H. : Town) -- Appropriations and expenditures -- Periodicals,,,,Eng,Lyme (N.H. : Town),lyme_0004+application-pdf+application.pdf|~|lyme_0004+image-low-jpg+image-low.jpg|~|lyme_0004+image-tb-jpg+image-tb.jpg
Active,lyme:0005,lyme,lyme:0005,"Annual report of the Town of Lyme, New Hampshire, 1998",1999,Title varies|~|Imprint varies|~|Report year varies,"University of New Hampshire. Library. Digital Collections.|~|Scanned by Internet Archive, Open Content Alliance (2012)",,,Text,Lyme (N.H. : Town) -- Appropriations and expenditures -- Periodicals,,,,Eng,Lyme (N.H. : Town),lyme_0005+application-pdf+application.pdf|~|lyme_0005+image-low-jpg+image-low.jpg|~|lyme_0005+image-tb-jpg+image-tb.jpg
Active,lyme:0006,lyme,lyme:0006,"Annual report of the Town of Lyme, New Hampshire, 1999",2000,Title varies|~|Imprint varies|~|Report year varies,"University of New Hampshire. Library. Digital Collections.|~|Scanned by Internet Archive, Open Content Alliance (2012)",,,Text,Lyme (N.H. : Town) -- Appropriations and expenditures -- Periodicals,,,,Eng,Lyme (N.H. : Town),lyme_0006+application-pdf+application.pdf|~|lyme_0006+image-low-jpg+image-low.jpg|~|lyme_0006+image-tb-jpg+image-tb.jpg
Active,lyme:0007,lyme,lyme:0007,"Annual report of the Town of Lyme, New Hampshire, 2000",2001,Title varies|~|Imprint varies|~|Report year varies,"University of New Hampshire. Library. Digital Collections.|~|Scanned by Internet Archive, Open Content Alliance (2012)",,,Text,Lyme (N.H. : Town) -- Appropriations and expenditures -- Periodicals,,,,Eng,Lyme (N.H. : Town),lyme_0007+application-pdf+application.pdf|~|lyme_0007+image-low-jpg+image-low.jpg|~|lyme_0007+image-tb-jpg+image-tb.jpg
Active,lyme:0008,lyme,lyme:0008,"Annual report of the Town of Lyme, New Hampshire, 2001",2002,Title varies|~|Imprint varies|~|Report year varies,"University of New Hampshire. Library. Digital Collections.|~|Scanned by Internet Archive, Open Content Alliance (2012)",,,Text,Lyme (N.H. : Town) -- Appropriations and expenditures -- Periodicals,,,,Eng,Lyme (N.H. : Town),lyme_0008+application-pdf+application.pdf|~|lyme_0008+image-low-jpg+image-low.jpg|~|lyme_0008+image-tb-jpg+image-tb.jpg
Active,lyme:0009,lyme,lyme:0009,"Annual report of the Town of Lyme, New Hampshire, 2002",2003,Title varies|~|Imprint varies|~|Report year varies,"University of New Hampshire. Library. Digital Collections.|~|Scanned by Internet Archive, Open Content Alliance (2012)",,,Text,Lyme (N.H. : Town) -- Appropriations and expenditures -- Periodicals,,,,Eng,Lyme (N.H. : Town),lyme_0009+application-pdf+application.pdf|~|lyme_0009+image-low-jpg+image-low.jpg|~|lyme_0009+image-tb-jpg+image-tb.jpg
Active,lyme:0010,lyme,lyme:0010,"Annual report of the Town of Lyme, New Hampshire, 2003",2004,Title varies|~|Imprint varies|~|Report year varies,"University of New Hampshire. Library. Digital Collections.|~|Scanned by Internet Archive, Open Content Alliance (2012)",,,Text,Lyme (N.H. : Town) -- Appropriations and expenditures -- Periodicals,,,,Eng,Lyme (N.H. : Town),lyme_0010+application-pdf+application.pdf|~|lyme_0010+image-low-jpg+image-low.jpg|~|lyme_0010+image-tb-jpg+image-tb.jpg
Active,lyme:0011,lyme,lyme:0011,"Annual report of the Town of Lyme, New Hampshire, 2004",2005,Title varies|~|Imprint varies|~|Report year varies,"University of New Hampshire. Library. Digital Collections.|~|Scanned by Internet Archive, Open Content Alliance (2012)",,,Text,Lyme (N.H. : Town) -- Appropriations and expenditures -- Periodicals,,,,Eng,Lyme (N.H. : Town),lyme_0011+application-pdf+application.pdf|~|lyme_0011+image-low-jpg+image-low.jpg|~|lyme_0011+image-tb-jpg+image-tb.jpg
Active,lyme:0012,lyme,lyme:0012,"Annual report of the Town of Lyme, New Hampshire, 2005",2006,Title varies|~|Imprint varies|~|Report year varies,"University of New Hampshire. Library. Digital Collections.|~|Scanned by Internet Archive, Open Content Alliance (2012)",,,Text,Lyme (N.H. : Town) -- Appropriations and expenditures -- Periodicals,,,,Eng,Lyme (N.H. : Town),lyme_0012+application-pdf+application.pdf|~|lyme_0012+image-low-jpg+image-low.jpg|~|lyme_0012+image-tb-jpg+image-tb.jpg
Active,lyme:0013,lyme,lyme:0013,"Annual report of the Town of Lyme, New Hampshire, 2006",2007,Title varies|~|Imprint varies|~|Report year varies,"University of New Hampshire. Library. Digital Collections.|~|Scanned by Internet Archive, Open Content Alliance (2012)",,,Text,Lyme (N.H. : Town) -- Appropriations and expenditures -- Periodicals,,,,Eng,Lyme (N.H. : Town),lyme_0013+application-pdf+application.pdf|~|lyme_0013+image-low-jpg+image-low.jpg|~|lyme_0013+image-tb-jpg+image-tb.jpg
Active,lyme:0014,lyme,lyme:0014,"Annual report of the Town of Lyme, New Hampshire, 2007",2008,Title varies|~|Imprint varies|~|Report year varies,"University of New Hampshire. Library. Digital Collections.|~|Scanned by Internet Archive, Open Content Alliance (2012)",,,Text,Lyme (N.H. : Town) -- Appropriations and expenditures -- Periodicals,,,,Eng,Lyme (N.H. : Town),lyme_0014+application-pdf+application.pdf|~|lyme_0014+image-low-jpg+image-low.jpg|~|lyme_0014+image-tb-jpg+image-tb.jpg
Active,lyme:0015,lyme,lyme:0015,"Annual report of the Town of Lyme, New Hampshire, 2008",2009,Title varies|~|Imprint varies|~|Report year varies,"University of New Hampshire. Library. Digital Collections.|~|Scanned by Internet Archive, Open Content Alliance (2012)",,,Text,Lyme (N.H. : Town) -- Appropriations and expenditures -- Periodicals,,,,Eng,Lyme (N.H. : Town),lyme_0015+application-pdf+application.pdf|~|lyme_0015+image-low-jpg+image-low.jpg|~|lyme_0015+image-tb-jpg+image-tb.jpg
Active,lyme:0016,lyme,lyme:0016,"Annual report of the Town of Lyme, New Hampshire, 2009",2010,Title varies|~|Imprint varies|~|Report year varies,"University of New Hampshire. Library. Digital Collections.|~|Scanned by Internet Archive, Open Content Alliance (2012)",,,Text,Lyme (N.H. : Town) -- Appropriations and expenditures -- Periodicals,,,,Eng,Lyme (N.H. : Town),lyme_0016+application-pdf+application.pdf|~|lyme_0016+image-low-jpg+image-low.jpg|~|lyme_0016+image-tb-jpg+image-tb.jpg
Active,lyme:0017,lyme,lyme:0017,"Annual report of the Town of Lyme, New Hampshire, 2011",2012,Title varies|~|Imprint varies|~|Report year varies,"University of New Hampshire. Library. Digital Collections.|~|Scanned by Internet Archive, Open Content Alliance (2012)",,,Text,Lyme (N.H. : Town) -- Appropriations and expenditures -- Periodicals,,,,Eng,Lyme (N.H. : Town),lyme_0017+application-pdf+application.pdf|~|lyme_0017+image-low-jpg+image-low.jpg|~|lyme_0017+image-tb-jpg+image-tb.jpg
