state,pid,collection,dcterms:identifier,dcterms:title,dcterms:date,dcterms:description,dcterms:contributor,dcterms:rights,dcterms:format,dcterms:type,dcterms:subject,dcterms:creator,dcterms:relation,dcterms:coverage,dcterms:language,dcterms:publisher,files
Active,manchester:0001,manchester,http://www.archive.org/details/reportofselectme184142manc|~|reportofselectme184142manc|~|manchester:0001,"Annual report of the City of Manchester, New Hampshire, 1842",1842,Title varies|~|Imprint varies|~|Report year varies,"University of New Hampshire. Library. Digital Collections.|~|Scanned by Internet Archive, Open Content Alliance (2008)",,,Text,Manchester (N.H.) -- Appropriations and expenditures -- Periodicals,"[Manchester, N.H. : the City,]",,,eng,University of New Hampshire. Library. Digital Collections.,manchester_0001+application-pdf+application.pdf|~|manchester_0001+image-low-jpg+image-low.jpg|~|manchester_0001+image-tb-jpg+image-tb.jpg
Active,manchester:0002,manchester,http://www.archive.org/details/reportofselectme184243manc|~|reportofselectme184243manc|~|manchester:0002,"Annual report of the City of Manchester, New Hampshire, 1843",1843,Title varies|~|Imprint varies|~|Report year varies,"University of New Hampshire. Library. Digital Collections.|~|Scanned by Internet Archive, Open Content Alliance (2008)",,,Text,Manchester (N.H.) -- Appropriations and expenditures -- Periodicals,"[Manchester, N.H. : the City,]",,,eng,University of New Hampshire. Library. Digital Collections.,manchester_0002+application-pdf+application.pdf|~|manchester_0002+image-low-jpg+image-low.jpg|~|manchester_0002+image-tb-jpg+image-tb.jpg
Active,manchester:0003,manchester,http://www.archive.org/details/reportofselectme184546manc|~|reportofselectme184546manc|~|manchester:0003,"Annual report of the City of Manchester, New Hampshire, 1846",1846,Title varies|~|Imprint varies|~|Report year varies,"University of New Hampshire. Library. Digital Collections.|~|Scanned by Internet Archive, Open Content Alliance (2008)",,,Text,Manchester (N.H.) -- Appropriations and expenditures -- Periodicals,"[Manchester, N.H. : the City,]",,,eng,University of New Hampshire. Library. Digital Collections.,manchester_0003+application-pdf+application.pdf|~|manchester_0003+image-low-jpg+image-low.jpg|~|manchester_0003+image-tb-jpg+image-tb.jpg
Active,manchester:0004,manchester,http://www.archive.org/details/reportofselectme1847manc|~|reportofselectme1847manc|~|manchester:0004,"Annual report of the City of Manchester, New Hampshire, 1847",1847,Title varies|~|Imprint varies|~|Report year varies,"University of New Hampshire. Library. Digital Collections.|~|Scanned by Internet Archive, Open Content Alliance (2008)",,,Text,Manchester (N.H.) -- Appropriations and expenditures -- Periodicals,"[Manchester, N.H. : the City,]",,,eng,University of New Hampshire. Library. Digital Collections.,manchester_0004+application-pdf+application.pdf|~|manchester_0004+image-low-jpg+image-low.jpg|~|manchester_0004+image-tb-jpg+image-tb.jpg
Active,manchester:0005,manchester,http://www.archive.org/details/reportofselectme1848manc|~|reportofselectme1848manc|~|manchester:0005,"Annual report of the City of Manchester, New Hampshire, 1848",1848,Title varies|~|Imprint varies|~|Report year varies,"University of New Hampshire. Library. Digital Collections.|~|Scanned by Internet Archive, Open Content Alliance (2008)",,,Text,Manchester (N.H.) -- Appropriations and expenditures -- Periodicals,"[Manchester, N.H. : the City,]",,,eng,University of New Hampshire. Library. Digital Collections.,manchester_0005+application-pdf+application.pdf|~|manchester_0005+image-low-jpg+image-low.jpg|~|manchester_0005+image-tb-jpg+image-tb.jpg
Active,manchester:0006,manchester,http://www.archive.org/details/reportofselectme1849manc|~|reportofselectme1849manc|~|manchester:0006,"Annual report of the City of Manchester, New Hampshire, 1849",1849,Title varies|~|Imprint varies|~|Report year varies,"University of New Hampshire. Library. Digital Collections.|~|Scanned by Internet Archive, Open Content Alliance (2008)",,,Text,Manchester (N.H.) -- Appropriations and expenditures -- Periodicals,"[Manchester, N.H. : the City,]",,,eng,University of New Hampshire. Library. Digital Collections.,manchester_0006+application-pdf+application.pdf|~|manchester_0006+image-low-jpg+image-low.jpg|~|manchester_0006+image-tb-jpg+image-tb.jpg
Active,manchester:0007,manchester,http://www.archive.org/details/reportofselectme1850manc|~|reportofselectme1850manc|~|manchester:0007,"Annual report of the City of Manchester, New Hampshire, 1850",1850,Title varies|~|Imprint varies|~|Report year varies,"University of New Hampshire. Library. Digital Collections.|~|Scanned by Internet Archive, Open Content Alliance (2008)",,,Text,Manchester (N.H.) -- Appropriations and expenditures -- Periodicals,"[Manchester, N.H. : the City,]",,,eng,University of New Hampshire. Library. Digital Collections.,manchester_0007+application-pdf+application.pdf|~|manchester_0007+image-low-jpg+image-low.jpg|~|manchester_0007+image-tb-jpg+image-tb.jpg
Active,manchester:0008,manchester,http://www.archive.org/details/reportofselectme1851manc|~|reportofselectme1851manc|~|manchester:0008,"Annual report of the City of Manchester, New Hampshire, 1851",1851,Title varies|~|Imprint varies|~|Report year varies,"University of New Hampshire. Library. Digital Collections.|~|Scanned by Internet Archive, Open Content Alliance (2008)",,,Text,Manchester (N.H.) -- Appropriations and expenditures -- Periodicals,"[Manchester, N.H. : the City,]",,,eng,University of New Hampshire. Library. Digital Collections.,manchester_0008+application-pdf+application.pdf|~|manchester_0008+image-low-jpg+image-low.jpg|~|manchester_0008+image-tb-jpg+image-tb.jpg
Active,manchester:0009,manchester,http://www.archive.org/details/reportofselectme1852manc|~|reportofselectme1852manc|~|manchester:0009,"Annual report of the City of Manchester, New Hampshire, 1852",1852,Title varies|~|Imprint varies|~|Report year varies,"University of New Hampshire. Library. Digital Collections.|~|Scanned by Internet Archive, Open Content Alliance (2008)",,,Text,Manchester (N.H.) -- Appropriations and expenditures -- Periodicals,"[Manchester, N.H. : the City,]",,,eng,University of New Hampshire. Library. Digital Collections.,manchester_0009+application-pdf+application.pdf|~|manchester_0009+image-low-jpg+image-low.jpg|~|manchester_0009+image-tb-jpg+image-tb.jpg
Active,manchester:0010,manchester,http://www.archive.org/details/reportofselectme1853manc|~|reportofselectme1853manc|~|manchester:0010,"Annual report of the City of Manchester, New Hampshire, 1853",1853,Title varies|~|Imprint varies|~|Report year varies,"University of New Hampshire. Library. Digital Collections.|~|Scanned by Internet Archive, Open Content Alliance (2008)",,,Text,Manchester (N.H.) -- Appropriations and expenditures -- Periodicals,"[Manchester, N.H. : the City,]",,,eng,University of New Hampshire. Library. Digital Collections.,manchester_0010+application-pdf+application.pdf|~|manchester_0010+image-low-jpg+image-low.jpg|~|manchester_0010+image-tb-jpg+image-tb.jpg
Active,manchester:0011,manchester,http://www.archive.org/details/reportofselectme1854manc|~|reportofselectme1854manc|~|manchester:0011,"Annual report of the City of Manchester, New Hampshire, 1854",1854,Title varies|~|Imprint varies|~|Report year varies,"University of New Hampshire. Library. Digital Collections.|~|Scanned by Internet Archive, Open Content Alliance (2008)",,,Text,Manchester (N.H.) -- Appropriations and expenditures -- Periodicals,"[Manchester, N.H. : the City,]",,,eng,University of New Hampshire. Library. Digital Collections.,manchester_0011+application-pdf+application.pdf|~|manchester_0011+image-low-jpg+image-low.jpg|~|manchester_0011+image-tb-jpg+image-tb.jpg
Active,manchester:0012,manchester,http://www.archive.org/details/reportofselectme1855manc|~|reportofselectme1855manc|~|manchester:0012,"Annual report of the City of Manchester, New Hampshire, 1855",1855,Title varies|~|Imprint varies|~|Report year varies,"University of New Hampshire. Library. Digital Collections.|~|Scanned by Internet Archive, Open Content Alliance (2008)",,,Text,Manchester (N.H.) -- Appropriations and expenditures -- Periodicals,"[Manchester, N.H. : the City,]",,,eng,University of New Hampshire. Library. Digital Collections.,manchester_0012+application-pdf+application.pdf|~|manchester_0012+image-low-jpg+image-low.jpg|~|manchester_0012+image-tb-jpg+image-tb.jpg
Active,manchester:0013,manchester,http://www.archive.org/details/reportofselectme1856manc|~|reportofselectme1856manc|~|manchester:0013,"Annual report of the City of Manchester, New Hampshire, 1856",1856,Title varies|~|Imprint varies|~|Report year varies,"University of New Hampshire. Library. Digital Collections.|~|Scanned by Internet Archive, Open Content Alliance (2008)",,,Text,Manchester (N.H.) -- Appropriations and expenditures -- Periodicals,"[Manchester, N.H. : the City,]",,,eng,University of New Hampshire. Library. Digital Collections.,manchester_0013+application-pdf+application.pdf|~|manchester_0013+image-low-jpg+image-low.jpg|~|manchester_0013+image-tb-jpg+image-tb.jpg
Active,manchester:0014,manchester,http://www.archive.org/details/reportofselectme1857manc|~|reportofselectme1857manc|~|manchester:0014,"Annual report of the City of Manchester, New Hampshire, 1857",1857,Title varies|~|Imprint varies|~|Report year varies,"University of New Hampshire. Library. Digital Collections.|~|Scanned by Internet Archive, Open Content Alliance (2008)",,,Text,Manchester (N.H.) -- Appropriations and expenditures -- Periodicals,"[Manchester, N.H. : the City,]",,,eng,University of New Hampshire. Library. Digital Collections.,manchester_0014+application-pdf+application.pdf|~|manchester_0014+image-low-jpg+image-low.jpg|~|manchester_0014+image-tb-jpg+image-tb.jpg
Active,manchester:0015,manchester,http://www.archive.org/details/reportofselectme1858manc|~|reportofselectme1858manc|~|manchester:0015,"Annual report of the City of Manchester, New Hampshire, 1858",1858,Title varies|~|Imprint varies|~|Report year varies,"University of New Hampshire. Library. Digital Collections.|~|Scanned by Internet Archive, Open Content Alliance (2008)",,,Text,Manchester (N.H.) -- Appropriations and expenditures -- Periodicals,"[Manchester, N.H. : the City,]",,,eng,University of New Hampshire. Library. Digital Collections.,manchester_0015+application-pdf+application.pdf|~|manchester_0015+image-low-jpg+image-low.jpg|~|manchester_0015+image-tb-jpg+image-tb.jpg
Active,manchester:0016,manchester,http://www.archive.org/details/reportofselectme1859manc|~|reportofselectme1859manc|~|manchester:0016,"Annual report of the City of Manchester, New Hampshire, 1859",1859,Title varies|~|Imprint varies|~|Report year varies,"University of New Hampshire. Library. Digital Collections.|~|Scanned by Internet Archive, Open Content Alliance (2008)",,,Text,Manchester (N.H.) -- Appropriations and expenditures -- Periodicals,"[Manchester, N.H. : the City,]",,,eng,University of New Hampshire. Library. Digital Collections.,manchester_0016+application-pdf+application.pdf|~|manchester_0016+image-low-jpg+image-low.jpg|~|manchester_0016+image-tb-jpg+image-tb.jpg
Active,manchester:0017,manchester,http://www.archive.org/details/reportofselectme1860manc|~|reportofselectme1860manc|~|manchester:0017,"Annual report of the City of Manchester, New Hampshire, 1860",1861,Title varies|~|Imprint varies|~|Report year varies,"University of New Hampshire. Library. Digital Collections.|~|Scanned by Internet Archive, Open Content Alliance (2008)",,,Text,Manchester (N.H.) -- Appropriations and expenditures -- Periodicals,"[Manchester, N.H. : the City,]",,,eng,University of New Hampshire. Library. Digital Collections.,manchester_0017+application-pdf+application.pdf|~|manchester_0017+image-low-jpg+image-low.jpg|~|manchester_0017+image-tb-jpg+image-tb.jpg
Active,manchester:0018,manchester,http://www.archive.org/details/reportofselectme1861manc|~|reportofselectme1861manc|~|manchester:0018,"Annual report of the City of Manchester, New Hampshire, 1861",1862,Title varies|~|Imprint varies|~|Report year varies,"University of New Hampshire. Library. Digital Collections.|~|Scanned by Internet Archive, Open Content Alliance (2008)",,,Text,Manchester (N.H.) -- Appropriations and expenditures -- Periodicals,"[Manchester, N.H. : the City,]",,,eng,University of New Hampshire. Library. Digital Collections.,manchester_0018+application-pdf+application.pdf|~|manchester_0018+image-low-jpg+image-low.jpg|~|manchester_0018+image-tb-jpg+image-tb.jpg
Active,manchester:0019,manchester,http://www.archive.org/details/reportofselectme1862manc|~|reportofselectme1862manc|~|manchester:0019,"Annual report of the City of Manchester, New Hampshire, 1862",1863,Title varies|~|Imprint varies|~|Report year varies,"University of New Hampshire. Library. Digital Collections.|~|Scanned by Internet Archive, Open Content Alliance (2008)",,,Text,Manchester (N.H.) -- Appropriations and expenditures -- Periodicals,"[Manchester, N.H. : the City,]",,,eng,University of New Hampshire. Library. Digital Collections.,manchester_0019+application-pdf+application.pdf|~|manchester_0019+image-low-jpg+image-low.jpg|~|manchester_0019+image-tb-jpg+image-tb.jpg
Active,manchester:0020,manchester,http://www.archive.org/details/reportofselectme1863manc|~|reportofselectme1863manc|~|manchester:0020,"Annual report of the City of Manchester, New Hampshire, 1863",1864,Title varies|~|Imprint varies|~|Report year varies,"University of New Hampshire. Library. Digital Collections.|~|Scanned by Internet Archive, Open Content Alliance (2008)",,,Text,Manchester (N.H.) -- Appropriations and expenditures -- Periodicals,"[Manchester, N.H. : the City,]",,,eng,University of New Hampshire. Library. Digital Collections.,manchester_0020+application-pdf+application.pdf|~|manchester_0020+image-low-jpg+image-low.jpg|~|manchester_0020+image-tb-jpg+image-tb.jpg
Active,manchester:0021,manchester,http://www.archive.org/details/reportofselectme1864manc|~|reportofselectme1864manc|~|manchester:0021,"Annual report of the City of Manchester, New Hampshire, 1864",1865,Title varies|~|Imprint varies|~|Report year varies,"University of New Hampshire. Library. Digital Collections.|~|Scanned by Internet Archive, Open Content Alliance (2008)",,,Text,Manchester (N.H.) -- Appropriations and expenditures -- Periodicals,"[Manchester, N.H. : the City,]",,,eng,University of New Hampshire. Library. Digital Collections.,manchester_0021+application-pdf+application.pdf|~|manchester_0021+image-low-jpg+image-low.jpg|~|manchester_0021+image-tb-jpg+image-tb.jpg
Active,manchester:0022,manchester,http://www.archive.org/details/reportofselectme1865manc|~|reportofselectme1865manc|~|manchester:0022,"Annual report of the City of Manchester, New Hampshire, 1865",1866,Title varies|~|Imprint varies|~|Report year varies,"University of New Hampshire. Library. Digital Collections.|~|Scanned by Internet Archive, Open Content Alliance (2008)",,,Text,Manchester (N.H.) -- Appropriations and expenditures -- Periodicals,"[Manchester, N.H. : the City,]",,,eng,University of New Hampshire. Library. Digital Collections.,manchester_0022+application-pdf+application.pdf|~|manchester_0022+image-low-jpg+image-low.jpg|~|manchester_0022+image-tb-jpg+image-tb.jpg
Active,manchester:0023,manchester,http://www.archive.org/details/reportofselectme1866manc|~|reportofselectme1866manc|~|manchester:0023,"Annual report of the City of Manchester, New Hampshire, 1866",1867,Title varies|~|Imprint varies|~|Report year varies,"University of New Hampshire. Library. Digital Collections.|~|Scanned by Internet Archive, Open Content Alliance (2008)",,,Text,Manchester (N.H.) -- Appropriations and expenditures -- Periodicals,"[Manchester, N.H. : the City,]",,,eng,University of New Hampshire. Library. Digital Collections.,manchester_0023+application-pdf+application.pdf|~|manchester_0023+image-low-jpg+image-low.jpg|~|manchester_0023+image-tb-jpg+image-tb.jpg
Active,manchester:0024,manchester,http://www.archive.org/details/reportofselectme1867manc|~|reportofselectme1867manc|~|manchester:0024,"Annual report of the City of Manchester, New Hampshire, 1867",1868,Title varies|~|Imprint varies|~|Report year varies,"University of New Hampshire. Library. Digital Collections.|~|Scanned by Internet Archive, Open Content Alliance (2008)",,,Text,Manchester (N.H.) -- Appropriations and expenditures -- Periodicals,"[Manchester, N.H. : the City,]",,,eng,University of New Hampshire. Library. Digital Collections.,manchester_0024+application-pdf+application.pdf|~|manchester_0024+image-low-jpg+image-low.jpg|~|manchester_0024+image-tb-jpg+image-tb.jpg
Active,manchester:0025,manchester,http://www.archive.org/details/reportofselectme1868manc|~|reportofselectme1868manc|~|manchester:0025,"Annual report of the City of Manchester, New Hampshire, 1868",1869,Title varies|~|Imprint varies|~|Report year varies,"University of New Hampshire. Library. Digital Collections.|~|Scanned by Internet Archive, Open Content Alliance (2008)",,,Text,Manchester (N.H.) -- Appropriations and expenditures -- Periodicals,"[Manchester, N.H. : the City,]",,,eng,University of New Hampshire. Library. Digital Collections.,manchester_0025+application-pdf+application.pdf|~|manchester_0025+image-low-jpg+image-low.jpg|~|manchester_0025+image-tb-jpg+image-tb.jpg
Active,manchester:0026,manchester,http://www.archive.org/details/reportofselectme1869manc|~|reportofselectme1869manc|~|manchester:0026,"Annual report of the City of Manchester, New Hampshire, 1869",1870,Title varies|~|Imprint varies|~|Report year varies,"University of New Hampshire. Library. Digital Collections.|~|Scanned by Internet Archive, Open Content Alliance (2008)",,,Text,Manchester (N.H.) -- Appropriations and expenditures -- Periodicals,"[Manchester, N.H. : the City,]",,,eng,University of New Hampshire. Library. Digital Collections.,manchester_0026+application-pdf+application.pdf|~|manchester_0026+image-low-jpg+image-low.jpg|~|manchester_0026+image-tb-jpg+image-tb.jpg
Active,manchester:0027,manchester,http://www.archive.org/details/reportofselectme1870manc|~|reportofselectme1870manc|~|manchester:0027,"Annual report of the City of Manchester, New Hampshire, 1870",1871,Title varies|~|Imprint varies|~|Report year varies,"University of New Hampshire. Library. Digital Collections.|~|Scanned by Internet Archive, Open Content Alliance (2008)",,,Text,Manchester (N.H.) -- Appropriations and expenditures -- Periodicals,"[Manchester, N.H. : the City,]",,,eng,University of New Hampshire. Library. Digital Collections.,manchester_0027+application-pdf+application.pdf|~|manchester_0027+image-low-jpg+image-low.jpg|~|manchester_0027+image-tb-jpg+image-tb.jpg
Active,manchester:0028,manchester,http://www.archive.org/details/reportofselectme1871manc|~|reportofselectme1871manc|~|manchester:0028,"Annual report of the City of Manchester, New Hampshire, 1871",1872,Title varies|~|Imprint varies|~|Report year varies,"University of New Hampshire. Library. Digital Collections.|~|Scanned by Internet Archive, Open Content Alliance (2008)",,,Text,Manchester (N.H.) -- Appropriations and expenditures -- Periodicals,"[Manchester, N.H. : the City,]",,,eng,University of New Hampshire. Library. Digital Collections.,manchester_0028+application-pdf+application.pdf|~|manchester_0028+image-low-jpg+image-low.jpg|~|manchester_0028+image-tb-jpg+image-tb.jpg
Active,manchester:0029,manchester,http://www.archive.org/details/reportofselectme1872manc|~|reportofselectme1872manc|~|manchester:0029,"Annual report of the City of Manchester, New Hampshire, 1872",1873,Title varies|~|Imprint varies|~|Report year varies,"University of New Hampshire. Library. Digital Collections.|~|Scanned by Internet Archive, Open Content Alliance (2008)",,,Text,Manchester (N.H.) -- Appropriations and expenditures -- Periodicals,"[Manchester, N.H. : the City,]",,,eng,University of New Hampshire. Library. Digital Collections.,manchester_0029+application-pdf+application.pdf|~|manchester_0029+image-low-jpg+image-low.jpg|~|manchester_0029+image-tb-jpg+image-tb.jpg
Active,manchester:0030,manchester,http://www.archive.org/details/reportofselectme1873manc|~|reportofselectme1873manc|~|manchester:0030,"Annual report of the City of Manchester, New Hampshire, 1873",1874,Title varies|~|Imprint varies|~|Report year varies,"University of New Hampshire. Library. Digital Collections.|~|Scanned by Internet Archive, Open Content Alliance (2008)",,,Text,Manchester (N.H.) -- Appropriations and expenditures -- Periodicals,"[Manchester, N.H. : the City,]",,,eng,University of New Hampshire. Library. Digital Collections.,manchester_0030+application-pdf+application.pdf|~|manchester_0030+image-low-jpg+image-low.jpg|~|manchester_0030+image-tb-jpg+image-tb.jpg
Active,manchester:0031,manchester,http://www.archive.org/details/reportofselectme1875manc|~|reportofselectme1875manc|~|manchester:0031,"Annual report of the City of Manchester, New Hampshire, 1875",1876,Title varies|~|Imprint varies|~|Report year varies,"University of New Hampshire. Library. Digital Collections.|~|Scanned by Internet Archive, Open Content Alliance (2008)",,,Text,Manchester (N.H.) -- Appropriations and expenditures -- Periodicals,"[Manchester, N.H. : the City,]",,,eng,University of New Hampshire. Library. Digital Collections.,manchester_0031+application-pdf+application.pdf|~|manchester_0031+image-low-jpg+image-low.jpg|~|manchester_0031+image-tb-jpg+image-tb.jpg
Active,manchester:0032,manchester,http://www.archive.org/details/reportofselectme1876manc|~|reportofselectme1876manc|~|manchester:0032,"Annual report of the City of Manchester, New Hampshire, 1876",1877,Title varies|~|Imprint varies|~|Report year varies,"University of New Hampshire. Library. Digital Collections.|~|Scanned by Internet Archive, Open Content Alliance (2008)",,,Text,Manchester (N.H.) -- Appropriations and expenditures -- Periodicals,"[Manchester, N.H. : the City,]",,,eng,University of New Hampshire. Library. Digital Collections.,manchester_0032+application-pdf+application.pdf|~|manchester_0032+image-low-jpg+image-low.jpg|~|manchester_0032+image-tb-jpg+image-tb.jpg
Active,manchester:0033,manchester,http://www.archive.org/details/reportofselectme1877manc|~|reportofselectme1877manc|~|manchester:0033,"Annual report of the City of Manchester, New Hampshire, 1877",1878,Title varies|~|Imprint varies|~|Report year varies,"University of New Hampshire. Library. Digital Collections.|~|Scanned by Internet Archive, Open Content Alliance (2008)",,,Text,Manchester (N.H.) -- Appropriations and expenditures -- Periodicals,"[Manchester, N.H. : the City,]",,,eng,University of New Hampshire. Library. Digital Collections.,manchester_0033+application-pdf+application.pdf|~|manchester_0033+image-low-jpg+image-low.jpg|~|manchester_0033+image-tb-jpg+image-tb.jpg
Active,manchester:0034,manchester,http://www.archive.org/details/reportofselectme1878manc|~|reportofselectme1878manc|~|manchester:0034,"Annual report of the City of Manchester, New Hampshire, 1878",1879,Title varies|~|Imprint varies|~|Report year varies,"University of New Hampshire. Library. Digital Collections.|~|Scanned by Internet Archive, Open Content Alliance (2008)",,,Text,Manchester (N.H.) -- Appropriations and expenditures -- Periodicals,"[Manchester, N.H. : the City,]",,,eng,University of New Hampshire. Library. Digital Collections.,manchester_0034+application-pdf+application.pdf|~|manchester_0034+image-low-jpg+image-low.jpg|~|manchester_0034+image-tb-jpg+image-tb.jpg
Active,manchester:0035,manchester,http://www.archive.org/details/reportofselectme1879manc|~|reportofselectme1879manc|~|manchester:0035,"Annual report of the City of Manchester, New Hampshire, 1879",1880,Title varies|~|Imprint varies|~|Report year varies,"University of New Hampshire. Library. Digital Collections.|~|Scanned by Internet Archive, Open Content Alliance (2008)",,,Text,Manchester (N.H.) -- Appropriations and expenditures -- Periodicals,"[Manchester, N.H. : the City,]",,,eng,University of New Hampshire. Library. Digital Collections.,manchester_0035+application-pdf+application.pdf|~|manchester_0035+image-low-jpg+image-low.jpg|~|manchester_0035+image-tb-jpg+image-tb.jpg
Active,manchester:0036,manchester,http://www.archive.org/details/reportofselectme1880manc|~|reportofselectme1880manc|~|manchester:0036,"Annual report of the City of Manchester, New Hampshire, 1880",1881,Title varies|~|Imprint varies|~|Report year varies,"University of New Hampshire. Library. Digital Collections.|~|Scanned by Internet Archive, Open Content Alliance (2008)",,,Text,Manchester (N.H.) -- Appropriations and expenditures -- Periodicals,"[Manchester, N.H. : the City,]",,,eng,University of New Hampshire. Library. Digital Collections.,manchester_0036+application-pdf+application.pdf|~|manchester_0036+image-low-jpg+image-low.jpg|~|manchester_0036+image-tb-jpg+image-tb.jpg
Active,manchester:0037,manchester,http://www.archive.org/details/reportofselectme1881manc|~|reportofselectme1881manc|~|manchester:0037,"Annual report of the City of Manchester, New Hampshire, 1881",1882,Title varies|~|Imprint varies|~|Report year varies,"University of New Hampshire. Library. Digital Collections.|~|Scanned by Internet Archive, Open Content Alliance (2008)",,,Text,Manchester (N.H.) -- Appropriations and expenditures -- Periodicals,"[Manchester, N.H. : the City,]",,,eng,University of New Hampshire. Library. Digital Collections.,manchester_0037+application-pdf+application.pdf|~|manchester_0037+image-low-jpg+image-low.jpg|~|manchester_0037+image-tb-jpg+image-tb.jpg
Active,manchester:0038,manchester,http://www.archive.org/details/reportofselectme1882manc|~|reportofselectme1882manc|~|manchester:0038,"Annual report of the City of Manchester, New Hampshire, 1882",1883,Title varies|~|Imprint varies|~|Report year varies,"University of New Hampshire. Library. Digital Collections.|~|Scanned by Internet Archive, Open Content Alliance (2008)",,,Text,Manchester (N.H.) -- Appropriations and expenditures -- Periodicals,"[Manchester, N.H. : the City,]",,,eng,University of New Hampshire. Library. Digital Collections.,manchester_0038+application-pdf+application.pdf|~|manchester_0038+image-low-jpg+image-low.jpg|~|manchester_0038+image-tb-jpg+image-tb.jpg
Active,manchester:0039,manchester,http://www.archive.org/details/reportofselectme1883manc|~|reportofselectme1883manc|~|manchester:0039,"Annual report of the City of Manchester, New Hampshire, 1883",1884,Title varies|~|Imprint varies|~|Report year varies,"University of New Hampshire. Library. Digital Collections.|~|Scanned by Internet Archive, Open Content Alliance (2008)",,,Text,Manchester (N.H.) -- Appropriations and expenditures -- Periodicals,"[Manchester, N.H. : the City,]",,,eng,University of New Hampshire. Library. Digital Collections.,manchester_0039+application-pdf+application.pdf|~|manchester_0039+image-low-jpg+image-low.jpg|~|manchester_0039+image-tb-jpg+image-tb.jpg
Active,manchester:0040,manchester,http://www.archive.org/details/reportofselectme1884manc|~|reportofselectme1884manc|~|manchester:0040,"Annual report of the City of Manchester, New Hampshire, 1884",1885,Title varies|~|Imprint varies|~|Report year varies,"University of New Hampshire. Library. Digital Collections.|~|Scanned by Internet Archive, Open Content Alliance (2008)",,,Text,Manchester (N.H.) -- Appropriations and expenditures -- Periodicals,"[Manchester, N.H. : the City,]",,,eng,University of New Hampshire. Library. Digital Collections.,manchester_0040+application-pdf+application.pdf|~|manchester_0040+image-low-jpg+image-low.jpg|~|manchester_0040+image-tb-jpg+image-tb.jpg
Active,manchester:0041,manchester,http://www.archive.org/details/reportofselectme1885manc|~|reportofselectme1885manc|~|manchester:0041,"Annual report of the City of Manchester, New Hampshire, 1885",1886,Title varies|~|Imprint varies|~|Report year varies,"University of New Hampshire. Library. Digital Collections.|~|Scanned by Internet Archive, Open Content Alliance (2008)",,,Text,Manchester (N.H.) -- Appropriations and expenditures -- Periodicals,"[Manchester, N.H. : the City,]",,,eng,University of New Hampshire. Library. Digital Collections.,manchester_0041+application-pdf+application.pdf|~|manchester_0041+image-low-jpg+image-low.jpg|~|manchester_0041+image-tb-jpg+image-tb.jpg
Active,manchester:0042,manchester,http://www.archive.org/details/reportofselectme1886manc|~|reportofselectme1886manc|~|manchester:0042,"Annual report of the City of Manchester, New Hampshire, 1886",1887,Title varies|~|Imprint varies|~|Report year varies,"University of New Hampshire. Library. Digital Collections.|~|Scanned by Internet Archive, Open Content Alliance (2008)",,,Text,Manchester (N.H.) -- Appropriations and expenditures -- Periodicals,"[Manchester, N.H. : the City,]",,,eng,University of New Hampshire. Library. Digital Collections.,manchester_0042+application-pdf+application.pdf|~|manchester_0042+image-low-jpg+image-low.jpg|~|manchester_0042+image-tb-jpg+image-tb.jpg
Active,manchester:0043,manchester,http://www.archive.org/details/reportofselectme1887manc|~|reportofselectme1887manc|~|manchester:0043,"Annual report of the City of Manchester, New Hampshire, 1887",1888,Title varies|~|Imprint varies|~|Report year varies,"University of New Hampshire. Library. Digital Collections.|~|Scanned by Internet Archive, Open Content Alliance (2008)",,,Text,Manchester (N.H.) -- Appropriations and expenditures -- Periodicals,"[Manchester, N.H. : the City,]",,,eng,University of New Hampshire. Library. Digital Collections.,manchester_0043+application-pdf+application.pdf|~|manchester_0043+image-low-jpg+image-low.jpg|~|manchester_0043+image-tb-jpg+image-tb.jpg
Active,manchester:0044,manchester,http://www.archive.org/details/reportofselectme1888manc|~|reportofselectme1888manc|~|manchester:0044,"Annual report of the City of Manchester, New Hampshire, 1888",1889,Title varies|~|Imprint varies|~|Report year varies,"University of New Hampshire. Library. Digital Collections.|~|Scanned by Internet Archive, Open Content Alliance (2008)",,,Text,Manchester (N.H.) -- Appropriations and expenditures -- Periodicals,"[Manchester, N.H. : the City,]",,,eng,University of New Hampshire. Library. Digital Collections.,manchester_0044+application-pdf+application.pdf|~|manchester_0044+image-low-jpg+image-low.jpg|~|manchester_0044+image-tb-jpg+image-tb.jpg
Active,manchester:0045,manchester,http://www.archive.org/details/reportofselectme1889manc|~|reportofselectme1889manc|~|manchester:0045,"Annual report of the City of Manchester, New Hampshire, 1889",1890,Title varies|~|Imprint varies|~|Report year varies,"University of New Hampshire. Library. Digital Collections.|~|Scanned by Internet Archive, Open Content Alliance (2008)",,,Text,Manchester (N.H.) -- Appropriations and expenditures -- Periodicals,"[Manchester, N.H. : the City,]",,,eng,University of New Hampshire. Library. Digital Collections.,manchester_0045+application-pdf+application.pdf|~|manchester_0045+image-low-jpg+image-low.jpg|~|manchester_0045+image-tb-jpg+image-tb.jpg
Active,manchester:0046,manchester,http://www.archive.org/details/reportofselectme1890manc|~|reportofselectme1890manc|~|manchester:0046,"Annual report of the City of Manchester, New Hampshire, 1890",1891,Title varies|~|Imprint varies|~|Report year varies,"University of New Hampshire. Library. Digital Collections.|~|Scanned by Internet Archive, Open Content Alliance (2008)",,,Text,Manchester (N.H.) -- Appropriations and expenditures -- Periodicals,"[Manchester, N.H. : the City,]",,,eng,University of New Hampshire. Library. Digital Collections.,manchester_0046+application-pdf+application.pdf|~|manchester_0046+image-low-jpg+image-low.jpg|~|manchester_0046+image-tb-jpg+image-tb.jpg
Active,manchester:0047,manchester,http://www.archive.org/details/reportofselectme1891manc|~|reportofselectme1891manc|~|manchester:0047,"Annual report of the City of Manchester, New Hampshire, 1891",1892,Title varies|~|Imprint varies|~|Report year varies,"University of New Hampshire. Library. Digital Collections.|~|Scanned by Internet Archive, Open Content Alliance (2008)",,,Text,Manchester (N.H.) -- Appropriations and expenditures -- Periodicals,"[Manchester, N.H. : the City,]",,,eng,University of New Hampshire. Library. Digital Collections.,manchester_0047+application-pdf+application.pdf|~|manchester_0047+image-low-jpg+image-low.jpg|~|manchester_0047+image-tb-jpg+image-tb.jpg
Active,manchester:0048,manchester,http://www.archive.org/details/reportofselectme1892manc|~|reportofselectme1892manc|~|manchester:0048,"Annual report of the City of Manchester, New Hampshire, 1892",1893,Title varies|~|Imprint varies|~|Report year varies,"University of New Hampshire. Library. Digital Collections.|~|Scanned by Internet Archive, Open Content Alliance (2008)",,,Text,Manchester (N.H.) -- Appropriations and expenditures -- Periodicals,"[Manchester, N.H. : the City,]",,,eng,University of New Hampshire. Library. Digital Collections.,manchester_0048+application-pdf+application.pdf|~|manchester_0048+image-low-jpg+image-low.jpg|~|manchester_0048+image-tb-jpg+image-tb.jpg
Active,manchester:0049,manchester,http://www.archive.org/details/reportofselectme1893manc|~|reportofselectme1893manc|~|manchester:0049,"Annual report of the City of Manchester, New Hampshire, 1893",1894,Title varies|~|Imprint varies|~|Report year varies,"University of New Hampshire. Library. Digital Collections.|~|Scanned by Internet Archive, Open Content Alliance (2008)",,,Text,Manchester (N.H.) -- Appropriations and expenditures -- Periodicals,"[Manchester, N.H. : the City,]",,,eng,University of New Hampshire. Library. Digital Collections.,manchester_0049+application-pdf+application.pdf|~|manchester_0049+image-low-jpg+image-low.jpg|~|manchester_0049+image-tb-jpg+image-tb.jpg
Active,manchester:0050,manchester,http://www.archive.org/details/reportofselectme1894manc|~|reportofselectme1894manc|~|manchester:0050,"Annual report of the City of Manchester, New Hampshire, 1894",1895,Title varies|~|Imprint varies|~|Report year varies,"University of New Hampshire. Library. Digital Collections.|~|Scanned by Internet Archive, Open Content Alliance (2008)",,,Text,Manchester (N.H.) -- Appropriations and expenditures -- Periodicals,"[Manchester, N.H. : the City,]",,,eng,University of New Hampshire. Library. Digital Collections.,manchester_0050+application-pdf+application.pdf|~|manchester_0050+image-low-jpg+image-low.jpg|~|manchester_0050+image-tb-jpg+image-tb.jpg
Active,manchester:0051,manchester,http://www.archive.org/details/reportofselectme1895manc|~|reportofselectme1895manc|~|manchester:0051,"Annual report of the City of Manchester, New Hampshire, 1895",1896,Title varies|~|Imprint varies|~|Report year varies,"University of New Hampshire. Library. Digital Collections.|~|Scanned by Internet Archive, Open Content Alliance (2008)",,,Text,Manchester (N.H.) -- Appropriations and expenditures -- Periodicals,"[Manchester, N.H. : the City,]",,,eng,University of New Hampshire. Library. Digital Collections.,manchester_0051+application-pdf+application.pdf|~|manchester_0051+image-low-jpg+image-low.jpg|~|manchester_0051+image-tb-jpg+image-tb.jpg
Active,manchester:0052,manchester,http://www.archive.org/details/reportofselectme1896manc|~|reportofselectme1896manc|~|manchester:0052,"Annual report of the City of Manchester, New Hampshire, 1896",1897,Title varies|~|Imprint varies|~|Report year varies,"University of New Hampshire. Library. Digital Collections.|~|Scanned by Internet Archive, Open Content Alliance (2008)",,,Text,Manchester (N.H.) -- Appropriations and expenditures -- Periodicals,"[Manchester, N.H. : the City,]",,,eng,University of New Hampshire. Library. Digital Collections.,manchester_0052+application-pdf+application.pdf|~|manchester_0052+image-low-jpg+image-low.jpg|~|manchester_0052+image-tb-jpg+image-tb.jpg
Active,manchester:0053,manchester,http://www.archive.org/details/reportofselectme1897manc|~|reportofselectme1897manc|~|manchester:0053,"Annual report of the City of Manchester, New Hampshire, 1897",1898,Title varies|~|Imprint varies|~|Report year varies,"University of New Hampshire. Library. Digital Collections.|~|Scanned by Internet Archive, Open Content Alliance (2008)",,,Text,Manchester (N.H.) -- Appropriations and expenditures -- Periodicals,"[Manchester, N.H. : the City,]",,,eng,University of New Hampshire. Library. Digital Collections.,manchester_0053+application-pdf+application.pdf|~|manchester_0053+image-low-jpg+image-low.jpg|~|manchester_0053+image-tb-jpg+image-tb.jpg
Active,manchester:0054,manchester,http://www.archive.org/details/reportofselectme1898manc|~|reportofselectme1898manc|~|manchester:0054,"Annual report of the City of Manchester, New Hampshire, 1898",1899,Title varies|~|Imprint varies|~|Report year varies,"University of New Hampshire. Library. Digital Collections.|~|Scanned by Internet Archive, Open Content Alliance (2008)",,,Text,Manchester (N.H.) -- Appropriations and expenditures -- Periodicals,"[Manchester, N.H. : the City,]",,,eng,University of New Hampshire. Library. Digital Collections.,manchester_0054+application-pdf+application.pdf|~|manchester_0054+image-low-jpg+image-low.jpg|~|manchester_0054+image-tb-jpg+image-tb.jpg
Active,manchester:0055,manchester,http://www.archive.org/details/reportofselectme1899manc|~|reportofselectme1899manc|~|manchester:0055,"Annual report of the City of Manchester, New Hampshire, 1899",1900,Title varies|~|Imprint varies|~|Report year varies,"University of New Hampshire. Library. Digital Collections.|~|Scanned by Internet Archive, Open Content Alliance (2008)",,,Text,Manchester (N.H.) -- Appropriations and expenditures -- Periodicals,"[Manchester, N.H. : the City,]",,,eng,University of New Hampshire. Library. Digital Collections.,manchester_0055+application-pdf+application.pdf|~|manchester_0055+image-low-jpg+image-low.jpg|~|manchester_0055+image-tb-jpg+image-tb.jpg
Active,manchester:0056,manchester,http://www.archive.org/details/reportofselectme1900manc|~|reportofselectme1900manc|~|manchester:0056,"Annual report of the City of Manchester, New Hampshire, 1900",1901,Title varies|~|Imprint varies|~|Report year varies,"University of New Hampshire. Library. Digital Collections.|~|Scanned by Internet Archive, Open Content Alliance (2008)",,,Text,Manchester (N.H.) -- Appropriations and expenditures -- Periodicals,"[Manchester, N.H. : the City,]",,,eng,University of New Hampshire. Library. Digital Collections.,manchester_0056+application-pdf+application.pdf|~|manchester_0056+image-low-jpg+image-low.jpg|~|manchester_0056+image-tb-jpg+image-tb.jpg
Active,manchester:0057,manchester,http://www.archive.org/details/reportofselectme1901manc|~|reportofselectme1901manc|~|manchester:0057,"Annual report of the City of Manchester, New Hampshire, 1901",1902,Title varies|~|Imprint varies|~|Report year varies,"University of New Hampshire. Library. Digital Collections.|~|Scanned by Internet Archive, Open Content Alliance (2008)",,,Text,Manchester (N.H.) -- Appropriations and expenditures -- Periodicals,"[Manchester, N.H. : the City,]",,,eng,University of New Hampshire. Library. Digital Collections.,manchester_0057+application-pdf+application.pdf|~|manchester_0057+image-low-jpg+image-low.jpg|~|manchester_0057+image-tb-jpg+image-tb.jpg
Active,manchester:0058,manchester,http://www.archive.org/details/reportofselectme1902manc|~|reportofselectme1902manc|~|manchester:0058,"Annual report of the City of Manchester, New Hampshire, 1902",1903,Title varies|~|Imprint varies|~|Report year varies,"University of New Hampshire. Library. Digital Collections.|~|Scanned by Internet Archive, Open Content Alliance (2008)",,,Text,Manchester (N.H.) -- Appropriations and expenditures -- Periodicals,"[Manchester, N.H. : the City,]",,,eng,University of New Hampshire. Library. Digital Collections.,manchester_0058+application-pdf+application.pdf|~|manchester_0058+image-low-jpg+image-low.jpg|~|manchester_0058+image-tb-jpg+image-tb.jpg
Active,manchester:0059,manchester,http://www.archive.org/details/reportofselectme1903manc|~|reportofselectme1903manc|~|manchester:0059,"Annual report of the City of Manchester, New Hampshire, 1903",1904,Title varies|~|Imprint varies|~|Report year varies,"University of New Hampshire. Library. Digital Collections.|~|Scanned by Internet Archive, Open Content Alliance (2008)",,,Text,Manchester (N.H.) -- Appropriations and expenditures -- Periodicals,"[Manchester, N.H. : the City,]",,,eng,University of New Hampshire. Library. Digital Collections.,manchester_0059+application-pdf+application.pdf|~|manchester_0059+image-low-jpg+image-low.jpg|~|manchester_0059+image-tb-jpg+image-tb.jpg
Active,manchester:0060,manchester,http://www.archive.org/details/reportofselectme1904manc|~|reportofselectme1904manc|~|manchester:0060,"Annual report of the City of Manchester, New Hampshire, 1904",1905,Title varies|~|Imprint varies|~|Report year varies,"University of New Hampshire. Library. Digital Collections.|~|Scanned by Internet Archive, Open Content Alliance (2008)",,,Text,Manchester (N.H.) -- Appropriations and expenditures -- Periodicals,"[Manchester, N.H. : the City,]",,,eng,University of New Hampshire. Library. Digital Collections.,manchester_0060+application-pdf+application.pdf|~|manchester_0060+image-low-jpg+image-low.jpg|~|manchester_0060+image-tb-jpg+image-tb.jpg
Active,manchester:0061,manchester,http://www.archive.org/details/reportofselectme1905manc|~|reportofselectme1905manc|~|manchester:0061,"Annual report of the City of Manchester, New Hampshire, 1905",1906,Title varies|~|Imprint varies|~|Report year varies,"University of New Hampshire. Library. Digital Collections.|~|Scanned by Internet Archive, Open Content Alliance (2008)",,,Text,Manchester (N.H.) -- Appropriations and expenditures -- Periodicals,"[Manchester, N.H. : the City,]",,,eng,University of New Hampshire. Library. Digital Collections.,manchester_0061+application-pdf+application.pdf|~|manchester_0061+image-low-jpg+image-low.jpg|~|manchester_0061+image-tb-jpg+image-tb.jpg
Active,manchester:0062,manchester,http://www.archive.org/details/reportofselectme1906manc|~|reportofselectme1906manc|~|manchester:0062,"Annual report of the City of Manchester, New Hampshire, 1906",1907,Title varies|~|Imprint varies|~|Report year varies,"University of New Hampshire. Library. Digital Collections.|~|Scanned by Internet Archive, Open Content Alliance (2008)",,,Text,Manchester (N.H.) -- Appropriations and expenditures -- Periodicals,"[Manchester, N.H. : the City,]",,,eng,University of New Hampshire. Library. Digital Collections.,manchester_0062+application-pdf+application.pdf|~|manchester_0062+image-low-jpg+image-low.jpg|~|manchester_0062+image-tb-jpg+image-tb.jpg
Active,manchester:0063,manchester,http://www.archive.org/details/reportofselectme1909manc|~|reportofselectme1909manc|~|manchester:0063,"Annual report of the City of Manchester, New Hampshire, 1909",1910,Title varies|~|Imprint varies|~|Report year varies,"University of New Hampshire. Library. Digital Collections.|~|Scanned by Internet Archive, Open Content Alliance (2008)",,,Text,Manchester (N.H.) -- Appropriations and expenditures -- Periodicals,"[Manchester, N.H. : the City,]",,,eng,University of New Hampshire. Library. Digital Collections.,manchester_0063+application-pdf+application.pdf|~|manchester_0063+image-low-jpg+image-low.jpg|~|manchester_0063+image-tb-jpg+image-tb.jpg
Active,manchester:0064,manchester,http://www.archive.org/details/reportofselectme1914manc|~|reportofselectme1914manc|~|manchester:0064,"Annual report of the City of Manchester, New Hampshire, 1914",1915,Title varies|~|Imprint varies|~|Report year varies,"University of New Hampshire. Library. Digital Collections.|~|Scanned by Internet Archive, Open Content Alliance (2008)",,,Text,Manchester (N.H.) -- Appropriations and expenditures -- Periodicals,"[Manchester, N.H. : the City,]",,,eng,University of New Hampshire. Library. Digital Collections.,manchester_0064+application-pdf+application.pdf|~|manchester_0064+image-low-jpg+image-low.jpg|~|manchester_0064+image-tb-jpg+image-tb.jpg
Active,manchester:0065,manchester,http://www.archive.org/details/reportofselectme1923manc|~|reportofselectme1923manc|~|manchester:0065,"Annual report of the City of Manchester, New Hampshire, 1923",1924,Title varies|~|Imprint varies|~|Report year varies,"University of New Hampshire. Library. Digital Collections.|~|Scanned by Internet Archive, Open Content Alliance (2008)",,,Text,Manchester (N.H.) -- Appropriations and expenditures -- Periodicals,"[Manchester, N.H. : the City,]",,,eng,University of New Hampshire. Library. Digital Collections.,manchester_0065+application-pdf+application.pdf|~|manchester_0065+image-low-jpg+image-low.jpg|~|manchester_0065+image-tb-jpg+image-tb.jpg
Active,manchester:0066,manchester,http://www.archive.org/details/reportofselectme1924manc|~|reportofselectme1924manc|~|manchester:0066,"Annual report of the City of Manchester, New Hampshire, 1924",1925,Title varies|~|Imprint varies|~|Report year varies,"University of New Hampshire. Library. Digital Collections.|~|Scanned by Internet Archive, Open Content Alliance (2008)",,,Text,Manchester (N.H.) -- Appropriations and expenditures -- Periodicals,"[Manchester, N.H. : the City,]",,,eng,University of New Hampshire. Library. Digital Collections.,manchester_0066+application-pdf+application.pdf|~|manchester_0066+image-low-jpg+image-low.jpg|~|manchester_0066+image-tb-jpg+image-tb.jpg
Active,manchester:0067,manchester,http://www.archive.org/details/reportofselectme1925manc|~|reportofselectme1925manc|~|manchester:0067,"Annual report of the City of Manchester, New Hampshire, 1925",1926,Title varies|~|Imprint varies|~|Report year varies,"University of New Hampshire. Library. Digital Collections.|~|Scanned by Internet Archive, Open Content Alliance (2008)",,,Text,Manchester (N.H.) -- Appropriations and expenditures -- Periodicals,"[Manchester, N.H. : the City,]",,,eng,University of New Hampshire. Library. Digital Collections.,manchester_0067+application-pdf+application.pdf|~|manchester_0067+image-low-jpg+image-low.jpg|~|manchester_0067+image-tb-jpg+image-tb.jpg
Active,manchester:0068,manchester,http://www.archive.org/details/reportofselectme1926manc|~|reportofselectme1926manc|~|manchester:0068,"Annual report of the City of Manchester, New Hampshire, 1926",1926,Title varies|~|Imprint varies|~|Report year varies,"University of New Hampshire. Library. Digital Collections.|~|Scanned by Internet Archive, Open Content Alliance (2008)",,,Text,Manchester (N.H.) -- Appropriations and expenditures -- Periodicals,"[Manchester, N.H. : the City,]",,,eng,University of New Hampshire. Library. Digital Collections.,manchester_0068+application-pdf+application.pdf|~|manchester_0068+image-low-jpg+image-low.jpg|~|manchester_0068+image-tb-jpg+image-tb.jpg
Active,manchester:0069,manchester,http://www.archive.org/details/reportofselectme1927manc|~|reportofselectme1927manc|~|manchester:0069,"Annual report of the City of Manchester, New Hampshire, 1927",1927,Title varies|~|Imprint varies|~|Report year varies,"University of New Hampshire. Library. Digital Collections.|~|Scanned by Internet Archive, Open Content Alliance (2008)",,,Text,Manchester (N.H.) -- Appropriations and expenditures -- Periodicals,"[Manchester, N.H. : the City,]",,,eng,University of New Hampshire. Library. Digital Collections.,manchester_0069+application-pdf+application.pdf|~|manchester_0069+image-low-jpg+image-low.jpg|~|manchester_0069+image-tb-jpg+image-tb.jpg
Active,manchester:0070,manchester,http://www.archive.org/details/reportofselectme1928manc|~|reportofselectme1928manc|~|manchester:0070,"Annual report of the City of Manchester, New Hampshire, 1928",1929,Title varies|~|Imprint varies|~|Report year varies,"University of New Hampshire. Library. Digital Collections.|~|Scanned by Internet Archive, Open Content Alliance (2008)",,,Text,Manchester (N.H.) -- Appropriations and expenditures -- Periodicals,"[Manchester, N.H. : the City,]",,,eng,University of New Hampshire. Library. Digital Collections.,manchester_0070+application-pdf+application.pdf|~|manchester_0070+image-low-jpg+image-low.jpg|~|manchester_0070+image-tb-jpg+image-tb.jpg
Active,manchester:0071,manchester,http://www.archive.org/details/reportofselectme1929manc|~|reportofselectme1929manc|~|manchester:0071,"Annual report of the City of Manchester, New Hampshire, 1929",1930,Title varies|~|Imprint varies|~|Report year varies,"University of New Hampshire. Library. Digital Collections.|~|Scanned by Internet Archive, Open Content Alliance (2008)",,,Text,Manchester (N.H.) -- Appropriations and expenditures -- Periodicals,"[Manchester, N.H. : the City,]",,,eng,University of New Hampshire. Library. Digital Collections.,manchester_0071+application-pdf+application.pdf|~|manchester_0071+image-low-jpg+image-low.jpg|~|manchester_0071+image-tb-jpg+image-tb.jpg
Active,manchester:0072,manchester,http://www.archive.org/details/reportofselectme1930manc|~|reportofselectme1930manc|~|manchester:0072,"Annual report of the City of Manchester, New Hampshire, 1930",1931,Title varies|~|Imprint varies|~|Report year varies,"University of New Hampshire. Library. Digital Collections.|~|Scanned by Internet Archive, Open Content Alliance (2008)",,,Text,Manchester (N.H.) -- Appropriations and expenditures -- Periodicals,"[Manchester, N.H. : the City,]",,,eng,University of New Hampshire. Library. Digital Collections.,manchester_0072+application-pdf+application.pdf|~|manchester_0072+image-low-jpg+image-low.jpg|~|manchester_0072+image-tb-jpg+image-tb.jpg
Active,manchester:0073,manchester,http://www.archive.org/details/reportofselectme1931manc|~|reportofselectme1931manc|~|manchester:0073,"Annual report of the City of Manchester, New Hampshire, 1931",1932,Title varies|~|Imprint varies|~|Report year varies,"University of New Hampshire. Library. Digital Collections.|~|Scanned by Internet Archive, Open Content Alliance (2008)",,,Text,Manchester (N.H.) -- Appropriations and expenditures -- Periodicals,"[Manchester, N.H. : the City,]",,,eng,University of New Hampshire. Library. Digital Collections.,manchester_0073+application-pdf+application.pdf|~|manchester_0073+image-low-jpg+image-low.jpg|~|manchester_0073+image-tb-jpg+image-tb.jpg
Active,manchester:0074,manchester,http://www.archive.org/details/reportofselectme1932manc|~|reportofselectme1932manc|~|manchester:0074,"Annual report of the City of Manchester, New Hampshire, 1932",1933,Title varies|~|Imprint varies|~|Report year varies,"University of New Hampshire. Library. Digital Collections.|~|Scanned by Internet Archive, Open Content Alliance (2008)",,,Text,Manchester (N.H.) -- Appropriations and expenditures -- Periodicals,"[Manchester, N.H. : the City,]",,,eng,University of New Hampshire. Library. Digital Collections.,manchester_0074+application-pdf+application.pdf|~|manchester_0074+image-low-jpg+image-low.jpg|~|manchester_0074+image-tb-jpg+image-tb.jpg
Active,manchester:0075,manchester,http://www.archive.org/details/reportofselectme1933manc|~|reportofselectme1933manc|~|manchester:0075,"Annual report of the City of Manchester, New Hampshire, 1933",1934,Title varies|~|Imprint varies|~|Report year varies,"University of New Hampshire. Library. Digital Collections.|~|Scanned by Internet Archive, Open Content Alliance (2008)",,,Text,Manchester (N.H.) -- Appropriations and expenditures -- Periodicals,"[Manchester, N.H. : the City,]",,,eng,University of New Hampshire. Library. Digital Collections.,manchester_0075+application-pdf+application.pdf|~|manchester_0075+image-low-jpg+image-low.jpg|~|manchester_0075+image-tb-jpg+image-tb.jpg
Active,manchester:0076,manchester,http://www.archive.org/details/reportofselectme1934manc|~|reportofselectme1934manc|~|manchester:0076,"Annual report of the City of Manchester, New Hampshire, 1934",1935,Title varies|~|Imprint varies|~|Report year varies,"University of New Hampshire. Library. Digital Collections.|~|Scanned by Internet Archive, Open Content Alliance (2008)",,,Text,Manchester (N.H.) -- Appropriations and expenditures -- Periodicals,"[Manchester, N.H. : the City,]",,,eng,University of New Hampshire. Library. Digital Collections.,manchester_0076+application-pdf+application.pdf|~|manchester_0076+image-low-jpg+image-low.jpg|~|manchester_0076+image-tb-jpg+image-tb.jpg
Active,manchester:0077,manchester,http://www.archive.org/details/reportofselectme1935manc|~|reportofselectme1935manc|~|manchester:0077,"Annual report of the City of Manchester, New Hampshire, 1935",1936,Title varies|~|Imprint varies|~|Report year varies,"University of New Hampshire. Library. Digital Collections.|~|Scanned by Internet Archive, Open Content Alliance (2008)",,,Text,Manchester (N.H.) -- Appropriations and expenditures -- Periodicals,"[Manchester, N.H. : the City,]",,,eng,University of New Hampshire. Library. Digital Collections.,manchester_0077+application-pdf+application.pdf|~|manchester_0077+image-low-jpg+image-low.jpg|~|manchester_0077+image-tb-jpg+image-tb.jpg
Active,manchester:0078,manchester,http://www.archive.org/details/reportofselectme1936manc|~|reportofselectme1936manc|~|manchester:0078,"Annual report of the City of Manchester, New Hampshire, 1936",1937,Title varies|~|Imprint varies|~|Report year varies,"University of New Hampshire. Library. Digital Collections.|~|Scanned by Internet Archive, Open Content Alliance (2008)",,,Text,Manchester (N.H.) -- Appropriations and expenditures -- Periodicals,"[Manchester, N.H. : the City,]",,,eng,University of New Hampshire. Library. Digital Collections.,manchester_0078+application-pdf+application.pdf|~|manchester_0078+image-low-jpg+image-low.jpg|~|manchester_0078+image-tb-jpg+image-tb.jpg
Active,manchester:0079,manchester,http://www.archive.org/details/reportofselectme1937manc|~|reportofselectme1937manc|~|manchester:0079,"Annual report of the City of Manchester, New Hampshire, 1937",1938,Title varies|~|Imprint varies|~|Report year varies,"University of New Hampshire. Library. Digital Collections.|~|Scanned by Internet Archive, Open Content Alliance (2008)",,,Text,Manchester (N.H.) -- Appropriations and expenditures -- Periodicals,"[Manchester, N.H. : the City,]",,,eng,University of New Hampshire. Library. Digital Collections.,manchester_0079+application-pdf+application.pdf|~|manchester_0079+image-low-jpg+image-low.jpg|~|manchester_0079+image-tb-jpg+image-tb.jpg
Active,manchester:0080,manchester,http://www.archive.org/details/reportofselectme1938manc|~|reportofselectme1938manc|~|manchester:0080,"Annual report of the City of Manchester, New Hampshire, 1938",1939,Title varies|~|Imprint varies|~|Report year varies,"University of New Hampshire. Library. Digital Collections.|~|Scanned by Internet Archive, Open Content Alliance (2008)",,,Text,Manchester (N.H.) -- Appropriations and expenditures -- Periodicals,"[Manchester, N.H. : the City,]",,,eng,University of New Hampshire. Library. Digital Collections.,manchester_0080+application-pdf+application.pdf|~|manchester_0080+image-low-jpg+image-low.jpg|~|manchester_0080+image-tb-jpg+image-tb.jpg
Active,manchester:0081,manchester,http://www.archive.org/details/reportofselectme1939manc|~|reportofselectme1939manc|~|manchester:0081,"Annual report of the City of Manchester, New Hampshire, 1939",1940,Title varies|~|Imprint varies|~|Report year varies,"University of New Hampshire. Library. Digital Collections.|~|Scanned by Internet Archive, Open Content Alliance (2008)",,,Text,Manchester (N.H.) -- Appropriations and expenditures -- Periodicals,"[Manchester, N.H. : the City,]",,,eng,University of New Hampshire. Library. Digital Collections.,manchester_0081+application-pdf+application.pdf|~|manchester_0081+image-low-jpg+image-low.jpg|~|manchester_0081+image-tb-jpg+image-tb.jpg
Active,manchester:0082,manchester,http://www.archive.org/details/reportofselectme1940manc|~|reportofselectme1940manc|~|manchester:0082,"Annual report of the City of Manchester, New Hampshire, 1940",1941,Title varies|~|Imprint varies|~|Report year varies,"University of New Hampshire. Library. Digital Collections.|~|Scanned by Internet Archive, Open Content Alliance (2008)",,,Text,Manchester (N.H.) -- Appropriations and expenditures -- Periodicals,"[Manchester, N.H. : the City,]",,,eng,University of New Hampshire. Library. Digital Collections.,manchester_0082+application-pdf+application.pdf|~|manchester_0082+image-low-jpg+image-low.jpg|~|manchester_0082+image-tb-jpg+image-tb.jpg
Active,manchester:0083,manchester,http://www.archive.org/details/reportofselectme1941manc|~|reportofselectme1941manc|~|manchester:0083,"Annual report of the City of Manchester, New Hampshire, 1941",1942,Title varies|~|Imprint varies|~|Report year varies,"University of New Hampshire. Library. Digital Collections.|~|Scanned by Internet Archive, Open Content Alliance (2008)",,,Text,Manchester (N.H.) -- Appropriations and expenditures -- Periodicals,"[Manchester, N.H. : the City,]",,,eng,University of New Hampshire. Library. Digital Collections.,manchester_0083+application-pdf+application.pdf|~|manchester_0083+image-low-jpg+image-low.jpg|~|manchester_0083+image-tb-jpg+image-tb.jpg
Active,manchester:0084,manchester,http://www.archive.org/details/reportofselectme194243manc|~|reportofselectme194243manc|~|manchester:0084,"Annual report of the City of Manchester, New Hampshire, 1942",1943,Title varies|~|Imprint varies|~|Report year varies,"University of New Hampshire. Library. Digital Collections.|~|Scanned by Internet Archive, Open Content Alliance (2008)",,,Text,Manchester (N.H.) -- Appropriations and expenditures -- Periodicals,"[Manchester, N.H. : the City,]",,,eng,University of New Hampshire. Library. Digital Collections.,manchester_0084+application-pdf+application.pdf|~|manchester_0084+image-low-jpg+image-low.jpg|~|manchester_0084+image-tb-jpg+image-tb.jpg
Active,manchester:0085,manchester,http://www.archive.org/details/reportofselectme194445manc|~|reportofselectme194445manc|~|manchester:0085,"Annual report of the City of Manchester, New Hampshire, 1944",1945,Title varies|~|Imprint varies|~|Report year varies,"University of New Hampshire. Library. Digital Collections.|~|Scanned by Internet Archive, Open Content Alliance (2008)",,,Text,Manchester (N.H.) -- Appropriations and expenditures -- Periodicals,"[Manchester, N.H. : the City,]",,,eng,University of New Hampshire. Library. Digital Collections.,manchester_0085+application-pdf+application.pdf|~|manchester_0085+image-low-jpg+image-low.jpg|~|manchester_0085+image-tb-jpg+image-tb.jpg
Active,manchester:0086,manchester,http://www.archive.org/details/reportofselectme194546manc|~|reportofselectme194546manc|~|manchester:0086,"Annual report of the City of Manchester, New Hampshire, 1946",1947,Title varies|~|Imprint varies|~|Report year varies,"University of New Hampshire. Library. Digital Collections.|~|Scanned by Internet Archive, Open Content Alliance (2008)",,,Text,Manchester (N.H.) -- Appropriations and expenditures -- Periodicals,"[Manchester, N.H. : the City,]",,,eng,University of New Hampshire. Library. Digital Collections.,manchester_0086+application-pdf+application.pdf|~|manchester_0086+image-low-jpg+image-low.jpg|~|manchester_0086+image-tb-jpg+image-tb.jpg
Active,manchester:0087,manchester,http://www.archive.org/details/reportofselectme1948manc|~|reportofselectme1948manc|~|manchester:0087,"Annual report of the City of Manchester, New Hampshire, 1948",1949,Title varies|~|Imprint varies|~|Report year varies,"University of New Hampshire. Library. Digital Collections.|~|Scanned by Internet Archive, Open Content Alliance (2008)",,,Text,Manchester (N.H.) -- Appropriations and expenditures -- Periodicals,"[Manchester, N.H. : the City,]",,,eng,University of New Hampshire. Library. Digital Collections.,manchester_0087+application-pdf+application.pdf|~|manchester_0087+image-low-jpg+image-low.jpg|~|manchester_0087+image-tb-jpg+image-tb.jpg
Active,manchester:0088,manchester,http://www.archive.org/details/reportofselectme1949manc|~|reportofselectme1949manc|~|manchester:0088,"Annual report of the City of Manchester, New Hampshire, 1949",1950,Title varies|~|Imprint varies|~|Report year varies,"University of New Hampshire. Library. Digital Collections.|~|Scanned by Internet Archive, Open Content Alliance (2008)",,,Text,Manchester (N.H.) -- Appropriations and expenditures -- Periodicals,"[Manchester, N.H. : the City,]",,,eng,University of New Hampshire. Library. Digital Collections.,manchester_0088+application-pdf+application.pdf|~|manchester_0088+image-low-jpg+image-low.jpg|~|manchester_0088+image-tb-jpg+image-tb.jpg
Active,manchester:0089,manchester,http://www.archive.org/details/reportofselectme1950manc|~|reportofselectme1950manc|~|manchester:0089,"Annual report of the City of Manchester, New Hampshire, 1950",1951,Title varies|~|Imprint varies|~|Report year varies,"University of New Hampshire. Library. Digital Collections.|~|Scanned by Internet Archive, Open Content Alliance (2008)",,,Text,Manchester (N.H.) -- Appropriations and expenditures -- Periodicals,"[Manchester, N.H. : the City,]",,,eng,University of New Hampshire. Library. Digital Collections.,manchester_0089+application-pdf+application.pdf|~|manchester_0089+image-low-jpg+image-low.jpg|~|manchester_0089+image-tb-jpg+image-tb.jpg
Active,manchester:0090,manchester,http://www.archive.org/details/reportofselectme1951manc|~|reportofselectme1951manc|~|manchester:0090,"Annual report of the City of Manchester, New Hampshire, 1951",1952,Title varies|~|Imprint varies|~|Report year varies,"University of New Hampshire. Library. Digital Collections.|~|Scanned by Internet Archive, Open Content Alliance (2008)",,,Text,Manchester (N.H.) -- Appropriations and expenditures -- Periodicals,"[Manchester, N.H. : the City,]",,,eng,University of New Hampshire. Library. Digital Collections.,manchester_0090+application-pdf+application.pdf|~|manchester_0090+image-low-jpg+image-low.jpg|~|manchester_0090+image-tb-jpg+image-tb.jpg
Active,manchester:0091,manchester,http://www.archive.org/details/reportofselectme1952manc|~|reportofselectme1952manc|~|manchester:0091,"Annual report of the City of Manchester, New Hampshire, 1952",1953,Title varies|~|Imprint varies|~|Report year varies,"University of New Hampshire. Library. Digital Collections.|~|Scanned by Internet Archive, Open Content Alliance (2008)",,,Text,Manchester (N.H.) -- Appropriations and expenditures -- Periodicals,"[Manchester, N.H. : the City,]",,,eng,University of New Hampshire. Library. Digital Collections.,manchester_0091+application-pdf+application.pdf|~|manchester_0091+image-low-jpg+image-low.jpg|~|manchester_0091+image-tb-jpg+image-tb.jpg
Active,manchester:0092,manchester,http://www.archive.org/details/reportofselectme1953manc|~|reportofselectme1953manc|~|manchester:0092,"Annual report of the City of Manchester, New Hampshire, 1953",1954,Title varies|~|Imprint varies|~|Report year varies,"University of New Hampshire. Library. Digital Collections.|~|Scanned by Internet Archive, Open Content Alliance (2008)",,,Text,Manchester (N.H.) -- Appropriations and expenditures -- Periodicals,"[Manchester, N.H. : the City,]",,,eng,University of New Hampshire. Library. Digital Collections.,manchester_0092+application-pdf+application.pdf|~|manchester_0092+image-low-jpg+image-low.jpg|~|manchester_0092+image-tb-jpg+image-tb.jpg
Active,manchester:0093,manchester,http://www.archive.org/details/reportofselectme1954manc|~|reportofselectme1954manc|~|manchester:0093,"Annual report of the City of Manchester, New Hampshire, 1954",1955,Title varies|~|Imprint varies|~|Report year varies,"University of New Hampshire. Library. Digital Collections.|~|Scanned by Internet Archive, Open Content Alliance (2008)",,,Text,Manchester (N.H.) -- Appropriations and expenditures -- Periodicals,"[Manchester, N.H. : the City,]",,,eng,University of New Hampshire. Library. Digital Collections.,manchester_0093+application-pdf+application.pdf|~|manchester_0093+image-low-jpg+image-low.jpg|~|manchester_0093+image-tb-jpg+image-tb.jpg
Active,manchester:0094,manchester,http://www.archive.org/details/reportofselectme1955manc|~|reportofselectme1955manc|~|manchester:0094,"Annual report of the City of Manchester, New Hampshire, 1955",1956,Title varies|~|Imprint varies|~|Report year varies,"University of New Hampshire. Library. Digital Collections.|~|Scanned by Internet Archive, Open Content Alliance (2008)",,,Text,Manchester (N.H.) -- Appropriations and expenditures -- Periodicals,"[Manchester, N.H. : the City,]",,,eng,University of New Hampshire. Library. Digital Collections.,manchester_0094+application-pdf+application.pdf|~|manchester_0094+image-low-jpg+image-low.jpg|~|manchester_0094+image-tb-jpg+image-tb.jpg
Active,manchester:0095,manchester,http://www.archive.org/details/reportofselectme1956manc|~|reportofselectme1956manc|~|manchester:0095,"Annual report of the City of Manchester, New Hampshire, 1956",1957,Title varies|~|Imprint varies|~|Report year varies,"University of New Hampshire. Library. Digital Collections.|~|Scanned by Internet Archive, Open Content Alliance (2008)",,,Text,Manchester (N.H.) -- Appropriations and expenditures -- Periodicals,"[Manchester, N.H. : the City,]",,,eng,University of New Hampshire. Library. Digital Collections.,manchester_0095+application-pdf+application.pdf|~|manchester_0095+image-low-jpg+image-low.jpg|~|manchester_0095+image-tb-jpg+image-tb.jpg
Active,manchester:0096,manchester,http://www.archive.org/details/reportofselectme1957manc|~|reportofselectme1957manc|~|manchester:0096,"Annual report of the City of Manchester, New Hampshire, 1957",1958,Title varies|~|Imprint varies|~|Report year varies,"University of New Hampshire. Library. Digital Collections.|~|Scanned by Internet Archive, Open Content Alliance (2008)",,,Text,Manchester (N.H.) -- Appropriations and expenditures -- Periodicals,"[Manchester, N.H. : the City,]",,,eng,University of New Hampshire. Library. Digital Collections.,manchester_0096+application-pdf+application.pdf|~|manchester_0096+image-low-jpg+image-low.jpg|~|manchester_0096+image-tb-jpg+image-tb.jpg
Active,manchester:0097,manchester,http://www.archive.org/details/reportofselectme1958manc|~|reportofselectme1958manc|~|manchester:0097,"Annual report of the City of Manchester, New Hampshire, 1958",1959,Title varies|~|Imprint varies|~|Report year varies,"University of New Hampshire. Library. Digital Collections.|~|Scanned by Internet Archive, Open Content Alliance (2008)",,,Text,Manchester (N.H.) -- Appropriations and expenditures -- Periodicals,"[Manchester, N.H. : the City,]",,,eng,University of New Hampshire. Library. Digital Collections.,manchester_0097+application-pdf+application.pdf|~|manchester_0097+image-low-jpg+image-low.jpg|~|manchester_0097+image-tb-jpg+image-tb.jpg
Active,manchester:0098,manchester,http://www.archive.org/details/reportofselectme1959manc|~|reportofselectme1959manc|~|manchester:0098,"Annual report of the City of Manchester, New Hampshire, 1959",1960,Title varies|~|Imprint varies|~|Report year varies,"University of New Hampshire. Library. Digital Collections.|~|Scanned by Internet Archive, Open Content Alliance (2008)",,,Text,Manchester (N.H.) -- Appropriations and expenditures -- Periodicals,"[Manchester, N.H. : the City,]",,,eng,University of New Hampshire. Library. Digital Collections.,manchester_0098+application-pdf+application.pdf|~|manchester_0098+image-low-jpg+image-low.jpg|~|manchester_0098+image-tb-jpg+image-tb.jpg
Active,manchester:0099,manchester,http://www.archive.org/details/reportofselectme1960manc|~|reportofselectme1960manc|~|manchester:0099,"Annual report of the City of Manchester, New Hampshire, 1960",1961,Title varies|~|Imprint varies|~|Report year varies,"University of New Hampshire. Library. Digital Collections.|~|Scanned by Internet Archive, Open Content Alliance (2008)",,,Text,Manchester (N.H.) -- Appropriations and expenditures -- Periodicals,"[Manchester, N.H. : the City,]",,,eng,University of New Hampshire. Library. Digital Collections.,manchester_0099+application-pdf+application.pdf|~|manchester_0099+image-low-jpg+image-low.jpg|~|manchester_0099+image-tb-jpg+image-tb.jpg
Active,manchester:0100,manchester,http://www.archive.org/details/reportofselectme1961manc|~|reportofselectme1961manc|~|manchester:0100,"Annual report of the City of Manchester, New Hampshire, 1961",1962,Title varies|~|Imprint varies|~|Report year varies,"University of New Hampshire. Library. Digital Collections.|~|Scanned by Internet Archive, Open Content Alliance (2008)",,,Text,Manchester (N.H.) -- Appropriations and expenditures -- Periodicals,"[Manchester, N.H. : the City,]",,,eng,University of New Hampshire. Library. Digital Collections.,manchester_0100+application-pdf+application.pdf|~|manchester_0100+image-low-jpg+image-low.jpg|~|manchester_0100+image-tb-jpg+image-tb.jpg
Active,manchester:0101,manchester,http://www.archive.org/details/reportofselectme1962manc|~|reportofselectme1962manc|~|manchester:0101,"Annual report of the City of Manchester, New Hampshire, 1962",1963,Title varies|~|Imprint varies|~|Report year varies,"University of New Hampshire. Library. Digital Collections.|~|Scanned by Internet Archive, Open Content Alliance (2008)",,,Text,Manchester (N.H.) -- Appropriations and expenditures -- Periodicals,"[Manchester, N.H. : the City,]",,,eng,University of New Hampshire. Library. Digital Collections.,manchester_0101+application-pdf+application.pdf|~|manchester_0101+image-low-jpg+image-low.jpg|~|manchester_0101+image-tb-jpg+image-tb.jpg
Active,manchester:0102,manchester,http://www.archive.org/details/reportofselectme1963manc|~|reportofselectme1963manc|~|manchester:0102,"Annual report of the City of Manchester, New Hampshire, 1963",1964,Title varies|~|Imprint varies|~|Report year varies,"University of New Hampshire. Library. Digital Collections.|~|Scanned by Internet Archive, Open Content Alliance (2008)",,,Text,Manchester (N.H.) -- Appropriations and expenditures -- Periodicals,"[Manchester, N.H. : the City,]",,,eng,University of New Hampshire. Library. Digital Collections.,manchester_0102+application-pdf+application.pdf|~|manchester_0102+image-low-jpg+image-low.jpg|~|manchester_0102+image-tb-jpg+image-tb.jpg
Active,manchester:0103,manchester,http://www.archive.org/details/reportofselectme1964manc|~|reportofselectme1964manc|~|manchester:0103,"Annual report of the City of Manchester, New Hampshire, 1964",1965,Title varies|~|Imprint varies|~|Report year varies,"University of New Hampshire. Library. Digital Collections.|~|Scanned by Internet Archive, Open Content Alliance (2008)",,,Text,Manchester (N.H.) -- Appropriations and expenditures -- Periodicals,"[Manchester, N.H. : the City,]",,,eng,University of New Hampshire. Library. Digital Collections.,manchester_0103+application-pdf+application.pdf|~|manchester_0103+image-low-jpg+image-low.jpg|~|manchester_0103+image-tb-jpg+image-tb.jpg
Active,manchester:0104,manchester,http://www.archive.org/details/reportofselectme1965manc|~|reportofselectme1965manc|~|manchester:0104,"Annual report of the City of Manchester, New Hampshire, 1965",1966,Title varies|~|Imprint varies|~|Report year varies,"University of New Hampshire. Library. Digital Collections.|~|Scanned by Internet Archive, Open Content Alliance (2008)",,,Text,Manchester (N.H.) -- Appropriations and expenditures -- Periodicals,"[Manchester, N.H. : the City,]",,,eng,University of New Hampshire. Library. Digital Collections.,manchester_0104+application-pdf+application.pdf|~|manchester_0104+image-low-jpg+image-low.jpg|~|manchester_0104+image-tb-jpg+image-tb.jpg
Active,manchester:0105,manchester,http://www.archive.org/details/reportofselectme1966manc|~|reportofselectme1966manc|~|manchester:0105,"Annual report of the City of Manchester, New Hampshire, 1966",1967,Title varies|~|Imprint varies|~|Report year varies,"University of New Hampshire. Library. Digital Collections.|~|Scanned by Internet Archive, Open Content Alliance (2008)",,,Text,Manchester (N.H.) -- Appropriations and expenditures -- Periodicals,"[Manchester, N.H. : the City,]",,,eng,University of New Hampshire. Library. Digital Collections.,manchester_0105+application-pdf+application.pdf|~|manchester_0105+image-low-jpg+image-low.jpg|~|manchester_0105+image-tb-jpg+image-tb.jpg
Active,manchester:0106,manchester,http://www.archive.org/details/reportofselectme1967manc|~|reportofselectme1967manc|~|manchester:0106,"Annual report of the City of Manchester, New Hampshire, 1967",1968,Title varies|~|Imprint varies|~|Report year varies,"University of New Hampshire. Library. Digital Collections.|~|Scanned by Internet Archive, Open Content Alliance (2008)",,,Text,Manchester (N.H.) -- Appropriations and expenditures -- Periodicals,"[Manchester, N.H. : the City,]",,,eng,University of New Hampshire. Library. Digital Collections.,manchester_0106+application-pdf+application.pdf|~|manchester_0106+image-low-jpg+image-low.jpg|~|manchester_0106+image-tb-jpg+image-tb.jpg
Active,manchester:0107,manchester,http://www.archive.org/details/reportofselectme1968manc|~|reportofselectme1968manc|~|manchester:0107,"Annual report of the City of Manchester, New Hampshire, 1968",1969,Title varies|~|Imprint varies|~|Report year varies,"University of New Hampshire. Library. Digital Collections.|~|Scanned by Internet Archive, Open Content Alliance (2008)",,,Text,Manchester (N.H.) -- Appropriations and expenditures -- Periodicals,"[Manchester, N.H. : the City,]",,,eng,University of New Hampshire. Library. Digital Collections.,manchester_0107+application-pdf+application.pdf|~|manchester_0107+image-low-jpg+image-low.jpg|~|manchester_0107+image-tb-jpg+image-tb.jpg
Active,manchester:0108,manchester,http://www.archive.org/details/reportofselectme1969manc|~|reportofselectme1969manc|~|manchester:0108,"Annual report of the City of Manchester, New Hampshire, 1969",1970,Title varies|~|Imprint varies|~|Report year varies,"University of New Hampshire. Library. Digital Collections.|~|Scanned by Internet Archive, Open Content Alliance (2008)",,,Text,Manchester (N.H.) -- Appropriations and expenditures -- Periodicals,"[Manchester, N.H. : the City,]",,,eng,University of New Hampshire. Library. Digital Collections.,manchester_0108+application-pdf+application.pdf|~|manchester_0108+image-low-jpg+image-low.jpg|~|manchester_0108+image-tb-jpg+image-tb.jpg
Active,manchester:0109,manchester,http://www.archive.org/details/reportofselectme1970manc|~|reportofselectme1970manc|~|manchester:0109,"Annual report of the City of Manchester, New Hampshire, 1970",1971,Title varies|~|Imprint varies|~|Report year varies,"University of New Hampshire. Library. Digital Collections.|~|Scanned by Internet Archive, Open Content Alliance (2008)",,,Text,Manchester (N.H.) -- Appropriations and expenditures -- Periodicals,"[Manchester, N.H. : the City,]",,,eng,University of New Hampshire. Library. Digital Collections.,manchester_0109+application-pdf+application.pdf|~|manchester_0109+image-low-jpg+image-low.jpg|~|manchester_0109+image-tb-jpg+image-tb.jpg
Active,manchester:0110,manchester,http://www.archive.org/details/reportofselectme1971manc|~|reportofselectme1971manc|~|manchester:0110,"Annual report of the City of Manchester, New Hampshire, 1971",1972,Title varies|~|Imprint varies|~|Report year varies,"University of New Hampshire. Library. Digital Collections.|~|Scanned by Internet Archive, Open Content Alliance (2008)",,,Text,Manchester (N.H.) -- Appropriations and expenditures -- Periodicals,"[Manchester, N.H. : the City,]",,,eng,University of New Hampshire. Library. Digital Collections.,manchester_0110+application-pdf+application.pdf|~|manchester_0110+image-low-jpg+image-low.jpg|~|manchester_0110+image-tb-jpg+image-tb.jpg
Active,manchester:0111,manchester,http://www.archive.org/details/reportofselectme1972manc|~|reportofselectme1972manc|~|manchester:0111,"Annual report of the City of Manchester, New Hampshire, 1972",1973,Title varies|~|Imprint varies|~|Report year varies,"University of New Hampshire. Library. Digital Collections.|~|Scanned by Internet Archive, Open Content Alliance (2008)",,,Text,Manchester (N.H.) -- Appropriations and expenditures -- Periodicals,"[Manchester, N.H. : the City,]",,,eng,University of New Hampshire. Library. Digital Collections.,manchester_0111+application-pdf+application.pdf|~|manchester_0111+image-low-jpg+image-low.jpg|~|manchester_0111+image-tb-jpg+image-tb.jpg
Active,manchester:0112,manchester,http://www.archive.org/details/reportofselectme1973manc|~|reportofselectme1973manc|~|manchester:0112,"Annual report of the City of Manchester, New Hampshire, 1973",1974,Title varies|~|Imprint varies|~|Report year varies,"University of New Hampshire. Library. Digital Collections.|~|Scanned by Internet Archive, Open Content Alliance (2008)",,,Text,Manchester (N.H.) -- Appropriations and expenditures -- Periodicals,"[Manchester, N.H. : the City,]",,,eng,University of New Hampshire. Library. Digital Collections.,manchester_0112+application-pdf+application.pdf|~|manchester_0112+image-low-jpg+image-low.jpg|~|manchester_0112+image-tb-jpg+image-tb.jpg
Active,manchester:0113,manchester,http://www.archive.org/details/reportofselectme1974manc|~|reportofselectme1974manc|~|manchester:0113,"Annual report of the City of Manchester, New Hampshire, 1974",1975,Title varies|~|Imprint varies|~|Report year varies,"University of New Hampshire. Library. Digital Collections.|~|Scanned by Internet Archive, Open Content Alliance (2008)",,,Text,Manchester (N.H.) -- Appropriations and expenditures -- Periodicals,"[Manchester, N.H. : the City,]",,,eng,University of New Hampshire. Library. Digital Collections.,manchester_0113+application-pdf+application.pdf|~|manchester_0113+image-low-jpg+image-low.jpg|~|manchester_0113+image-tb-jpg+image-tb.jpg
