state,pid,collection,dcterms:identifier,dcterms:title,dcterms:date,dcterms:description,dcterms:contributor,dcterms:rights,dcterms:format,dcterms:type,dcterms:subject,dcterms:creator,dcterms:relation,dcterms:coverage,dcterms:language,dcterms:publisher,files
Active,medicalEthics:001,medicalEthics,Medical Ethics video no. 001|~|MedicalEthics001|~|medicalEthics:001,"Medical ethics in the shadow of the Holocaust: the Nazi doctors, racial hygiene, murder and genocide",2012,"Lecture by Michael A. Grodin, M.D., Director of the Project on Medicine and the Holocaust and Professor of Health Law, Bioethics, and Human Rights at Boston University School of Public Health and School of Medicine, held April 17, 2012 at the University of New Hampshire, as part of the lecture series entitled Medical Ethics and Human Subject Research in the Shadow of the Holocaust",University of New Hampshire. Library. Digital Collections.|~|University of New Hampshire. Dept. of History,"These materials may be used for the purposes of research, teaching, and private study. For all other uses, contact Digital Collections, University of New Hampshire Library for permission",video/mpeg|~|01:17:46,Video,University of New Hampshire -- Filmed lectures|~|Medical ethics -- Germany -- History|~|Human experimentation in medicine -- Moral and ethical aspects|~|Filmed lectures|~|UNH,"Grodin, Michael A.",,,eng,University of New Hampshire. Video Services,medicalethics_001+image-tb-jpg+image-tb-jpg.jpg|~|medicalethics_001+image-low-jpg+image-low-jpg.jpg|~|http://www.kaltura.com/index.php/kwidget/cache_st/1355943486/wid/_505811/uiconf_id/8776232/entry_id/1_rig9x4hm
Active,medicalEthics:002,medicalEthics,Medical Ethics video no. 002|~|medicalEthics:002,"Giving a name to nameless victims: patients and the Nazi ""euthanasia"" program",2012,"Lecture by Patricia Heberer Ph.D., Historian, United States Holocaust Memorial Museum, Washington, D.C., held April 19, 2012 at the University of New Hampshire, as part of the lecture series entitled Medical Ethics and Human Subject Research in the Shadow of the Holocaust",University of New Hampshire. Library. Digital Collections.|~|University of New Hampshire. Library. Dept. of History,"These materials may be used for the purposes of research, teaching, and private study. For all other uses, contact Digital Collections, University of New Hampshire Library for permission",video/mpeg|~|01:07:00,Video,"University of New Hampshire -- Filmed lectures|~|Medical ethics -- Germany -- History -- 20th century|~|World War, 1939-1945 -- Atrocities -- Germany|~|Euthanasia -- Germany -- History -- 20th century|~|Filmed lectures|~|UNH","Heberer, Patricia",,,eng,University of New Hampshire. Video Services,medicalethics_002+image-tb-jpg+image-tb-jpg.jpg|~|medicalethics_002+image-low-jpg+image-low-jpg.jpg|~|http://www.kaltura.com/index.php/kwidget/cache_st/1355943486/wid/_505811/uiconf_id/8776232/entry_id/1_rig9x4hm
Active,medicalEthics:003,medicalEthics,Medical Ethics video no. 003|~|medicalEthics:003,The Tuskekgee syphilis experiment: a tragedy of race and medicine,2012,"Lecture by James H. Jones, Ph.D., Historian, Professor Emeritus, University of Arkansas, held April 24, 2012 at the University of New Hampshire, as part of the lecture series entitled Medical Ethics and Human Subject Research in the Shadow of the Holocaust",University of New Hampshire. Library. Digital Collections.|~|University of New Hampshire. Library. Dept. of History,"These materials may be used for the purposes of research, teaching, and private study. For all other uses, contact Digital Collections, University of New Hampshire Library for permission",video/mpeg|~|01:07:00,Video,University of New Hampshire -- Filmed lectures|~|Human experimentation in medicine -- Alabama -- Macon County -- History|~|Tuskegee Syphilis Study|~|Syphilis -- Research -- Alabama -- Macon County -- History|~|Filmed lectures|~|UNH,"Jones, James H. (James Howard), 1943-",,,eng,University of New Hampshire. Video Services,medicalethics_003+image-tb-jpg+image-tb-jpg.jpg|~|medicalethics_003+image-low-jpg+image-low-jpg.jpg|~|http://www.kaltura.com/index.php/kwidget/cache_st/1355943486/wid/_505811/uiconf_id/8776232/entry_id/1_rig9x4hm