state,pid,collection,dcterms:identifier,dcterms:title,dcterms:date,dcterms:description,dcterms:contributor,dcterms:rights,dcterms:format,dcterms:type,dcterms:subject,dcterms:creator,dcterms:relation,dcterms:coverage,dcterms:language,dcterms:publisher,files
Active,milan:0001,milan,milan:0001,"Annual report of the Town of Milan, New Hampshire, 1971",1972,Title varies|~|Imprint varies|~|Report year varies,"University of New Hampshire. Library. Digital Collections.|~|Scanned by Internet Archive, Open Content Alliance (2012)",,,Text,Milan (N.H. : Town) -- Appropriations and expenditures -- Periodicals,,,,Eng,Milan (N.H. : Town),milan_0001+application-pdf+application.pdf|~|milan_0001+image-low-jpg+image-low.jpg|~|milan_0001+image-tb-jpg+image-tb.jpg
Active,milan:0002,milan,milan:0002,"Annual report of the Town of Milan, New Hampshire, 1972",1973,Title varies|~|Imprint varies|~|Report year varies,"University of New Hampshire. Library. Digital Collections.|~|Scanned by Internet Archive, Open Content Alliance (2012)",,,Text,Milan (N.H. : Town) -- Appropriations and expenditures -- Periodicals,,,,Eng,Milan (N.H. : Town),milan_0002+application-pdf+application.pdf|~|milan_0002+image-low-jpg+image-low.jpg|~|milan_0002+image-tb-jpg+image-tb.jpg
Active,milan:0003,milan,milan:0003,"Annual report of the Town of Milan, New Hampshire, 1973",1974,Title varies|~|Imprint varies|~|Report year varies,"University of New Hampshire. Library. Digital Collections.|~|Scanned by Internet Archive, Open Content Alliance (2012)",,,Text,Milan (N.H. : Town) -- Appropriations and expenditures -- Periodicals,,,,Eng,Milan (N.H. : Town),milan_0003+application-pdf+application.pdf|~|milan_0003+image-low-jpg+image-low.jpg|~|milan_0003+image-tb-jpg+image-tb.jpg
Active,milan:0004,milan,milan:0004,"Annual report of the Town of Milan, New Hampshire, 1974",1975,Title varies|~|Imprint varies|~|Report year varies,"University of New Hampshire. Library. Digital Collections.|~|Scanned by Internet Archive, Open Content Alliance (2012)",,,Text,Milan (N.H. : Town) -- Appropriations and expenditures -- Periodicals,,,,Eng,Milan (N.H. : Town),milan_0004+application-pdf+application.pdf|~|milan_0004+image-low-jpg+image-low.jpg|~|milan_0004+image-tb-jpg+image-tb.jpg
Active,milan:0005,milan,milan:0005,"Annual report of the Town of Milan, New Hampshire, 1975",1976,Title varies|~|Imprint varies|~|Report year varies,"University of New Hampshire. Library. Digital Collections.|~|Scanned by Internet Archive, Open Content Alliance (2012)",,,Text,Milan (N.H. : Town) -- Appropriations and expenditures -- Periodicals,,,,Eng,Milan (N.H. : Town),milan_0005+application-pdf+application.pdf|~|milan_0005+image-low-jpg+image-low.jpg|~|milan_0005+image-tb-jpg+image-tb.jpg
Active,milan:0006,milan,milan:0006,"Annual report of the Town of Milan, New Hampshire, 1976",1977,Title varies|~|Imprint varies|~|Report year varies,"University of New Hampshire. Library. Digital Collections.|~|Scanned by Internet Archive, Open Content Alliance (2012)",,,Text,Milan (N.H. : Town) -- Appropriations and expenditures -- Periodicals,,,,Eng,Milan (N.H. : Town),milan_0006+application-pdf+application.pdf|~|milan_0006+image-low-jpg+image-low.jpg|~|milan_0006+image-tb-jpg+image-tb.jpg
Active,milan:0007,milan,milan:0007,"Annual report of the Town of Milan, New Hampshire, 1977",1978,Title varies|~|Imprint varies|~|Report year varies,"University of New Hampshire. Library. Digital Collections.|~|Scanned by Internet Archive, Open Content Alliance (2012)",,,Text,Milan (N.H. : Town) -- Appropriations and expenditures -- Periodicals,,,,Eng,Milan (N.H. : Town),milan_0007+application-pdf+application.pdf|~|milan_0007+image-low-jpg+image-low.jpg|~|milan_0007+image-tb-jpg+image-tb.jpg
Active,milan:0008,milan,milan:0008,"Annual report of the Town of Milan, New Hampshire, 1978",1979,Title varies|~|Imprint varies|~|Report year varies,"University of New Hampshire. Library. Digital Collections.|~|Scanned by Internet Archive, Open Content Alliance (2012)",,,Text,Milan (N.H. : Town) -- Appropriations and expenditures -- Periodicals,,,,Eng,Milan (N.H. : Town),milan_0008+application-pdf+application.pdf|~|milan_0008+image-low-jpg+image-low.jpg|~|milan_0008+image-tb-jpg+image-tb.jpg
Active,milan:0009,milan,milan:0009,"Annual report of the Town of Milan, New Hampshire, 1979",1980,Title varies|~|Imprint varies|~|Report year varies,"University of New Hampshire. Library. Digital Collections.|~|Scanned by Internet Archive, Open Content Alliance (2012)",,,Text,Milan (N.H. : Town) -- Appropriations and expenditures -- Periodicals,,,,Eng,Milan (N.H. : Town),milan_0009+application-pdf+application.pdf|~|milan_0009+image-low-jpg+image-low.jpg|~|milan_0009+image-tb-jpg+image-tb.jpg
Active,milan:0010,milan,milan:0010,"Annual report of the Town of Milan, New Hampshire, 1980",1981,Title varies|~|Imprint varies|~|Report year varies,"University of New Hampshire. Library. Digital Collections.|~|Scanned by Internet Archive, Open Content Alliance (2012)",,,Text,Milan (N.H. : Town) -- Appropriations and expenditures -- Periodicals,,,,Eng,Milan (N.H. : Town),milan_0010+application-pdf+application.pdf|~|milan_0010+image-low-jpg+image-low.jpg|~|milan_0010+image-tb-jpg+image-tb.jpg
Active,milan:0011,milan,milan:0011,"Annual report of the Town of Milan, New Hampshire, 1981",1982,Title varies|~|Imprint varies|~|Report year varies,"University of New Hampshire. Library. Digital Collections.|~|Scanned by Internet Archive, Open Content Alliance (2012)",,,Text,Milan (N.H. : Town) -- Appropriations and expenditures -- Periodicals,,,,Eng,Milan (N.H. : Town),milan_0011+application-pdf+application.pdf|~|milan_0011+image-low-jpg+image-low.jpg|~|milan_0011+image-tb-jpg+image-tb.jpg
Active,milan:0012,milan,milan:0012,"Annual report of the Town of Milan, New Hampshire, 1982",1983,Title varies|~|Imprint varies|~|Report year varies,"University of New Hampshire. Library. Digital Collections.|~|Scanned by Internet Archive, Open Content Alliance (2012)",,,Text,Milan (N.H. : Town) -- Appropriations and expenditures -- Periodicals,,,,Eng,Milan (N.H. : Town),milan_0012+application-pdf+application.pdf|~|milan_0012+image-low-jpg+image-low.jpg|~|milan_0012+image-tb-jpg+image-tb.jpg
Active,milan:0013,milan,milan:0013,"Annual report of the Town of Milan, New Hampshire, 1984",1985,Title varies|~|Imprint varies|~|Report year varies,"University of New Hampshire. Library. Digital Collections.|~|Scanned by Internet Archive, Open Content Alliance (2012)",,,Text,Milan (N.H. : Town) -- Appropriations and expenditures -- Periodicals,,,,Eng,Milan (N.H. : Town),milan_0013+application-pdf+application.pdf|~|milan_0013+image-low-jpg+image-low.jpg|~|milan_0013+image-tb-jpg+image-tb.jpg
Active,milan:0014,milan,milan:0014,"Annual report of the Town of Milan, New Hampshire, 1985",1986,Title varies|~|Imprint varies|~|Report year varies,"University of New Hampshire. Library. Digital Collections.|~|Scanned by Internet Archive, Open Content Alliance (2012)",,,Text,Milan (N.H. : Town) -- Appropriations and expenditures -- Periodicals,,,,Eng,Milan (N.H. : Town),milan_0014+application-pdf+application.pdf|~|milan_0014+image-low-jpg+image-low.jpg|~|milan_0014+image-tb-jpg+image-tb.jpg
Active,milan:0015,milan,milan:0015,"Annual report of the Town of Milan, New Hampshire, 1986",1987,Title varies|~|Imprint varies|~|Report year varies,"University of New Hampshire. Library. Digital Collections.|~|Scanned by Internet Archive, Open Content Alliance (2012)",,,Text,Milan (N.H. : Town) -- Appropriations and expenditures -- Periodicals,,,,Eng,Milan (N.H. : Town),milan_0015+application-pdf+application.pdf|~|milan_0015+image-low-jpg+image-low.jpg|~|milan_0015+image-tb-jpg+image-tb.jpg
Active,milan:0016,milan,milan:0016,"Annual report of the Town of Milan, New Hampshire, 1987",1988,Title varies|~|Imprint varies|~|Report year varies,"University of New Hampshire. Library. Digital Collections.|~|Scanned by Internet Archive, Open Content Alliance (2012)",,,Text,Milan (N.H. : Town) -- Appropriations and expenditures -- Periodicals,,,,Eng,Milan (N.H. : Town),milan_0016+application-pdf+application.pdf|~|milan_0016+image-low-jpg+image-low.jpg|~|milan_0016+image-tb-jpg+image-tb.jpg
Active,milan:0017,milan,milan:0017,"Annual report of the Town of Milan, New Hampshire, 1989",1990,Title varies|~|Imprint varies|~|Report year varies,"University of New Hampshire. Library. Digital Collections.|~|Scanned by Internet Archive, Open Content Alliance (2012)",,,Text,Milan (N.H. : Town) -- Appropriations and expenditures -- Periodicals,,,,Eng,Milan (N.H. : Town),milan_0017+application-pdf+application.pdf|~|milan_0017+image-low-jpg+image-low.jpg|~|milan_0017+image-tb-jpg+image-tb.jpg
Active,milan:0018,milan,milan:0018,"Annual report of the Town of Milan, New Hampshire, 1991",1992,Title varies|~|Imprint varies|~|Report year varies,"University of New Hampshire. Library. Digital Collections.|~|Scanned by Internet Archive, Open Content Alliance (2012)",,,Text,Milan (N.H. : Town) -- Appropriations and expenditures -- Periodicals,,,,Eng,Milan (N.H. : Town),milan_0018+application-pdf+application.pdf|~|milan_0018+image-low-jpg+image-low.jpg|~|milan_0018+image-tb-jpg+image-tb.jpg
Active,milan:0019,milan,milan:0019,"Annual report of the Town of Milan, New Hampshire, 1993",1994,Title varies|~|Imprint varies|~|Report year varies,"University of New Hampshire. Library. Digital Collections.|~|Scanned by Internet Archive, Open Content Alliance (2012)",,,Text,Milan (N.H. : Town) -- Appropriations and expenditures -- Periodicals,,,,Eng,Milan (N.H. : Town),milan_0019+application-pdf+application.pdf|~|milan_0019+image-low-jpg+image-low.jpg|~|milan_0019+image-tb-jpg+image-tb.jpg
Active,milan:0020,milan,milan:0020,"Annual report of the Town of Milan, New Hampshire, 1994",1995,Title varies|~|Imprint varies|~|Report year varies,"University of New Hampshire. Library. Digital Collections.|~|Scanned by Internet Archive, Open Content Alliance (2012)",,,Text,Milan (N.H. : Town) -- Appropriations and expenditures -- Periodicals,,,,Eng,Milan (N.H. : Town),milan_0020+application-pdf+application.pdf|~|milan_0020+image-low-jpg+image-low.jpg|~|milan_0020+image-tb-jpg+image-tb.jpg
Active,milan:0021,milan,milan:0021,"Annual report of the Town of Milan, New Hampshire, 1995",1996,Title varies|~|Imprint varies|~|Report year varies,"University of New Hampshire. Library. Digital Collections.|~|Scanned by Internet Archive, Open Content Alliance (2012)",,,Text,Milan (N.H. : Town) -- Appropriations and expenditures -- Periodicals,,,,Eng,Milan (N.H. : Town),milan_0021+application-pdf+application.pdf|~|milan_0021+image-low-jpg+image-low.jpg|~|milan_0021+image-tb-jpg+image-tb.jpg
Active,milan:0022,milan,milan:0022,"Annual report of the Town of Milan, New Hampshire, 1996",1997,Title varies|~|Imprint varies|~|Report year varies,"University of New Hampshire. Library. Digital Collections.|~|Scanned by Internet Archive, Open Content Alliance (2012)",,,Text,Milan (N.H. : Town) -- Appropriations and expenditures -- Periodicals,,,,Eng,Milan (N.H. : Town),milan_0022+application-pdf+application.pdf|~|milan_0022+image-low-jpg+image-low.jpg|~|milan_0022+image-tb-jpg+image-tb.jpg
Active,milan:0023,milan,milan:0023,"Annual report of the Town of Milan, New Hampshire, 1997",1998,Title varies|~|Imprint varies|~|Report year varies,"University of New Hampshire. Library. Digital Collections.|~|Scanned by Internet Archive, Open Content Alliance (2012)",,,Text,Milan (N.H. : Town) -- Appropriations and expenditures -- Periodicals,,,,Eng,Milan (N.H. : Town),milan_0023+application-pdf+application.pdf|~|milan_0023+image-low-jpg+image-low.jpg|~|milan_0023+image-tb-jpg+image-tb.jpg
Active,milan:0024,milan,milan:0024,"Annual report of the Town of Milan, New Hampshire, 1998",1999,Title varies|~|Imprint varies|~|Report year varies,"University of New Hampshire. Library. Digital Collections.|~|Scanned by Internet Archive, Open Content Alliance (2012)",,,Text,Milan (N.H. : Town) -- Appropriations and expenditures -- Periodicals,,,,Eng,Milan (N.H. : Town),milan_0024+application-pdf+application.pdf|~|milan_0024+image-low-jpg+image-low.jpg|~|milan_0024+image-tb-jpg+image-tb.jpg
Active,milan:0025,milan,milan:0025,"Annual report of the Town of Milan, New Hampshire, 1999",2000,Title varies|~|Imprint varies|~|Report year varies,"University of New Hampshire. Library. Digital Collections.|~|Scanned by Internet Archive, Open Content Alliance (2012)",,,Text,Milan (N.H. : Town) -- Appropriations and expenditures -- Periodicals,,,,Eng,Milan (N.H. : Town),milan_0025+application-pdf+application.pdf|~|milan_0025+image-low-jpg+image-low.jpg|~|milan_0025+image-tb-jpg+image-tb.jpg
Active,milan:0026,milan,milan:0026,"Annual report of the Town of Milan, New Hampshire, 2001",2002,Title varies|~|Imprint varies|~|Report year varies,"University of New Hampshire. Library. Digital Collections.|~|Scanned by Internet Archive, Open Content Alliance (2012)",,,Text,Milan (N.H. : Town) -- Appropriations and expenditures -- Periodicals,,,,Eng,Milan (N.H. : Town),milan_0026+application-pdf+application.pdf|~|milan_0026+image-low-jpg+image-low.jpg|~|milan_0026+image-tb-jpg+image-tb.jpg
Active,milan:0027,milan,milan:0027,"Annual report of the Town of Milan, New Hampshire, 2002",2003,Title varies|~|Imprint varies|~|Report year varies,"University of New Hampshire. Library. Digital Collections.|~|Scanned by Internet Archive, Open Content Alliance (2012)",,,Text,Milan (N.H. : Town) -- Appropriations and expenditures -- Periodicals,,,,Eng,Milan (N.H. : Town),milan_0027+application-pdf+application.pdf|~|milan_0027+image-low-jpg+image-low.jpg|~|milan_0027+image-tb-jpg+image-tb.jpg
Active,milan:0028,milan,milan:0028,"Annual report of the Town of Milan, New Hampshire, 2003",2004,Title varies|~|Imprint varies|~|Report year varies,"University of New Hampshire. Library. Digital Collections.|~|Scanned by Internet Archive, Open Content Alliance (2012)",,,Text,Milan (N.H. : Town) -- Appropriations and expenditures -- Periodicals,,,,Eng,Milan (N.H. : Town),milan_0028+application-pdf+application.pdf|~|milan_0028+image-low-jpg+image-low.jpg|~|milan_0028+image-tb-jpg+image-tb.jpg
Active,milan:0029,milan,milan:0029,"Annual report of the Town of Milan, New Hampshire, 2008",2009,Title varies|~|Imprint varies|~|Report year varies,"University of New Hampshire. Library. Digital Collections.|~|Scanned by Internet Archive, Open Content Alliance (2012)",,,Text,Milan (N.H. : Town) -- Appropriations and expenditures -- Periodicals,,,,Eng,Milan (N.H. : Town),milan_0029+application-pdf+application.pdf|~|milan_0029+image-low-jpg+image-low.jpg|~|milan_0029+image-tb-jpg+image-tb.jpg
