state,pid,collection,dcterms:identifier,dcterms:title,dcterms:date,dcterms:description,dcterms:contributor,dcterms:rights,dcterms:format,dcterms:type,dcterms:subject,dcterms:creator,dcterms:relation,dcterms:coverage,dcterms:language,dcterms:publisher,files
Active,mrg:0001,mrg,mrg:0001,"Adolescent resource guide, 2011",2011,"Provides information describing services available to Manchester, N.H. youth, for use by school staff, health care providers, community agencies, parents and youth.",Manchester Research Group (UNHM)|~|University of New Hampshire. Library. Digital Collections,,,Text,Youth--Services for--New Hampshire--Manchester|~|Adolescent|~|Manchester (N.H.)--Research,Manchester (N.H.). Health Dept. School Health Advisory Committee,,,eng,University of New Hampshire. Library. Digital Collections,mrg_0001+application-pdf+application.pdf|~|mrg_0001+image-low-jpg+image-low.jpg|~|mrg_0001+image-tb-jpg+image-tb.jpg
Active,mrg:0002,mrg,mrg:0002,Manchester School District : school capacity and redistricting,2011,This study provides a description of the Manchester School District's re-districting project and uses data and statistics to explain their recommendations and plan.,Manchester Research Group (UNHM)|~|University of New Hampshire. Library. Digital Collections,,,Text,Manchester School District (N.H.)|~|School enrollment--New Hampshire--Manchester|~|Education; Youth|~|Manchester (N.H.)--Research,"Brennan, Thomas J.|~|Burke, Keith R.",,,eng,University of New Hampshire. Library. Digital Collections,mrg_0002+application-pdf+application.pdf|~|mrg_0002+image-low-jpg+image-low.jpg|~|mrg_0002+image-tb-jpg+image-tb.jpg
Active,mrg:0003,mrg,mrg:0003,New Hampshire state health profile : the state of New Hampshire's health,2011,"This report uses data and statistics to look at 38 key health indicators (including demographics, health behaviors, community and environment, health outcomes, and access to care) to improve health, prevent disease, and reduce costs in N.H.",Manchester Research Group (UNHM)|~|University of New Hampshire. Library. Digital Collections,,,Text,"New Hampshire--Statistics, Medical|~|Public health--New Hampshire--Statistics|~|Health status indicators--New Hampshire|~|New Hampshire--Research",New Hampshire. Division of Public Health Services,,,eng,University of New Hampshire. Library. Digital Collections,mrg_0003+application-pdf+application.pdf|~|mrg_0003+image-low-jpg+image-low.jpg|~|mrg_0003+image-tb-jpg+image-tb.jpg
Active,mrg:0004,mrg,mrg:0004,"2011 snapshot of New Hampshire's public health regions, counties, and the cities of Manchester and Nashua",2011,"This report uses data and statistics to look at key health factors and outcomes by region, county, and city, and is a companion document to the New Hampshire State Health Profile, 2011.",Manchester Research Group (UNHM)|~|University of New Hampshire. Library. Digital Collections,,,Text,"New Hampshire--Statistics, Medical|~|Public health--New Hampshire--Statistics|~|Health status indicators--New Hampshire|~|New Hampshire--Research",New Hampshire. Division of Public Health Services,,,eng,University of New Hampshire. Library. Digital Collections,mrg_0004+application-pdf+application.pdf|~|mrg_0004+image-low-jpg+image-low.jpg|~|mrg_0004+image-tb-jpg+image-tb.jpg
Active,mrg:0005,mrg,mrg:0005,Annual report,2011,"Report discusses the various programs and services offered by SNHS (including child education, housing, workforce development, energy and heat assistance, and health and nutrition), as well as their funding levels and sources.",Manchester Research Group (UNHM)|~|University of New Hampshire. Library. Digital Collections,,,Text,Human services--New Hampshire--Rockingham County--Periodicals|~|Human services--New Hampshire--Hillsborough County--Periodicals|~|Low-income|~|New Hampshire--Research,Southern New Hampshire Services,,,eng,University of New Hampshire. Library. Digital Collections,mrg_0005+application-pdf+application.pdf|~|mrg_0005+image-low-jpg+image-low.jpg|~|mrg_0005+image-tb-jpg+image-tb.jpg
Active,mrg:0006,mrg,mrg:0006,"Manchester point-in-time report, 2012",2012,"Annual point-in-time chart of homelessness in Manchester, New Hampshire.",Manchester Research Group (UNHM)|~|University of New Hampshire. Library. Digital Collections,,,Text,Homelessness--New Hampshire--Manchester--Periodicals|~|Homeless persons--New Hampshire--Manchester--Periodicals|~|Manchester (N.H.)--Research,Manchester (N.H.) Continuum of Care,,,eng,University of New Hampshire. Library. Digital Collections,mrg_0006+application-pdf+application.pdf|~|mrg_0006+image-low-jpg+image-low.jpg|~|mrg_0006+image-tb-jpg+image-tb.jpg
Active,mrg:0007,mrg,mrg:0007,"Point-in-time count, 2012",2012,"Annual point-in-time (January 25, 2012) chart of homelessness in New Hampshire, by county.",Manchester Research Group (UNHM)|~|University of New Hampshire. Library. Digital Collections,,,Text,Homelessness--New Hampshire--Periodicals|~|Homeless persons--New Hampshire--Periodicals|~|New Hampshire--Research,New Hampshire. Bureau of Homeless and Housing Services,,,eng,University of New Hampshire. Library. Digital Collections,mrg_0007+application-pdf+application.pdf|~|mrg_0007+image-low-jpg+image-low.jpg|~|mrg_0007+image-tb-jpg+image-tb.jpg
Active,mrg:0008,mrg,mrg:0008,"Manchester's primary care safety net ""Intact but endangered"" : a call to action",2008,"Report examining the Manchester, N.H. primary health care delivery system and economic barriers faced by the population served.","Bazos, Dorothy A.|~|Thomas, Anna|~|Manchester Research Group (UNHM)|~|University of New Hampshire. Library. Digital Collections",,,Text,"New Hampshire--Statistics, Medical|~|Medical care--New Hampshire--Manchester Region|~|Health services accessibility--New Hampshire--Manchester Region|~|Public health--New Hampshire--Manchester Region|~|Economic development|~|New Hampshire--Research",,,,eng,Manchester Sustainable Access Project|~|University of New Hampshire. Library. Digital Collections,mrg_0008+application-pdf+application.pdf|~|mrg_0008+image-low-jpg+image-low.jpg|~|mrg_0008+image-tb-jpg+image-tb.jpg
Active,mrg:0009,mrg,mrg:0009,A Home for everyone : a 10 year plan to end homelessness in the City of Manchester,2008,Document presenting a 10-year plan to end homelessness and the research and data on which it was based.,"Guinta, Frank|~|Tufts, Patrick|~|Manchester Research Group (UNHM)|~|University of New Hampshire. Library. Digital Collections",,,Text,Shelters for the homeless--New Hampshire--Manchester|~|Homelessness; Housing|~|Manchester (N.H.)--Research,,,,eng,Manchester (N.H.). Homelessness Task Force|~|University of New Hampshire. Library. Digital Collections,mrg_0009+application-pdf+application.pdf|~|mrg_0009+image-low-jpg+image-low.jpg|~|mrg_0009+image-tb-jpg+image-tb.jpg
Active,mrg:0010,mrg,mrg:0010,Resource guide for New Hampshire relative caregivers,2010,Guide listing resources and legal and financial information for relatives caring for children in New Hampshire.,Lutheran Social Services of New England|~|Granite State College|~|University of New Hampshire. Cooperative Extension|~|Manchester Research Group (UNHM)|~|University of New Hampshire. Library. Digital Collections,,,Text,Grandparents as parents--New Hampshire|~|Childcare--New Hampshire|~|Family; Youth|~|New Hampshire--Research,,,,eng,New Hampshire. Division of Family Assistance|~|University of New Hampshire. Library. Digital Collections,mrg_0010+application-pdf+application.pdf|~|mrg_0010+image-low-jpg+image-low.jpg|~|mrg_0010+image-tb-jpg+image-tb.jpg
Active,mrg:0011,mrg,mrg:0011,An Academic-community outreach partnership : building relationships and capacity to address childhood lead poisoning,2009,"Article describing an academic and community partnership for social action and policy change regarding childhood lead poisoning in Manchester, N.H.",Project Muse|~|Manchester Research Group (UNHM)|~|University of New Hampshire. Library. Digital Collections,,,Text,Lead poisoning in children--New Hampshire--Manchester--Prevention|~|Lead--Toxicology--New Hampshire--Manchester|~|Environmental health; Housing; Youth|~|Manchester (N.H.)--Research,"Serrell, Nancy|~|Caron, Rosemary M.|~|Fleishman, Bethany|~|Robbins, Emily D.",,,eng,Johns Hopkins University Press|~|University of New Hampshire. Library. Digital Collections,mrg_0011+application-pdf+application.pdf|~|mrg_0011+image-low-jpg+image-low.jpg|~|mrg_0011+image-tb-jpg+image-tb.jpg
Active,mrg:0012,mrg,mrg:0012,Assessments of public water supply sources: Manchester,2007,Report and chart summarizing the vulnerability of Manchester's public water sources.,Manchester Research Group (UNHM)|~|University of New Hampshire. Library. Digital Collections,,,Text,Water--Pollution potential--New Hampshire--Manchester|~|Water--New Hampshire--Manchester--Analysis|~|Environmental health|~|Manchester (N.H.)--Research,,,,eng,New Hampshire. Department of Environmental Services|~|University of New Hampshire. Library. Digital Collections,mrg_0012+application-pdf+application.pdf|~|mrg_0012+image-low-jpg+image-low.jpg|~|mrg_0012+image-tb-jpg+image-tb.jpg
Active,mrg:0013,mrg,mrg:0013,Believe in a healthy community : greater Manchester community needs assessment 2009,2009,"Needs assessment providing data and statistics on health related demographics and issues in the Manchester Health Service Area (HAS), as well as four strategic imperatives for health improvement.",Manchester Sustainable Access Project. Data Committee|~|Manchester (N.H.). Health Department|~|New Hampshire. Department of Health and Human Services|~|Manchester Research Group (UNHM)|~|University of New Hampshire. Library. Digital Collections,,,Text,"Medical care--New Hampshire--Manchester Region--Statistics|~|Manchester Metropolitan Area (N.H.)--Statistics, Medical|~|Health; Demographic trends|~|New Hampshire--Research","Bazos, Dorothy A.|~|Heishman, Hilary|~|Thomas, Anna",,,eng,University of New Hampshire. Library. Digital Collections,mrg_0013+application-pdf+application.pdf|~|mrg_0013+image-low-jpg+image-low.jpg|~|mrg_0013+image-tb-jpg+image-tb.jpg
Active,mrg:0014,mrg,mrg:0014,Guide to services,2012,Guide to resources and services for elderly and developmentally disabled adults.,Manchester Research Group (UNHM)|~|University of New Hampshire. Library. Digital Collections,,,Text,Community health services for older people--New Hampshire|~|Developmentally disabled--Services for--New Hampshire|~|Adults with needs|~|New Hampshire--Research,,,,eng,New Hampshire. Department of Health and Human Services. Bureau of Elderly and Adult Services|~|University of New Hampshire. Library. Digital Collections,mrg_0014+application-pdf+application.pdf|~|mrg_0014+image-low-jpg+image-low.jpg|~|mrg_0014+image-tb-jpg+image-tb.jpg
Active,mrg:0015,mrg,mrg:0015,"Children's health insurance programs in New Hampshire : access, prevention, care management, utilization, and payments, state fiscal year 2009",2010,"Report providing a detailed evaluation and analysis of enrollment, access to care, effectiveness, and utilization of various children's' health insurance programs in N.H.","New Hampshire. Department of Health and Human Services|~|New Hampshire. Department of Health and Human Services. Office of Medicaid Business and Policy|~|Maine Health Information Center|~|Finison, Karl|~|Kinner, Amy|~|Manchester Research Group (UNHM)|~|University of New Hampshire. Library. Digital Collections",,,Text,Child health services--New Hampshire|~|Health insurance--New Hampshire|~|Youth|~|New Hampshire--Research,,,,eng,University of New Hampshire. Library. Digital Collections,mrg_0015+application-pdf+application.pdf|~|mrg_0015+image-low-jpg+image-low.jpg|~|mrg_0015+image-tb-jpg+image-tb.jpg
Active,mrg:0016,mrg,mrg:0016,City of Manchester blueprint for violence prevention,2011,"Report showing indicators of violence and victimization, and offering recommendations and strategies for a violence prevention plan in Manchester, N.H.","Manchester (N.H.). Health Department|~|Manchester Weed and Seed Strategy|~|McCorkle, Michelle|~|Hoebeke, Jaime|~|Thomas, Anna|~|Manchester Research Group (UNHM)|~|University of New Hampshire. Library. Digital Collections",,,Text,Violence--New Hampshire--Manchester--Prevention|~|Crime prevention--New Hampshire--Manchester|~|Community safety; Violence and crime|~|Manchester (N.H.)--Research,,,,eng,University of New Hampshire. Library. Digital Collections,mrg_0016+application-pdf+application.pdf|~|mrg_0016+image-low-jpg+image-low.jpg|~|mrg_0016+image-tb-jpg+image-tb.jpg
Active,mrg:0017,mrg,mrg:0017,Charter,2012,"Lists municipal departments of Manchester, N.H., including elected officials, schools, budgets, provisions, and election information",Manchester Research Group (UNHM)|~|University of New Hampshire. Library. Digital Collections,,,Text,"Law--New Hampshire--Manchester|~|Ordinances, Municipal--New Hampshire--Manchester|~|Manchester (N.H.)--Charters|~|Manchester (N.H.)--Politics and government|~|Government; Voter participation|~|Manchester (N.H.)--Research",Manchester (N.H.),,,eng,American Legal Publishing Corporation|~|University of New Hampshire. Library. Digital Collections,mrg_0017+application-pdf+application.pdf|~|mrg_0017+image-low-jpg+image-low.jpg|~|mrg_0017+image-tb-jpg+image-tb.jpg
Active,mrg:0018,mrg,mrg:0018,"Comprehensive annual financial report, 2010/2011",2011,"Annual report detailing financial information, data, and statistics (including funds, assets, revenues, and spending) for the city of Manchester, N.H.",Manchester (N.H.). Finance Department|~|Manchester Research Group (UNHM)|~|University of New Hampshire. Library. Digital Collections,,,Text,Manchester (N.H.)--Appropriations and expenditures--Periodicals|~|Economic development|~|Manchester (N.H.)--Research,Manchester (N.H.),,,eng,University of New Hampshire. Library. Digital Collections,mrg_0018+application-pdf+application.pdf|~|mrg_0018+image-low-jpg+image-low.jpg|~|mrg_0018+image-tb-jpg+image-tb.jpg
Active,mrg:0019,mrg,mrg:0019,City of Manchester final downtown parking study,2006,"Study evaluating existing parking in downtown Manchester, N.H., with recommendations for improvements.",Manchester (N.H.)|~|Lansing Melbourne Group|~|CLD Consulting Engineers|~|Manchester Research Group (UNHM)|~|University of New Hampshire. Library. Digital Collections,,,Text,"Automobile parking--New Hampshire--Manchester|~|Central business districts--New Hampshire--Manchester|~|Economic development, Community development|~|Manchester (N.H.)--Research",,,,eng,University of New Hampshire. Library. Digital Collections,mrg_0019+application-pdf+application.pdf|~|mrg_0019+image-low-jpg+image-low.jpg|~|mrg_0019+image-tb-jpg+image-tb.jpg
Active,mrg:0020,mrg,mrg:0020,Community indicators : greater Manchester New Hampshire,2006,"Community needs indicator report focusing on research, data, and statistics in Manchester, N.H.","Heritage United Way (Manchester, N.H.)|~|Southern New Hampshire University. Applied Research Center in Community Economic Development|~|Manchester Research Group (UNHM)|~|University of New Hampshire. Library. Digital Collections",,,Text,"Quality of life--New Hampshire--Manchester--Evaluation--Statistics|~|Social indicators--New Hampshire--Manchester--Statistics|~|Economic development, Demographic trends|~|Manchester (N.H.)--Research",,,,eng,Community Economic Development Press|~|University of New Hampshire. Library. Digital Collections,mrg_0020+application-pdf+application.pdf|~|mrg_0020+image-low-jpg+image-low.jpg|~|mrg_0020+image-tb-jpg+image-tb.jpg
Active,mrg:0021,mrg,mrg:0021,"Comprehensive economic development strategy for Manchester, New Hampshire, February 2009",2009,"Report of the state of the economy for Manchester, N.H. with a plan of action, including strategic projects, programs, and activities for economic development.",Manchester Research Group (UNHM)|~|University of New Hampshire. Library. Digital Collections,,,Text,Manchester (N.H.)--Economic policy|~|Manchester (N.H.)--Economic conditions--21st century|~|Economic development|~|Manchester (N.H.)--Research,,,,eng,"Manchester Economic Development Office (Manchester, N.H.)|~|University of New Hampshire. Library. Digital Collections",mrg_0021+application-pdf+application.pdf|~|mrg_0021+image-low-jpg+image-low.jpg|~|mrg_0021+image-tb-jpg+image-tb.jpg
Active,mrg:0022,mrg,mrg:0022,"Consolidated plan for the Department of Housing and Urban Development, 2010-2015",2010,"Comprehensive plan that includes a housing and homelessness needs assessment, a housing market analysis, a strategic plan with goals and objectives, and an action plan for the city of Manchester, N.H.",Manchester Research Group (UNHM)|~|University of New Hampshire. Library. Digital Collections,,,Text,Manchester (N.H.)--Housing|~|Housing--New Hampshire--Manchester|~|Urban renewal--New Hampshire--Manchester|~|Homelessness--New Hampshire--Manchester|~|Manchester (N.H.)--Research,,,,eng,Manchester (N.H.)|~|University of New Hampshire. Library. Digital Collections,mrg_0022+application-pdf+application.pdf|~|mrg_0022+image-low-jpg+image-low.jpg|~|mrg_0022+image-tb-jpg+image-tb.jpg
Active,mrg:0023,mrg,mrg:0023,Demographic trends in the Manchester-Nashua metropolitan area|~|New England issue brief : no. 16,2009,"Review and interpretation of demographic trends in immigration and poverty in the Manchester, N.H. and Nashua, N.H. metropolitan areas.",Manchester Research Group (UNHM)|~|University of New Hampshire. Library. Digital Collections,,,Text,Manchester (N.H.)--Population--Statistics|~|Nashua (N.H.)--Population--Statistics|~|Immigrants--New Hampshire--Manchester Region|~|Refugees--New Hampshire--Manchester Region|~|New Hampshire--Research,"Johnson, Kenneth M. (Kenneth Michael), 1950-|~|Macieski, Robert",,,eng,Carsey Institute|~|University of New Hampshire. Library. Digital Collections,mrg_0023+application-pdf+application.pdf|~|mrg_0023+image-low-jpg+image-low.jpg|~|mrg_0023+image-tb-jpg+image-tb.jpg
Active,mrg:0024,mrg,mrg:0024,DFA programs and services guide,2012,"Listing of programs and services, including food stamps, and medical and financial assistance, for New Hampshire families.",Manchester Research Group (UNHM)|~|University of New Hampshire. Library. Digital Collections,,,Text,Family services--New Hampshire|~|Low-income|~|New Hampshire--Research,,,,eng,New Hampshire. Division of Family Assistance|~|University of New Hampshire. Library. Digital Collections,mrg_0024+application-pdf+application.pdf|~|mrg_0024+image-low-jpg+image-low.jpg|~|mrg_0024+image-tb-jpg+image-tb.jpg
Active,mrg:0025,mrg,mrg:0025,"Economic development : marketing strategy, submitted to the city of Manchester, NH, December 2011",2011,"Overview of potential economic opportunities, a marketing strategy for economic growth, and an evaluation of resources to support economic growth in Manchester, N.H.",Manchester Research Group (UNHM)|~|University of New Hampshire. Library. Digital Collections,,,Text,Economic development--Research--New Hampshire--Manchester|~|City planning--New Hampshire--Manchester|~|City promotion--New Hampshire--Manchester|~|Manchester (N.H.)|~|Manchester (N.H.)--Research,,,,eng,"Moran, Stahl and Boyer|~|University of New Hampshire. Library. Digital Collections",mrg_0025+application-pdf+application.pdf|~|mrg_0025+image-low-jpg+image-low.jpg|~|mrg_0025+image-tb-jpg+image-tb.jpg
Active,mrg:0026,mrg,mrg:0026,"Executive summary : [Nutts Pond, Manchester, N.H.]",2010,"Summary of chemical and biological data and interpretations for Nutts Pond in Manchester, N.H.",Manchester Research Group (UNHM)|~|University of New Hampshire. Library. Digital Collections,,,Text,Ponds--New Hampshire--Manchester|~|Ecological assessment (Biology)--New Hampshire--Manchester|~|Pond ecology--New Hampshire--Manchester|~|Water quality management--New Hampshire--Manchester|~|Nutts Pond (N.H.)|~|Environmental health--New Hampshire--Manchester|~|Manchester (N.H.)--Research,,,,eng,New Hampshire. Department of Environmental Services|~|University of New Hampshire. Library. Digital Collections,mrg_0026+application-pdf+application.pdf|~|mrg_0026+image-low-jpg+image-low.jpg|~|mrg_0026+image-tb-jpg+image-tb.jpg
Active,mrg:0027,mrg,mrg:0027,"Executive summary : [Pine Island Pond, Manchester, N.H.]",2010,"Summary of chemical and biological data and interpretations for Pine Island Pond in Manchester, N.H.",Manchester Research Group (UNHM)|~|University of New Hampshire. Library. Digital Collections,,,Text,Ponds--New Hampshire--Manchester|~|Ecological assessment (Biology)--New Hampshire--Manchester|~|Pond ecology--New Hampshire--Manchester|~|Water quality management--New Hampshire--Manchester|~|Pine Island Pond (N.H.)|~|Environmental health--New Hampshire--Manchester|~|Manchester (N.H.)--Research,,,,eng,New Hampshire. Department of Environmental Services|~|University of New Hampshire. Library. Digital Collections,mrg_0027+application-pdf+application.pdf|~|mrg_0027+image-low-jpg+image-low.jpg|~|mrg_0027+image-tb-jpg+image-tb.jpg
Active,mrg:0028,mrg,mrg:0028,"Executive summary : [Stevens Pond, Manchester, N.H.]",2010,"Summary of chemical and biological data and interpretations for Stevens Pond in Manchester, N.H.",Manchester Research Group (UNHM)|~|University of New Hampshire. Library. Digital Collections,,,Text,Ponds--New Hampshire--Manchester|~|Ecological assessment (Biology)--New Hampshire--Manchester|~|Pond ecology--New Hampshire--Manchester|~|Water quality management--New Hampshire--Manchester|~|Stevens Pond (N.H.)|~|Environmental health--New Hampshire--Manchester|~|Manchester (N.H.)--Research,,,,eng,New Hampshire. Department of Environmental Services|~|University of New Hampshire. Library. Digital Collections,mrg_0028+application-pdf+application.pdf|~|mrg_0028+image-low-jpg+image-low.jpg|~|mrg_0028+image-tb-jpg+image-tb.jpg
Active,mrg:0029,mrg,mrg:0029,"Feasibility study for the Manchester Convention Center, Manchester, New Hampshire",2008,"Study analyzing market potential and anticipated demand for a proposed convention center development in Manchester, N.H.","Manchester Economic Development Office (Manchester, N.H.)|~|Hazinski, Tom|~|Manchester Research Group (UNHM)|~|University of New Hampshire. Library. Digital Collections",,,Text,Convention facilities--New Hampshire--Manchester|~|Economic development|~|Manchester (N.H.)--Research,"HVS Convention, Sports and Entertainment",,,eng,University of New Hampshire. Library. Digital Collections,mrg_0029+application-pdf+application.pdf|~|mrg_0029+image-low-jpg+image-low.jpg|~|mrg_0029+image-tb-jpg+image-tb.jpg
Active,mrg:0030,mrg,mrg:0030,Final research report : exploratory study of the social adjustment and well-being of Latino and African immigrant and refugee families in NH,2009,Report evaluating and analyzing immigrant and refugee families adapting to life in New Hampshire.,"Smith, Chris|~|Manchester Research Group (UNHM)|~|University of New Hampshire. Library. Digital Collections",,,Text,Immigrants--New Hampshire|~|New Hampshire--Emigration and immigration|~|Immigrants/refugees; Health|~|New Hampshire--Research,New Hampshire Minority Health Coalition. Research and Evaluation Group,,,eng,University of New Hampshire. Library. Digital Collections,mrg_0030+application-pdf+application.pdf|~|mrg_0030+image-low-jpg+image-low.jpg|~|mrg_0030+image-tb-jpg+image-tb.jpg
Active,mrg:0031,mrg,mrg:0031,"Focus group study on minority women's access to prenatal health care in the City of Manchester, New Hampshire : executive summary",[2002?],"Study on minority women's access to prenatal care in Manchester, N.H.",Manchester Research Group (UNHM)|~|University of New Hampshire. Library. Digital Collections,,,Text,Health services accessibility--New Hampshire--Manchester|~|Minorities--Medical care--New Hampshire--Manchester|~|Prenatal care--New Hampshire--Manchester|~|Manchester (N.H.)--Research,New Hampshire Minority Health Coalition. Research and Evaluation Group,,,eng,University of New Hampshire. Library. Digital Collections,mrg_0031+application-pdf+application.pdf|~|mrg_0031+image-low-jpg+image-low.jpg|~|mrg_0031+image-tb-jpg+image-tb.jpg
Active,mrg:0032,mrg,mrg:0032,"Annual report, 2011",2011,"Granite State United Way 2011 annual report on programs and services, including financial statement.",Manchester Research Group (UNHM)|~|University of New Hampshire. Library. Digital Collections,,,Text,Granite United Way--Periodicals|~|Public welfare--New Hampshire--Periodicals|~|Social service--New Hampshire--Periodicals|~|Charities--New Hampshire--Periodicals|~|Low-income|~|New Hampshire--Research,Granite United Way,,,eng,University of New Hampshire. Library. Digital Collections,mrg_0032+application-pdf+application.pdf|~|mrg_0032+image-low-jpg+image-low.jpg|~|mrg_0032+image-tb-jpg+image-tb.jpg
Active,mrg:0033,mrg,mrg:0033,"Chamber report, Vol. 24, no. 1 (Jan. 2012)",2012,"Report of the Chamber's goals, objectives, programs, and members.",Manchester Research Group (UNHM)|~|University of New Hampshire. Library. Digital Collections,,,Text,"Greater Manchester Chamber of Commerce (Manchester, N.H.--Periodicals|~|Manchester Metropolitan Area (N.H.)--Commerce--Periodicals|~|Economic development|~|Manchester Metropolitan Area (N.H.)--Research","Greater Manchester Chamber of Commerce (Manchester, N.H.)",,,eng,University of New Hampshire. Library. Digital Collections,mrg_0033+application-pdf+application.pdf|~|mrg_0033+image-low-jpg+image-low.jpg|~|mrg_0033+image-tb-jpg+image-tb.jpg
Active,mrg:0034,mrg,mrg:0034,"Greening the city : City of Manchester, Parks and Recreation master plan update",2012,"Master plan listing goals, objectives, classifications, trends, policies, standards, and recommendations for the City of Manchester, N.H. parks and recreation.",Manchester Research Group (UNHM)|~|University of New Hampshire. Library. Digital Collections,,,Text,Manchester (N.H.). Department of Parks and Recreation|~|Outdoor recreation--New Hampshire--Manchester|~|Parks--New Hampshire--Manchester|~|City planning--New Hampshire--Manchester|~|Environmental health; Community development|~|Manchester (N.H.)--Research,Peter J. Smith and Company,,,eng,University of New Hampshire. Library. Digital Collections,mrg_0034+application-pdf+application.pdf|~|mrg_0034+image-low-jpg+image-low.jpg|~|mrg_0034+image-tb-jpg+image-tb.jpg
Active,mrg:0035,mrg,mrg:0035,"Head Start/Early Head Start, Hillsborough County : annual report, 2011-2012",2012,"Annual report containing program overview, budget breakdown, statistics, and other information about the Hillsborough County Head Start and Early Head Start programs.",Manchester Research Group (UNHM)|~|University of New Hampshire. Library. Digital Collections,,,Text,Head Start programs--New Hampshire--Hillsborough County--Periodicals|~|Early childhood education--New Hampshire--Hillsborough County--Periodicals|~|Education; Youth|~|Hillsborough County (N.H.)--Research,Southern New Hampshire Services,,,eng,University of New Hampshire. Library. Digital Collections,mrg_0035+application-pdf+application.pdf|~|mrg_0035+image-low-jpg+image-low.jpg|~|mrg_0035+image-tb-jpg+image-tb.jpg
Active,mrg:0036,mrg,mrg:0036,Healthy New Hampshire 2010,2001,"Goals and objectives plan for New Hampshire disease prevention and health promotion, including data and statistics for physical, mental, environmental, maternal, reproductive, and child health areas.",Manchester Research Group (UNHM)|~|New Hampshire. Office of Community and Public Health|~|Healthy New Hampshire 2010 Leadership Council|~|University of New Hampshire. Library. Digital Collections,,,Text,Health planning--New Hampshire|~|Public health--New Hampshire|~|Disease management--New Hampshire|~|New Hampshire--Research,New Hampshire. Department of Health and Human Services,,,eng,University of New Hampshire. Library. Digital Collections,mrg_0036+application-pdf+application.pdf|~|mrg_0036+image-low-jpg+image-low.jpg|~|mrg_0036+image-tb-jpg+image-tb.jpg
Active,mrg:0037,mrg,mrg:0037,"Annual report, 2009-2010",2010,Annual report containing financial information for the IINE.,Manchester Research Group (UNHM)|~|University of New Hampshire. Library. Digital Collections,,,Text,Immigrants--Services for--New Hampshire--Manchester--Periodicals|~|Immigrants--Services for--Massachusetts--Periodicals|~|Refugees--Services for--New Hampshire--Manchester--Periodicals|~|Refugees--Services for--Massachusetts--Periodicals|~|Manchester (N.H.)--Research,International Institute of New England,,,eng,University of New Hampshire. Library. Digital Collections,mrg_0037+application-pdf+application.pdf|~|mrg_0037+image-low-jpg+image-low.jpg|~|mrg_0037+image-tb-jpg+image-tb.jpg
Active,mrg:0038,mrg,mrg:0038,2011 central business service district survey,2011,"Analysis of the results of the Manchester, N.H. central business district's survey of landlords and tenants.",Manchester Research Group (UNHM)|~|University of New Hampshire. Library. Digital Collections,,,Text,Central business districts--Economic aspects--New Hampshire--Manchester--Surveys|~|Economic development|~|Manchester (N.H.)--Research,Intown Manchester,,,eng,University of New Hampshire. Library. Digital Collections,mrg_0038+application-pdf+application.pdf|~|mrg_0038+image-low-jpg+image-low.jpg|~|mrg_0038+image-tb-jpg+image-tb.jpg
Active,mrg:0039,mrg,mrg:0039,Law enforcement goals and objectives,2011,"Goals and objectives of the Law Enforcement/Community Policies Sub-Committee, focusing on unifying local, state, and federal law enforcement for the purpose of reducing crime and victimization in targeted neighborhoods of Manchester, N.H.",Manchester Research Group (UNHM)|~|University of New Hampshire. Library. Digital Collections,,,Text,Manchester Weed and Seed Strategy. Law Enforcement/Community Policies Sub-Committee|~|Law enforcement--New Hampshire--Manchester|~|Safety education--New Hampshire--Manchester|~|Community safety; Violence and crime|~|Manchester (N.H.)--Research,Manchester Weed and Seed Strategy,,,eng,University of New Hampshire. Library. Digital Collections,mrg_0039+application-pdf+application.pdf|~|mrg_0039+image-low-jpg+image-low.jpg|~|mrg_0039+image-tb-jpg+image-tb.jpg
Active,mrg:0040,mrg,mrg:0040,Manchester 10 Year Plan Homeless Youth Sub-Committee report,2008,"Addendum to the Task Force's A Home for everyone : a 10 year plan to end homelessness in the City of Manchester, focusing on youth in Manchester, N.H.",Manchester Research Group (UNHM)|~|University of New Hampshire. Library. Digital Collections,,,Text,Homeless youth--Services for--New Hampshire--Manchester|~|Child and Family Services|~|Homelessness; Housing|~|Manchester (N.H.)--Research,Manchester (N.H.). Homelessness Task Force. Youth Sub-Committee,,,eng,Manchester (N.H.). Homelessness Task Force|~|University of New Hampshire. Library. Digital Collections,mrg_0040+application-pdf+application.pdf|~|mrg_0040+image-low-jpg+image-low.jpg|~|mrg_0040+image-tb-jpg+image-tb.jpg
Active,mrg:0041,mrg,mrg:0041,Manchester arts and cultural development,2010,"PowerPoint presentation of findings for arts and cultural development in Manchester, N.H.","Manchester Economic Development Office (Manchester, N.H.)|~|Kane, Michael|~|Michon, Stephen|~|Manchester Research Group (UNHM)|~|University of New Hampshire. Library. Digital Collections",,,Text,Arts--Economic aspects--New Hampshire--Manchester|~|Economic development; Arts and culture|~|Manchester (N.H.)--Research,,,,eng,Mt. Auburn Associates|~|University of New Hampshire. Library. Digital Collections,mrg_0041+application-pdf+application.pdf|~|mrg_0041+image-low-jpg+image-low.jpg|~|mrg_0041+image-tb-jpg+image-tb.jpg
Active,mrg:0042,mrg,mrg:0042,"Manchester, NH economic assets profile",2011,"Report of key economic assets and strength in Manchester, N.H.",Manchester Research Group (UNHM)|~|University of New Hampshire. Library. Digital Collections,,,Text,Manchester (N.H.)--Economic conditions--21st century|~|Economic development--New Hampshire--Manchester|~|Manchester (N.H.)--Research,Metro Center-NH|~|Southern New Hampshire Planning Commission,,,eng,University of New Hampshire. Library. Digital Collections,mrg_0042+application-pdf+application.pdf|~|mrg_0042+image-low-jpg+image-low.jpg|~|mrg_0042+image-tb-jpg+image-tb.jpg
Active,mrg:0043,mrg,mrg:0043,Manchester named among 100 best communities for young people,2010,"Statement announcing that Manchester, N.H. was named as a winner in America's Promise Alliance 100 best communities for young people.",Manchester Research Group (UNHM)|~|University of New Hampshire. Library. Digital Collections,,,Text,Quality of life--New Hampshire--Manchester|~|Cities and towns--Ratings and rankings--New Hampshire--Manchester|~|America's Promise--The Alliance for Youth|~|Youth|~|Manchester (N.H.)--Research,Manchester (N.H.). Mayor,,,eng,University of New Hampshire. Library. Digital Collections,mrg_0043+application-pdf+application.pdf|~|mrg_0043+image-low-jpg+image-low.jpg|~|mrg_0043+image-tb-jpg+image-tb.jpg
Active,mrg:0044,mrg,mrg:0044,Manchester Violence Prevention (MVP) Teen Council,2011,"Mission statement and goals of Weed and Seed's Manchester Violence Prevention (MVP) Teen Council of Manchester, N.H.",Manchester Research Group (UNHM)|~|University of New Hampshire. Library. Digital Collections,,,Text,Manchester Weed and Seed Strategy. Manchester Violence Prevention (MVP) Teen Council|~|Youth and violence--New Hampshire--Manchester--Prevention|~|Adolescent; Violence and crime|~|Manchester (N.H.)--Research,Manchester Weed and Seed Strategy,,,eng,University of New Hampshire. Library. Digital Collections,mrg_0044+application-pdf+application.pdf|~|mrg_0044+image-low-jpg+image-low.jpg|~|mrg_0044+image-tb-jpg+image-tb.jpg
Active,mrg:0045,mrg,mrg:0045,Organizational chart,2011,"Organizational chart for the Manchester, N.H. Weed and Seed Strategy.",Manchester Research Group (UNHM)|~|University of New Hampshire. Library. Digital Collections,,,Text,Manchester Weed and Seed Strategy|~|Law enforcement--New Hampshire--Manchester|~|Safety education--New Hampshire--Manchester|~|Violence--New Hampshire--Manchester--Prevention|~|Community safety; Violence and crime|~|Manchester (N.H.)--Research,Manchester Weed and Seed Strategy,,,eng,University of New Hampshire. Library. Digital Collections,mrg_0045+application-pdf+application.pdf|~|mrg_0045+image-low-jpg+image-low.jpg|~|mrg_0045+image-tb-jpg+image-tb.jpg
Active,mrg:0046,mrg,mrg:0046,"Manchester urban ponds water quality tables, 2000-2012",2012,"Chart of chemical and biological data on Manchester, N.H. ponds from 2000-2012.","Drociak, Jen|~|Manchester (N.H.). Environmental Protection Division|~|New Hampshire. Department of Environmental Services|~|Manchester Research Group (UNHM)|~|University of New Hampshire. Library. Digital Collections",,,Text,Water quality--New Hampshire--Manchester|~|Pond ecology--New Hampshire--Manchester|~|Environmental health--New Hampshire--Manchester|~|Manchester (N.H.)--Research,,,,eng,University of New Hampshire. Library. Digital Collections,mrg_0046+application-pdf+application.pdf|~|mrg_0046+image-low-jpg+image-low.jpg|~|mrg_0046+image-tb-jpg+image-tb.jpg
Active,mrg:0047,mrg,mrg:0047,"Master plan for the City of Manchester, New Hampshire : adopted by the Planning Board, December 10, 2009",2009,"Manchester, N.H. master plan, providing a 10-15 year vision for the city.",Manchester Research Group (UNHM)|~|University of New Hampshire. Library. Digital Collections,,,Text,City planning--New Hampshire--Manchester|~|Community development--New Hampshire--Manchester|~|Manchester (N.H.)--Research,,,,eng,Manchester City Planning Board|~|University of New Hampshire. Library. Digital Collections,mrg_0047+application-pdf+application.pdf|~|mrg_0047+image-low-jpg+image-low.jpg|~|mrg_0047+image-tb-jpg+image-tb.jpg
Active,mrg:0048,mrg,mrg:0048,Maximizing educational opportunities,2012,"Plan discussing primarily the virtual and online methods to meet educational need of the students and school staff of Manchester, N.H.",Manchester Research Group (UNHM)|~|University of New Hampshire. Library. Digital Collections,,,Text,Educational technology--New Hampshire--Manchester|~|Blended learning--New Hampshire--Manchester|~|Education; Youth|~|Manchester (N.H.)--Research,"Brennan, Thomas J.",,,eng,Manchester School District (N.H.)|~|University of New Hampshire. Library. Digital Collections,mrg_0048+application-pdf+application.pdf|~|mrg_0048+image-low-jpg+image-low.jpg|~|mrg_0048+image-tb-jpg+image-tb.jpg
Active,mrg:0049,mrg,mrg:0049,"Annual needs assessment, 2010",2010,"Annual needs assessment derived from survey taken in Manchester, N.H.",Manchester Research Group (UNHM)|~|University of New Hampshire. Library. Digital Collections,,,Text,Homeless persons--New Hampshire--Manchester--Statistics--Periodicals|~|Homelessness--New Hampshire--Manchester--Statistics--Periodicals|~|Housing|~|Manchester (N.H.)--Research,,,,eng,Manchester (N.H.) Continuum of Care. Homeless Liaison Committee|~|University of New Hampshire. Library. Digital Collections,mrg_0049+application-pdf+application.pdf|~|mrg_0049+image-low-jpg+image-low.jpg|~|mrg_0049+image-tb-jpg+image-tb.jpg
Active,mrg:0050,mrg,mrg:0050,"Annual report, 2010",2010,"Annual report including data, statistics, and highlights on housing projects, client stories, financial statements, and organization membership.",University of New Hampshire. Library. Digital Collections,,,Text,Housing--New Hampshire--Manchester Region--Periodicals|~|Home ownership--New Hampshire--Manchester Region--Periodicals|~|Community development--New Hampshire--Manchester Region--Periodicals|~|Manchester Metropolitan area (N.H.)--Research,,,,eng,Neighborworks Greater Manchester|~|University of New Hampshire. Library. Digital Collections,mrg_0050+application-pdf+application.pdf|~|mrg_0050+image-low-jpg+image-low.jpg|~|mrg_0050+image-tb-jpg+image-tb.jpg
Active,mrg:0051,mrg,mrg:0051,"Annual report, 2011",2011,"Annual report including data, statistics, and highlights on housing projects, client stories, financial statements, and organization membership.",University of New Hampshire. Library. Digital Collections,,,Text,Housing--New Hampshire--Manchester Region--Periodicals|~|Home ownership--New Hampshire--Manchester Region--Periodicals|~|Community development--New Hampshire--Manchester Region--Periodicals|~|Manchester Metropolitan area (N.H.)--Research,,,,eng,Neighborworks Greater Manchester|~|University of New Hampshire. Library. Digital Collections,mrg_0051+application-pdf+application.pdf|~|mrg_0051+image-low-jpg+image-low.jpg|~|mrg_0051+image-tb-jpg+image-tb.jpg
Active,mrg:0052,mrg,mrg:0052,Neighborhood restoration goals and objectives,2011,"Goals and objectives of the Manchester Weed and Seed Strategy Neighborhood Restoration Sub-Committee of Manchester, N.H., highlighting a focus on improving and revitalizing economic and social conditions of target neighborhoods.",Manchester Research Group (UNHM)|~|University of New Hampshire. Library. Digital Collections,,,Text,Manchester Weed and Seed Strategy. Neighborhood Restoration Sub-Committee|~|Community development--New Hampshire--Manchester|~|Housing--New Hampshire--Manchester|~|Safety education--New Hampshire--Manchester|~|Manchester (N.H.)--Research,Manchester Weed and Seed Strategy,,,eng,University of New Hampshire. Library. Digital Collections,mrg_0052+application-pdf+application.pdf|~|mrg_0052+image-low-jpg+image-low.jpg|~|mrg_0052+image-tb-jpg+image-tb.jpg
Active,mrg:0053,mrg,mrg:0053,"New Hampshire climate action plan : a plan for New Hampshire's energy, environmental and economic development future",2009,"Plan examining climate science, data, and statistics, as well as goals and recommendations of the New Hampshire Climate Change Policy Task Force.",New Hampshire Climate Change Policy Task Force|~|Manchester Research Group (UNHM)|~|University of New Hampshire. Library. Digital Collections,,,Text,Climatic changes--Risk assessment--New Hampshire|~|Climatic changes--Environmental aspects--New Hampshire|~|Climatic changes--Economic aspects--New Hampshire|~|Global warming--Risk assessment--New Hampshire|~|Environmental health--New Hampshire|~|Economic development--New Hampshire|~|New Hampshire--Research,New Hampshire. Department of Environmental Services,,,eng,University of New Hampshire. Library. Digital Collections,mrg_0053+application-pdf+application.pdf|~|mrg_0053+image-low-jpg+image-low.jpg|~|mrg_0053+image-tb-jpg+image-tb.jpg
Active,mrg:0054,mrg,mrg:0054,New Hampshire Commission on Autism Spectrum Disorders : findings and recommendations,2008,"Report of the New Hampshire Commission on Autism Spectrum Disorders' findings, as well as goals and recommendations to improve detection and treatment of autism disorders.",New Hampshire. Division of Developmental Services|~|Manchester Research Group (UNHM)|~|University of New Hampshire. Library. Digital Collections,,,Text,Children with disabilities--Services for--New Hampshire|~|People with disabilities--Services for--New Hampshire|~|Autism--New Hampshire|~|Asperger's syndrome--New Hampshire|~|Childhood disintegrative disorder--New Hampshire|~|Health; Youth|~|New Hampshire--Research,New Hampshire. Department of Environmental Services,,,eng,University of New Hampshire. Library. Digital Collections,mrg_0054+application-pdf+application.pdf|~|mrg_0054+image-low-jpg+image-low.jpg|~|mrg_0054+image-tb-jpg+image-tb.jpg
Active,mrg:0055,mrg,mrg:0055,"Annual report, 2011",2011,"Annual report of the New Hampshire Community Action Association, including agency profiles, and economic and demographic information.",Manchester Research Group (UNHM)|~|University of New Hampshire. Library. Digital Collections,,,Text,New Hampshire Community Action Association--Periodicals|~|Human services--New Hampshire--Periodicals|~|Community development--New Hampshire--Periodicals|~|Low-income; Demographic trends|~|New Hampshire--Research,New Hampshire Community Action Association,,,eng,University of New Hampshire. Library. Digital Collections,mrg_0055+application-pdf+application.pdf|~|mrg_0055+image-low-jpg+image-low.jpg|~|mrg_0055+image-tb-jpg+image-tb.jpg
Active,mrg:0056,mrg,mrg:0056,"New Hampshire demographic trends in the twenty-first century|~|Reports on New England, No. 4 (2012)",2012,"Study analyzing demographic findings, patterns, and trends in New Hampshire; with data and methodology.",Manchester Research Group (UNHM)|~|University of New Hampshire. Library. Digital Collections,,,Text,"New Hampshire--Population--21st century--Statistics|~|Demographic surveys--New Hampshire--21st century|~|Community development--New Hampshire--Periodicals|~|Sociology, Rural|~|Demographic trends|~|New Hampshire--Research","Johnson, Kenneth M. (Kenneth Michael), 1950-",,,eng,Carsey Institute|~|University of New Hampshire. Library. Digital Collections,mrg_0056+application-pdf+application.pdf|~|mrg_0056+image-low-jpg+image-low.jpg|~|mrg_0056+image-tb-jpg+image-tb.jpg
Active,mrg:0057,mrg,mrg:0057,NH Homeless Access Survey,2011,"PDF of a PowerPoint presentation on homelessness in N.H., based on the Manchester Continuum of Care annual needs assessment.","Manchester (N.H.) Continuum of Care|~|Sisco, Tauna|~|Manchester Research Group (UNHM)|~|University of New Hampshire. Library. Digital Collections",,,Text,Homelessness--New Hampshire--Statistics|~|Homeless persons--New Hampshire--Statistics|~|Housing--New Hampshire|~|New Hampshire--Research,,,,eng,New Hampshire. Bureau of Homeless and Housing Services|~|University of New Hampshire. Library. Digital Collections,mrg_0057+application-pdf+application.pdf|~|mrg_0057+image-low-jpg+image-low.jpg|~|mrg_0057+image-tb-jpg+image-tb.jpg
Active,mrg:0058,mrg,mrg:0058,New Hampshire homeless veterans plan : a four-year strategic plan to end homeless among veterans and their families,2010,A plan to eliminate homelessness among veterans in N.H.; includes lists of state programs and resources for veterans.,Manchester Research Group (UNHM)|~|University of New Hampshire. Library. Digital Collections,,,Text,Homelessness--New Hampshire|~|Homeless veterans--Housing--New Hampshire|~|Adults with needs|~|New Hampshire--Research,,,,eng,Veterans Homeless Committee|~|University of New Hampshire. Library. Digital Collections,mrg_0058+application-pdf+application.pdf|~|mrg_0058+image-low-jpg+image-low.jpg|~|mrg_0058+image-tb-jpg+image-tb.jpg
Active,mrg:0059,mrg,mrg:0059,"New Hampshire STD/HIV Surveillance Program 5 year data summary report, 2006-2010",2011,Report listing demographic data by disease.,Manchester Research Group (UNHM)|~|University of New Hampshire. Library. Digital Collections,,,Text,HIV (Viruses)--New Hampshire--Statistics--Periodicals|~|Sexually transmitte diseases--New Hampshire--Statistics--Periodicals|~|Public health--New Hampshire--Periodicals|~|New Hampshire--Research,,,,eng,New Hampshire. Division of Public Health Services|~|University of New Hampshire. Library. Digital Collections,mrg_0059+application-pdf+application.pdf|~|mrg_0059+image-low-jpg+image-low.jpg|~|mrg_0059+image-tb-jpg+image-tb.jpg
Active,mrg:0060,mrg,mrg:0060,New Hampshire young adult resource guide,2009,"Guide listing resources and programs for young adults in need, in areas including housing, health, and employment.",Manchester Research Group (UNHM)|~|University of New Hampshire. Library. Digital Collections,,,Text,Young adults--Services for--New Hampshire|~|Young adults--New Hampshire--Life skills guides|~|Human services--New Hampshire--Directories|~|Ex-foster children--Services for--New Hampshire|~|Adolescent; Housing; Health|~|New Hampshire--Research,,,,eng,"New Hampshire. Division for Children, Youth, and Families|~|University of New Hampshire. Library. Digital Collections",mrg_0060+application-pdf+application.pdf|~|mrg_0060+image-low-jpg+image-low.jpg|~|mrg_0060+image-tb-jpg+image-tb.jpg
Active,mrg:0061,mrg,mrg:0061,"Observations and recommendations, Crystal Lake, Manchester, 2010",2010,"Biennial report of observations and recommendations based on chemical and biological data collected from Crystal Lake in Manchester, N.H.",Manchester Research Group (UNHM)|~|University of New Hampshire. Library. Digital Collections,,,Text,Water quality--New Hampshire--Manchester--Crystal Lake--Periodicals|~|Crystal Lake (N.H.)--Environmental conditions--Periodicals|~|Lake ecology--New Hampshire--Manchester--Crystal Lake--Periodicals|~|Environmental health--New Hampshire--Manchester--Crystal Lake--Periodicals|~|Manchester (N.H.)--Research,,,,eng,New Hampshire. Department of Environmental Services|~|University of New Hampshire. Library. Digital Collections,mrg_0061+application-pdf+application.pdf|~|mrg_0061+image-low-jpg+image-low.jpg|~|mrg_0061+image-tb-jpg+image-tb.jpg
Active,mrg:0062,mrg,mrg:0062,"Observations and recommendations, Dorrs Pond, Manchester, 2010",2010,"Biennial report of observations and recommendations based on chemical and biological data collected from Dorrs Pond in Manchester, N.H.",Manchester Research Group (UNHM)|~|University of New Hampshire. Library. Digital Collections,,,Text,Water quality--New Hampshire--Manchester--Dorrs Pond--Periodicals|~|Dorrs Pond (N.H.)--Environmental conditions--Periodicals|~|Lake ecology--New Hampshire--Manchester--Dorrs Pond--Periodicals|~|Environmental health--New Hampshire--Manchester--Dorrs Pond--Periodicals|~|Manchester (N.H.)--Research,,,,eng,New Hampshire. Department of Environmental Services|~|University of New Hampshire. Library. Digital Collections,mrg_0062+application-pdf+application.pdf|~|mrg_0062+image-low-jpg+image-low.jpg|~|mrg_0062+image-tb-jpg+image-tb.jpg
Active,mrg:0063,mrg,mrg:0063,"Observations and recommendations, Maxwell Pond, Manchester, 2008",2008,"Biennial report of observations and recommendations based on chemical and biological data collected from Maxwell Pond in Manchester, N.H.",Manchester Research Group (UNHM)|~|University of New Hampshire. Library. Digital Collections,,,Text,Water quality--New Hampshire--Manchester--Maxwell Pond--Periodicals|~|Maxwell Pond (N.H.)--Environmental conditions--Periodicals|~|Lake ecology--New Hampshire--Manchester--Maxwell Pond--Periodicals|~|Environmental health--New Hampshire--Manchester--Maxwell Pond--Periodicals|~|Manchester (N.H.)--Research,,,,eng,New Hampshire. Department of Environmental Services|~|University of New Hampshire. Library. Digital Collections,mrg_0063+application-pdf+application.pdf|~|mrg_0063+image-low-jpg+image-low.jpg|~|mrg_0063+image-tb-jpg+image-tb.jpg
Active,mrg:0064,mrg,mrg:0064,"Observations and recommendations, Nutts Pond, Manchester, 2009",2009,"Biennial report of observations and recommendations based on chemical and biological data collected from Nutts Pond in Manchester, N.H.",Manchester Research Group (UNHM)|~|University of New Hampshire. Library. Digital Collections,,,Text,Water quality--New Hampshire--Manchester--Nutts Pond--Periodicals|~|Nutts Pond (N.H.)--Environmental conditions--Periodicals|~|Lake ecology--New Hampshire--Manchester--Nutts Pond--Periodicals|~|Environmental health--New Hampshire--Manchester--Nutts Pond--Periodicals|~|Manchester (N.H.)--Research,,,,eng,New Hampshire. Department of Environmental Services|~|University of New Hampshire. Library. Digital Collections,mrg_0064+application-pdf+application.pdf|~|mrg_0064+image-low-jpg+image-low.jpg|~|mrg_0064+image-tb-jpg+image-tb.jpg
Active,mrg:0065,mrg,mrg:0065,"Observations and recommendations, Pine Island Pond, Manchester, 2009",2009,"Biennial report of observations and recommendations based on chemical and biological data collected from Pine Island Pond in Manchester, N.H.",Manchester Research Group (UNHM)|~|University of New Hampshire. Library. Digital Collections,,,Text,Water quality--New Hampshire--Manchester--Pine Island Pond--Periodicals|~|Pine Island Pond (N.H.)--Environmental conditions--Periodicals|~|Lake ecology--New Hampshire--Manchester--Pine Island Pond--Periodicals|~|Environmental health--New Hampshire--Manchester--Pine Island Pond--Periodicals|~|Manchester (N.H.)--Research,,,,eng,New Hampshire. Department of Environmental Services|~|University of New Hampshire. Library. Digital Collections,mrg_0065+application-pdf+application.pdf|~|mrg_0065+image-low-jpg+image-low.jpg|~|mrg_0065+image-tb-jpg+image-tb.jpg
Active,mrg:0066,mrg,mrg:0066,"Observations and recommendations, Stevens Pond, Manchester, 2009",2009,"Biennial report of observations and recommendations based on chemical and biological data collected from Stevens Pond in Manchester, N.H.",Manchester Research Group (UNHM)|~|University of New Hampshire. Library. Digital Collections,,,Text,Water quality--New Hampshire--Manchester--Stevens Pond--Periodicals|~|Stevens Pond (N.H.)--Environmental conditions--Periodicals|~|Lake ecology--New Hampshire--Manchester--Stevens Pond--Periodicals|~|Environmental health--New Hampshire--Manchester--Stevens Pond--Periodicals|~|Manchester (N.H.)--Research,,,,eng,New Hampshire. Department of Environmental Services|~|University of New Hampshire. Library. Digital Collections,mrg_0066+application-pdf+application.pdf|~|mrg_0066+image-low-jpg+image-low.jpg|~|mrg_0066+image-tb-jpg+image-tb.jpg
Active,mrg:0067,mrg,mrg:0067,Part ed 306 : minimum standards for public school approval,2011,New Hampshire minimum school standards.,Manchester Research Group (UNHM)|~|University of New Hampshire. Library. Digital Collections,,,Text,Public schools--Standards--New Hampshire|~|Education--Standards--New Hampshire|~|Youth|~|New Hampshire--Research,,,,eng,New Hampshire. Department of Education|~|University of New Hampshire. Library. Digital Collections,mrg_0067+application-pdf+application.pdf|~|mrg_0067+image-low-jpg+image-low.jpg|~|mrg_0067+image-tb-jpg+image-tb.jpg
Active,mrg:0068,mrg,mrg:0068,"Perceptions of emergency preparedness among minority communities in Manchester and Nashua, New Hampshire : knowledge, fear, trust, and sources of information",2004,"Purpose, methodology, findings and recommendations derived from a focus study group on minority community members and emergency preparedness in Manchester and Nashua, New Hampshire.",Manchester Research Group (UNHM)|~|University of New Hampshire. Library. Digital Collections,,,Text,Minorities--New Hampshire|~|Emergency management--New Hampshire|~|Health|~|New Hampshire--Research,"Ryan, Andrew|~|Holt, Jeannie",,,eng,Southern New Hampshire Area Health Education Center|~|University of New Hampshire. Library. Digital Collections,mrg_0068+application-pdf+application.pdf|~|mrg_0068+image-low-jpg+image-low.jpg|~|mrg_0068+image-tb-jpg+image-tb.jpg
Active,mrg:0069,mrg,mrg:0069,Project information report : warmth from the Millyard,2010,Report of an academic study on the University of New Hampshire at Manchester winter clothing drive project.,University of New Hampshire. Engaged Scholars Academy|~|Manchester Research Group (UNHM)|~|University of New Hampshire. Library. Digital Collections,,,Text,University of New Hampshire at Manchester|~|Voluntarism--New Hampshire|~|Service learning--New Hampshire|~|Families; Low-income|~|Manchester (N.H.)--Research,"Lever, Ginger",,,eng,University of New Hampshire|~|University of New Hampshire. Library. Digital Collections,mrg_0069+application-pdf+application.pdf|~|mrg_0069+image-low-jpg+image-low.jpg|~|mrg_0069+image-tb-jpg+image-tb.jpg
Active,mrg:0070,mrg,mrg:0070,Refugee resettlement in New Hampshire : pathways and barriers to building community,2009,This report discusses a study on New Hampshire refugee perspectives and responses to the resettlement process after the first eight months of federal assistance.,Manchester Research Group (UNHM)|~|University of New Hampshire. Library. Digital Collections,,,Text,Refugee resettlement--New Hampshire|~|Immigrants; Refugees|~|New Hampshire--Research,"Schiller, Nina Glick|~|Boggis, JerriAnne|~|Messenger, Molly|~|Douglas, Emily M., 1973-",,,eng,University of New Hampshire. Center for the Humanities|~|University of New Hampshire. Library. Digital Collections,mrg_0070+application-pdf+application.pdf|~|mrg_0070+image-low-jpg+image-low.jpg|~|mrg_0070+image-tb-jpg+image-tb.jpg
Active,mrg:0071,mrg,mrg:0071,"Report of the Mayor's Task Force on Consolidations and Efficiencies to Manchester Board of Mayor and Alderman, March 15, 2010",2010,"This report discusses recommendations for improvements to the city of Manchester's government, including organization and consolidation of departments, business practices, and technological advances.",Manchester Research Group (UNHM)|~|University of New Hampshire. Library. Digital Collections,,,Text,Municipal services--New Hampshire--Manchester|~|Economic development--New Hampshire--Manchester|~|Government|~|Manchester (N.H.)--Research,Manchester (N.H.). Mayor. Task Force on Consolidation and Efficiencies,,,eng,Manchester (N.H.). Board of Mayor and Aldermen|~|University of New Hampshire. Library. Digital Collections,mrg_0071+application-pdf+application.pdf|~|mrg_0071+image-low-jpg+image-low.jpg|~|mrg_0071+image-tb-jpg+image-tb.jpg
Active,mrg:0072,mrg,mrg:0072,Report of the Task Force on Student Alignment,2010,"March 22, 2010 report of findings and recommendations for the grade and age grouping of students in the Manchester, N.H. School District.","Littlefield, Charles Phil|~|Manchester Research Group (UNHM)|~|University of New Hampshire. Library. Digital Collections",,,Text,School management and organization--New Hampshire--Manchester|~|Education--New Hampshire--Manchester|~|Youth|~|Manchester (N.H.)--Research,Manchester (N.H.). Mayor. Task Force on Student Alignment,,,eng,Manchester (N.H.). Mayor|~|University of New Hampshire. Library. Digital Collections,mrg_0072+application-pdf+application.pdf|~|mrg_0072+image-low-jpg+image-low.jpg|~|mrg_0072+image-tb-jpg+image-tb.jpg
Active,mrg:0073,mrg,mrg:0073,"School approval site visit report summary, Manchester schools, SAU 37, April 2012",2012,"This report discusses data, findings, and recommendations for the Manchester School District based on the New Hampshire Dept. of Education team visits to various schools.","Murdough, Edward R.|~|Brennan, Thomas J.|~|New Hampshire. Department of Education|~|New Hampshire. Bureau of School Approval and Facility Management|~|Manchester Research Group (UNHM)|~|University of New Hampshire. Library. Digital Collections",,,Text,School management and organization--New Hampshire--Manchester|~|Public schools--New Hampshire--Manchester--Evaluation|~|Education--New Hampshire--Manchester|~|Youth|~|Manchester (N.H.)--Research,Manchester School District (N.H.),,,eng,University of New Hampshire. Library. Digital Collections,mrg_0073+application-pdf+application.pdf|~|mrg_0073+image-low-jpg+image-low.jpg|~|mrg_0073+image-tb-jpg+image-tb.jpg
Active,mrg:0074,mrg,mrg:0074,"State of New Hampshire consolidated plan, 2011-2015",2010,"This plan presents the consolidated planning process, a housing and homeless needs assessment, and a housing market analysis, as well as a strategic plan and action plan to address the needs of New Hampshire.",Manchester Research Group (UNHM)|~|University of New Hampshire. Library. Digital Collections,,,Text,"Community development--New Hampshire--Periodicals|~|Home ownership--New Hampshire--Periodicals|~|Housing--New Hampshire--Periodicals|~|House buying--New Hampshire--Periodicals|~|Homelessness, Community development|~|New Hampshire--Research",,,,eng,New Hampshire Housing Finance Authority|~|University of New Hampshire. Library. Digital Collections,mrg_0074+application-pdf+application.pdf|~|mrg_0074+image-low-jpg+image-low.jpg|~|mrg_0074+image-tb-jpg+image-tb.jpg
Active,mrg:0075,mrg,mrg:0075,West Granite neighborhood comparisons #1,2012,"Spreadsheet using charts and graphs to compare and contrast elements of the West Granite neighborhood (including likes, challenges, safety, crime, neighbor relations, and registered voters) in 2007, 2009, and 2011.",Manchester Research Group (UNHM)|~|University of New Hampshire. Library. Digital Collections,,,Text,Social surveys--New Hampshire--Manchester|~|Neighborhoods--New Hampshire--Manchester|~|Community development--New Hampshire--Manchester|~|Community safety; Voter participation|~|Manchester (N.H.)--Research,Neighborworks Greater Manchester,,,eng,University of New Hampshire. Library. Digital Collections,mrg_0075+application-pdf+application.pdf|~|mrg_0075+image-low-jpg+image-low.jpg|~|mrg_0075+image-tb-jpg+image-tb.jpg
Active,mrg:0076,mrg,mrg:0076,West Granite neighborhood comparisons #2,2009,"Spreadsheet using charts and graphs to compare and contrast voting activity, as well as the age and gender of respondents in the West Granite neighborhood in 2004 and 2008.",Manchester Research Group (UNHM)|~|University of New Hampshire. Library. Digital Collections,,,Text,Social surveys--New Hampshire--Manchester|~|Neighborhoods--New Hampshire--Manchester|~|Political participation--New Hampshire--Manchester|~|Voter Participation|~|Manchester (N.H.)--Research,Neighborworks Greater Manchester,,,eng,University of New Hampshire. Library. Digital Collections,mrg_0076+application-pdf+application.pdf|~|mrg_0076+image-low-jpg+image-low.jpg|~|mrg_0076+image-tb-jpg+image-tb.jpg
Active,mrg:0077,mrg,mrg:0077,West Granite neighborhood comparisons #3,2011,"Spreadsheet using charts and graphs to compare and contrast elements of the West Granite neighborhood (including likes, dislikes, safety, crime, neighborhood watch, neighbor relations, and registered voters).",Manchester Research Group (UNHM)|~|University of New Hampshire. Library. Digital Collections,,,Text,Social surveys--New Hampshire--Manchester|~|Neighborhoods--New Hampshire--Manchester|~|Community development--New Hampshire--Manchester|~|Community safety; Voter participation|~|Manchester (N.H.)--Research,Neighborworks Greater Manchester,,,eng,University of New Hampshire. Library. Digital Collections,mrg_0077+application-pdf+application.pdf|~|mrg_0077+image-low-jpg+image-low.jpg|~|mrg_0077+image-tb-jpg+image-tb.jpg
Active,mrg:0078,mrg,mrg:0078,Resident questionnaire â€” West Granite neighborhood,2011,Survey used to create the West Granite Neighborhood Comparisons.,Manchester Research Group (UNHM)|~|University of New Hampshire. Library. Digital Collections,,,Text,Social surveys--New Hampshire--Manchester|~|Neighborhoods--New Hampshire--Manchester|~|Community development--New Hampshire--Manchester|~|Community safety; Voter participation|~|Manchester (N.H.)--Research,Neighborworks Greater Manchester,,,eng,University of New Hampshire. Library. Digital Collections,mrg_0078+application-pdf+application.pdf|~|mrg_0078+image-low-jpg+image-low.jpg|~|mrg_0078+image-tb-jpg+image-tb.jpg
Active,mrg:0079,mrg,mrg:0079,Work plan for law enforcement,2012,Review plan of the goals and objectives of the Law Enforcement/Community Policies Sub-Committee; also list of proposed activities and progress achieved toward their objectives from July 2010 to March 2012.,Manchester Research Group (UNHM)|~|University of New Hampshire. Library. Digital Collections,,,Text,"Manchester Weed and Seed Strategy. Law Enforcement/Community Policies Sub-Committee|~|Crime prevention--New Hampshire--Manchester|~|Community safety, Violence and crime|~|Manchester (N.H.)--Research",Manchester Weed and Seed Strategy,,,eng,University of New Hampshire. Library. Digital Collections,mrg_0079+application-pdf+application.pdf|~|mrg_0079+image-low-jpg+image-low.jpg|~|mrg_0079+image-tb-jpg+image-tb.jpg
Active,mrg:0080,mrg,mrg:0080,Work plan for MVP teens,2012,Review plan of the goals and objectives of the Manchester Violence Prevention Teen Council; also list of proposed activities and progress achieved toward their objectives from September 2010 to June 2012.,Manchester Research Group (UNHM)|~|University of New Hampshire. Library. Digital Collections,,,Text,Manchester Weed and Seed Strategy. Manchester Violence Prevention (MVP) Teen Council|~|Youth and violence--New Hampshire--Manchester--Prevention|~|Adolescent; Violence and crime|~|Manchester (N.H.)--Research,Manchester Weed and Seed Strategy,,,eng,University of New Hampshire. Library. Digital Collections,mrg_0080+application-pdf+application.pdf|~|mrg_0080+image-low-jpg+image-low.jpg|~|mrg_0080+image-tb-jpg+image-tb.jpg
Active,mrg:0081,mrg,mrg:0081,Work plan for neighborhood restoration,2012,Review plan of the goals and objectives of the Neighborhood Restoration Committee; also list of proposed activities and progress achieved toward their objectives from July 2010 to March 2012.,Manchester Research Group (UNHM)|~|University of New Hampshire. Library. Digital Collections,,,Text,Manchester Weed and Seed Strategy. Neighborhood Restoration Sub-Committee|~|Community development--New Hampshire--Manchester|~|Housing--New Hampshire--Manchester|~|Safety education--New Hampshire--Manchester|~|Commuity safety|~|Manchester (N.H.)--Research,Manchester Weed and Seed Strategy,,,eng,University of New Hampshire. Library. Digital Collections,mrg_0081+application-pdf+application.pdf|~|mrg_0081+image-low-jpg+image-low.jpg|~|mrg_0081+image-tb-jpg+image-tb.jpg
Active,mrg:0082,mrg,mrg:0082,"The State of homelessness in New Hampshire, 2012",2012,"An examination of homelessness, related economic and demographic factors, and changes at the state and county levels.",Manchester Research Group (UNHM)|~|University of New Hampshire. Library. Digital Collections,,,Text,Homeless persons--New Hampshire--Statistics|~|Housing--New Hampshire--Statistics|~|New Hampshire--Research,NH Coalition to End Homelessness,,,eng,University of New Hampshire. Library. Digital Collections,mrg_0082+application-pdf+application.pdf|~|mrg_0082+image-low-jpg+image-low.jpg|~|mrg_0082+image-tb-jpg+image-tb.jpg
Active,mrg:0083,mrg,mrg:0083,Manchester tap water ranks in top 5 nationally for water taste,2011,"News release announcing that Manchester's tap water placed in the top 5 for best tasting tap water at the American Water Works Annual Conference, 2011.",Manchester Research Group (UNHM)|~|University of New Hampshire. Library. Digital Collections,,,Text,Drinking water--New Hampshire--Manchester|~|Environmental health--New Hampshire--Manchester|~|American Water Works Association|~|Manchester (N.H.)--Research,,,,eng,"Manchester Water Works (Manchester, N.H.)|~|University of New Hampshire. Library. Digital Collections",mrg_0083+application-pdf+application.pdf|~|mrg_0083+image-low-jpg+image-low.jpg|~|mrg_0083+image-tb-jpg+image-tb.jpg
Active,mrg:0084,mrg,mrg:0084,Manchester Water Work's Treatment Facility achieves national recognition,2012,News release announcing that the Lake Massabesic Water Treatment Plant received the prestigious â€œExcellence in Water Treatmentâ€ award.,Manchester Research Group (UNHM)|~|University of New Hampshire. Library. Digital Collections,,,Text,Water quality--New Hampshire--Manchester|~|Water supply--New Hampshire--Manchester|~|Environmental health--New Hampshire--Manchester|~|Partnership for Safe Water|~|Manchester (N.H.)--Research,,,,eng,"Manchester Water Works (Manchester, N.H.)|~|University of New Hampshire. Library. Digital Collections",mrg_0084+application-pdf+application.pdf|~|mrg_0084+image-low-jpg+image-low.jpg|~|mrg_0084+image-tb-jpg+image-tb.jpg
Active,mrg:0085,mrg,mrg:0085,"Financing New Hampshire's cities and towns, Update 2012",2012,"Presentation of the data behind municipal budgets; laying out the trends behind local spending, and linking some of those changes to broader trends in state and federal assistance.","Delay, Dennis|~|Barrick, Daniel|~|Norton, Stephen|~|Manchester Research Group (UNHM)|~|University of New Hampshire. Library. Digital Collections",,,Text,Municipal services--New Hampshire--Finance--Statistics--Periodicals|~|Municipal finance--New Hampshire--Statistics--Periodicals|~|Education--New Hampshire--Costs--Statistics--Periodicals|~|Taxation--New Hampshire--Rates and tables--Periodicals|~|New Hampshire--Appropriations and expenditures--Statistics--Periodicals|~|Economic Development--New Hampshire--Periodicals|~|Demographic trends; Government|~|New Hampshire--Research,,,,eng,New Hampshire Center for Public Policy Studies|~|University of New Hampshire. Library. Digital Collections,mrg_0085+application-pdf+application.pdf|~|mrg_0085+image-low-jpg+image-low.jpg|~|mrg_0085+image-tb-jpg+image-tb.jpg
Active,mrg:0086,mrg,mrg:0086,The Justice gap : a study of the legal needs of New Hampshire's low-income residents,2013,"Analysis of the legal needs, barriers, and services available to low-income New Hampshire residents, offering recommendations for improving access.",Legal Advice and Referral Center (LARC)|~|New Hampshire Bar Association|~|Manchester Research Group (UNHM)|~|University of New Hampshire. Library. Digital Collections,,,Text,Legal aid--New Hampshire|~|Legal assistance to the poor--New Hampshire|~|Low-income; Minorities; Legal services|~|New Hampshire--Research,,,,eng,New Hampshire Access to Justice Commission|~|University of New Hampshire. Library. Digital Collections,mrg_0086+application-pdf+application.pdf|~|mrg_0086+image-low-jpg+image-low.jpg|~|mrg_0086+image-tb-jpg+image-tb.jpg
Active,mrg:0087,mrg,mrg:0087,Health and equity in New Hampshire : 2013 report card,2013,Analysis of key health disparities among New Hampshire's minority populations.,Manchester Research Group (UNHM)|~|University of New Hampshire. Library. Digital Collections,,,Text,Minorities--Health and hygiene--New Hampshire|~|Youth--Health and hygiene--New Hampshire|~|Health services accessibility--New Hampshire|~|Demographic trends|~|New Hampshire--Research,"Norton, Stephen|~|Delay, Dennis",,,eng,New Hampshire Center for Public Policy Studies|~|University of New Hampshire. Library. Digital Collections,mrg_0087+application-pdf+application.pdf|~|mrg_0087+image-low-jpg+image-low.jpg|~|mrg_0087+image-tb-jpg+image-tb.jpg
Active,mrg:0088,mrg,mrg:0088,Plan to address health disparities and promote health equity in New Hampshire,2011,Analysis of access to health care and health equity in New Hampshire.,"Pooler, Jennifer|~|Korda, Holly|~|Manchester Research Group (UNHM)|~|University of New Hampshire. Library. Digital Collections",,,Text,Health services accessibility--New Hampshire|~|Minorities--Health and hygiene--New Hampshire|~|Environmental health--New Hampshire|~|Demographic trends|~|New Hampshire--Research,,,,eng,New Hampshire Health and Equity Partnership|~|University of New Hampshire. Library. Digital Collections,mrg_0088+application-pdf+application.pdf|~|mrg_0088+image-low-jpg+image-low.jpg|~|mrg_0088+image-tb-jpg+image-tb.jpg
Active,mrg:0089,mrg,mrg:0089,Resettlement at risk : meeting emerging challenges to refugee resettlement in local communities,2013,"Overview of refugee resettlement and anti-refugees in the United States, with specific information on New Hampshire and Manchester as one of three states that recently attempted to stop refugee resettlement.",Manchester Research Group (UNHM)|~|University of New Hampshire. Library. Digital Collections,,,Text,Refugees--Services for--United States|~|United States--Emigration and immigration|~|Community development--United States|~|Minorities--United States|~|Immigrants--United States|~|United States--Research,"Nezer, Melanie",,,eng,J.M. Kaplan Fund|~|University of New Hampshire. Library. Digital Collections,mrg_0089+application-pdf+application.pdf|~|mrg_0089+image-low-jpg+image-low.jpg|~|mrg_0089+image-tb-jpg+image-tb.jpg
Active,mrg:0091,mrg,mrg:0091,"State of New Hampshire action plan, 2013 : update to the 2011-2015 consolidated plan|~|State of New Hampshire action plan 2013",2013,"Brief review of programs stated in the Consolidated Plan 2011-2015. Analyzes high and medium housing priorities, high and medium homelessness priorities, and community development needs.",Manchester Research Group (UNHM)|~|University of New Hampshire. Library. Digital Collections,,,Text,Community development--New Hampshire--Periodicals|~|Home ownership--New Hampshire--Periodicals|~|Housing--New Hampshire--Periodicals|~|House buying--New Hampshire--Periodicals|~|Homelessness--New Hampshire|~|Urban renewal--New Hampshire|~|New Hampshire--Research,,,,eng,New Hampshire Housing Finance Authority|~|University of New Hampshire. Library. Digital Collections,mrg_0091+application-pdf+application.pdf|~|mrg_0091+image-low-jpg+image-low.jpg|~|mrg_0091+image-tb-jpg+image-tb.jpg
Active,mrg:0092,mrg,mrg:0092,"Global economic development strategy : Report 1: Community assessment, presented to: the city of Manchester, NH|~|Global economic development strategy- Report 1: Community assessment",2005,"This report evaluates performance in areas related to business and industry growth in Manchester, New Hampshire.",Manchester Research Group (UNHM)|~|University of New Hampshire. Library. Digital Collections,,,Text,"Economic development--New Hampshire--Manchester|~|Quality of life--New Hampshire--Manchester|~|Labor supply--New Hampshire--Manchester|~|Industries--New Hampshire--Manchester|~|Manchester (N.H.)--Economic conditions|~|City planning--New Hampshire--Manchester|~|SWOT analysis,.|~|Manchester (N.H.)--Research",Angelou Economic Advisors,,,eng,University of New Hampshire. Library. Digital Collections,mrg_0092+application-pdf+application.pdf|~|mrg_0092+image-low-jpg+image-low.jpg|~|mrg_0092+image-tb-jpg+image-tb.jpg
Active,mrg:0093,mrg,mrg:0093,Annual water quality report,2011,Report and chart summarizing the vulnerability of Manchester's public water sources.,Manchester Research Group (UNHM)|~|University of New Hampshire. Library. Digital Collections,,,Text,Water--Pollution potential--New Hampshire--Manchester|~|Water--New Hampshire--Manchester--Analysis|~|Environmental health|~|Manchester (N.H.)--Research,,,,eng,Manchester Water Works|~|University of New Hampshire. Library. Digital Collections,mrg_0093+application-pdf+application.pdf|~|mrg_0093+image-low-jpg+image-low.jpg|~|mrg_0093+image-tb-jpg+image-tb.jpg
Active,mrg:0094,mrg,mrg:0094,NH Homeless Access Survey,2012,"PDF of a PowerPoint presentation on homelessness in N.H., based on the Manchester Continuum of Care annual needs assessment.","Manchester (N.H.) Continuum of Care|~|Sisco, Tauna|~|Manchester Research Group (UNHM)|~|University of New Hampshire. Library. Digital Collections",,,Text,Homelessness--New Hampshire--Statistics|~|Homeless persons--New Hampshire--Statistics|~|Housing--New Hampshire|~|New Hampshire--Research,,,,eng,New Hampshire. Bureau of Homeless and Housing Services|~|University of New Hampshire. Library. Digital Collections,mrg_0094+application-pdf+application.pdf|~|mrg_0094+image-low-jpg+image-low.jpg|~|mrg_0094+image-tb-jpg+image-tb.jpg
Active,mrg:0095,mrg,mrg:0095,"The State of homelessness in New Hampshire, 2013",2013,"An examination of homelessness, related economic and demographic factors, and changes at the state and county levels.",Manchester Research Group (UNHM)|~|University of New Hampshire. Library. Digital Collections,,,Text,Homeless persons--New Hampshire--Statistics|~|Housing--New Hampshire--Statistics|~|New Hampshire--Research,NH Coalition to End Homelessness,,,eng,University of New Hampshire. Library. Digital Collections,mrg_0095+application-pdf+application.pdf|~|mrg_0095+image-low-jpg+image-low.jpg|~|mrg_0095+image-tb-jpg+image-tb.jpg
Active,mrg:0096,mrg,mrg:0096,Neighbor Works Southern New Hampshire 2013 Annual Report,2013,"Annual report including data, statistics, and highlights on housing projects, client stories, financial statements, and organization membership.",University of New Hampshire. Library. Digital Collections,,,Text,Housing--New Hampshire--Manchester Region--Periodicals|~|Home ownership--New Hampshire--Manchester Region--Periodicals|~|Community development--New Hampshire--Manchester Region--Periodicals|~|Manchester Metropolitan area (N.H.)--Research,,,,eng,Neighborworks Southern New Hampshire|~|University of New Hampshire. Library. Digital Collections,mrg_0096+application-pdf+application.pdf|~|mrg_0096+image-low-jpg+image-low.jpg|~|mrg_0096+image-tb-jpg+image-tb.jpg
Active,mrg:0097,mrg,mrg:0097,New Hampshire volunteer river assessment program : 2010 Black Brook water quality report|~|New Hampshire volunteer river assessment program 2010 black brook water quality report,2011,"Chart of chemical and biological data on Manchester, N.H. pond, Black Brook.",Manchester Research Group (UNHM)|~|University of New Hampshire. Library. Digital Collections,,,Text,Pond ecology--New Hampshire--Manchester|~|Water quality--New Hampshire--Manchester--Black Brook|~|Manchester (N.H.)--Research,New Hampshire. Water Division. Watershed Management Bureau,,,eng,University of New Hampshire. Library. Digital Collections,mrg_0097+application-pdf+application.pdf|~|mrg_0097+image-low-jpg+image-low.jpg|~|mrg_0097+image-tb-jpg+image-tb.jpg
Active,mrg:0098,mrg,mrg:0098,Call to action : responding to New Hampshire's prescription drug abuse epidemic,2012,Report of prescription drug abueuse in New Hampshire.,Manchester Research Group (UNHM)|~|University of New Hampshire. Library. Digital Collections,,,Text,"Prescription drugs, Drug-related-deaths, New Hampshire drug use|~|Medication abuse--New Hampshire|~|Drug abuse--New Hampshire|~|Drugs--Prescribing--New Hampshire|~|Prescriptions drugs; Drug-related deaths; Drug use--New Hampshire|~|New Hampshire--Research","New Hampshire. Governorâ€™s Commission on Alcohol and Drug Abuse Prevention, Intervention and Treatment",,,eng,University of New Hampshire. Library. Digital Collections,mrg_0098+application-pdf+application.pdf|~|mrg_0098+image-low-jpg+image-low.jpg|~|mrg_0098+image-tb-jpg+image-tb.jpg
Active,mrg:0099,mrg,mrg:0099,Capitol insight: Government affairs committee report|~|Capitol insight : Government Affairs Committee report,2012,Summarizes bills and legislations concerning business regulations and regional economic development.,Manchester Research Group (UNHM)|~|University of New Hampshire. Library. Digital Collections,,,Text,"Greater Manchester Chamber of Commerce (Manchester, N.H.)--|~|Manchester (N.H.)--Commerce--Periodicals|~|Legislation--New Hampshire--Manchester--Periodicals|~|Economic Development--New Hampshire--Periodicals|~|Non-profits, Business law|~|Manchester (N.H.)--Research","Greater Manchester Chamber of Commerce (Manchester, N.H.)",,,eng,University of New Hampshire. Library. Digital Collections,mrg_0099+application-pdf+application.pdf|~|mrg_0099+image-low-jpg+image-low.jpg|~|mrg_0099+image-tb-jpg+image-tb.jpg
Active,mrg:0100,mrg,mrg:0100,"Children's health insurance programs in New Hampshire : access, prevention, care management, utilization, and payments, state fiscal year 2010|~|Children's health insurance programs in New Hampshire : access, prevention, care management, utilization, and payments, state fiscal year 2009",2011,"Report providing a detailed evaluation and analysis of enrollment, access to care, effectiveness, and utilization of various children's' health insurance programs in N.H.","New Hampshire. Department of Health and Human Services|~|New Hampshire. Department of Health and Human Services. Office of Medicaid Business and Policy|~|Maine Health Information Center|~|Finison, Karl|~|Kinner, Amy|~|Manchester Research Group (UNHM)|~|University of New Hampshire. Library. Digital Collections",,,Text,Child health services--New Hampshire|~|Health insurance--New Hampshire|~|Youth|~|New Hampshire--Research,,,,eng,University of New Hampshire. Library. Digital Collections,mrg_0100+application-pdf+application.pdf|~|mrg_0100+image-low-jpg+image-low.jpg|~|mrg_0100+image-tb-jpg+image-tb.jpg
Active,mrg:0101,mrg,mrg:0101,"Children's health insurance programs in New Hampshire : access, prevention, care management, utilization, and payments, state fiscal year 2011",2013,"Report providing a detailed evaluation and analysis of enrollment, access to care, effectiveness, and utilization of various children's' health insurance programs in N.H.","New Hampshire. Department of Health and Human Services|~|New Hampshire. Department of Health and Human Services. Office of Medicaid Business and Policy|~|Maine Health Information Center|~|Finison, Karl|~|Kinner, Amy|~|Manchester Research Group (UNHM)|~|University of New Hampshire. Library. Digital Collections",,,Text,Child health services--New Hampshire|~|Health insurance--New Hampshire|~|Youth|~|New Hampshire--Research,,,,eng,University of New Hampshire. Library. Digital Collections,mrg_0101+application-pdf+application.pdf|~|mrg_0101+image-low-jpg+image-low.jpg|~|mrg_0101+image-tb-jpg+image-tb.jpg
Active,mrg:0102,mrg,mrg:0102,"Annual report, 2013",2013,"Granite State United Way 2013 annual report on programs and services, including financial statement.",Manchester Research Group (UNHM)|~|University of New Hampshire. Library. Digital Collections,,,Text,Granite United Way--Periodicals|~|Public welfare--New Hampshire--Periodicals|~|Social service--New Hampshire--Periodicals|~|Charities--New Hampshire--Periodicals|~|Low-income|~|New Hampshire--Research,Granite United Way,,,eng,University of New Hampshire. Library. Digital Collections,mrg_0102+application-pdf+application.pdf|~|mrg_0102+image-low-jpg+image-low.jpg|~|mrg_0102+image-tb-jpg+image-tb.jpg
Active,mrg:0103,mrg,mrg:0103,"Greater Manchester community health needs assessment, June 2013|~|The greater Manchester community health needs assessment June 2013",2013,"Needs assessment providing data and statistics on health related demographics and issues in the Manchester Health Service Area (HAS), as well as four strategic imperatives for health improvement.",Manchester Research Group (UNHM)|~|University of New Hampshire. Library. Digital Collections,,,Text,"Manchester Metropolitan Area (N.H.)--Statistics, Medical|~|Medical care--New Hampshire--Manchester Region--Statistics|~|Public health--New Hampshire--Manchester Region--Statistics|~|Manchester (N.H.)--Research","Catholic Medical Center (Manchester, N.H.)|~|Elliot Hospital (Manchester, N.H.)|~|Manchester (N.H.). Health Department",,,eng,University of New Hampshire. Library. Digital Collections,mrg_0103+application-pdf+application.pdf|~|mrg_0103+image-low-jpg+image-low.jpg|~|mrg_0103+image-tb-jpg+image-tb.jpg
Active,mrg:0104,mrg,mrg:0104,"Volunteer lake assessment program individual lake reports: Crystal lake, Manchester, New Hampshire",2012,"Biennial report of observations and recommendations based on chemical and biological data collected from Crystal Lake in Manchester, N.H.",Manchester Research Group (UNHM)|~|University of New Hampshire. Library. Digital Collections,,,Text,Water quality--New Hampshire--Manchester--Crystal Lake--Periodicals|~|Crystal Lake (N.H.)--Environmental conditions--Periodicals|~|Lake ecology--New Hampshire--Manchester--Crystal Lake--Periodicals|~|Environmental health--New Hampshire--Manchester--Crystal Lake--Periodicals|~|Manchester (N.H.)--Research,,,,eng,New Hampshire. Department of Environmental Services|~|University of New Hampshire. Library. Digital Collections,mrg_0104+application-pdf+application.pdf|~|mrg_0104+image-low-jpg+image-low.jpg|~|mrg_0104+image-tb-jpg+image-tb.jpg
Active,mrg:0105,mrg,mrg:0105,"Volunteer lake assessment program individual lake reports: Dorrs pond, Manchester, New Hampshire",2012,"Biennial report of observations and recommendations based on chemical and biological data collected from Dorrs Pond in Manchester, N.H.",Manchester Research Group (UNHM)|~|University of New Hampshire. Library. Digital Collections,,,Text,Water quality--New Hampshire--Manchester--Dorrs Pond--Periodicals|~|Dorrs Pond (N.H.)--Environmental conditions--Periodicals|~|Lake ecology--New Hampshire--Manchester--Dorrs Pond--Periodicals|~|Environmental health--New Hampshire--Manchester--Dorrs Pond--Periodicals|~|Manchester (N.H.)--Research,,,,eng,New Hampshire. Department of Environmental Services|~|University of New Hampshire. Library. Digital Collections,mrg_0105+application-pdf+application.pdf|~|mrg_0105+image-low-jpg+image-low.jpg|~|mrg_0105+image-tb-jpg+image-tb.jpg
Active,mrg:0106,mrg,mrg:0106,"Volunteer lake assessment program individual lake reports: Nutt pond, Manchester, New Hampshire",2012,"Biennial report of observations and recommendations based on chemical and biological data collected from Nutts Pond in Manchester, N.H.",Manchester Research Group (UNHM)|~|University of New Hampshire. Library. Digital Collections,,,Text,Water quality--New Hampshire--Manchester--Nutts Pond--Periodicals|~|Nutts Pond (N.H.)--Environmental conditions--Periodicals|~|Lake ecology--New Hampshire--Manchester--Nutts Pond--Periodicals|~|Environmental health--New Hampshire--Manchester--Nutts Pond--Periodicals|~|Manchester (N.H.)--Research,,,,eng,New Hampshire. Department of Environmental Services|~|University of New Hampshire. Library. Digital Collections,mrg_0106+application-pdf+application.pdf|~|mrg_0106+image-low-jpg+image-low.jpg|~|mrg_0106+image-tb-jpg+image-tb.jpg
Active,mrg:0108,mrg,mrg:0108,Positive platform for change : understanding and addressing DMC in New Hampshire|~|A positive platform for change : understanding and addressing DMC in New Hampshire,2013,"Plans to reduce, measure and take action on the disproportionate minority contact (DMC) in New Hampshire.",Manchester Research Group (UNHM)|~|University of New Hampshire. Library. Digital Collections,,,Text,"Juvenile justice, Administration of--New Hampshire|~|Minority youth--New Hampshire|~|New Hampshire--Research","Santos, Jessica",,,eng,New Hampshire. Department of Health and Human Services. Office of Minority Health and Refugee Affairs|~|University of New Hampshire. Library. Digital Collections,mrg_0108+application-pdf+application.pdf|~|mrg_0108+image-low-jpg+image-low.jpg|~|mrg_0108+image-tb-jpg+image-tb.jpg
Active,mrg:0109,mrg,mrg:0109,Economic impact analysis : Elliot hospitalâ€™s Riverâ€™s Edge Manchester,2010,"Assesment on the impact of employment and salaries in the surrounding area of Elliot Hospital, Manchester, New Hampshire, and plans for redevelopment of the site.",Manchester Research Group (UNHM)|~|University of New Hampshire. Library. Digital Collections,,,Text,"Hospitals--Economic aspects--New Hampshire--Manchester|~|Medical personnel--Salaries, etc.--New Hampshire--Manchester|~|Hospital buildings--Design and construction--Economic aspects--New Hampshire--Manchester|~|Healthcare jobs--New Hampshire--Manchester|~|Economic development--New Hampshire--Manchester|~|Manchester (N.H.)--Research",Applied Economic Research,,,eng,University of New Hampshire. Library. Digital Collections,mrg_0109+application-pdf+application.pdf|~|mrg_0109+image-low-jpg+image-low.jpg|~|mrg_0109+image-tb-jpg+image-tb.jpg
Active,mrg:0110,mrg,mrg:0110,New Hampshire Governorâ€™s Interagency Council on Homelessness : New Hampshire's homelessness plan,2011,Summary of all homelessness plans that have been implemented in New Hampshire over the past ten years.,Manchester Research Group (UNHM)|~|University of New Hampshire. Library. Digital Collections,,,Text,Housing policy--New Hampshire|~|Shelters for the homeless--New Hampshire|~|Homelessness--Prevention--Government policy--New Hampshire|~|Homelessness--Services for--New Hampshire|~|Homeless persons--Services for--New Hampshire|~|New Hampshire--Research,New Hampshire. Governor's Interagency Council on Homelessness,,,eng,University of New Hampshire. Library. Digital Collections,mrg_0110+application-pdf+application.pdf|~|mrg_0110+image-low-jpg+image-low.jpg|~|mrg_0110+image-tb-jpg+image-tb.jpg
Active,mrg:0111,mrg,mrg:0111,GrandFacts : state fact sheet for grandparents and other relatives raising children,2011,Statistics about children and grandparents living in New Hampshire and the services available to them for raising children.,Manchester Research Group (UNHM)|~|University of New Hampshire. Library. Digital Collections,,,Text,Grandparents as parents--New Hampshire|~|Kinship care--New Hampshire|~|Child health service--New Hampshire|~|Childcare--New Hampshire|~|Relative care|~|New Hampshire--Research,American Association of Retired Persons|~|Brookdale Foundation Group|~|Casey Family Programs|~|Child Welfare League of America|~|Children's Defense Fund (U.S.)|~|Generations United,,,eng,University of New Hampshire. Library. Digital Collections,mrg_0111+application-pdf+application.pdf|~|mrg_0111+image-low-jpg+image-low.jpg|~|mrg_0111+image-tb-jpg+image-tb.jpg
Active,mrg:0112,mrg,mrg:0112,"Head Start/Early Head Start, Hillsborough County : annual report, 2012-2013",2013,"Annual report containing program overview, budget breakdown, statistics, and other information about the Hillsborough County Head Start and Early Head Start programs.",Manchester Research Group (UNHM)|~|University of New Hampshire. Library. Digital Collections,,,Text,Head Start programs--New Hampshire--Hillsborough County--Periodicals|~|Early childhood education--New Hampshire--Hillsborough County--Periodicals|~|Education; Youth|~|Hillsborough County (N.H.)--Research,Southern New Hampshire Services,,,eng,University of New Hampshire. Library. Digital Collections,mrg_0112+application-pdf+application.pdf|~|mrg_0112+image-low-jpg+image-low.jpg|~|mrg_0112+image-tb-jpg+image-tb.jpg
Active,mrg:0114,mrg,mrg:0114,"Airport master plan update : appendices : Manchester-Boston Regional Airport, Manchester, New Hampshire",2011,"Draft appendices to the update for the Manchester-Boston Regional Airport master plan, assessing zoning area, flight and terminal data.","Manchester (N.H.). Department of Aviation|~|Jacobs Consultancy (Firm)|~|McFarland-Johnson, Inc.|~|Smart Associates|~|Manchester Research Group (UNHM)|~|University of New Hampshire. Library. Digital Collections",,,Text,Airports--New Hampshire--Manchester Region--Statistics|~|Airports--New Hampshire--Manchester Region--Planning|~|Manchester-Boston Regional Airport--Planning|~|Airports--New Hampshire--Manchester Region--Safety measures|~|Airport zoning--New Hampshire--Manchester Region|~|Terminals--Baggage claims|~|Manchester Metropolican Area (N.H.)--Research,URS Corporation,,,eng,University of New Hampshire. Library. Digital Collections,mrg_0114+application-pdf+application.pdf|~|mrg_0114+image-low-jpg+image-low.jpg|~|mrg_0114+image-tb-jpg+image-tb.jpg
Active,mrg:0115,mrg,mrg:0115,Manchester redistricting plan-East,2013,This study provides a description of the Manchester School District's re-districting project and uses data and statistics to explain their recommendations and plan.,Manchester Research Group (UNHM)|~|University of New Hampshire. Library. Digital Collections,,,Text,Manchester School District (N.H.)|~|School enrollment--New Hampshire--Manchester|~|Education; Youth|~|Manchester (N.H.)--Research,"Brennan, Thomas J.|~|Burke, Keith R.",,,eng,University of New Hampshire. Library. Digital Collections,mrg_0115+application-pdf+application.pdf|~|mrg_0115+image-low-jpg+image-low.jpg|~|mrg_0115+image-tb-jpg+image-tb.jpg
Active,mrg:0116,mrg,mrg:0116,Manchester redistricting plan-West,2013,This study provides a description of the Manchester School District's re-districting project and uses data and statistics to explain their recommendations and plan.,Manchester Research Group (UNHM)|~|University of New Hampshire. Library. Digital Collections,,,Text,Manchester School District (N.H.)|~|School enrollment--New Hampshire--Manchester|~|Education; Youth|~|Manchester (N.H.)--Research,"Brennan, Thomas J.|~|Burke, Keith R.",,,eng,University of New Hampshire. Library. Digital Collections,mrg_0116+application-pdf+application.pdf|~|mrg_0116+image-low-jpg+image-low.jpg|~|mrg_0116+image-tb-jpg+image-tb.jpg
Active,mrg:0118,mrg,mrg:0118,"Manchester point-in-time report, 2013",2013,"Annual point-in-time chart of homelessness in Manchester, New Hampshire.",Manchester Research Group (UNHM)|~|University of New Hampshire. Library. Digital Collections,,,Text,Homelessness--New Hampshire--Manchester--Periodicals|~|Homeless persons--New Hampshire--Manchester--Periodicals|~|Manchester (N.H.)--Research,Manchester (N.H.) Continuum of Care,,,eng,University of New Hampshire. Library. Digital Collections,mrg_0118+application-pdf+application.pdf|~|mrg_0118+image-low-jpg+image-low.jpg|~|mrg_0118+image-tb-jpg+image-tb.jpg
Active,mrg:0120,mrg,mrg:0120,New Hampshire's system for substance abuse prevention efforts and services,2013,Resource guide for plans and programs on drug and alcohol abuse treatment,Manchester Research Group (UNHM)|~|University of New Hampshire. Library. Digital Collections,,,Text,Drug abuse--Treatment--New Hampshire|~|Alcoholism--Treatment--New Hampshire|~|New Hampshire--Research,New Hampshire Department of Health and Human Services. Bureau of Drug and Alcohol Services,,,eng,University of New Hampshire. Library. Digital Collections,mrg_0120+application-pdf+application.pdf|~|mrg_0120+image-low-jpg+image-low.jpg|~|mrg_0120+image-tb-jpg+image-tb.jpg
Active,mrg:0121,mrg,mrg:0121,"New Hampshire STD/HIV Surveillance Program 5 year data summary report, 2008-2012",2013,Report listing demographic data by disease.,Manchester Research Group (UNHM)|~|University of New Hampshire. Library. Digital Collections,,,Text,HIV (Viruses)--New Hampshire--Statistics--Periodicals|~|Sexually transmitte diseases--New Hampshire--Statistics--Periodicals|~|Public health--New Hampshire--Periodicals|~|New Hampshire--Research,,,,eng,New Hampshire. Division of Public Health Services|~|University of New Hampshire. Library. Digital Collections,mrg_0121+application-pdf+application.pdf|~|mrg_0121+image-low-jpg+image-low.jpg|~|mrg_0121+image-tb-jpg+image-tb.jpg
Active,mrg:0123,mrg,mrg:0123,"New Hampshire state health improvement plan, 2013-2020 : charting a course to improve the health of New Hampshire|~|New Hampshire state health improvement plan 2013-2020",2013,"Report using data and statistics to look at key health needs in N.H. including tobacco, obesity, heart disease, cancer prevention, asthma, and infectious diseases.",Manchester Research Group (UNHM)|~|University of New Hampshire. Library. Digital Collections,,,Text,Health services administration--New Hampshire|~|Medical care--New Hampshire|~|Health initiatives|~|New Hampshire--Research,New Hampshire. Division of Public Health Services,,,eng,University of New Hampshire. Library. Digital Collections,mrg_0123+application-pdf+application.pdf|~|mrg_0123+image-low-jpg+image-low.jpg|~|mrg_0123+image-tb-jpg+image-tb.jpg
Active,mrg:0124,mrg,mrg:0124,"Occupational health surveillance immigrant survey report, February 2013|~|Occupational health surveillance immigrant survey report February 2013",2013,"Survey statistics from various immigrant groups pertaining to health, education, worker compensation and work injury.",Manchester Research Group (UNHM)|~|University of New Hampshire. Library. Digital Collections,,,Text,Emigration and immigration--Health aspects--New Hampshire|~|Workers compensation--New Hampshire|~|Immigrants--Health and hygiene--New Hampshire|~|New Hampshire--Research,New Hampshire. Division of Public Health Services|~|New Hampshire Department of Health and Human Services|~|NH COSH|~|New Hampshire. Department of Health and Human Services. Office of Minority Health and Refugee Affairs,,,eng,University of New Hampshire. Library. Digital Collections,mrg_0124+application-pdf+application.pdf|~|mrg_0124+image-low-jpg+image-low.jpg|~|mrg_0124+image-tb-jpg+image-tb.jpg
Active,mrg:0125,mrg,mrg:0125,"Maternal, infant and early childhood home visiting program: DRAFT updated state plan : for public review and comment",2011,An overview of initial community maternal health and risk factors. Maternal Infant Early Childhood (MIEC) Home Visiting Needs Assessment,Manchester Research Group (UNHM)|~|University of New Hampshire. Library. Digital Collections,,,Text,Maternal health services--New Hampshire|~|Home care services--New Hampshire|~|Home-based family services--New Hampshire|~|New Hampshire--Research,New Hampshire. Division of Public Health Services,,,eng,University of New Hampshire. Library. Digital Collections,mrg_0125+application-pdf+application.pdf|~|mrg_0125+image-low-jpg+image-low.jpg|~|mrg_0125+image-tb-jpg+image-tb.jpg
Active,mrg:0126,mrg,mrg:0126,"Greater Manchester Regional Network strategic plan for prevention, 2012-2015 : community-based, data-driven response to substance misuse and disorders",2012,Overview of three year strategic plan of prevention of substance misuse and disorders for youth and young adults in the Manchester region.,Makin' it Happen|~|New Hampshire. Department of Health and Human Services. Bureau of Drug and Alcohol Services|~|New Hampshire Charitable Foundation|~|New Hampshire Center for Excellence|~|Manchester Research Group (UNHM)|~|University of New Hampshire. Library. Digital Collections,,,Text,Substance abuse--New Hampshire--Manchester Region--Prevention|~|Young adults|~|Manchester Metropolitan Area (N.H.)--Research,"Greater Manchester Regional Network, New Hampshire Bureau of Drug and Alcohol Services, New Hampshire Charitable Foundation, New Hampshire Center for Excellence",,,eng,University of New Hampshire. Library. Digital Collections,mrg_0126+application-pdf+application.pdf|~|mrg_0126+image-low-jpg+image-low.jpg|~|mrg_0126+image-tb-jpg+image-tb.jpg
Active,mrg:0127,mrg,mrg:0127,Shaping our Future : integration from the perspective of Bhutanese young adults in New Hampshire,2013,Report of needs and immigrant integration in New Hampshire for the Bhutanese community.,Bhutanese Community of New Hampshire|~|Manchester Research Group (UNHM)|~|University of New Hampshire. Library. Digital Collections,,,Text,Refugees--Bhutan|~|Refugees--Social aspects--New Hampshire|~|Refugee children--Bhutan--Social conditions|~|Bhutan--Social life and customs|~|Bhutan--Emigration and immigration--Social aspects|~|Bhutanese resettlement|~|New Hampshire--Research,"Santos, Jessica|~|Bhandari, Devika|~|Gautam, Shyam|~|Mishra, Dixya|~|Niroula, Bishnu|~|Jessica Santos, Devika Bhandari, Shyam Gautam, Dixya Mishra, Bishnu Niroula, and The Bhutanese Community of New Hampshire",,,eng,University of New Hampshire. Library. Digital Collections,mrg_0127+application-pdf+application.pdf|~|mrg_0127+image-low-jpg+image-low.jpg|~|mrg_0127+image-tb-jpg+image-tb.jpg
Active,mrg:0128,mrg,mrg:0128,Annual report,2012,"Report discusses the various programs and services offered by SNHS (including child education, housing, workforce development, energy and heat assistance, and health and nutrition), as well as their funding levels and sources.",Manchester Research Group (UNHM)|~|University of New Hampshire. Library. Digital Collections,,,Text,Human services--New Hampshire--Rockingham County--Periodicals|~|Human services--New Hampshire--Hillsborough County--Periodicals|~|Low-income|~|New Hampshire--Research,Southern New Hampshire Services,,,eng,University of New Hampshire. Library. Digital Collections,mrg_0128+application-pdf+application.pdf|~|mrg_0128+image-low-jpg+image-low.jpg|~|mrg_0128+image-tb-jpg+image-tb.jpg
Active,mrg:0130,mrg,mrg:0130,The state of homelessness in New Hampshire 2013,2013,"Annual point-in-time chart of homelessness in Manchester, New Hampshire.",Manchester Research Group (UNHM)|~|University of New Hampshire. Library. Digital Collections,,,Text,Homelessness--New Hampshire--Manchester--Periodicals|~|Homeless persons--New Hampshire--Manchester--Periodicals|~|Manchester (N.H.)--Research,Manchester (N.H.) Continuum of Care,,,eng,University of New Hampshire. Library. Digital Collections,mrg_0130+application-pdf+application.pdf|~|mrg_0130+image-low-jpg+image-low.jpg|~|mrg_0130+image-tb-jpg+image-tb.jpg
Active,mrg:0132,mrg,mrg:0132,Annual water quality report,2013,Report and chart summarizing the vulnerability of Manchester's public water sources.,Manchester Research Group (UNHM)|~|University of New Hampshire. Library. Digital Collections,,,Text,Water--Pollution potential--New Hampshire--Manchester|~|Water--New Hampshire--Manchester--Analysis|~|Environmental health|~|Manchester (N.H.)--Research,,,,eng,Manchester Water Works|~|University of New Hampshire. Library. Digital Collections,mrg_0132+application-pdf+application.pdf|~|mrg_0132+image-low-jpg+image-low.jpg|~|mrg_0132+image-tb-jpg+image-tb.jpg
Active,mrg:0134,mrg,mrg:0134,"New Hampshire refugee resettlement, '98-'13",2013,Point in time counts of resettled refugees in towns and cities in New Hampshire,New Hampshire. Department of Health and Human Services|~|Manchester Research Group (UNHM)|~|University of New Hampshire. Library. Digital Collections,,,Text,Refugees--New Hampshire--Statistics|~|Refugee resettlement|~|New Hampshire--Research,New Hampshire Refugee Program,,,eng,University of New Hampshire. Library. Digital Collections,mrg_0134+application-pdf+application.pdf|~|mrg_0134+image-low-jpg+image-low.jpg|~|mrg_0134+image-tb-jpg+image-tb.jpg
Active,mrg:0135,mrg,mrg:0135,"Collective action, collective impact : New Hampshire's strategy for reducing the misuse of alcohol and other drugs and promoting recovery",2013,Provides information on how to reduce the misuse of alcohol and other drugs in New Hampshire.,Manchester Research Group (UNHM)|~|University of New Hampshire. Library. Digital Collections,,,Text,Drug abuse--New Hampshire|~|Alcoholism--New Hampshire|~|Substance abuse--Treatment--New Hampshire|~|Drug abuse--Treatment--New Hampshire|~|Alcoholism--Treatment--New Hampshire|~|Addicts--Rehabilitation--New Hampshire|~|Recovery|~|New Hampshire--Research,"New Hampshire. Governorâ€™s Commission on Alcohol and Drug Abuse Prevention, Intervention and Treatment",,,eng,University of New Hampshire. Library. Digital Collections,mrg_0135+application-pdf+application.pdf|~|mrg_0135+image-low-jpg+image-low.jpg|~|mrg_0135+image-tb-jpg+image-tb.jpg
