state,pid,collection,dcterms:identifier,dcterms:title,dcterms:date,dcterms:description,dcterms:contributor,dcterms:rights,dcterms:format,dcterms:type,dcterms:subject,dcterms:creator,dcterms:relation,dcterms:coverage,dcterms:language,dcterms:publisher,files
Active,pelham:1000,pelham,pelham:1000|~|annualreport2004pelham,"Annual report of the Town of Pelham, New Hampshire, 2004",2005,Title varies|~|Imprint varies|~|Report year varies,University of New Hampshire. Library. Digital Collections.,,,Text,Pelham (N.H. : Town) -- Appropriations and expenditures -- Periodicals,Pelham (N.H. : Town),,,Eng,"[Pelham, N.H. : The Town]|~|University of New Hampshire. Library. Digital Collections.",pelham_1000+application-pdf+application.pdf|~|pelham_1000+image-low-jpg+image-low.jpg|~|pelham_1000+image-tb-jpg+image-tb.jpg
Active,pelham:1001,pelham,pelham:1001|~|annualreport2005pelham,"Annual report of the Town of Pelham, New Hampshire, 2005",2006,Title varies|~|Imprint varies|~|Report year varies,University of New Hampshire. Library. Digital Collections.,,,Text,Pelham (N.H. : Town) -- Appropriations and expenditures -- Periodicals,Pelham (N.H. : Town),,,Eng,"[Pelham, N.H. : The Town]|~|University of New Hampshire. Library. Digital Collections.",pelham_1001+application-pdf+application.pdf|~|pelham_1001+image-low-jpg+image-low.jpg|~|pelham_1001+image-tb-jpg+image-tb.jpg
Active,pelham:1002,pelham,pelham:1002|~|annualreport2006pelham,"Annual report of the Town of Pelham, New Hampshire, 2006",2007,Title varies|~|Imprint varies|~|Report year varies,University of New Hampshire. Library. Digital Collections.,,,Text,Pelham (N.H. : Town) -- Appropriations and expenditures -- Periodicals,Pelham (N.H. : Town),,,Eng,"[Pelham, N.H. : The Town]|~|University of New Hampshire. Library. Digital Collections.",pelham_1002+application-pdf+application.pdf|~|pelham_1002+image-low-jpg+image-low.jpg|~|pelham_1002+image-tb-jpg+image-tb.jpg
Active,pelham:1003,pelham,pelham:1003|~|annualreport2007pelham,"Annual report of the Town of Pelham, New Hampshire, 2007",2008,Title varies|~|Imprint varies|~|Report year varies,University of New Hampshire. Library. Digital Collections.,,,Text,Pelham (N.H. : Town) -- Appropriations and expenditures -- Periodicals,Pelham (N.H. : Town),,,Eng,"[Pelham, N.H. : The Town]|~|University of New Hampshire. Library. Digital Collections.",pelham_1003+application-pdf+application.pdf|~|pelham_1003+image-low-jpg+image-low.jpg|~|pelham_1003+image-tb-jpg+image-tb.jpg
Active,pelham:1004,pelham,pelham:1004|~|annualreport2008pelham,"Annual report of the Town of Pelham, New Hampshire, 2008",2009,Title varies|~|Imprint varies|~|Report year varies,University of New Hampshire. Library. Digital Collections.,,,Text,Pelham (N.H. : Town) -- Appropriations and expenditures -- Periodicals,Pelham (N.H. : Town),,,Eng,"[Pelham, N.H. : The Town]|~|University of New Hampshire. Library. Digital Collections.",pelham_1004+application-pdf+application.pdf|~|pelham_1004+image-low-jpg+image-low.jpg|~|pelham_1004+image-tb-jpg+image-tb.jpg
Active,pelham:1005,pelham,pelham:1005|~|annualreport2009pelham,"Annual report of the Town of Pelham, New Hampshire, 2009",2010,Title varies|~|Imprint varies|~|Report year varies,University of New Hampshire. Library. Digital Collections.,,,Text,Pelham (N.H. : Town) -- Appropriations and expenditures -- Periodicals,Pelham (N.H. : Town),,,Eng,"[Pelham, N.H. : The Town]|~|University of New Hampshire. Library. Digital Collections.",pelham_1005+application-pdf+application.pdf|~|pelham_1005+image-low-jpg+image-low.jpg|~|pelham_1005+image-tb-jpg+image-tb.jpg
Active,pelham:1006,pelham,pelham:1006|~|annualreport2010pelham,"Annual report of the Town of Pelham, New Hampshire, 2010",2011,Title varies|~|Imprint varies|~|Report year varies,University of New Hampshire. Library. Digital Collections.,,,Text,Pelham (N.H. : Town) -- Appropriations and expenditures -- Periodicals,Pelham (N.H. : Town),,,Eng,"[Pelham, N.H. : The Town]|~|University of New Hampshire. Library. Digital Collections.",pelham_1006+application-pdf+application.pdf|~|pelham_1006+image-low-jpg+image-low.jpg|~|pelham_1006+image-tb-jpg+image-tb.jpg
Active,pelham:1007,pelham,pelham:1007|~|annualreport2011pelham,"Annual report of the Town of Pelham, New Hampshire, 2011",2012,Title varies|~|Imprint varies|~|Report year varies,University of New Hampshire. Library. Digital Collections.,,,Text,Pelham (N.H. : Town) -- Appropriations and expenditures -- Periodicals,Pelham (N.H. : Town),,,Eng,"[Pelham, N.H. : The Town]|~|University of New Hampshire. Library. Digital Collections.",pelham_1007+application-pdf+application.pdf|~|pelham_1007+image-low-jpg+image-low.jpg|~|pelham_1007+image-tb-jpg+image-tb.jpg
Active,pelham:1970,pelham,pelham:1970|~|annualreport1970pelham,"Annual report of the Town of Pelham, New Hampshire, 1970",1971,Title varies|~|Imprint varies|~|Report year varies,University of New Hampshire. Library. Digital Collections.,,,Text,Pelham (N.H. : Town) -- Appropriations and expenditures -- Periodicals,Pelham (N.H. : Town),,,Eng,"[Pelham, N.H. : The Town]|~|University of New Hampshire. Library. Digital Collections.",pelham_1970+application-pdf+application.pdf|~|pelham_1970+image-low-jpg+image-low.jpg|~|pelham_1970+image-tb-jpg+image-tb.jpg
Active,pelham:1971,pelham,pelham:1971|~|annualreport1971pelham,"Annual report of the Town of Pelham, New Hampshire, 1971",1972,Title varies|~|Imprint varies|~|Report year varies,University of New Hampshire. Library. Digital Collections.,,,Text,Pelham (N.H. : Town) -- Appropriations and expenditures -- Periodicals,Pelham (N.H. : Town),,,Eng,"[Pelham, N.H. : The Town]|~|University of New Hampshire. Library. Digital Collections.",pelham_1971+application-pdf+application.pdf|~|pelham_1971+image-low-jpg+image-low.jpg|~|pelham_1971+image-tb-jpg+image-tb.jpg
Active,pelham:1972,pelham,pelham:1972|~|annualreport1972pelham,"Annual report of the Town of Pelham, New Hampshire, 1972",1973,Title varies|~|Imprint varies|~|Report year varies,University of New Hampshire. Library. Digital Collections.,,,Text,Pelham (N.H. : Town) -- Appropriations and expenditures -- Periodicals,Pelham (N.H. : Town),,,Eng,"[Pelham, N.H. : The Town]|~|University of New Hampshire. Library. Digital Collections.",pelham_1972+application-pdf+application.pdf|~|pelham_1972+image-low-jpg+image-low.jpg|~|pelham_1972+image-tb-jpg+image-tb.jpg
Active,pelham:1973,pelham,pelham:1973|~|annualreport1973pelham,"Annual report of the Town of Pelham, New Hampshire, 1973",1974,Title varies|~|Imprint varies|~|Report year varies,University of New Hampshire. Library. Digital Collections.,,,Text,Pelham (N.H. : Town) -- Appropriations and expenditures -- Periodicals,Pelham (N.H. : Town),,,Eng,"[Pelham, N.H. : The Town]|~|University of New Hampshire. Library. Digital Collections.",pelham_1973+application-pdf+application.pdf|~|pelham_1973+image-low-jpg+image-low.jpg|~|pelham_1973+image-tb-jpg+image-tb.jpg
Active,pelham:1974,pelham,pelham:1974|~|annualreport1974pelham,"Annual report of the Town of Pelham, New Hampshire, 1974",1975,Title varies|~|Imprint varies|~|Report year varies,University of New Hampshire. Library. Digital Collections.,,,Text,Pelham (N.H. : Town) -- Appropriations and expenditures -- Periodicals,Pelham (N.H. : Town),,,Eng,"[Pelham, N.H. : The Town]|~|University of New Hampshire. Library. Digital Collections.",pelham_1974+application-pdf+application.pdf|~|pelham_1974+image-low-jpg+image-low.jpg|~|pelham_1974+image-tb-jpg+image-tb.jpg
Active,pelham:1976,pelham,pelham:1976|~|annualreport1976pelham,"Annual report of the Town of Pelham, New Hampshire, 1976",1977,Title varies|~|Imprint varies|~|Report year varies,University of New Hampshire. Library. Digital Collections.,,,Text,Pelham (N.H. : Town) -- Appropriations and expenditures -- Periodicals,Pelham (N.H. : Town),,,Eng,"[Pelham, N.H. : The Town]|~|University of New Hampshire. Library. Digital Collections.",pelham_1976+application-pdf+application.pdf|~|pelham_1976+image-low-jpg+image-low.jpg|~|pelham_1976+image-tb-jpg+image-tb.jpg
Active,pelham:1977,pelham,pelham:1977|~|annualreport1977pelham,"Annual report of the Town of Pelham, New Hampshire, 1977",1978,Title varies|~|Imprint varies|~|Report year varies,University of New Hampshire. Library. Digital Collections.,,,Text,Pelham (N.H. : Town) -- Appropriations and expenditures -- Periodicals,Pelham (N.H. : Town),,,Eng,"[Pelham, N.H. : The Town]|~|University of New Hampshire. Library. Digital Collections.",pelham_1977+application-pdf+application.pdf|~|pelham_1977+image-low-jpg+image-low.jpg|~|pelham_1977+image-tb-jpg+image-tb.jpg
