state,pid,collection,dcterms:identifier,dcterms:title,dcterms:date,dcterms:description,dcterms:contributor,dcterms:rights,dcterms:format,dcterms:type,dcterms:subject,dcterms:creator,dcterms:relation,dcterms:coverage,dcterms:language,dcterms:publisher,files
Active,pittsfield:0001,pittsfield,http://www.archive.org/details/annualreportofto1937pitt|~|pittsfield:0001,"Annual report of the Town of Pittsfield, New Hampshire, 1937",1937,Title varies|~|Imprint varies|~|Report year varies,"University of New Hampshire. Library. Digital Collections.|~|Scanned by Internet Archive, Open Content Alliance (2013)",,,Text,Pittsfield (N.H. : Town) -- Appropriations and expenditures -- Periodicals,Pittsfield (N.H. : Town),,,Eng,Pittsfield (N.H. : Town),pittsfield_0001+application-pdf+application.pdf|~|pittsfield_0001+image-low-jpg+image-low.jpg|~|pittsfield_0001+image-tb-jpg+image-tb.jpg
Active,pittsfield:0002,pittsfield,http://www.archive.org/details/annualreportofto1939pitt|~|pittsfield:0002,"Annual report of the Town of Pittsfield, New Hampshire, 1939",1939,Title varies|~|Imprint varies|~|Report year varies,"University of New Hampshire. Library. Digital Collections.|~|Scanned by Internet Archive, Open Content Alliance (2013)",,,Text,Pittsfield (N.H. : Town) -- Appropriations and expenditures -- Periodicals,Pittsfield (N.H. : Town),,,Eng,Pittsfield (N.H. : Town),pittsfield_0002+application-pdf+application.pdf|~|pittsfield_0002+image-low-jpg+image-low.jpg|~|pittsfield_0002+image-tb-jpg+image-tb.jpg
Active,pittsfield:0003,pittsfield,http://www.archive.org/details/annualreportofto1940pitt|~|pittsfield:0003,"Annual report of the Town of Pittsfield, New Hampshire, 1940",1940,Title varies|~|Imprint varies|~|Report year varies,"University of New Hampshire. Library. Digital Collections.|~|Scanned by Internet Archive, Open Content Alliance (2013)",,,Text,Pittsfield (N.H. : Town) -- Appropriations and expenditures -- Periodicals,Pittsfield (N.H. : Town),,,Eng,Pittsfield (N.H. : Town),pittsfield_0003+application-pdf+application.pdf|~|pittsfield_0003+image-low-jpg+image-low.jpg|~|pittsfield_0003+image-tb-jpg+image-tb.jpg
Active,pittsfield:0004,pittsfield,http://www.archive.org/details/annualreportofto1941pitt|~|pittsfield:0004,"Annual report of the Town of Pittsfield, New Hampshire, 1941",1942,Title varies|~|Imprint varies|~|Report year varies,"University of New Hampshire. Library. Digital Collections.|~|Scanned by Internet Archive, Open Content Alliance (2013)",,,Text,Pittsfield (N.H. : Town) -- Appropriations and expenditures -- Periodicals,Pittsfield (N.H. : Town),,,Eng,Pittsfield (N.H. : Town),pittsfield_0004+application-pdf+application.pdf|~|pittsfield_0004+image-low-jpg+image-low.jpg|~|pittsfield_0004+image-tb-jpg+image-tb.jpg
Active,pittsfield:0005,pittsfield,http://www.archive.org/details/annualreportofto1947pitt|~|pittsfield:0005,"Annual report of the Town of Pittsfield, New Hampshire, 1947",1948,Title varies|~|Imprint varies|~|Report year varies,"University of New Hampshire. Library. Digital Collections.|~|Scanned by Internet Archive, Open Content Alliance (2013)",,,Text,Pittsfield (N.H. : Town) -- Appropriations and expenditures -- Periodicals,Pittsfield (N.H. : Town),,,Eng,Pittsfield (N.H. : Town),pittsfield_0005+application-pdf+application.pdf|~|pittsfield_0005+image-low-jpg+image-low.jpg|~|pittsfield_0005+image-tb-jpg+image-tb.jpg
Active,pittsfield:0006,pittsfield,http://www.archive.org/details/annualreportofto1952pitt|~|pittsfield:0006,"Annual report of the Town of Pittsfield, New Hampshire, 1952",1953,Title varies|~|Imprint varies|~|Report year varies,"University of New Hampshire. Library. Digital Collections.|~|Scanned by Internet Archive, Open Content Alliance (2013)",,,Text,Pittsfield (N.H. : Town) -- Appropriations and expenditures -- Periodicals,Pittsfield (N.H. : Town),,,Eng,Pittsfield (N.H. : Town),pittsfield_0006+application-pdf+application.pdf|~|pittsfield_0006+image-low-jpg+image-low.jpg|~|pittsfield_0006+image-tb-jpg+image-tb.jpg
Active,pittsfield:0007,pittsfield,http://www.archive.org/details/annualreportofto1953pitt|~|pittsfield:0007,"Annual report of the Town of Pittsfield, New Hampshire, 1953",1954,Title varies|~|Imprint varies|~|Report year varies,"University of New Hampshire. Library. Digital Collections.|~|Scanned by Internet Archive, Open Content Alliance (2013)",,,Text,Pittsfield (N.H. : Town) -- Appropriations and expenditures -- Periodicals,Pittsfield (N.H. : Town),,,Eng,Pittsfield (N.H. : Town),pittsfield_0007+application-pdf+application.pdf|~|pittsfield_0007+image-low-jpg+image-low.jpg|~|pittsfield_0007+image-tb-jpg+image-tb.jpg
Active,pittsfield:0008,pittsfield,http://www.archive.org/details/annualreportofto1954pitt|~|pittsfield:0008,"Annual report of the Town of Pittsfield, New Hampshire, 1954",1955,Title varies|~|Imprint varies|~|Report year varies,"University of New Hampshire. Library. Digital Collections.|~|Scanned by Internet Archive, Open Content Alliance (2013)",,,Text,Pittsfield (N.H. : Town) -- Appropriations and expenditures -- Periodicals,Pittsfield (N.H. : Town),,,Eng,Pittsfield (N.H. : Town),pittsfield_0008+application-pdf+application.pdf|~|pittsfield_0008+image-low-jpg+image-low.jpg|~|pittsfield_0008+image-tb-jpg+image-tb.jpg
Active,pittsfield:0009,pittsfield,http://www.archive.org/details/annualreportofto1955pitt|~|pittsfield:0009,"Annual report of the Town of Pittsfield, New Hampshire, 1955",1956,Title varies|~|Imprint varies|~|Report year varies,"University of New Hampshire. Library. Digital Collections.|~|Scanned by Internet Archive, Open Content Alliance (2013)",,,Text,Pittsfield (N.H. : Town) -- Appropriations and expenditures -- Periodicals,Pittsfield (N.H. : Town),,,Eng,Pittsfield (N.H. : Town),pittsfield_0009+application-pdf+application.pdf|~|pittsfield_0009+image-low-jpg+image-low.jpg|~|pittsfield_0009+image-tb-jpg+image-tb.jpg
Active,pittsfield:0010,pittsfield,http://www.archive.org/details/annualreportofto1956pitt|~|pittsfield:0010,"Annual report of the Town of Pittsfield, New Hampshire, 1956",1957,Title varies|~|Imprint varies|~|Report year varies,"University of New Hampshire. Library. Digital Collections.|~|Scanned by Internet Archive, Open Content Alliance (2013)",,,Text,Pittsfield (N.H. : Town) -- Appropriations and expenditures -- Periodicals,Pittsfield (N.H. : Town),,,Eng,Pittsfield (N.H. : Town),pittsfield_0010+application-pdf+application.pdf|~|pittsfield_0010+image-low-jpg+image-low.jpg|~|pittsfield_0010+image-tb-jpg+image-tb.jpg
Active,pittsfield:0011,pittsfield,http://www.archive.org/details/annualreportofto1957pitt|~|pittsfield:0011,"Annual report of the Town of Pittsfield, New Hampshire, 1957",1958,Title varies|~|Imprint varies|~|Report year varies,"University of New Hampshire. Library. Digital Collections.|~|Scanned by Internet Archive, Open Content Alliance (2013)",,,Text,Pittsfield (N.H. : Town) -- Appropriations and expenditures -- Periodicals,Pittsfield (N.H. : Town),,,Eng,Pittsfield (N.H. : Town),pittsfield_0011+application-pdf+application.pdf|~|pittsfield_0011+image-low-jpg+image-low.jpg|~|pittsfield_0011+image-tb-jpg+image-tb.jpg
Active,pittsfield:0012,pittsfield,http://www.archive.org/details/annualreportofto1958pitt|~|pittsfield:0012,"Annual report of the Town of Pittsfield, New Hampshire, 1958",1959,Title varies|~|Imprint varies|~|Report year varies,"University of New Hampshire. Library. Digital Collections.|~|Scanned by Internet Archive, Open Content Alliance (2013)",,,Text,Pittsfield (N.H. : Town) -- Appropriations and expenditures -- Periodicals,Pittsfield (N.H. : Town),,,Eng,Pittsfield (N.H. : Town),pittsfield_0012+application-pdf+application.pdf|~|pittsfield_0012+image-low-jpg+image-low.jpg|~|pittsfield_0012+image-tb-jpg+image-tb.jpg
Active,pittsfield:0013,pittsfield,http://www.archive.org/details/annualreportofto1959pitt|~|pittsfield:0013,"Annual report of the Town of Pittsfield, New Hampshire, 1959",1960,Title varies|~|Imprint varies|~|Report year varies,"University of New Hampshire. Library. Digital Collections.|~|Scanned by Internet Archive, Open Content Alliance (2013)",,,Text,Pittsfield (N.H. : Town) -- Appropriations and expenditures -- Periodicals,Pittsfield (N.H. : Town),,,Eng,Pittsfield (N.H. : Town),pittsfield_0013+application-pdf+application.pdf|~|pittsfield_0013+image-low-jpg+image-low.jpg|~|pittsfield_0013+image-tb-jpg+image-tb.jpg
Active,pittsfield:0014,pittsfield,http://www.archive.org/details/annualreportofto1960pitt|~|pittsfield:0014,"Annual report of the Town of Pittsfield, New Hampshire, 1960",1961,Title varies|~|Imprint varies|~|Report year varies,"University of New Hampshire. Library. Digital Collections.|~|Scanned by Internet Archive, Open Content Alliance (2013)",,,Text,Pittsfield (N.H. : Town) -- Appropriations and expenditures -- Periodicals,Pittsfield (N.H. : Town),,,Eng,Pittsfield (N.H. : Town),pittsfield_0014+application-pdf+application.pdf|~|pittsfield_0014+image-low-jpg+image-low.jpg|~|pittsfield_0014+image-tb-jpg+image-tb.jpg
Active,pittsfield:0015,pittsfield,http://www.archive.org/details/annualreportofto1961pitt|~|pittsfield:0015,"Annual report of the Town of Pittsfield, New Hampshire, 1961",1962,Title varies|~|Imprint varies|~|Report year varies,"University of New Hampshire. Library. Digital Collections.|~|Scanned by Internet Archive, Open Content Alliance (2013)",,,Text,Pittsfield (N.H. : Town) -- Appropriations and expenditures -- Periodicals,Pittsfield (N.H. : Town),,,Eng,Pittsfield (N.H. : Town),pittsfield_0015+application-pdf+application.pdf|~|pittsfield_0015+image-low-jpg+image-low.jpg|~|pittsfield_0015+image-tb-jpg+image-tb.jpg
Active,pittsfield:0016,pittsfield,http://www.archive.org/details/annualreportofto1963pitt|~|pittsfield:0016,"Annual report of the Town of Pittsfield, New Hampshire, 1963",1964,Title varies|~|Imprint varies|~|Report year varies,"University of New Hampshire. Library. Digital Collections.|~|Scanned by Internet Archive, Open Content Alliance (2013)",,,Text,Pittsfield (N.H. : Town) -- Appropriations and expenditures -- Periodicals,Pittsfield (N.H. : Town),,,Eng,Pittsfield (N.H. : Town),pittsfield_0016+application-pdf+application.pdf|~|pittsfield_0016+image-low-jpg+image-low.jpg|~|pittsfield_0016+image-tb-jpg+image-tb.jpg
Active,pittsfield:0017,pittsfield,http://www.archive.org/details/annualreportofto1964pitt|~|pittsfield:0017,"Annual report of the Town of Pittsfield, New Hampshire, 1964",1965,Title varies|~|Imprint varies|~|Report year varies,"University of New Hampshire. Library. Digital Collections.|~|Scanned by Internet Archive, Open Content Alliance (2013)",,,Text,Pittsfield (N.H. : Town) -- Appropriations and expenditures -- Periodicals,Pittsfield (N.H. : Town),,,Eng,Pittsfield (N.H. : Town),pittsfield_0017+application-pdf+application.pdf|~|pittsfield_0017+image-low-jpg+image-low.jpg|~|pittsfield_0017+image-tb-jpg+image-tb.jpg
Active,pittsfield:0018,pittsfield,http://www.archive.org/details/annualreportofto1965pitt|~|pittsfield:0018,"Annual report of the Town of Pittsfield, New Hampshire, 1965",1966,Title varies|~|Imprint varies|~|Report year varies,"University of New Hampshire. Library. Digital Collections.|~|Scanned by Internet Archive, Open Content Alliance (2013)",,,Text,Pittsfield (N.H. : Town) -- Appropriations and expenditures -- Periodicals,Pittsfield (N.H. : Town),,,Eng,Pittsfield (N.H. : Town),pittsfield_0018+application-pdf+application.pdf|~|pittsfield_0018+image-low-jpg+image-low.jpg|~|pittsfield_0018+image-tb-jpg+image-tb.jpg
Active,pittsfield:0019,pittsfield,http://www.archive.org/details/annualreportofto1966pitt|~|pittsfield:0019,"Annual report of the Town of Pittsfield, New Hampshire, 1966",1967,Title varies|~|Imprint varies|~|Report year varies,"University of New Hampshire. Library. Digital Collections.|~|Scanned by Internet Archive, Open Content Alliance (2013)",,,Text,Pittsfield (N.H. : Town) -- Appropriations and expenditures -- Periodicals,Pittsfield (N.H. : Town),,,Eng,Pittsfield (N.H. : Town),pittsfield_0019+application-pdf+application.pdf|~|pittsfield_0019+image-low-jpg+image-low.jpg|~|pittsfield_0019+image-tb-jpg+image-tb.jpg
Active,pittsfield:0020,pittsfield,http://www.archive.org/details/annualreportofto1967pitt|~|pittsfield:0020,"Annual report of the Town of Pittsfield, New Hampshire, 1967",1968,Title varies|~|Imprint varies|~|Report year varies,"University of New Hampshire. Library. Digital Collections.|~|Scanned by Internet Archive, Open Content Alliance (2013)",,,Text,Pittsfield (N.H. : Town) -- Appropriations and expenditures -- Periodicals,Pittsfield (N.H. : Town),,,Eng,Pittsfield (N.H. : Town),pittsfield_0020+application-pdf+application.pdf|~|pittsfield_0020+image-low-jpg+image-low.jpg|~|pittsfield_0020+image-tb-jpg+image-tb.jpg
Active,pittsfield:0021,pittsfield,http://www.archive.org/details/annualreportofto1968pitt|~|pittsfield:0021,"Annual report of the Town of Pittsfield, New Hampshire, 1968",1969,Title varies|~|Imprint varies|~|Report year varies,"University of New Hampshire. Library. Digital Collections.|~|Scanned by Internet Archive, Open Content Alliance (2013)",,,Text,Pittsfield (N.H. : Town) -- Appropriations and expenditures -- Periodicals,Pittsfield (N.H. : Town),,,Eng,Pittsfield (N.H. : Town),pittsfield_0021+application-pdf+application.pdf|~|pittsfield_0021+image-low-jpg+image-low.jpg|~|pittsfield_0021+image-tb-jpg+image-tb.jpg
Active,pittsfield:0022,pittsfield,http://www.archive.org/details/annualreportofto1969pitt|~|pittsfield:0022,"Annual report of the Town of Pittsfield, New Hampshire, 1969",1970,Title varies|~|Imprint varies|~|Report year varies,"University of New Hampshire. Library. Digital Collections.|~|Scanned by Internet Archive, Open Content Alliance (2013)",,,Text,Pittsfield (N.H. : Town) -- Appropriations and expenditures -- Periodicals,Pittsfield (N.H. : Town),,,Eng,Pittsfield (N.H. : Town),pittsfield_0022+application-pdf+application.pdf|~|pittsfield_0022+image-low-jpg+image-low.jpg|~|pittsfield_0022+image-tb-jpg+image-tb.jpg
Active,pittsfield:0023,pittsfield,http://www.archive.org/details/annualreportofto1971pitt|~|pittsfield:0023,"Annual report of the Town of Pittsfield, New Hampshire, 1971",1972,Title varies|~|Imprint varies|~|Report year varies,"University of New Hampshire. Library. Digital Collections.|~|Scanned by Internet Archive, Open Content Alliance (2013)",,,Text,Pittsfield (N.H. : Town) -- Appropriations and expenditures -- Periodicals,Pittsfield (N.H. : Town),,,Eng,Pittsfield (N.H. : Town),pittsfield_0023+application-pdf+application.pdf|~|pittsfield_0023+image-low-jpg+image-low.jpg|~|pittsfield_0023+image-tb-jpg+image-tb.jpg
Active,pittsfield:0024,pittsfield,http://www.archive.org/details/annualreportofto1973pitt|~|pittsfield:0024,"Annual report of the Town of Pittsfield, New Hampshire, 1973",1974,Title varies|~|Imprint varies|~|Report year varies,"University of New Hampshire. Library. Digital Collections.|~|Scanned by Internet Archive, Open Content Alliance (2013)",,,Text,Pittsfield (N.H. : Town) -- Appropriations and expenditures -- Periodicals,Pittsfield (N.H. : Town),,,Eng,Pittsfield (N.H. : Town),pittsfield_0024+application-pdf+application.pdf|~|pittsfield_0024+image-low-jpg+image-low.jpg|~|pittsfield_0024+image-tb-jpg+image-tb.jpg
Active,pittsfield:0025,pittsfield,http://www.archive.org/details/annualreportofto1974pitt|~|pittsfield:0025,"Annual report of the Town of Pittsfield, New Hampshire, 1974",1975,Title varies|~|Imprint varies|~|Report year varies,"University of New Hampshire. Library. Digital Collections.|~|Scanned by Internet Archive, Open Content Alliance (2013)",,,Text,Pittsfield (N.H. : Town) -- Appropriations and expenditures -- Periodicals,Pittsfield (N.H. : Town),,,Eng,Pittsfield (N.H. : Town),pittsfield_0025+application-pdf+application.pdf|~|pittsfield_0025+image-low-jpg+image-low.jpg|~|pittsfield_0025+image-tb-jpg+image-tb.jpg
Active,pittsfield:0026,pittsfield,http://www.archive.org/details/annualreportofto1975pitt|~|pittsfield:0026,"Annual report of the Town of Pittsfield, New Hampshire, 1975",1976,Title varies|~|Imprint varies|~|Report year varies,"University of New Hampshire. Library. Digital Collections.|~|Scanned by Internet Archive, Open Content Alliance (2013)",,,Text,Pittsfield (N.H. : Town) -- Appropriations and expenditures -- Periodicals,Pittsfield (N.H. : Town),,,Eng,Pittsfield (N.H. : Town),pittsfield_0026+application-pdf+application.pdf|~|pittsfield_0026+image-low-jpg+image-low.jpg|~|pittsfield_0026+image-tb-jpg+image-tb.jpg
Active,pittsfield:0027,pittsfield,http://www.archive.org/details/annualreportofto1976pitt|~|pittsfield:0027,"Annual report of the Town of Pittsfield, New Hampshire, 1976",1977,Title varies|~|Imprint varies|~|Report year varies,"University of New Hampshire. Library. Digital Collections.|~|Scanned by Internet Archive, Open Content Alliance (2013)",,,Text,Pittsfield (N.H. : Town) -- Appropriations and expenditures -- Periodicals,Pittsfield (N.H. : Town),,,Eng,Pittsfield (N.H. : Town),pittsfield_0027+application-pdf+application.pdf|~|pittsfield_0027+image-low-jpg+image-low.jpg|~|pittsfield_0027+image-tb-jpg+image-tb.jpg
Active,pittsfield:0028,pittsfield,http://www.archive.org/details/annualreportofto1977pitt|~|pittsfield:0028,"Annual report of the Town of Pittsfield, New Hampshire, 1977",1978,Title varies|~|Imprint varies|~|Report year varies,"University of New Hampshire. Library. Digital Collections.|~|Scanned by Internet Archive, Open Content Alliance (2013)",,,Text,Pittsfield (N.H. : Town) -- Appropriations and expenditures -- Periodicals,Pittsfield (N.H. : Town),,,Eng,Pittsfield (N.H. : Town),pittsfield_0028+application-pdf+application.pdf|~|pittsfield_0028+image-low-jpg+image-low.jpg|~|pittsfield_0028+image-tb-jpg+image-tb.jpg
Active,pittsfield:0029,pittsfield,http://www.archive.org/details/annualreportofto1978pitt|~|pittsfield:0029,"Annual report of the Town of Pittsfield, New Hampshire, 1978",1979,Title varies|~|Imprint varies|~|Report year varies,"University of New Hampshire. Library. Digital Collections.|~|Scanned by Internet Archive, Open Content Alliance (2013)",,,Text,Pittsfield (N.H. : Town) -- Appropriations and expenditures -- Periodicals,Pittsfield (N.H. : Town),,,Eng,Pittsfield (N.H. : Town),pittsfield_0029+application-pdf+application.pdf|~|pittsfield_0029+image-low-jpg+image-low.jpg|~|pittsfield_0029+image-tb-jpg+image-tb.jpg
Active,pittsfield:0030,pittsfield,http://www.archive.org/details/annualreportofto1979pitt|~|pittsfield:0030,"Annual report of the Town of Pittsfield, New Hampshire, 1979",1980,Title varies|~|Imprint varies|~|Report year varies,"University of New Hampshire. Library. Digital Collections.|~|Scanned by Internet Archive, Open Content Alliance (2013)",,,Text,Pittsfield (N.H. : Town) -- Appropriations and expenditures -- Periodicals,Pittsfield (N.H. : Town),,,Eng,Pittsfield (N.H. : Town),pittsfield_0030+application-pdf+application.pdf|~|pittsfield_0030+image-low-jpg+image-low.jpg|~|pittsfield_0030+image-tb-jpg+image-tb.jpg
Active,pittsfield:0031,pittsfield,http://www.archive.org/details/annualreportofto1981pitt|~|pittsfield:0031,"Annual report of the Town of Pittsfield, New Hampshire, 1981",1982,Title varies|~|Imprint varies|~|Report year varies,"University of New Hampshire. Library. Digital Collections.|~|Scanned by Internet Archive, Open Content Alliance (2013)",,,Text,Pittsfield (N.H. : Town) -- Appropriations and expenditures -- Periodicals,Pittsfield (N.H. : Town),,,Eng,Pittsfield (N.H. : Town),pittsfield_0031+application-pdf+application.pdf|~|pittsfield_0031+image-low-jpg+image-low.jpg|~|pittsfield_0031+image-tb-jpg+image-tb.jpg
Active,pittsfield:0032,pittsfield,http://www.archive.org/details/annualreportofto1984pitt|~|pittsfield:0032,"Annual report of the Town of Pittsfield, New Hampshire, 1984",1985,Title varies|~|Imprint varies|~|Report year varies,"University of New Hampshire. Library. Digital Collections.|~|Scanned by Internet Archive, Open Content Alliance (2013)",,,Text,Pittsfield (N.H. : Town) -- Appropriations and expenditures -- Periodicals,Pittsfield (N.H. : Town),,,Eng,Pittsfield (N.H. : Town),pittsfield_0032+application-pdf+application.pdf|~|pittsfield_0032+image-low-jpg+image-low.jpg|~|pittsfield_0032+image-tb-jpg+image-tb.jpg
Active,pittsfield:0033,pittsfield,http://www.archive.org/details/annualreportofto1991pitt|~|pittsfield:0033,"Annual report of the Town of Pittsfield, New Hampshire, 1991",1992,Title varies|~|Imprint varies|~|Report year varies,"University of New Hampshire. Library. Digital Collections.|~|Scanned by Internet Archive, Open Content Alliance (2013)",,,Text,Pittsfield (N.H. : Town) -- Appropriations and expenditures -- Periodicals,Pittsfield (N.H. : Town),,,Eng,Pittsfield (N.H. : Town),pittsfield_0033+application-pdf+application.pdf|~|pittsfield_0033+image-low-jpg+image-low.jpg|~|pittsfield_0033+image-tb-jpg+image-tb.jpg
Active,pittsfield:0034,pittsfield,http://www.archive.org/details/annualreportofto1997pitt|~|pittsfield:0034,"Annual report of the Town of Pittsfield, New Hampshire, 1997",1998,Title varies|~|Imprint varies|~|Report year varies,"University of New Hampshire. Library. Digital Collections.|~|Scanned by Internet Archive, Open Content Alliance (2013)",,,Text,Pittsfield (N.H. : Town) -- Appropriations and expenditures -- Periodicals,Pittsfield (N.H. : Town),,,Eng,Pittsfield (N.H. : Town),pittsfield_0034+application-pdf+application.pdf|~|pittsfield_0034+image-low-jpg+image-low.jpg|~|pittsfield_0034+image-tb-jpg+image-tb.jpg
Active,pittsfield:0035,pittsfield,http://www.archive.org/details/annualreportofto1998pitt|~|pittsfield:0035,"Annual report of the Town of Pittsfield, New Hampshire, 1998",1999,Title varies|~|Imprint varies|~|Report year varies,"University of New Hampshire. Library. Digital Collections.|~|Scanned by Internet Archive, Open Content Alliance (2013)",,,Text,Pittsfield (N.H. : Town) -- Appropriations and expenditures -- Periodicals,Pittsfield (N.H. : Town),,,Eng,Pittsfield (N.H. : Town),pittsfield_0035+application-pdf+application.pdf|~|pittsfield_0035+image-low-jpg+image-low.jpg|~|pittsfield_0035+image-tb-jpg+image-tb.jpg
Active,pittsfield:0036,pittsfield,http://www.archive.org/details/annualreportofto1999pitt|~|pittsfield:0036,"Annual report of the Town of Pittsfield, New Hampshire, 1999",2000,Title varies|~|Imprint varies|~|Report year varies,"University of New Hampshire. Library. Digital Collections.|~|Scanned by Internet Archive, Open Content Alliance (2013)",,,Text,Pittsfield (N.H. : Town) -- Appropriations and expenditures -- Periodicals,Pittsfield (N.H. : Town),,,Eng,Pittsfield (N.H. : Town),pittsfield_0036+application-pdf+application.pdf|~|pittsfield_0036+image-low-jpg+image-low.jpg|~|pittsfield_0036+image-tb-jpg+image-tb.jpg
Active,pittsfield:0037,pittsfield,http://www.archive.org/details/annualreportofto2000pitt|~|pittsfield:0037,"Annual report of the Town of Pittsfield, New Hampshire, 2000",2001,Title varies|~|Imprint varies|~|Report year varies,"University of New Hampshire. Library. Digital Collections.|~|Scanned by Internet Archive, Open Content Alliance (2013)",,,Text,Pittsfield (N.H. : Town) -- Appropriations and expenditures -- Periodicals,Pittsfield (N.H. : Town),,,Eng,Pittsfield (N.H. : Town),pittsfield_0037+application-pdf+application.pdf|~|pittsfield_0037+image-low-jpg+image-low.jpg|~|pittsfield_0037+image-tb-jpg+image-tb.jpg
Active,pittsfield:0038,pittsfield,http://www.archive.org/details/annualreportofto2001pitt|~|pittsfield:0038,"Annual report of the Town of Pittsfield, New Hampshire, 2001",2002,Title varies|~|Imprint varies|~|Report year varies,"University of New Hampshire. Library. Digital Collections.|~|Scanned by Internet Archive, Open Content Alliance (2013)",,,Text,Pittsfield (N.H. : Town) -- Appropriations and expenditures -- Periodicals,Pittsfield (N.H. : Town),,,Eng,Pittsfield (N.H. : Town),pittsfield_0038+application-pdf+application.pdf|~|pittsfield_0038+image-low-jpg+image-low.jpg|~|pittsfield_0038+image-tb-jpg+image-tb.jpg
Active,pittsfield:0039,pittsfield,http://www.archive.org/details/annualreportofto2002pitt|~|pittsfield:0039,"Annual report of the Town of Pittsfield, New Hampshire, 2002",2003,Title varies|~|Imprint varies|~|Report year varies,"University of New Hampshire. Library. Digital Collections.|~|Scanned by Internet Archive, Open Content Alliance (2013)",,,Text,Pittsfield (N.H. : Town) -- Appropriations and expenditures -- Periodicals,Pittsfield (N.H. : Town),,,Eng,Pittsfield (N.H. : Town),pittsfield_0039+application-pdf+application.pdf|~|pittsfield_0039+image-low-jpg+image-low.jpg|~|pittsfield_0039+image-tb-jpg+image-tb.jpg
Active,pittsfield:0040,pittsfield,http://www.archive.org/details/annualreportofto2003pitt|~|pittsfield:0040,"Annual report of the Town of Pittsfield, New Hampshire, 2003",2004,Title varies|~|Imprint varies|~|Report year varies,"University of New Hampshire. Library. Digital Collections.|~|Scanned by Internet Archive, Open Content Alliance (2013)",,,Text,Pittsfield (N.H. : Town) -- Appropriations and expenditures -- Periodicals,Pittsfield (N.H. : Town),,,Eng,Pittsfield (N.H. : Town),pittsfield_0040+application-pdf+application.pdf|~|pittsfield_0040+image-low-jpg+image-low.jpg|~|pittsfield_0040+image-tb-jpg+image-tb.jpg
Active,pittsfield:0041,pittsfield,http://www.archive.org/details/annualreportofto2004pitt|~|pittsfield:0041,"Annual report of the Town of Pittsfield, New Hampshire, 2004",2005,Title varies|~|Imprint varies|~|Report year varies,"University of New Hampshire. Library. Digital Collections.|~|Scanned by Internet Archive, Open Content Alliance (2013)",,,Text,Pittsfield (N.H. : Town) -- Appropriations and expenditures -- Periodicals,Pittsfield (N.H. : Town),,,Eng,Pittsfield (N.H. : Town),pittsfield_0041+application-pdf+application.pdf|~|pittsfield_0041+image-low-jpg+image-low.jpg|~|pittsfield_0041+image-tb-jpg+image-tb.jpg
Active,pittsfield:0042,pittsfield,http://www.archive.org/details/annualreportofto2005pitt|~|pittsfield:0042,"Annual report of the Town of Pittsfield, New Hampshire, 2005",2006,Title varies|~|Imprint varies|~|Report year varies,"University of New Hampshire. Library. Digital Collections.|~|Scanned by Internet Archive, Open Content Alliance (2013)",,,Text,Pittsfield (N.H. : Town) -- Appropriations and expenditures -- Periodicals,Pittsfield (N.H. : Town),,,Eng,Pittsfield (N.H. : Town),pittsfield_0042+application-pdf+application.pdf|~|pittsfield_0042+image-low-jpg+image-low.jpg|~|pittsfield_0042+image-tb-jpg+image-tb.jpg
Active,pittsfield:0043,pittsfield,http://www.archive.org/details/annualreportofto2006pitt|~|pittsfield:0043,"Annual report of the Town of Pittsfield, New Hampshire, 2006",2007,Title varies|~|Imprint varies|~|Report year varies,"University of New Hampshire. Library. Digital Collections.|~|Scanned by Internet Archive, Open Content Alliance (2013)",,,Text,Pittsfield (N.H. : Town) -- Appropriations and expenditures -- Periodicals,Pittsfield (N.H. : Town),,,Eng,Pittsfield (N.H. : Town),pittsfield_0043+application-pdf+application.pdf|~|pittsfield_0043+image-low-jpg+image-low.jpg|~|pittsfield_0043+image-tb-jpg+image-tb.jpg
Active,pittsfield:0044,pittsfield,http://www.archive.org/details/annualreportofto2007pitt|~|pittsfield:0044,"Annual report of the Town of Pittsfield, New Hampshire, 2007",2008,Title varies|~|Imprint varies|~|Report year varies,"University of New Hampshire. Library. Digital Collections.|~|Scanned by Internet Archive, Open Content Alliance (2013)",,,Text,Pittsfield (N.H. : Town) -- Appropriations and expenditures -- Periodicals,Pittsfield (N.H. : Town),,,Eng,Pittsfield (N.H. : Town),pittsfield_0044+application-pdf+application.pdf|~|pittsfield_0044+image-low-jpg+image-low.jpg|~|pittsfield_0044+image-tb-jpg+image-tb.jpg
Active,pittsfield:0045,pittsfield,http://www.archive.org/details/annualreportofto2008pitt|~|pittsfield:0045,"Annual report of the Town of Pittsfield, New Hampshire, 2008",2009,Title varies|~|Imprint varies|~|Report year varies,"University of New Hampshire. Library. Digital Collections.|~|Scanned by Internet Archive, Open Content Alliance (2013)",,,Text,Pittsfield (N.H. : Town) -- Appropriations and expenditures -- Periodicals,Pittsfield (N.H. : Town),,,Eng,Pittsfield (N.H. : Town),pittsfield_0045+application-pdf+application.pdf|~|pittsfield_0045+image-low-jpg+image-low.jpg|~|pittsfield_0045+image-tb-jpg+image-tb.jpg
Active,pittsfield:0047,pittsfield,http://www.archive.org/details/annualreportofto2010pitt|~|pittsfield:0047,"Annual report of the Town of Pittsfield, New Hampshire, 2010",2011,Title varies|~|Imprint varies|~|Report year varies,"University of New Hampshire. Library. Digital Collections.|~|Scanned by Internet Archive, Open Content Alliance (2013)",,,Text,Pittsfield (N.H. : Town) -- Appropriations and expenditures -- Periodicals,Pittsfield (N.H. : Town),,,Eng,Pittsfield (N.H. : Town),pittsfield_0047+application-pdf+application.pdf|~|pittsfield_0047+image-low-jpg+image-low.jpg|~|pittsfield_0047+image-tb-jpg+image-tb.jpg
Active,pittsfield:0048,pittsfield,http://www.archive.org/details/annualreportofto2011pitt|~|pittsfield:0048,"Annual report of the Town of Pittsfield, New Hampshire, 2011",2012,Title varies|~|Imprint varies|~|Report year varies,"University of New Hampshire. Library. Digital Collections.|~|Scanned by Internet Archive, Open Content Alliance (2013)",,,Text,Pittsfield (N.H. : Town) -- Appropriations and expenditures -- Periodicals,Pittsfield (N.H. : Town),,,Eng,Pittsfield (N.H. : Town),pittsfield_0048+application-pdf+application.pdf|~|pittsfield_0048+image-low-jpg+image-low.jpg|~|pittsfield_0048+image-tb-jpg+image-tb.jpg
Active,pittsfield:0049,pittsfield,http://www.archive.org/details/annualreportofto2009pitt|~|pittsfield:0049,"Annual report of the Town of Pittsfield, New Hampshire, 2009",2010,Title varies|~|Imprint varies|~|Report year varies,"University of New Hampshire. Library. Digital Collections.|~|Scanned by Internet Archive, Open Content Alliance (2013)",,,Text,Pittsfield (N.H. : Town) -- Appropriations and expenditures -- Periodicals,Pittsfield (N.H. : Town),,,Eng,Pittsfield (N.H. : Town),pittsfield_0049+application-pdf+application.pdf|~|pittsfield_0049+image-low-jpg+image-low.jpg|~|pittsfield_0049+image-tb-jpg+image-tb.jpg
Active,pittsfield:1878,pittsfield,pittsfield:1878,"Annual report of the Town of Pittsfield, New Hampshire, 1878",1879,Title varies|~|Imprint varies|~|Report year varies,University of New Hampshire. Library. Digital Collections.,,,Text,Pittsfield (N.H. : Town) -- Appropriations and expenditures -- Periodicals,Pittsfield (N.H. : Town),,,Eng,Pittsfield (N.H. : Town),pittsfield_1878+application-pdf+application.pdf|~|pittsfield_1878+optimized-pdf+optimized.pdf|~|pittsfield_1878+image-low-jpg+image-low.jpg|~|pittsfield_1878+image-tb-jpg+image-tb.jpg
Active,pittsfield:1879,pittsfield,pittsfield:1879,"Annual report of the Town of Pittsfield, New Hampshire, 1879",1880,Title varies|~|Imprint varies|~|Report year varies,University of New Hampshire. Library. Digital Collections.,,,Text,Pittsfield (N.H. : Town) -- Appropriations and expenditures -- Periodicals,Pittsfield (N.H. : Town),,,Eng,Pittsfield (N.H. : Town),pittsfield_1879+application-pdf+application.pdf|~|pittsfield_1879+optimized-pdf+optimized.pdf|~|pittsfield_1879+image-low-jpg+image-low.jpg|~|pittsfield_1879+image-tb-jpg+image-tb.jpg
Active,pittsfield:1888,pittsfield,pittsfield:1888,"Annual report of the Town of Pittsfield, New Hampshire, 1888",1889,Title varies|~|Imprint varies|~|Report year varies,University of New Hampshire. Library. Digital Collections.,,,Text,Pittsfield (N.H. : Town) -- Appropriations and expenditures -- Periodicals,Pittsfield (N.H. : Town),,,Eng,Pittsfield (N.H. : Town),pittsfield_1888+application-pdf+application.pdf|~|pittsfield_1888+optimized-pdf+optimized.pdf|~|pittsfield_1888+image-low-jpg+image-low.jpg|~|pittsfield_1888+image-tb-jpg+image-tb.jpg
Active,pittsfield:1895,pittsfield,pittsfield:1895,"Annual report of the Town of Pittsfield, New Hampshire, 1895",1896,Title varies|~|Imprint varies|~|Report year varies,University of New Hampshire. Library. Digital Collections.,,,Text,Pittsfield (N.H. : Town) -- Appropriations and expenditures -- Periodicals,Pittsfield (N.H. : Town),,,Eng,Pittsfield (N.H. : Town),pittsfield_1895+application-pdf+application.pdf|~|pittsfield_1895+optimized-pdf+optimized.pdf|~|pittsfield_1895+image-low-jpg+image-low.jpg|~|pittsfield_1895+image-tb-jpg+image-tb.jpg
Active,pittsfield:1914,pittsfield,pittsfield:1914,"Annual report of the Town of Pittsfield, New Hampshire, 1914",1915,Title varies|~|Imprint varies|~|Report year varies,University of New Hampshire. Library. Digital Collections.,,,Text,Pittsfield (N.H. : Town) -- Appropriations and expenditures -- Periodicals,Pittsfield (N.H. : Town),,,Eng,Pittsfield (N.H. : Town),pittsfield_1914+application-pdf+application.pdf|~|pittsfield_1914+optimized-pdf+optimized.pdf|~|pittsfield_1914+image-low-jpg+image-low.jpg|~|pittsfield_1914+image-tb-jpg+image-tb.jpg
Active,pittsfield:1917,pittsfield,pittsfield:1917,"Annual report of the Town of Pittsfield, New Hampshire, 1917",1918,Title varies|~|Imprint varies|~|Report year varies,University of New Hampshire. Library. Digital Collections.,,,Text,Pittsfield (N.H. : Town) -- Appropriations and expenditures -- Periodicals,Pittsfield (N.H. : Town),,,Eng,Pittsfield (N.H. : Town),pittsfield_1917+application-pdf+application.pdf|~|pittsfield_1917+optimized-pdf+optimized.pdf|~|pittsfield_1917+image-low-jpg+image-low.jpg|~|pittsfield_1917+image-tb-jpg+image-tb.jpg
Active,pittsfield:1918,pittsfield,pittsfield:1918,"Annual report of the Town of Pittsfield, New Hampshire, 1918",1919,Title varies|~|Imprint varies|~|Report year varies,University of New Hampshire. Library. Digital Collections.,,,Text,Pittsfield (N.H. : Town) -- Appropriations and expenditures -- Periodicals,Pittsfield (N.H. : Town),,,Eng,Pittsfield (N.H. : Town),pittsfield_1918+application-pdf+application.pdf|~|pittsfield_1918+optimized-pdf+optimized.pdf|~|pittsfield_1918+image-low-jpg+image-low.jpg|~|pittsfield_1918+image-tb-jpg+image-tb.jpg
Active,pittsfield:1920,pittsfield,pittsfield:1920,"Annual report of the Town of Pittsfield, New Hampshire, 1920",1921,Title varies|~|Imprint varies|~|Report year varies,University of New Hampshire. Library. Digital Collections.,,,Text,Pittsfield (N.H. : Town) -- Appropriations and expenditures -- Periodicals,Pittsfield (N.H. : Town),,,Eng,Pittsfield (N.H. : Town),pittsfield_1920+application-pdf+application.pdf|~|pittsfield_1920+optimized-pdf+optimized.pdf|~|pittsfield_1920+image-low-jpg+image-low.jpg|~|pittsfield_1920+image-tb-jpg+image-tb.jpg
Active,pittsfield:1921,pittsfield,pittsfield:1921,"Annual report of the Town of Pittsfield, New Hampshire, 1921",1922,Title varies|~|Imprint varies|~|Report year varies,University of New Hampshire. Library. Digital Collections.,,,Text,Pittsfield (N.H. : Town) -- Appropriations and expenditures -- Periodicals,Pittsfield (N.H. : Town),,,Eng,Pittsfield (N.H. : Town)|~|Pittsfield (N.H. : Town).,pittsfield_1921+application-pdf+application.pdf|~|pittsfield_1921+optimized-pdf+optimized.pdf|~|pittsfield_1921+image-low-jpg+image-low.jpg|~|pittsfield_1921+image-tb-jpg+image-tb.jpg
Active,pittsfield:1922,pittsfield,pittsfield:1922,"Annual report of the Town of Pittsfield, New Hampshire, 1922",1923,Title varies|~|Imprint varies|~|Report year varies,University of New Hampshire. Library. Digital Collections.,,,Text,Pittsfield (N.H. : Town) -- Appropriations and expenditures -- Periodicals,Pittsfield (N.H. : Town),,,Eng,Pittsfield (N.H. : Town),pittsfield_1922+application-pdf+application.pdf|~|pittsfield_1922+optimized-pdf+optimized.pdf|~|pittsfield_1922+image-low-jpg+image-low.jpg|~|pittsfield_1922+image-tb-jpg+image-tb.jpg
Active,pittsfield:1925,pittsfield,pittsfield:1925,"Annual report of the Town of Pittsfield, New Hampshire, 1925",1926,Title varies|~|Imprint varies|~|Report year varies,University of New Hampshire. Library. Digital Collections.,,,Text,Pittsfield (N.H. : Town) -- Appropriations and expenditures -- Periodicals,Pittsfield (N.H. : Town),,,Eng,Pittsfield (N.H. : Town),pittsfield_1925+application-pdf+application.pdf|~|pittsfield_1925+optimized-pdf+optimized.pdf|~|pittsfield_1925+image-low-jpg+image-low.jpg|~|pittsfield_1925+image-tb-jpg+image-tb.jpg
Active,pittsfield:1926,pittsfield,pittsfield:1926,"Annual report of the Town of Pittsfield, New Hampshire, 1926",1927,Title varies|~|Imprint varies|~|Report year varies,University of New Hampshire. Library. Digital Collections.,,,Text,Pittsfield (N.H. : Town) -- Appropriations and expenditures -- Periodicals,Pittsfield (N.H. : Town),,,Eng,Pittsfield (N.H. : Town),pittsfield_1926+application-pdf+application.pdf|~|pittsfield_1926+optimized-pdf+optimized.pdf|~|pittsfield_1926+image-low-jpg+image-low.jpg|~|pittsfield_1926+image-tb-jpg+image-tb.jpg
Active,pittsfield:1927,pittsfield,pittsfield:1927,"Annual report of the Town of Pittsfield, New Hampshire, 1927",1928,Title varies|~|Imprint varies|~|Report year varies,University of New Hampshire. Library. Digital Collections.,,,Text,Pittsfield (N.H. : Town) -- Appropriations and expenditures -- Periodicals,Pittsfield (N.H. : Town),,,Eng,Pittsfield (N.H. : Town),pittsfield_1927+application-pdf+application.pdf|~|pittsfield_1927+optimized-pdf+optimized.pdf|~|pittsfield_1927+image-low-jpg+image-low.jpg|~|pittsfield_1927+image-tb-jpg+image-tb.jpg
Active,pittsfield:1928,pittsfield,pittsfield:1928,"Annual report of the Town of Pittsfield, New Hampshire, 1928",1929,Title varies|~|Imprint varies|~|Report year varies,University of New Hampshire. Library. Digital Collections.,,,Text,Pittsfield (N.H. : Town) -- Appropriations and expenditures -- Periodicals,Pittsfield (N.H. : Town),,,Eng,Pittsfield (N.H. : Town),pittsfield_1928+application-pdf+application.pdf|~|pittsfield_1928+optimized-pdf+optimized.pdf|~|pittsfield_1928+image-low-jpg+image-low.jpg|~|pittsfield_1928+image-tb-jpg+image-tb.jpg
Active,pittsfield:1934,pittsfield,pittsfield:1934,"Annual report of the Town of Pittsfield, New Hampshire, 1934",1935,Title varies|~|Imprint varies|~|Report year varies,University of New Hampshire. Library. Digital Collections.,,,Text,Pittsfield (N.H. : Town) -- Appropriations and expenditures -- Periodicals,Pittsfield (N.H. : Town),,,Eng,Pittsfield (N.H. : Town),pittsfield_1934+application-pdf+application.pdf|~|pittsfield_1934+optimized-pdf+optimized.pdf|~|pittsfield_1934+image-low-jpg+image-low.jpg|~|pittsfield_1934+image-tb-jpg+image-tb.jpg
Active,pittsfield:1935,pittsfield,pittsfield:1935,"Annual report of the Town of Pittsfield, New Hampshire, 1935",1936,Title varies|~|Imprint varies|~|Report year varies,University of New Hampshire. Library. Digital Collections.,,,Text,Pittsfield (N.H. : Town) -- Appropriations and expenditures -- Periodicals,Pittsfield (N.H. : Town),,,Eng,Pittsfield (N.H. : Town),pittsfield_1935+application-pdf+application.pdf|~|pittsfield_1935+optimized-pdf+optimized.pdf|~|pittsfield_1935+image-low-jpg+image-low.jpg|~|pittsfield_1935+image-tb-jpg+image-tb.jpg
Active,pittsfield:1938,pittsfield,pittsfield:1938,"Annual report of the Town of Pittsfield, New Hampshire, 1938",1939,Title varies|~|Imprint varies|~|Report year varies,University of New Hampshire. Library. Digital Collections.,,,Text,Pittsfield (N.H. : Town) -- Appropriations and expenditures -- Periodicals,Pittsfield (N.H. : Town),,,Eng,Pittsfield (N.H. : Town),pittsfield_1938+application-pdf+application.pdf|~|pittsfield_1938+optimized-pdf+optimized.pdf|~|pittsfield_1938+image-low-jpg+image-low.jpg|~|pittsfield_1938+image-tb-jpg+image-tb.jpg
Active,pittsfield:1942,pittsfield,pittsfield:1942|~|PittsfieldAnnual1942,"Annual report of the Town of Pittsfield, New Hampshire, 1942",1943,Title varies|~|Imprint varies|~|Report year varies,University of New Hampshire. Library. Digital Collections.,,,Text,Pittsfield (N.H. : Town) -- Appropriations and expenditures -- Periodicals,Pittsfield (N.H. : Town),,,Eng,Pittsfield (N.H. : Town)|~|University of New Hampshire. Library. Digital Collections.,pittsfield_1942+application-pdf+application.pdf|~|pittsfield_1942+optimized-pdf+optimized.pdf|~|pittsfield_1942+image-low-jpg+image-low.jpg|~|pittsfield_1942+image-tb-jpg+image-tb.jpg
Active,pittsfield:1943,pittsfield,pittsfield:1943,"Annual report of the Town of Pittsfield, New Hampshire, 1943",1944,Title varies|~|Imprint varies|~|Report year varies,University of New Hampshire. Library. Digital Collections.,,,Text,Pittsfield (N.H. : Town) -- Appropriations and expenditures -- Periodicals,Pittsfield (N.H. : Town),,,Eng,Pittsfield (N.H. : Town),pittsfield_1943+application-pdf+application.pdf|~|pittsfield_1943+optimized-pdf+optimized.pdf|~|pittsfield_1943+image-low-jpg+image-low.jpg|~|pittsfield_1943+image-tb-jpg+image-tb.jpg
Active,pittsfield:1944,pittsfield,pittsfield:1944,"Annual report of the Town of Pittsfield, New Hampshire, 1944",1945,Title varies|~|Imprint varies|~|Report year varies,University of New Hampshire. Library. Digital Collections.,,,Text,Pittsfield (N.H. : Town) -- Appropriations and expenditures -- Periodicals,Pittsfield (N.H. : Town),,,Eng,Pittsfield (N.H. : Town),pittsfield_1944+application-pdf+application.pdf|~|pittsfield_1944+optimized-pdf+optimized.pdf|~|pittsfield_1944+image-low-jpg+image-low.jpg|~|pittsfield_1944+image-tb-jpg+image-tb.jpg
Active,pittsfield:1944A,pittsfield,pittsfield:1944A,"Annual report of the Town of Pittsfield, New Hampshire, 1944A",1945,Title varies|~|Imprint varies|~|Report year varies,University of New Hampshire. Library. Digital Collections.,,,Text,Pittsfield (N.H. : Town) -- Appropriations and expenditures -- Periodicals,Pittsfield (N.H. : Town),,,Eng,Pittsfield (N.H. : Town),pittsfield_1944a+application-pdf+application.pdf|~|pittsfield_1944a+optimized-pdf+optimized.pdf|~|pittsfield_1944a+image-low-jpg+image-low.jpg|~|pittsfield_1944a+image-tb-jpg+image-tb.jpg
Active,pittsfield:1945,pittsfield,pittsfield:1945,"Annual report of the Town of Pittsfield, New Hampshire, 1945",1946,Title varies|~|Imprint varies|~|Report year varies,University of New Hampshire. Library. Digital Collections.,,,Text,Pittsfield (N.H. : Town) -- Appropriations and expenditures -- Periodicals,Pittsfield (N.H. : Town),,,Eng,Pittsfield (N.H. : Town),pittsfield_1945+application-pdf+application.pdf|~|pittsfield_1945+optimized-pdf+optimized.pdf|~|pittsfield_1945+image-low-jpg+image-low.jpg|~|pittsfield_1945+image-tb-jpg+image-tb.jpg
Active,pittsfield:1946,pittsfield,pittsfield:1946,"Annual report of the Town of Pittsfield, New Hampshire, 1946",1947,Title varies|~|Imprint varies|~|Report year varies,University of New Hampshire. Library. Digital Collections.,,,Text,Pittsfield (N.H. : Town) -- Appropriations and expenditures -- Periodicals,Pittsfield (N.H. : Town),,,Eng,Pittsfield (N.H. : Town),pittsfield_1946+application-pdf+application.pdf|~|pittsfield_1946+optimized-pdf+optimized.pdf|~|pittsfield_1946+image-low-jpg+image-low.jpg|~|pittsfield_1946+image-tb-jpg+image-tb.jpg
Active,pittsfield:1948,pittsfield,pittsfield:1948,"Annual report of the Town of Pittsfield, New Hampshire, 1948",1949,Title varies|~|Imprint varies|~|Report year varies,University of New Hampshire. Library. Digital Collections.,,,Text,Pittsfield (N.H. : Town) -- Appropriations and expenditures -- Periodicals,Pittsfield (N.H. : Town),,,Eng,Pittsfield (N.H. : Town),pittsfield_1948+application-pdf+application.pdf|~|pittsfield_1948+optimized-pdf+optimized.pdf|~|pittsfield_1948+image-low-jpg+image-low.jpg|~|pittsfield_1948+image-tb-jpg+image-tb.jpg
Active,pittsfield:1949,pittsfield,pittsfield:1949,"Annual report of the Town of Pittsfield, New Hampshire, 1949",1950,Title varies|~|Imprint varies|~|Report year varies,University of New Hampshire. Library. Digital Collections.,,,Text,Pittsfield (N.H. : Town) -- Appropriations and expenditures -- Periodicals,Pittsfield (N.H. : Town),,,Eng,Pittsfield (N.H. : Town),pittsfield_1949+application-pdf+application.pdf|~|pittsfield_1949+optimized-pdf+optimized.pdf|~|pittsfield_1949+image-low-jpg+image-low.jpg|~|pittsfield_1949+image-tb-jpg+image-tb.jpg
Active,pittsfield:1950,pittsfield,pittsfield:1950,"Annual report of the Town of Pittsfield, New Hampshire, 1950",1951,Title varies|~|Imprint varies|~|Report year varies,University of New Hampshire. Library. Digital Collections.,,,Text,Pittsfield (N.H. : Town) -- Appropriations and expenditures -- Periodicals,Pittsfield (N.H. : Town),,,Eng,Pittsfield (N.H. : Town),pittsfield_1950+application-pdf+application.pdf|~|pittsfield_1950+optimized-pdf+optimized.pdf|~|pittsfield_1950+image-low-jpg+image-low.jpg|~|pittsfield_1950+image-tb-jpg+image-tb.jpg
