state,pid,collection,dcterms:identifier,dcterms:title,dcterms:date,dcterms:description,dcterms:contributor,dcterms:rights,dcterms:format,dcterms:type,dcterms:subject,dcterms:creator,dcterms:relation,dcterms:coverage,dcterms:language,dcterms:publisher,files
Active,sanbornton:0001,sanbornton,http://www.archive.org/details/annualreportofto1851sanb|~|annualreportofto1851sanb|~|sanbornton:0001,"Annual report of the Town of Sanbornton, New Hampshire, 1851",1851,Title varies|~|Imprint varies|~|Report year varies,"University of New Hampshire. Library. Digital Collections.|~|Scanned by Internet Archive, Open Content Alliance (2010)",,,Text,Sanbornton (N.H. : Town) -- Appropriations and expenditures -- Periodicals,Sanbornton (N.H. : Town),,,Eng,"[Meredith Bridge, N.H. : Wright &amp; Cook, Printers]|~|University of New Hampshire. Library. Digital Collections.",sanbornton_0001+application-pdf+application.pdf|~|sanbornton_0001+image-low-jpg+image-low.jpg|~|sanbornton_0001+image-tb-jpg+image-tb.jpg
Active,sanbornton:0002,sanbornton,http://www.archive.org/details/annualreportofto1863sanb|~|annualreportofto1863sanb|~|sanbornton:0002,"Annual report of the Town of Sanbornton, New Hampshire, 1863",1863,Title varies|~|Imprint varies|~|Report year varies,"University of New Hampshire. Library. Digital Collections.|~|Scanned by Internet Archive, Open Content Alliance (2010)",,,Text,Sanbornton (N.H. : Town) -- Appropriations and expenditures -- Periodicals,Sanbornton (N.H. : Town),,,Eng,"[Meredith Bridge, N.H. : Wright &amp; Cook, Printers]|~|University of New Hampshire. Library. Digital Collections.",sanbornton_0002+application-pdf+application.pdf|~|sanbornton_0002+image-low-jpg+image-low.jpg|~|sanbornton_0002+image-tb-jpg+image-tb.jpg
Active,sanbornton:0003,sanbornton,http://www.archive.org/details/annualreportofto1872sanb|~|annualreportofto1872sanb|~|sanbornton:0003,"Annual report of the Town of Sanbornton, New Hampshire, 1872",1872,Title varies|~|Imprint varies|~|Report year varies,"University of New Hampshire. Library. Digital Collections.|~|Scanned by Internet Archive, Open Content Alliance (2010)",,,Text,Sanbornton (N.H. : Town) -- Appropriations and expenditures -- Periodicals,Sanbornton (N.H. : Town),,,Eng,"[Meredith Bridge, N.H. : Wright &amp; Cook, Printers]|~|University of New Hampshire. Library. Digital Collections.",sanbornton_0003+application-pdf+application.pdf|~|sanbornton_0003+image-low-jpg+image-low.jpg|~|sanbornton_0003+image-tb-jpg+image-tb.jpg
Active,sanbornton:0004,sanbornton,http://www.archive.org/details/annualreportofto1874sanb|~|annualreportofto1874sanb|~|sanbornton:0004,"Annual report of the Town of Sanbornton, New Hampshire, 1874",1874,Title varies|~|Imprint varies|~|Report year varies,"University of New Hampshire. Library. Digital Collections.|~|Scanned by Internet Archive, Open Content Alliance (2010)",,,Text,Sanbornton (N.H. : Town) -- Appropriations and expenditures -- Periodicals,Sanbornton (N.H. : Town),,,Eng,"[Meredith Bridge, N.H. : Wright &amp; Cook, Printers]|~|University of New Hampshire. Library. Digital Collections.",sanbornton_0004+application-pdf+application.pdf|~|sanbornton_0004+image-low-jpg+image-low.jpg|~|sanbornton_0004+image-tb-jpg+image-tb.jpg
Active,sanbornton:0005,sanbornton,http://www.archive.org/details/annualreportofto1875sanb|~|annualreportofto1875sanb|~|sanbornton:0005,"Annual report of the Town of Sanbornton, New Hampshire, 1875",1875,Title varies|~|Imprint varies|~|Report year varies,"University of New Hampshire. Library. Digital Collections.|~|Scanned by Internet Archive, Open Content Alliance (2010)",,,Text,Sanbornton (N.H. : Town) -- Appropriations and expenditures -- Periodicals,Sanbornton (N.H. : Town),,,Eng,"[Meredith Bridge, N.H. : Wright &amp; Cook, Printers]|~|University of New Hampshire. Library. Digital Collections.",sanbornton_0005+application-pdf+application.pdf|~|sanbornton_0005+image-low-jpg+image-low.jpg|~|sanbornton_0005+image-tb-jpg+image-tb.jpg
Active,sanbornton:0006,sanbornton,http://www.archive.org/details/annualreportofto1878sanb|~|annualreportofto1878sanb|~|sanbornton:0006,"Annual report of the Town of Sanbornton, New Hampshire, 1878",1878,Title varies|~|Imprint varies|~|Report year varies,"University of New Hampshire. Library. Digital Collections.|~|Scanned by Internet Archive, Open Content Alliance (2010)",,,Text,Sanbornton (N.H. : Town) -- Appropriations and expenditures -- Periodicals,Sanbornton (N.H. : Town),,,Eng,"[Meredith Bridge, N.H. : Wright &amp; Cook, Printers]|~|University of New Hampshire. Library. Digital Collections.",sanbornton_0006+application-pdf+application.pdf|~|sanbornton_0006+image-low-jpg+image-low.jpg|~|sanbornton_0006+image-tb-jpg+image-tb.jpg
Active,sanbornton:0007,sanbornton,http://www.archive.org/details/annualreportofto1881sanb|~|annualreportofto1881sanb|~|sanbornton:0007,"Annual report of the Town of Sanbornton, New Hampshire, 1881",1881,Title varies|~|Imprint varies|~|Report year varies,"University of New Hampshire. Library. Digital Collections.|~|Scanned by Internet Archive, Open Content Alliance (2010)",,,Text,Sanbornton (N.H. : Town) -- Appropriations and expenditures -- Periodicals,Sanbornton (N.H. : Town),,,Eng,"[Meredith Bridge, N.H. : Wright &amp; Cook, Printers]|~|University of New Hampshire. Library. Digital Collections.",sanbornton_0007+application-pdf+application.pdf|~|sanbornton_0007+image-low-jpg+image-low.jpg|~|sanbornton_0007+image-tb-jpg+image-tb.jpg
Active,sanbornton:0008,sanbornton,http://www.archive.org/details/annualreportofto1885sanb|~|annualreportofto1885sanb|~|sanbornton:0008,"Annual report of the Town of Sanbornton, New Hampshire, 1885",1885,Title varies|~|Imprint varies|~|Report year varies,"University of New Hampshire. Library. Digital Collections.|~|Scanned by Internet Archive, Open Content Alliance (2010)",,,Text,Sanbornton (N.H. : Town) -- Appropriations and expenditures -- Periodicals,Sanbornton (N.H. : Town),,,Eng,"[Meredith Bridge, N.H. : Wright &amp; Cook, Printers]|~|University of New Hampshire. Library. Digital Collections.",sanbornton_0008+application-pdf+application.pdf|~|sanbornton_0008+image-low-jpg+image-low.jpg|~|sanbornton_0008+image-tb-jpg+image-tb.jpg
Active,sanbornton:0009,sanbornton,http://www.archive.org/details/annualreportofto1887sanb|~|annualreportofto1887sanb|~|sanbornton:0009,"Annual report of the Town of Sanbornton, New Hampshire, 1887",1887,Title varies|~|Imprint varies|~|Report year varies,"University of New Hampshire. Library. Digital Collections.|~|Scanned by Internet Archive, Open Content Alliance (2010)",,,Text,Sanbornton (N.H. : Town) -- Appropriations and expenditures -- Periodicals,Sanbornton (N.H. : Town),,,Eng,"[Meredith Bridge, N.H. : Wright &amp; Cook, Printers]|~|University of New Hampshire. Library. Digital Collections.",sanbornton_0009+application-pdf+application.pdf|~|sanbornton_0009+image-low-jpg+image-low.jpg|~|sanbornton_0009+image-tb-jpg+image-tb.jpg
Active,sanbornton:0010,sanbornton,http://www.archive.org/details/annualreportofto1888sanb|~|annualreportofto1888sanb|~|sanbornton:0010,"Annual report of the Town of Sanbornton, New Hampshire, 1888",1888,Title varies|~|Imprint varies|~|Report year varies,"University of New Hampshire. Library. Digital Collections.|~|Scanned by Internet Archive, Open Content Alliance (2010)",,,Text,Sanbornton (N.H. : Town) -- Appropriations and expenditures -- Periodicals,Sanbornton (N.H. : Town),,,Eng,"[Meredith Bridge, N.H. : Wright &amp; Cook, Printers]|~|University of New Hampshire. Library. Digital Collections.",sanbornton_0010+application-pdf+application.pdf|~|sanbornton_0010+image-low-jpg+image-low.jpg|~|sanbornton_0010+image-tb-jpg+image-tb.jpg
Active,sanbornton:0011,sanbornton,http://www.archive.org/details/annualreportofto1889sanb|~|annualreportofto1889sanb|~|sanbornton:0011,"Annual report of the Town of Sanbornton, New Hampshire, 1889",1889,Title varies|~|Imprint varies|~|Report year varies,"University of New Hampshire. Library. Digital Collections.|~|Scanned by Internet Archive, Open Content Alliance (2010)",,,Text,Sanbornton (N.H. : Town) -- Appropriations and expenditures -- Periodicals,Sanbornton (N.H. : Town),,,Eng,"[Meredith Bridge, N.H. : Wright &amp; Cook, Printers]|~|University of New Hampshire. Library. Digital Collections.",sanbornton_0011+application-pdf+application.pdf|~|sanbornton_0011+image-low-jpg+image-low.jpg|~|sanbornton_0011+image-tb-jpg+image-tb.jpg
Active,sanbornton:0012,sanbornton,http://www.archive.org/details/annualreportofto1890sanb|~|annualreportofto1890sanb|~|sanbornton:0012,"Annual report of the Town of Sanbornton, New Hampshire, 1890",1890,Title varies|~|Imprint varies|~|Report year varies,"University of New Hampshire. Library. Digital Collections.|~|Scanned by Internet Archive, Open Content Alliance (2010)",,,Text,Sanbornton (N.H. : Town) -- Appropriations and expenditures -- Periodicals,Sanbornton (N.H. : Town),,,Eng,"[Meredith Bridge, N.H. : Wright &amp; Cook, Printers]|~|University of New Hampshire. Library. Digital Collections.",sanbornton_0012+application-pdf+application.pdf|~|sanbornton_0012+image-low-jpg+image-low.jpg|~|sanbornton_0012+image-tb-jpg+image-tb.jpg
Active,sanbornton:0013,sanbornton,http://www.archive.org/details/annualreportofto1891sanb|~|annualreportofto1891sanb|~|sanbornton:0013,"Annual report of the Town of Sanbornton, New Hampshire, 1891",1891,Title varies|~|Imprint varies|~|Report year varies,"University of New Hampshire. Library. Digital Collections.|~|Scanned by Internet Archive, Open Content Alliance (2010)",,,Text,Sanbornton (N.H. : Town) -- Appropriations and expenditures -- Periodicals,Sanbornton (N.H. : Town),,,Eng,"[Meredith Bridge, N.H. : Wright &amp; Cook, Printers]|~|University of New Hampshire. Library. Digital Collections.",sanbornton_0013+application-pdf+application.pdf|~|sanbornton_0013+image-low-jpg+image-low.jpg|~|sanbornton_0013+image-tb-jpg+image-tb.jpg
Active,sanbornton:0014,sanbornton,http://www.archive.org/details/annualreportofto1892sanb|~|annualreportofto1892sanb|~|sanbornton:0014,"Annual report of the Town of Sanbornton, New Hampshire, 1892",1892,Title varies|~|Imprint varies|~|Report year varies,"University of New Hampshire. Library. Digital Collections.|~|Scanned by Internet Archive, Open Content Alliance (2010)",,,Text,Sanbornton (N.H. : Town) -- Appropriations and expenditures -- Periodicals,Sanbornton (N.H. : Town),,,Eng,"[Meredith Bridge, N.H. : Wright &amp; Cook, Printers]|~|University of New Hampshire. Library. Digital Collections.",sanbornton_0014+application-pdf+application.pdf|~|sanbornton_0014+image-low-jpg+image-low.jpg|~|sanbornton_0014+image-tb-jpg+image-tb.jpg
Active,sanbornton:0015,sanbornton,http://www.archive.org/details/annualreportofto1893sanb|~|annualreportofto1893sanb|~|sanbornton:0015,"Annual report of the Town of Sanbornton, New Hampshire, 1893",1893,Title varies|~|Imprint varies|~|Report year varies,"University of New Hampshire. Library. Digital Collections.|~|Scanned by Internet Archive, Open Content Alliance (2010)",,,Text,Sanbornton (N.H. : Town) -- Appropriations and expenditures -- Periodicals,Sanbornton (N.H. : Town),,,Eng,"[Meredith Bridge, N.H. : Wright &amp; Cook, Printers]|~|University of New Hampshire. Library. Digital Collections.",sanbornton_0015+application-pdf+application.pdf|~|sanbornton_0015+image-low-jpg+image-low.jpg|~|sanbornton_0015+image-tb-jpg+image-tb.jpg
Active,sanbornton:0016,sanbornton,http://www.archive.org/details/annualreportofto1894sanb|~|annualreportofto1894sanb|~|sanbornton:0016,"Annual report of the Town of Sanbornton, New Hampshire, 1894",1894,Title varies|~|Imprint varies|~|Report year varies,"University of New Hampshire. Library. Digital Collections.|~|Scanned by Internet Archive, Open Content Alliance (2010)",,,Text,Sanbornton (N.H. : Town) -- Appropriations and expenditures -- Periodicals,Sanbornton (N.H. : Town),,,Eng,"[Meredith Bridge, N.H. : Wright &amp; Cook, Printers]|~|University of New Hampshire. Library. Digital Collections.",sanbornton_0016+application-pdf+application.pdf|~|sanbornton_0016+image-low-jpg+image-low.jpg|~|sanbornton_0016+image-tb-jpg+image-tb.jpg
Active,sanbornton:0017,sanbornton,http://www.archive.org/details/annualreportofto1895sanb|~|annualreportofto1895sanb|~|sanbornton:0017,"Annual report of the Town of Sanbornton, New Hampshire, 1895",1895,Title varies|~|Imprint varies|~|Report year varies,"University of New Hampshire. Library. Digital Collections.|~|Scanned by Internet Archive, Open Content Alliance (2010)",,,Text,Sanbornton (N.H. : Town) -- Appropriations and expenditures -- Periodicals,Sanbornton (N.H. : Town),,,Eng,"[Meredith Bridge, N.H. : Wright &amp; Cook, Printers]|~|University of New Hampshire. Library. Digital Collections.",sanbornton_0017+application-pdf+application.pdf|~|sanbornton_0017+image-low-jpg+image-low.jpg|~|sanbornton_0017+image-tb-jpg+image-tb.jpg
Active,sanbornton:0018,sanbornton,http://www.archive.org/details/annualreportofto1896sanb|~|annualreportofto1896sanb|~|sanbornton:0018,"Annual report of the Town of Sanbornton, New Hampshire, 1896",1896,Title varies|~|Imprint varies|~|Report year varies,"University of New Hampshire. Library. Digital Collections.|~|Scanned by Internet Archive, Open Content Alliance (2010)",,,Text,Sanbornton (N.H. : Town) -- Appropriations and expenditures -- Periodicals,Sanbornton (N.H. : Town),,,Eng,"[Meredith Bridge, N.H. : Wright &amp; Cook, Printers]|~|University of New Hampshire. Library. Digital Collections.",sanbornton_0018+application-pdf+application.pdf|~|sanbornton_0018+image-low-jpg+image-low.jpg|~|sanbornton_0018+image-tb-jpg+image-tb.jpg
Active,sanbornton:0019,sanbornton,http://www.archive.org/details/annualreportofto1897sanb|~|annualreportofto1897sanb|~|sanbornton:0019,"Annual report of the Town of Sanbornton, New Hampshire, 1897",1897,Title varies|~|Imprint varies|~|Report year varies,"University of New Hampshire. Library. Digital Collections.|~|Scanned by Internet Archive, Open Content Alliance (2010)",,,Text,Sanbornton (N.H. : Town) -- Appropriations and expenditures -- Periodicals,Sanbornton (N.H. : Town),,,Eng,"[Meredith Bridge, N.H. : Wright &amp; Cook, Printers]|~|University of New Hampshire. Library. Digital Collections.",sanbornton_0019+application-pdf+application.pdf|~|sanbornton_0019+image-low-jpg+image-low.jpg|~|sanbornton_0019+image-tb-jpg+image-tb.jpg
Active,sanbornton:0020,sanbornton,http://www.archive.org/details/annualreportofto1898sanb|~|annualreportofto1898sanb|~|sanbornton:0020,"Annual report of the Town of Sanbornton, New Hampshire, 1898",1898,Title varies|~|Imprint varies|~|Report year varies,"University of New Hampshire. Library. Digital Collections.|~|Scanned by Internet Archive, Open Content Alliance (2010)",,,Text,Sanbornton (N.H. : Town) -- Appropriations and expenditures -- Periodicals,Sanbornton (N.H. : Town),,,Eng,"[Meredith Bridge, N.H. : Wright &amp; Cook, Printers]|~|University of New Hampshire. Library. Digital Collections.",sanbornton_0020+application-pdf+application.pdf|~|sanbornton_0020+image-low-jpg+image-low.jpg|~|sanbornton_0020+image-tb-jpg+image-tb.jpg
Active,sanbornton:0021,sanbornton,http://www.archive.org/details/annualreportofto1899sanb|~|annualreportofto1899sanb|~|sanbornton:0021,"Annual report of the Town of Sanbornton, New Hampshire, 1899",1899,Title varies|~|Imprint varies|~|Report year varies,"University of New Hampshire. Library. Digital Collections.|~|Scanned by Internet Archive, Open Content Alliance (2010)",,,Text,Sanbornton (N.H. : Town) -- Appropriations and expenditures -- Periodicals,Sanbornton (N.H. : Town),,,Eng,"[Meredith Bridge, N.H. : Wright &amp; Cook, Printers]|~|University of New Hampshire. Library. Digital Collections.",sanbornton_0021+application-pdf+application.pdf|~|sanbornton_0021+image-low-jpg+image-low.jpg|~|sanbornton_0021+image-tb-jpg+image-tb.jpg
Active,sanbornton:0022,sanbornton,http://www.archive.org/details/annualreportofto1900sanb|~|annualreportofto1900sanb|~|sanbornton:0022,"Annual report of the Town of Sanbornton, New Hampshire, 1900",1900,Title varies|~|Imprint varies|~|Report year varies,"University of New Hampshire. Library. Digital Collections.|~|Scanned by Internet Archive, Open Content Alliance (2010)",,,Text,Sanbornton (N.H. : Town) -- Appropriations and expenditures -- Periodicals,Sanbornton (N.H. : Town),,,Eng,"[Meredith Bridge, N.H. : Wright &amp; Cook, Printers]|~|University of New Hampshire. Library. Digital Collections.",sanbornton_0022+application-pdf+application.pdf|~|sanbornton_0022+image-low-jpg+image-low.jpg|~|sanbornton_0022+image-tb-jpg+image-tb.jpg
Active,sanbornton:0023,sanbornton,http://www.archive.org/details/annualreportofto1901sanb|~|annualreportofto1901sanb|~|sanbornton:0023,"Annual report of the Town of Sanbornton, New Hampshire, 1901",1901,Title varies|~|Imprint varies|~|Report year varies,"University of New Hampshire. Library. Digital Collections.|~|Scanned by Internet Archive, Open Content Alliance (2010)",,,Text,Sanbornton (N.H. : Town) -- Appropriations and expenditures -- Periodicals,Sanbornton (N.H. : Town),,,Eng,"[Meredith Bridge, N.H. : Wright &amp; Cook, Printers]|~|University of New Hampshire. Library. Digital Collections.",sanbornton_0023+application-pdf+application.pdf|~|sanbornton_0023+image-low-jpg+image-low.jpg|~|sanbornton_0023+image-tb-jpg+image-tb.jpg
Active,sanbornton:0024,sanbornton,http://www.archive.org/details/annualreportofto1902sanb|~|annualreportofto1902sanb|~|sanbornton:0024,"Annual report of the Town of Sanbornton, New Hampshire, 1902",1902,Title varies|~|Imprint varies|~|Report year varies,"University of New Hampshire. Library. Digital Collections.|~|Scanned by Internet Archive, Open Content Alliance (2010)",,,Text,Sanbornton (N.H. : Town) -- Appropriations and expenditures -- Periodicals,Sanbornton (N.H. : Town),,,Eng,"[Meredith Bridge, N.H. : Wright &amp; Cook, Printers]|~|University of New Hampshire. Library. Digital Collections.",sanbornton_0024+application-pdf+application.pdf|~|sanbornton_0024+image-low-jpg+image-low.jpg|~|sanbornton_0024+image-tb-jpg+image-tb.jpg
Active,sanbornton:0025,sanbornton,http://www.archive.org/details/annualreportofto1903sanb|~|annualreportofto1903sanb|~|sanbornton:0025,"Annual report of the Town of Sanbornton, New Hampshire, 1903",1903,Title varies|~|Imprint varies|~|Report year varies,"University of New Hampshire. Library. Digital Collections.|~|Scanned by Internet Archive, Open Content Alliance (2010)",,,Text,Sanbornton (N.H. : Town) -- Appropriations and expenditures -- Periodicals,Sanbornton (N.H. : Town),,,Eng,"[Meredith Bridge, N.H. : Wright &amp; Cook, Printers]|~|University of New Hampshire. Library. Digital Collections.",sanbornton_0025+application-pdf+application.pdf|~|sanbornton_0025+image-low-jpg+image-low.jpg|~|sanbornton_0025+image-tb-jpg+image-tb.jpg
Active,sanbornton:0026,sanbornton,http://www.archive.org/details/annualreportofto1904sanb|~|annualreportofto1904sanb|~|sanbornton:0026,"Annual report of the Town of Sanbornton, New Hampshire, 1904",1904,Title varies|~|Imprint varies|~|Report year varies,"University of New Hampshire. Library. Digital Collections.|~|Scanned by Internet Archive, Open Content Alliance (2010)",,,Text,Sanbornton (N.H. : Town) -- Appropriations and expenditures -- Periodicals,Sanbornton (N.H. : Town),,,Eng,"[Meredith Bridge, N.H. : Wright &amp; Cook, Printers]|~|University of New Hampshire. Library. Digital Collections.",sanbornton_0026+application-pdf+application.pdf|~|sanbornton_0026+image-low-jpg+image-low.jpg|~|sanbornton_0026+image-tb-jpg+image-tb.jpg
Active,sanbornton:0027,sanbornton,http://www.archive.org/details/annualreportofto1905sanb|~|annualreportofto1905sanb|~|sanbornton:0027,"Annual report of the Town of Sanbornton, New Hampshire, 1905",1905,Title varies|~|Imprint varies|~|Report year varies,"University of New Hampshire. Library. Digital Collections.|~|Scanned by Internet Archive, Open Content Alliance (2010)",,,Text,Sanbornton (N.H. : Town) -- Appropriations and expenditures -- Periodicals,Sanbornton (N.H. : Town),,,Eng,"[Meredith Bridge, N.H. : Wright &amp; Cook, Printers]|~|University of New Hampshire. Library. Digital Collections.",sanbornton_0027+application-pdf+application.pdf|~|sanbornton_0027+image-low-jpg+image-low.jpg|~|sanbornton_0027+image-tb-jpg+image-tb.jpg
Active,sanbornton:0028,sanbornton,http://www.archive.org/details/annualreportofto1906sanb|~|annualreportofto1906sanb|~|sanbornton:0028,"Annual report of the Town of Sanbornton, New Hampshire, 1906",1906,Title varies|~|Imprint varies|~|Report year varies,"University of New Hampshire. Library. Digital Collections.|~|Scanned by Internet Archive, Open Content Alliance (2010)",,,Text,Sanbornton (N.H. : Town) -- Appropriations and expenditures -- Periodicals,Sanbornton (N.H. : Town),,,Eng,"[Meredith Bridge, N.H. : Wright &amp; Cook, Printers]|~|University of New Hampshire. Library. Digital Collections.",sanbornton_0028+application-pdf+application.pdf|~|sanbornton_0028+image-low-jpg+image-low.jpg|~|sanbornton_0028+image-tb-jpg+image-tb.jpg
Active,sanbornton:0029,sanbornton,http://www.archive.org/details/annualreportofto1907sanb|~|annualreportofto1907sanb|~|sanbornton:0029,"Annual report of the Town of Sanbornton, New Hampshire, 1907",1907,Title varies|~|Imprint varies|~|Report year varies,"University of New Hampshire. Library. Digital Collections.|~|Scanned by Internet Archive, Open Content Alliance (2010)",,,Text,Sanbornton (N.H. : Town) -- Appropriations and expenditures -- Periodicals,Sanbornton (N.H. : Town),,,Eng,"[Meredith Bridge, N.H. : Wright &amp; Cook, Printers]|~|University of New Hampshire. Library. Digital Collections.",sanbornton_0029+application-pdf+application.pdf|~|sanbornton_0029+image-low-jpg+image-low.jpg|~|sanbornton_0029+image-tb-jpg+image-tb.jpg
Active,sanbornton:0030,sanbornton,http://www.archive.org/details/annualreportofto1908sanb|~|annualreportofto1908sanb|~|sanbornton:0030,"Annual report of the Town of Sanbornton, New Hampshire, 1908",1908,Title varies|~|Imprint varies|~|Report year varies,"University of New Hampshire. Library. Digital Collections.|~|Scanned by Internet Archive, Open Content Alliance (2010)",,,Text,Sanbornton (N.H. : Town) -- Appropriations and expenditures -- Periodicals,Sanbornton (N.H. : Town),,,Eng,"[Meredith Bridge, N.H. : Wright &amp; Cook, Printers]|~|University of New Hampshire. Library. Digital Collections.",sanbornton_0030+application-pdf+application.pdf|~|sanbornton_0030+image-low-jpg+image-low.jpg|~|sanbornton_0030+image-tb-jpg+image-tb.jpg
Active,sanbornton:0031,sanbornton,http://www.archive.org/details/annualreportofto1909sanb|~|annualreportofto1909sanb|~|sanbornton:0031,"Annual report of the Town of Sanbornton, New Hampshire, 1909",1909,Title varies|~|Imprint varies|~|Report year varies,"University of New Hampshire. Library. Digital Collections.|~|Scanned by Internet Archive, Open Content Alliance (2010)",,,Text,Sanbornton (N.H. : Town) -- Appropriations and expenditures -- Periodicals,Sanbornton (N.H. : Town),,,Eng,"[Meredith Bridge, N.H. : Wright &amp; Cook, Printers]|~|University of New Hampshire. Library. Digital Collections.",sanbornton_0031+application-pdf+application.pdf|~|sanbornton_0031+image-low-jpg+image-low.jpg|~|sanbornton_0031+image-tb-jpg+image-tb.jpg
Active,sanbornton:0032,sanbornton,http://www.archive.org/details/annualreportofto1910sanb|~|annualreportofto1910sanb|~|sanbornton:0032,"Annual report of the Town of Sanbornton, New Hampshire, 1910",1910,Title varies|~|Imprint varies|~|Report year varies,"University of New Hampshire. Library. Digital Collections.|~|Scanned by Internet Archive, Open Content Alliance (2010)",,,Text,Sanbornton (N.H. : Town) -- Appropriations and expenditures -- Periodicals,Sanbornton (N.H. : Town),,,Eng,"[Meredith Bridge, N.H. : Wright &amp; Cook, Printers]|~|University of New Hampshire. Library. Digital Collections.",sanbornton_0032+application-pdf+application.pdf|~|sanbornton_0032+image-low-jpg+image-low.jpg|~|sanbornton_0032+image-tb-jpg+image-tb.jpg
Active,sanbornton:0033,sanbornton,http://www.archive.org/details/annualreportofto1912sanb|~|annualreportofto1912sanb|~|sanbornton:0033,"Annual report of the Town of Sanbornton, New Hampshire, 1912",1912,Title varies|~|Imprint varies|~|Report year varies,"University of New Hampshire. Library. Digital Collections.|~|Scanned by Internet Archive, Open Content Alliance (2010)",,,Text,Sanbornton (N.H. : Town) -- Appropriations and expenditures -- Periodicals,Sanbornton (N.H. : Town),,,Eng,"[Meredith Bridge, N.H. : Wright &amp; Cook, Printers]|~|University of New Hampshire. Library. Digital Collections.",sanbornton_0033+application-pdf+application.pdf|~|sanbornton_0033+image-low-jpg+image-low.jpg|~|sanbornton_0033+image-tb-jpg+image-tb.jpg
Active,sanbornton:0034,sanbornton,http://www.archive.org/details/annualreportofto1916sanb|~|annualreportofto1916sanb|~|sanbornton:0034,"Annual report of the Town of Sanbornton, New Hampshire, 1916",1916,Title varies|~|Imprint varies|~|Report year varies,"University of New Hampshire. Library. Digital Collections.|~|Scanned by Internet Archive, Open Content Alliance (2010)",,,Text,Sanbornton (N.H. : Town) -- Appropriations and expenditures -- Periodicals,Sanbornton (N.H. : Town),,,Eng,"[Meredith Bridge, N.H. : Wright &amp; Cook, Printers]|~|University of New Hampshire. Library. Digital Collections.",sanbornton_0034+application-pdf+application.pdf|~|sanbornton_0034+image-low-jpg+image-low.jpg|~|sanbornton_0034+image-tb-jpg+image-tb.jpg
Active,sanbornton:0035,sanbornton,http://www.archive.org/details/annualreportofto1917sanb|~|annualreportofto1917sanb|~|sanbornton:0035,"Annual report of the Town of Sanbornton, New Hampshire, 1917",1917,Title varies|~|Imprint varies|~|Report year varies,"University of New Hampshire. Library. Digital Collections.|~|Scanned by Internet Archive, Open Content Alliance (2010)",,,Text,Sanbornton (N.H. : Town) -- Appropriations and expenditures -- Periodicals,Sanbornton (N.H. : Town),,,Eng,"[Meredith Bridge, N.H. : Wright &amp; Cook, Printers]|~|University of New Hampshire. Library. Digital Collections.",sanbornton_0035+application-pdf+application.pdf|~|sanbornton_0035+image-low-jpg+image-low.jpg|~|sanbornton_0035+image-tb-jpg+image-tb.jpg
Active,sanbornton:0036,sanbornton,http://www.archive.org/details/annualreportofto1919sanb|~|annualreportofto1919sanb|~|sanbornton:0036,"Annual report of the Town of Sanbornton, New Hampshire, 1919",1919,Title varies|~|Imprint varies|~|Report year varies,"University of New Hampshire. Library. Digital Collections.|~|Scanned by Internet Archive, Open Content Alliance (2010)",,,Text,Sanbornton (N.H. : Town) -- Appropriations and expenditures -- Periodicals,Sanbornton (N.H. : Town),,,Eng,"[Meredith Bridge, N.H. : Wright &amp; Cook, Printers]|~|University of New Hampshire. Library. Digital Collections.",sanbornton_0036+application-pdf+application.pdf|~|sanbornton_0036+image-low-jpg+image-low.jpg|~|sanbornton_0036+image-tb-jpg+image-tb.jpg
Active,sanbornton:0037,sanbornton,http://www.archive.org/details/annualreportofto1920sanb|~|annualreportofto1920sanb|~|sanbornton:0037,"Annual report of the Town of Sanbornton, New Hampshire, 1920",1920,Title varies|~|Imprint varies|~|Report year varies,"University of New Hampshire. Library. Digital Collections.|~|Scanned by Internet Archive, Open Content Alliance (2010)",,,Text,Sanbornton (N.H. : Town) -- Appropriations and expenditures -- Periodicals,Sanbornton (N.H. : Town),,,Eng,"[Meredith Bridge, N.H. : Wright &amp; Cook, Printers]|~|University of New Hampshire. Library. Digital Collections.",sanbornton_0037+application-pdf+application.pdf|~|sanbornton_0037+image-low-jpg+image-low.jpg|~|sanbornton_0037+image-tb-jpg+image-tb.jpg
Active,sanbornton:0038,sanbornton,http://www.archive.org/details/annualreportofto1922sanb|~|annualreportofto1922sanb|~|sanbornton:0038,"Annual report of the Town of Sanbornton, New Hampshire, 1922",1922,Title varies|~|Imprint varies|~|Report year varies,"University of New Hampshire. Library. Digital Collections.|~|Scanned by Internet Archive, Open Content Alliance (2010)",,,Text,Sanbornton (N.H. : Town) -- Appropriations and expenditures -- Periodicals,Sanbornton (N.H. : Town),,,Eng,"[Meredith Bridge, N.H. : Wright &amp; Cook, Printers]|~|University of New Hampshire. Library. Digital Collections.",sanbornton_0038+application-pdf+application.pdf|~|sanbornton_0038+image-low-jpg+image-low.jpg|~|sanbornton_0038+image-tb-jpg+image-tb.jpg
Active,sanbornton:0039,sanbornton,http://www.archive.org/details/annualreportofto1923sanb|~|annualreportofto1923sanb|~|sanbornton:0039,"Annual report of the Town of Sanbornton, New Hampshire, 1923",1923,Title varies|~|Imprint varies|~|Report year varies,"University of New Hampshire. Library. Digital Collections.|~|Scanned by Internet Archive, Open Content Alliance (2010)",,,Text,Sanbornton (N.H. : Town) -- Appropriations and expenditures -- Periodicals,Sanbornton (N.H. : Town),,,Eng,"[Meredith Bridge, N.H. : Wright &amp; Cook, Printers]|~|University of New Hampshire. Library. Digital Collections.",sanbornton_0039+application-pdf+application.pdf|~|sanbornton_0039+image-low-jpg+image-low.jpg|~|sanbornton_0039+image-tb-jpg+image-tb.jpg
Active,sanbornton:0040,sanbornton,http://www.archive.org/details/annualreportofto1924sanb|~|annualreportofto1924sanb|~|sanbornton:0040,"Annual report of the Town of Sanbornton, New Hampshire, 1924",1924,Title varies|~|Imprint varies|~|Report year varies,"University of New Hampshire. Library. Digital Collections.|~|Scanned by Internet Archive, Open Content Alliance (2010)",,,Text,Sanbornton (N.H. : Town) -- Appropriations and expenditures -- Periodicals,Sanbornton (N.H. : Town),,,Eng,"[Meredith Bridge, N.H. : Wright &amp; Cook, Printers]|~|University of New Hampshire. Library. Digital Collections.",sanbornton_0040+application-pdf+application.pdf|~|sanbornton_0040+image-low-jpg+image-low.jpg|~|sanbornton_0040+image-tb-jpg+image-tb.jpg
Active,sanbornton:0041,sanbornton,http://www.archive.org/details/annualreportofto1925sanb|~|annualreportofto1925sanb|~|sanbornton:0041,"Annual report of the Town of Sanbornton, New Hampshire, 1925",1925,Title varies|~|Imprint varies|~|Report year varies,"University of New Hampshire. Library. Digital Collections.|~|Scanned by Internet Archive, Open Content Alliance (2010)",,,Text,Sanbornton (N.H. : Town) -- Appropriations and expenditures -- Periodicals,Sanbornton (N.H. : Town),,,Eng,"[Meredith Bridge, N.H. : Wright &amp; Cook, Printers]|~|University of New Hampshire. Library. Digital Collections.",sanbornton_0041+application-pdf+application.pdf|~|sanbornton_0041+image-low-jpg+image-low.jpg|~|sanbornton_0041+image-tb-jpg+image-tb.jpg
Active,sanbornton:0042,sanbornton,http://www.archive.org/details/annualreportofto1926sanb|~|annualreportofto1926sanb|~|sanbornton:0042,"Annual report of the Town of Sanbornton, New Hampshire, 1926",1926,Title varies|~|Imprint varies|~|Report year varies,"University of New Hampshire. Library. Digital Collections.|~|Scanned by Internet Archive, Open Content Alliance (2010)",,,Text,Sanbornton (N.H. : Town) -- Appropriations and expenditures -- Periodicals,Sanbornton (N.H. : Town),,,Eng,"[Meredith Bridge, N.H. : Wright &amp; Cook, Printers]|~|University of New Hampshire. Library. Digital Collections.",sanbornton_0042+application-pdf+application.pdf|~|sanbornton_0042+image-low-jpg+image-low.jpg|~|sanbornton_0042+image-tb-jpg+image-tb.jpg
Active,sanbornton:0043,sanbornton,http://www.archive.org/details/annualreportofto1927sanb|~|annualreportofto1927sanb|~|sanbornton:0043,"Annual report of the Town of Sanbornton, New Hampshire, 1927",1927,Title varies|~|Imprint varies|~|Report year varies,"University of New Hampshire. Library. Digital Collections.|~|Scanned by Internet Archive, Open Content Alliance (2010)",,,Text,Sanbornton (N.H. : Town) -- Appropriations and expenditures -- Periodicals,Sanbornton (N.H. : Town),,,Eng,"[Meredith Bridge, N.H. : Wright &amp; Cook, Printers]|~|University of New Hampshire. Library. Digital Collections.",sanbornton_0043+application-pdf+application.pdf|~|sanbornton_0043+image-low-jpg+image-low.jpg|~|sanbornton_0043+image-tb-jpg+image-tb.jpg
Active,sanbornton:0044,sanbornton,http://www.archive.org/details/annualreportofto1928sanb|~|annualreportofto1928sanb|~|sanbornton:0044,"Annual report of the Town of Sanbornton, New Hampshire, 1928",1928,Title varies|~|Imprint varies|~|Report year varies,"University of New Hampshire. Library. Digital Collections.|~|Scanned by Internet Archive, Open Content Alliance (2010)",,,Text,Sanbornton (N.H. : Town) -- Appropriations and expenditures -- Periodicals,Sanbornton (N.H. : Town),,,Eng,"[Meredith Bridge, N.H. : Wright &amp; Cook, Printers]|~|University of New Hampshire. Library. Digital Collections.",sanbornton_0044+application-pdf+application.pdf|~|sanbornton_0044+image-low-jpg+image-low.jpg|~|sanbornton_0044+image-tb-jpg+image-tb.jpg
Active,sanbornton:0045,sanbornton,http://www.archive.org/details/annualreportofto1932sanb|~|annualreportofto1932sanb|~|sanbornton:0045,"Annual report of the Town of Sanbornton, New Hampshire, 1932",1932,Title varies|~|Imprint varies|~|Report year varies,"University of New Hampshire. Library. Digital Collections.|~|Scanned by Internet Archive, Open Content Alliance (2010)",,,Text,Sanbornton (N.H. : Town) -- Appropriations and expenditures -- Periodicals,Sanbornton (N.H. : Town),,,Eng,"[Meredith Bridge, N.H. : Wright &amp; Cook, Printers]|~|University of New Hampshire. Library. Digital Collections.",sanbornton_0045+application-pdf+application.pdf|~|sanbornton_0045+image-low-jpg+image-low.jpg|~|sanbornton_0045+image-tb-jpg+image-tb.jpg
Active,sanbornton:0046,sanbornton,http://www.archive.org/details/annualreportofto1934sanb|~|annualreportofto1934sanb|~|sanbornton:0046,"Annual report of the Town of Sanbornton, New Hampshire, 1934",1934,Title varies|~|Imprint varies|~|Report year varies,"University of New Hampshire. Library. Digital Collections.|~|Scanned by Internet Archive, Open Content Alliance (2010)",,,Text,Sanbornton (N.H. : Town) -- Appropriations and expenditures -- Periodicals,Sanbornton (N.H. : Town),,,Eng,"[Meredith Bridge, N.H. : Wright &amp; Cook, Printers]|~|University of New Hampshire. Library. Digital Collections.",sanbornton_0046+application-pdf+application.pdf|~|sanbornton_0046+image-low-jpg+image-low.jpg|~|sanbornton_0046+image-tb-jpg+image-tb.jpg
Active,sanbornton:0047,sanbornton,http://www.archive.org/details/annualreportofto1936sanb|~|annualreportofto1936sanb|~|sanbornton:0047,"Annual report of the Town of Sanbornton, New Hampshire, 1936",1936,Title varies|~|Imprint varies|~|Report year varies,"University of New Hampshire. Library. Digital Collections.|~|Scanned by Internet Archive, Open Content Alliance (2010)",,,Text,Sanbornton (N.H. : Town) -- Appropriations and expenditures -- Periodicals,Sanbornton (N.H. : Town),,,Eng,"[Meredith Bridge, N.H. : Wright &amp; Cook, Printers]|~|University of New Hampshire. Library. Digital Collections.",sanbornton_0047+application-pdf+application.pdf|~|sanbornton_0047+image-low-jpg+image-low.jpg|~|sanbornton_0047+image-tb-jpg+image-tb.jpg
Active,sanbornton:0048,sanbornton,http://www.archive.org/details/annualreportofto1937sanb|~|annualreportofto1937sanb|~|sanbornton:0048,"Annual report of the Town of Sanbornton, New Hampshire, 1937",1937,Title varies|~|Imprint varies|~|Report year varies,"University of New Hampshire. Library. Digital Collections.|~|Scanned by Internet Archive, Open Content Alliance (2010)",,,Text,Sanbornton (N.H. : Town) -- Appropriations and expenditures -- Periodicals,Sanbornton (N.H. : Town),,,Eng,"[Meredith Bridge, N.H. : Wright &amp; Cook, Printers]|~|University of New Hampshire. Library. Digital Collections.",sanbornton_0048+application-pdf+application.pdf|~|sanbornton_0048+image-low-jpg+image-low.jpg|~|sanbornton_0048+image-tb-jpg+image-tb.jpg
Active,sanbornton:0049,sanbornton,http://www.archive.org/details/annualreportofto1938sanb|~|annualreportofto1938sanb|~|sanbornton:0049,"Annual report of the Town of Sanbornton, New Hampshire, 1938",1938,Title varies|~|Imprint varies|~|Report year varies,"University of New Hampshire. Library. Digital Collections.|~|Scanned by Internet Archive, Open Content Alliance (2010)",,,Text,Sanbornton (N.H. : Town) -- Appropriations and expenditures -- Periodicals,Sanbornton (N.H. : Town),,,Eng,"[Meredith Bridge, N.H. : Wright &amp; Cook, Printers]|~|University of New Hampshire. Library. Digital Collections.",sanbornton_0049+application-pdf+application.pdf|~|sanbornton_0049+image-low-jpg+image-low.jpg|~|sanbornton_0049+image-tb-jpg+image-tb.jpg
Active,sanbornton:0050,sanbornton,http://www.archive.org/details/annualreportofto1939sanb|~|annualreportofto1939sanb|~|sanbornton:0050,"Annual report of the Town of Sanbornton, New Hampshire, 1939",1939,Title varies|~|Imprint varies|~|Report year varies,"University of New Hampshire. Library. Digital Collections.|~|Scanned by Internet Archive, Open Content Alliance (2010)",,,Text,Sanbornton (N.H. : Town) -- Appropriations and expenditures -- Periodicals,Sanbornton (N.H. : Town),,,Eng,"[Meredith Bridge, N.H. : Wright &amp; Cook, Printers]|~|University of New Hampshire. Library. Digital Collections.",sanbornton_0050+application-pdf+application.pdf|~|sanbornton_0050+image-low-jpg+image-low.jpg|~|sanbornton_0050+image-tb-jpg+image-tb.jpg
Active,sanbornton:0051,sanbornton,http://www.archive.org/details/annualreportofto1940sanb|~|annualreportofto1940sanb|~|sanbornton:0051,"Annual report of the Town of Sanbornton, New Hampshire, 1940",1940,Title varies|~|Imprint varies|~|Report year varies,"University of New Hampshire. Library. Digital Collections.|~|Scanned by Internet Archive, Open Content Alliance (2010)",,,Text,Sanbornton (N.H. : Town) -- Appropriations and expenditures -- Periodicals,Sanbornton (N.H. : Town),,,Eng,"[Meredith Bridge, N.H. : Wright &amp; Cook, Printers]|~|University of New Hampshire. Library. Digital Collections.",sanbornton_0051+application-pdf+application.pdf|~|sanbornton_0051+image-low-jpg+image-low.jpg|~|sanbornton_0051+image-tb-jpg+image-tb.jpg
Active,sanbornton:0052,sanbornton,http://www.archive.org/details/annualreportofto1941sanb|~|annualreportofto1941sanb|~|sanbornton:0052,"Annual report of the Town of Sanbornton, New Hampshire, 1941",1941,Title varies|~|Imprint varies|~|Report year varies,"University of New Hampshire. Library. Digital Collections.|~|Scanned by Internet Archive, Open Content Alliance (2010)",,,Text,Sanbornton (N.H. : Town) -- Appropriations and expenditures -- Periodicals,Sanbornton (N.H. : Town),,,Eng,"[Meredith Bridge, N.H. : Wright &amp; Cook, Printers]|~|University of New Hampshire. Library. Digital Collections.",sanbornton_0052+application-pdf+application.pdf|~|sanbornton_0052+image-low-jpg+image-low.jpg|~|sanbornton_0052+image-tb-jpg+image-tb.jpg
Active,sanbornton:0053,sanbornton,http://www.archive.org/details/annualreportofto1942sanb|~|annualreportofto1942sanb|~|sanbornton:0053,"Annual report of the Town of Sanbornton, New Hampshire, 1942",1942,Title varies|~|Imprint varies|~|Report year varies,"University of New Hampshire. Library. Digital Collections.|~|Scanned by Internet Archive, Open Content Alliance (2010)",,,Text,Sanbornton (N.H. : Town) -- Appropriations and expenditures -- Periodicals,Sanbornton (N.H. : Town),,,Eng,"[Meredith Bridge, N.H. : Wright &amp; Cook, Printers]|~|University of New Hampshire. Library. Digital Collections.",sanbornton_0053+application-pdf+application.pdf|~|sanbornton_0053+image-low-jpg+image-low.jpg|~|sanbornton_0053+image-tb-jpg+image-tb.jpg
Active,sanbornton:0054,sanbornton,http://www.archive.org/details/annualreportofto1943sanb|~|annualreportofto1943sanb|~|sanbornton:0054,"Annual report of the Town of Sanbornton, New Hampshire, 1943",1943,Title varies|~|Imprint varies|~|Report year varies,"University of New Hampshire. Library. Digital Collections.|~|Scanned by Internet Archive, Open Content Alliance (2010)",,,Text,Sanbornton (N.H. : Town) -- Appropriations and expenditures -- Periodicals,Sanbornton (N.H. : Town),,,Eng,"[Meredith Bridge, N.H. : Wright &amp; Cook, Printers]|~|University of New Hampshire. Library. Digital Collections.",sanbornton_0054+application-pdf+application.pdf|~|sanbornton_0054+image-low-jpg+image-low.jpg|~|sanbornton_0054+image-tb-jpg+image-tb.jpg
Active,sanbornton:0055,sanbornton,http://www.archive.org/details/annualreportofto1944sanb|~|annualreportofto1944sanb|~|sanbornton:0055,"Annual report of the Town of Sanbornton, New Hampshire, 1944",1944,Title varies|~|Imprint varies|~|Report year varies,"University of New Hampshire. Library. Digital Collections.|~|Scanned by Internet Archive, Open Content Alliance (2010)",,,Text,Sanbornton (N.H. : Town) -- Appropriations and expenditures -- Periodicals,Sanbornton (N.H. : Town),,,Eng,"[Meredith Bridge, N.H. : Wright &amp; Cook, Printers]|~|University of New Hampshire. Library. Digital Collections.",sanbornton_0055+application-pdf+application.pdf|~|sanbornton_0055+image-low-jpg+image-low.jpg|~|sanbornton_0055+image-tb-jpg+image-tb.jpg
Active,sanbornton:0056,sanbornton,http://www.archive.org/details/annualreportofto44sanb|~|annualreportofto44sanb|~|sanbornton:0056,"Annual report of the Town of Sanbornton, New Hampshire, 1944",1945,Title varies|~|Imprint varies|~|Report year varies,"University of New Hampshire. Library. Digital Collections.|~|Scanned by Internet Archive, Open Content Alliance (2010)",,,Text,Sanbornton (N.H. : Town) -- Appropriations and expenditures -- Periodicals,Sanbornton (N.H. : Town),,,Eng,"[Meredith Bridge, N.H. : Wright &amp; Cook, Printers]|~|University of New Hampshire. Library. Digital Collections.",sanbornton_0056+application-pdf+application.pdf|~|sanbornton_0056+image-low-jpg+image-low.jpg|~|sanbornton_0056+image-tb-jpg+image-tb.jpg
Active,sanbornton:0057,sanbornton,http://www.archive.org/details/annualreportofto1945sanb|~|annualreportofto1945sanb|~|sanbornton:0057,"Annual report of the Town of Sanbornton, New Hampshire, 1945",1946,Title varies|~|Imprint varies|~|Report year varies,"University of New Hampshire. Library. Digital Collections.|~|Scanned by Internet Archive, Open Content Alliance (2010)",,,Text,Sanbornton (N.H. : Town) -- Appropriations and expenditures -- Periodicals,Sanbornton (N.H. : Town),,,Eng,"[Meredith Bridge, N.H. : Wright &amp; Cook, Printers]|~|University of New Hampshire. Library. Digital Collections.",sanbornton_0057+application-pdf+application.pdf|~|sanbornton_0057+image-low-jpg+image-low.jpg|~|sanbornton_0057+image-tb-jpg+image-tb.jpg
Active,sanbornton:0058,sanbornton,http://www.archive.org/details/annualreportofto1946sanb|~|annualreportofto1946sanb|~|sanbornton:0058,"Annual report of the Town of Sanbornton, New Hampshire, 1946",1947,Title varies|~|Imprint varies|~|Report year varies,"University of New Hampshire. Library. Digital Collections.|~|Scanned by Internet Archive, Open Content Alliance (2010)",,,Text,Sanbornton (N.H. : Town) -- Appropriations and expenditures -- Periodicals,Sanbornton (N.H. : Town),,,Eng,"[Meredith Bridge, N.H. : Wright &amp; Cook, Printers]|~|University of New Hampshire. Library. Digital Collections.",sanbornton_0058+application-pdf+application.pdf|~|sanbornton_0058+image-low-jpg+image-low.jpg|~|sanbornton_0058+image-tb-jpg+image-tb.jpg
Active,sanbornton:0059,sanbornton,http://www.archive.org/details/annualreportofto1947sanb|~|annualreportofto1947sanb|~|sanbornton:0059,"Annual report of the Town of Sanbornton, New Hampshire, 1947",1948,Title varies|~|Imprint varies|~|Report year varies,"University of New Hampshire. Library. Digital Collections.|~|Scanned by Internet Archive, Open Content Alliance (2010)",,,Text,Sanbornton (N.H. : Town) -- Appropriations and expenditures -- Periodicals,Sanbornton (N.H. : Town),,,Eng,"[Meredith Bridge, N.H. : Wright &amp; Cook, Printers]|~|University of New Hampshire. Library. Digital Collections.",sanbornton_0059+application-pdf+application.pdf|~|sanbornton_0059+image-low-jpg+image-low.jpg|~|sanbornton_0059+image-tb-jpg+image-tb.jpg
Active,sanbornton:0060,sanbornton,http://www.archive.org/details/annualreportofto1948sanb|~|annualreportofto1948sanb|~|sanbornton:0060,"Annual report of the Town of Sanbornton, New Hampshire, 1948",1949,Title varies|~|Imprint varies|~|Report year varies,"University of New Hampshire. Library. Digital Collections.|~|Scanned by Internet Archive, Open Content Alliance (2010)",,,Text,Sanbornton (N.H. : Town) -- Appropriations and expenditures -- Periodicals,Sanbornton (N.H. : Town),,,Eng,"[Meredith Bridge, N.H. : Wright &amp; Cook, Printers]|~|University of New Hampshire. Library. Digital Collections.",sanbornton_0060+application-pdf+application.pdf|~|sanbornton_0060+image-low-jpg+image-low.jpg|~|sanbornton_0060+image-tb-jpg+image-tb.jpg
Active,sanbornton:0061,sanbornton,http://www.archive.org/details/annualreportofto1949sanb|~|annualreportofto1949sanb|~|sanbornton:0061,"Annual report of the Town of Sanbornton, New Hampshire, 1949",1950,Title varies|~|Imprint varies|~|Report year varies,"University of New Hampshire. Library. Digital Collections.|~|Scanned by Internet Archive, Open Content Alliance (2010)",,,Text,Sanbornton (N.H. : Town) -- Appropriations and expenditures -- Periodicals,Sanbornton (N.H. : Town),,,Eng,"[Meredith Bridge, N.H. : Wright &amp; Cook, Printers]|~|University of New Hampshire. Library. Digital Collections.",sanbornton_0061+application-pdf+application.pdf|~|sanbornton_0061+image-low-jpg+image-low.jpg|~|sanbornton_0061+image-tb-jpg+image-tb.jpg
Active,sanbornton:0062,sanbornton,http://www.archive.org/details/annualreportofto1950sanb|~|annualreportofto1950sanb|~|sanbornton:0062,"Annual report of the Town of Sanbornton, New Hampshire, 1950",1951,Title varies|~|Imprint varies|~|Report year varies,"University of New Hampshire. Library. Digital Collections.|~|Scanned by Internet Archive, Open Content Alliance (2010)",,,Text,Sanbornton (N.H. : Town) -- Appropriations and expenditures -- Periodicals,Sanbornton (N.H. : Town),,,Eng,"[Meredith Bridge, N.H. : Wright &amp; Cook, Printers]|~|University of New Hampshire. Library. Digital Collections.",sanbornton_0062+application-pdf+application.pdf|~|sanbornton_0062+image-low-jpg+image-low.jpg|~|sanbornton_0062+image-tb-jpg+image-tb.jpg
Active,sanbornton:0063,sanbornton,http://www.archive.org/details/annualreportofto1951sanb|~|annualreportofto1951sanb|~|sanbornton:0063,"Annual report of the Town of Sanbornton, New Hampshire, 1951",1952,Title varies|~|Imprint varies|~|Report year varies,"University of New Hampshire. Library. Digital Collections.|~|Scanned by Internet Archive, Open Content Alliance (2010)",,,Text,Sanbornton (N.H. : Town) -- Appropriations and expenditures -- Periodicals,Sanbornton (N.H. : Town),,,Eng,"[Meredith Bridge, N.H. : Wright &amp; Cook, Printers]|~|University of New Hampshire. Library. Digital Collections.",sanbornton_0063+application-pdf+application.pdf|~|sanbornton_0063+image-low-jpg+image-low.jpg|~|sanbornton_0063+image-tb-jpg+image-tb.jpg
Active,sanbornton:0064,sanbornton,http://www.archive.org/details/annualreportofto1952sanb|~|annualreportofto1952sanb|~|sanbornton:0064,"Annual report of the Town of Sanbornton, New Hampshire, 1952",1953,Title varies|~|Imprint varies|~|Report year varies,"University of New Hampshire. Library. Digital Collections.|~|Scanned by Internet Archive, Open Content Alliance (2010)",,,Text,Sanbornton (N.H. : Town) -- Appropriations and expenditures -- Periodicals,Sanbornton (N.H. : Town),,,Eng,"[Meredith Bridge, N.H. : Wright &amp; Cook, Printers]|~|University of New Hampshire. Library. Digital Collections.",sanbornton_0064+application-pdf+application.pdf|~|sanbornton_0064+image-low-jpg+image-low.jpg|~|sanbornton_0064+image-tb-jpg+image-tb.jpg
Active,sanbornton:0065,sanbornton,http://www.archive.org/details/annualreportofto1953sanb|~|annualreportofto1953sanb|~|sanbornton:0065,"Annual report of the Town of Sanbornton, New Hampshire, 1953",1954,Title varies|~|Imprint varies|~|Report year varies,"University of New Hampshire. Library. Digital Collections.|~|Scanned by Internet Archive, Open Content Alliance (2010)",,,Text,Sanbornton (N.H. : Town) -- Appropriations and expenditures -- Periodicals,Sanbornton (N.H. : Town),,,Eng,"[Meredith Bridge, N.H. : Wright &amp; Cook, Printers]|~|University of New Hampshire. Library. Digital Collections.",sanbornton_0065+application-pdf+application.pdf|~|sanbornton_0065+image-low-jpg+image-low.jpg|~|sanbornton_0065+image-tb-jpg+image-tb.jpg
Active,sanbornton:0066,sanbornton,http://www.archive.org/details/annualreportofto1954sanb|~|annualreportofto1954sanb|~|sanbornton:0066,"Annual report of the Town of Sanbornton, New Hampshire, 1954",1955,Title varies|~|Imprint varies|~|Report year varies,"University of New Hampshire. Library. Digital Collections.|~|Scanned by Internet Archive, Open Content Alliance (2010)",,,Text,Sanbornton (N.H. : Town) -- Appropriations and expenditures -- Periodicals,Sanbornton (N.H. : Town),,,Eng,"[Meredith Bridge, N.H. : Wright &amp; Cook, Printers]|~|University of New Hampshire. Library. Digital Collections.",sanbornton_0066+application-pdf+application.pdf|~|sanbornton_0066+image-low-jpg+image-low.jpg|~|sanbornton_0066+image-tb-jpg+image-tb.jpg
Active,sanbornton:0067,sanbornton,http://www.archive.org/details/annualreportofto1955sanb|~|annualreportofto1955sanb|~|sanbornton:0067,"Annual report of the Town of Sanbornton, New Hampshire, 1955",1956,Title varies|~|Imprint varies|~|Report year varies,"University of New Hampshire. Library. Digital Collections.|~|Scanned by Internet Archive, Open Content Alliance (2010)",,,Text,Sanbornton (N.H. : Town) -- Appropriations and expenditures -- Periodicals,Sanbornton (N.H. : Town),,,Eng,"[Meredith Bridge, N.H. : Wright &amp; Cook, Printers]|~|University of New Hampshire. Library. Digital Collections.",sanbornton_0067+application-pdf+application.pdf|~|sanbornton_0067+image-low-jpg+image-low.jpg|~|sanbornton_0067+image-tb-jpg+image-tb.jpg
Active,sanbornton:0068,sanbornton,http://www.archive.org/details/annualreportofto1956sanb|~|annualreportofto1956sanb|~|sanbornton:0068,"Annual report of the Town of Sanbornton, New Hampshire, 1956",1957,Title varies|~|Imprint varies|~|Report year varies,"University of New Hampshire. Library. Digital Collections.|~|Scanned by Internet Archive, Open Content Alliance (2010)",,,Text,Sanbornton (N.H. : Town) -- Appropriations and expenditures -- Periodicals,Sanbornton (N.H. : Town),,,Eng,"[Meredith Bridge, N.H. : Wright &amp; Cook, Printers]|~|University of New Hampshire. Library. Digital Collections.",sanbornton_0068+application-pdf+application.pdf|~|sanbornton_0068+image-low-jpg+image-low.jpg|~|sanbornton_0068+image-tb-jpg+image-tb.jpg
Active,sanbornton:0069,sanbornton,http://www.archive.org/details/annualreportofto1957sanb|~|annualreportofto1957sanb|~|sanbornton:0069,"Annual report of the Town of Sanbornton, New Hampshire, 1957",1958,Title varies|~|Imprint varies|~|Report year varies,"University of New Hampshire. Library. Digital Collections.|~|Scanned by Internet Archive, Open Content Alliance (2010)",,,Text,Sanbornton (N.H. : Town) -- Appropriations and expenditures -- Periodicals,Sanbornton (N.H. : Town),,,Eng,"[Meredith Bridge, N.H. : Wright &amp; Cook, Printers]|~|University of New Hampshire. Library. Digital Collections.",sanbornton_0069+application-pdf+application.pdf|~|sanbornton_0069+image-low-jpg+image-low.jpg|~|sanbornton_0069+image-tb-jpg+image-tb.jpg
Active,sanbornton:0070,sanbornton,http://www.archive.org/details/annualreportofto1958sanb|~|annualreportofto1958sanb|~|sanbornton:0070,"Annual report of the Town of Sanbornton, New Hampshire, 1958",1959,Title varies|~|Imprint varies|~|Report year varies,"University of New Hampshire. Library. Digital Collections.|~|Scanned by Internet Archive, Open Content Alliance (2010)",,,Text,Sanbornton (N.H. : Town) -- Appropriations and expenditures -- Periodicals,Sanbornton (N.H. : Town),,,Eng,"[Meredith Bridge, N.H. : Wright &amp; Cook, Printers]|~|University of New Hampshire. Library. Digital Collections.",sanbornton_0070+application-pdf+application.pdf|~|sanbornton_0070+image-low-jpg+image-low.jpg|~|sanbornton_0070+image-tb-jpg+image-tb.jpg
Active,sanbornton:0071,sanbornton,http://www.archive.org/details/annualreportofto1959sanb|~|annualreportofto1959sanb|~|sanbornton:0071,"Annual report of the Town of Sanbornton, New Hampshire, 1959",1960,Title varies|~|Imprint varies|~|Report year varies,"University of New Hampshire. Library. Digital Collections.|~|Scanned by Internet Archive, Open Content Alliance (2010)",,,Text,Sanbornton (N.H. : Town) -- Appropriations and expenditures -- Periodicals,Sanbornton (N.H. : Town),,,Eng,"[Meredith Bridge, N.H. : Wright &amp; Cook, Printers]|~|University of New Hampshire. Library. Digital Collections.",sanbornton_0071+application-pdf+application.pdf|~|sanbornton_0071+image-low-jpg+image-low.jpg|~|sanbornton_0071+image-tb-jpg+image-tb.jpg
Active,sanbornton:0072,sanbornton,http://www.archive.org/details/annualreportofto1960sanb|~|annualreportofto1960sanb|~|sanbornton:0072,"Annual report of the Town of Sanbornton, New Hampshire, 1960",1961,Title varies|~|Imprint varies|~|Report year varies,"University of New Hampshire. Library. Digital Collections.|~|Scanned by Internet Archive, Open Content Alliance (2010)",,,Text,Sanbornton (N.H. : Town) -- Appropriations and expenditures -- Periodicals,Sanbornton (N.H. : Town),,,Eng,"[Meredith Bridge, N.H. : Wright &amp; Cook, Printers]|~|University of New Hampshire. Library. Digital Collections.",sanbornton_0072+application-pdf+application.pdf|~|sanbornton_0072+image-low-jpg+image-low.jpg|~|sanbornton_0072+image-tb-jpg+image-tb.jpg
Active,sanbornton:0073,sanbornton,http://www.archive.org/details/annualreportofto1961sanb|~|annualreportofto1961sanb|~|sanbornton:0073,"Annual report of the Town of Sanbornton, New Hampshire, 1961",1962,Title varies|~|Imprint varies|~|Report year varies,"University of New Hampshire. Library. Digital Collections.|~|Scanned by Internet Archive, Open Content Alliance (2010)",,,Text,Sanbornton (N.H. : Town) -- Appropriations and expenditures -- Periodicals,Sanbornton (N.H. : Town),,,Eng,"[Meredith Bridge, N.H. : Wright &amp; Cook, Printers]|~|University of New Hampshire. Library. Digital Collections.",sanbornton_0073+application-pdf+application.pdf|~|sanbornton_0073+image-low-jpg+image-low.jpg|~|sanbornton_0073+image-tb-jpg+image-tb.jpg
Active,sanbornton:0074,sanbornton,http://www.archive.org/details/annualreportofto1962sanb|~|annualreportofto1962sanb|~|sanbornton:0074,"Annual report of the Town of Sanbornton, New Hampshire, 1962",1963,Title varies|~|Imprint varies|~|Report year varies,"University of New Hampshire. Library. Digital Collections.|~|Scanned by Internet Archive, Open Content Alliance (2010)",,,Text,Sanbornton (N.H. : Town) -- Appropriations and expenditures -- Periodicals,Sanbornton (N.H. : Town),,,Eng,"[Meredith Bridge, N.H. : Wright &amp; Cook, Printers]|~|University of New Hampshire. Library. Digital Collections.",sanbornton_0074+application-pdf+application.pdf|~|sanbornton_0074+image-low-jpg+image-low.jpg|~|sanbornton_0074+image-tb-jpg+image-tb.jpg
Active,sanbornton:0075,sanbornton,http://www.archive.org/details/annualreportofto1963sanb|~|annualreportofto1963sanb|~|sanbornton:0075,"Annual report of the Town of Sanbornton, New Hampshire, 1963",1964,Title varies|~|Imprint varies|~|Report year varies,"University of New Hampshire. Library. Digital Collections.|~|Scanned by Internet Archive, Open Content Alliance (2010)",,,Text,Sanbornton (N.H. : Town) -- Appropriations and expenditures -- Periodicals,Sanbornton (N.H. : Town),,,Eng,"[Meredith Bridge, N.H. : Wright &amp; Cook, Printers]|~|University of New Hampshire. Library. Digital Collections.",sanbornton_0075+application-pdf+application.pdf|~|sanbornton_0075+image-low-jpg+image-low.jpg|~|sanbornton_0075+image-tb-jpg+image-tb.jpg
Active,sanbornton:0076,sanbornton,http://www.archive.org/details/annualreportofto1964sanb|~|annualreportofto1964sanb|~|sanbornton:0076,"Annual report of the Town of Sanbornton, New Hampshire, 1964",1965,Title varies|~|Imprint varies|~|Report year varies,"University of New Hampshire. Library. Digital Collections.|~|Scanned by Internet Archive, Open Content Alliance (2010)",,,Text,Sanbornton (N.H. : Town) -- Appropriations and expenditures -- Periodicals,Sanbornton (N.H. : Town),,,Eng,"[Meredith Bridge, N.H. : Wright &amp; Cook, Printers]|~|University of New Hampshire. Library. Digital Collections.",sanbornton_0076+application-pdf+application.pdf|~|sanbornton_0076+image-low-jpg+image-low.jpg|~|sanbornton_0076+image-tb-jpg+image-tb.jpg
Active,sanbornton:0077,sanbornton,http://www.archive.org/details/annualreportofto1965sanb|~|annualreportofto1965sanb|~|sanbornton:0077,"Annual report of the Town of Sanbornton, New Hampshire, 1965",1966,Title varies|~|Imprint varies|~|Report year varies,"University of New Hampshire. Library. Digital Collections.|~|Scanned by Internet Archive, Open Content Alliance (2010)",,,Text,Sanbornton (N.H. : Town) -- Appropriations and expenditures -- Periodicals,Sanbornton (N.H. : Town),,,Eng,"[Meredith Bridge, N.H. : Wright &amp; Cook, Printers]|~|University of New Hampshire. Library. Digital Collections.",sanbornton_0077+application-pdf+application.pdf|~|sanbornton_0077+image-low-jpg+image-low.jpg|~|sanbornton_0077+image-tb-jpg+image-tb.jpg
Active,sanbornton:0078,sanbornton,http://www.archive.org/details/annualreportofto1966sanb|~|annualreportofto1966sanb|~|sanbornton:0078,"Annual report of the Town of Sanbornton, New Hampshire, 1966",1967,Title varies|~|Imprint varies|~|Report year varies,"University of New Hampshire. Library. Digital Collections.|~|Scanned by Internet Archive, Open Content Alliance (2010)",,,Text,Sanbornton (N.H. : Town) -- Appropriations and expenditures -- Periodicals,Sanbornton (N.H. : Town),,,Eng,"[Meredith Bridge, N.H. : Wright &amp; Cook, Printers]|~|University of New Hampshire. Library. Digital Collections.",sanbornton_0078+application-pdf+application.pdf|~|sanbornton_0078+image-low-jpg+image-low.jpg|~|sanbornton_0078+image-tb-jpg+image-tb.jpg
Active,sanbornton:0079,sanbornton,http://www.archive.org/details/annualreportofto1967sanb|~|annualreportofto1967sanb|~|sanbornton:0079,"Annual report of the Town of Sanbornton, New Hampshire, 1967",1968,Title varies|~|Imprint varies|~|Report year varies,"University of New Hampshire. Library. Digital Collections.|~|Scanned by Internet Archive, Open Content Alliance (2010)",,,Text,Sanbornton (N.H. : Town) -- Appropriations and expenditures -- Periodicals,Sanbornton (N.H. : Town),,,Eng,"[Meredith Bridge, N.H. : Wright &amp; Cook, Printers]|~|University of New Hampshire. Library. Digital Collections.",sanbornton_0079+application-pdf+application.pdf|~|sanbornton_0079+image-low-jpg+image-low.jpg|~|sanbornton_0079+image-tb-jpg+image-tb.jpg
Active,sanbornton:0080,sanbornton,http://www.archive.org/details/annualreportofto1968sanb|~|annualreportofto1968sanb|~|sanbornton:0080,"Annual report of the Town of Sanbornton, New Hampshire, 1968",1969,Title varies|~|Imprint varies|~|Report year varies,"University of New Hampshire. Library. Digital Collections.|~|Scanned by Internet Archive, Open Content Alliance (2010)",,,Text,Sanbornton (N.H. : Town) -- Appropriations and expenditures -- Periodicals,Sanbornton (N.H. : Town),,,Eng,"[Meredith Bridge, N.H. : Wright &amp; Cook, Printers]|~|University of New Hampshire. Library. Digital Collections.",sanbornton_0080+application-pdf+application.pdf|~|sanbornton_0080+image-low-jpg+image-low.jpg|~|sanbornton_0080+image-tb-jpg+image-tb.jpg
Active,sanbornton:0081,sanbornton,http://www.archive.org/details/annualreportofto1969sanb|~|annualreportofto1969sanb|~|sanbornton:0081,"Annual report of the Town of Sanbornton, New Hampshire, 1969",1970,Title varies|~|Imprint varies|~|Report year varies,"University of New Hampshire. Library. Digital Collections.|~|Scanned by Internet Archive, Open Content Alliance (2010)",,,Text,Sanbornton (N.H. : Town) -- Appropriations and expenditures -- Periodicals,Sanbornton (N.H. : Town),,,Eng,"[Meredith Bridge, N.H. : Wright &amp; Cook, Printers]|~|University of New Hampshire. Library. Digital Collections.",sanbornton_0081+application-pdf+application.pdf|~|sanbornton_0081+image-low-jpg+image-low.jpg|~|sanbornton_0081+image-tb-jpg+image-tb.jpg
Active,sanbornton:0082,sanbornton,http://www.archive.org/details/annualreportofto1970sanb|~|annualreportofto1970sanb|~|sanbornton:0082,"Annual report of the Town of Sanbornton, New Hampshire, 1970",1971,Title varies|~|Imprint varies|~|Report year varies,"University of New Hampshire. Library. Digital Collections.|~|Scanned by Internet Archive, Open Content Alliance (2010)",,,Text,Sanbornton (N.H. : Town) -- Appropriations and expenditures -- Periodicals,Sanbornton (N.H. : Town),,,Eng,"[Meredith Bridge, N.H. : Wright &amp; Cook, Printers]|~|University of New Hampshire. Library. Digital Collections.",sanbornton_0082+application-pdf+application.pdf|~|sanbornton_0082+image-low-jpg+image-low.jpg|~|sanbornton_0082+image-tb-jpg+image-tb.jpg
Active,sanbornton:0083,sanbornton,http://www.archive.org/details/annualreportofto1971sanb|~|annualreportofto1971sanb|~|sanbornton:0083,"Annual report of the Town of Sanbornton, New Hampshire, 1971",1972,Title varies|~|Imprint varies|~|Report year varies,"University of New Hampshire. Library. Digital Collections.|~|Scanned by Internet Archive, Open Content Alliance (2010)",,,Text,Sanbornton (N.H. : Town) -- Appropriations and expenditures -- Periodicals,Sanbornton (N.H. : Town),,,Eng,"[Meredith Bridge, N.H. : Wright &amp; Cook, Printers]|~|University of New Hampshire. Library. Digital Collections.",sanbornton_0083+application-pdf+application.pdf|~|sanbornton_0083+image-low-jpg+image-low.jpg|~|sanbornton_0083+image-tb-jpg+image-tb.jpg
Active,sanbornton:0084,sanbornton,http://www.archive.org/details/annualreportofto1972sanb|~|annualreportofto1972sanb|~|sanbornton:0084,"Annual report of the Town of Sanbornton, New Hampshire, 1972",1973,Title varies|~|Imprint varies|~|Report year varies,"University of New Hampshire. Library. Digital Collections.|~|Scanned by Internet Archive, Open Content Alliance (2010)",,,Text,Sanbornton (N.H. : Town) -- Appropriations and expenditures -- Periodicals,Sanbornton (N.H. : Town),,,Eng,"[Meredith Bridge, N.H. : Wright &amp; Cook, Printers]|~|University of New Hampshire. Library. Digital Collections.",sanbornton_0084+application-pdf+application.pdf|~|sanbornton_0084+image-low-jpg+image-low.jpg|~|sanbornton_0084+image-tb-jpg+image-tb.jpg
Active,sanbornton:0085,sanbornton,http://www.archive.org/details/annualreportofto1973sanb|~|annualreportofto1973sanb|~|sanbornton:0085,"Annual report of the Town of Sanbornton, New Hampshire, 1973",1974,Title varies|~|Imprint varies|~|Report year varies,"University of New Hampshire. Library. Digital Collections.|~|Scanned by Internet Archive, Open Content Alliance (2010)",,,Text,Sanbornton (N.H. : Town) -- Appropriations and expenditures -- Periodicals,Sanbornton (N.H. : Town),,,Eng,"[Meredith Bridge, N.H. : Wright &amp; Cook, Printers]|~|University of New Hampshire. Library. Digital Collections.",sanbornton_0085+application-pdf+application.pdf|~|sanbornton_0085+image-low-jpg+image-low.jpg|~|sanbornton_0085+image-tb-jpg+image-tb.jpg
Active,sanbornton:0086,sanbornton,http://www.archive.org/details/annualreportofto1974sanb|~|annualreportofto1974sanb|~|sanbornton:0086,"Annual report of the Town of Sanbornton, New Hampshire, 1974",1975,Title varies|~|Imprint varies|~|Report year varies,"University of New Hampshire. Library. Digital Collections.|~|Scanned by Internet Archive, Open Content Alliance (2010)",,,Text,Sanbornton (N.H. : Town) -- Appropriations and expenditures -- Periodicals,Sanbornton (N.H. : Town),,,Eng,"[Meredith Bridge, N.H. : Wright &amp; Cook, Printers]|~|University of New Hampshire. Library. Digital Collections.",sanbornton_0086+application-pdf+application.pdf|~|sanbornton_0086+image-low-jpg+image-low.jpg|~|sanbornton_0086+image-tb-jpg+image-tb.jpg
Active,sanbornton:0087,sanbornton,http://www.archive.org/details/annualreportofto1975sanb|~|annualreportofto1975sanb|~|sanbornton:0087,"Annual report of the Town of Sanbornton, New Hampshire, 1975",1976,Title varies|~|Imprint varies|~|Report year varies,"University of New Hampshire. Library. Digital Collections.|~|Scanned by Internet Archive, Open Content Alliance (2010)",,,Text,Sanbornton (N.H. : Town) -- Appropriations and expenditures -- Periodicals,Sanbornton (N.H. : Town),,,Eng,"[Meredith Bridge, N.H. : Wright &amp; Cook, Printers]|~|University of New Hampshire. Library. Digital Collections.",sanbornton_0087+application-pdf+application.pdf|~|sanbornton_0087+image-low-jpg+image-low.jpg|~|sanbornton_0087+image-tb-jpg+image-tb.jpg
Active,sanbornton:0088,sanbornton,http://www.archive.org/details/annualreportofto1976sanb|~|annualreportofto1976sanb|~|sanbornton:0088,"Annual report of the Town of Sanbornton, New Hampshire, 1976",1977,Title varies|~|Imprint varies|~|Report year varies,"University of New Hampshire. Library. Digital Collections.|~|Scanned by Internet Archive, Open Content Alliance (2010)",,,Text,Sanbornton (N.H. : Town) -- Appropriations and expenditures -- Periodicals,Sanbornton (N.H. : Town),,,Eng,"[Meredith Bridge, N.H. : Wright &amp; Cook, Printers]|~|University of New Hampshire. Library. Digital Collections.",sanbornton_0088+application-pdf+application.pdf|~|sanbornton_0088+image-low-jpg+image-low.jpg|~|sanbornton_0088+image-tb-jpg+image-tb.jpg
Active,sanbornton:0089,sanbornton,http://www.archive.org/details/annualreportofto1977sanb|~|annualreportofto1977sanb|~|sanbornton:0089,"Annual report of the Town of Sanbornton, New Hampshire, 1977",1978,Title varies|~|Imprint varies|~|Report year varies,"University of New Hampshire. Library. Digital Collections.|~|Scanned by Internet Archive, Open Content Alliance (2010)",,,Text,Sanbornton (N.H. : Town) -- Appropriations and expenditures -- Periodicals,Sanbornton (N.H. : Town),,,Eng,"[Meredith Bridge, N.H. : Wright &amp; Cook, Printers]|~|University of New Hampshire. Library. Digital Collections.",sanbornton_0089+application-pdf+application.pdf|~|sanbornton_0089+image-low-jpg+image-low.jpg|~|sanbornton_0089+image-tb-jpg+image-tb.jpg
Active,sanbornton:0090,sanbornton,http://www.archive.org/details/annualreportofto1978sanb|~|annualreportofto1978sanb|~|sanbornton:0090,"Annual report of the Town of Sanbornton, New Hampshire, 1978",1979,Title varies|~|Imprint varies|~|Report year varies,"University of New Hampshire. Library. Digital Collections.|~|Scanned by Internet Archive, Open Content Alliance (2010)",,,Text,Sanbornton (N.H. : Town) -- Appropriations and expenditures -- Periodicals,Sanbornton (N.H. : Town),,,Eng,"[Meredith Bridge, N.H. : Wright &amp; Cook, Printers]|~|University of New Hampshire. Library. Digital Collections.",sanbornton_0090+application-pdf+application.pdf|~|sanbornton_0090+image-low-jpg+image-low.jpg|~|sanbornton_0090+image-tb-jpg+image-tb.jpg
Active,sanbornton:0091,sanbornton,http://www.archive.org/details/annualreportofto1979sanb|~|annualreportofto1979sanb|~|sanbornton:0091,"Annual report of the Town of Sanbornton, New Hampshire, 1979",1980,Title varies|~|Imprint varies|~|Report year varies,"University of New Hampshire. Library. Digital Collections.|~|Scanned by Internet Archive, Open Content Alliance (2010)",,,Text,Sanbornton (N.H. : Town) -- Appropriations and expenditures -- Periodicals,Sanbornton (N.H. : Town),,,Eng,"[Meredith Bridge, N.H. : Wright &amp; Cook, Printers]|~|University of New Hampshire. Library. Digital Collections.",sanbornton_0091+application-pdf+application.pdf|~|sanbornton_0091+image-low-jpg+image-low.jpg|~|sanbornton_0091+image-tb-jpg+image-tb.jpg
Active,sanbornton:0092,sanbornton,http://www.archive.org/details/annualreportofto1980sanb|~|annualreportofto1980sanb|~|sanbornton:0092,"Annual report of the Town of Sanbornton, New Hampshire, 1980",1981,Title varies|~|Imprint varies|~|Report year varies,"University of New Hampshire. Library. Digital Collections.|~|Scanned by Internet Archive, Open Content Alliance (2010)",,,Text,Sanbornton (N.H. : Town) -- Appropriations and expenditures -- Periodicals,Sanbornton (N.H. : Town),,,Eng,"[Meredith Bridge, N.H. : Wright &amp; Cook, Printers]|~|University of New Hampshire. Library. Digital Collections.",sanbornton_0092+application-pdf+application.pdf|~|sanbornton_0092+image-low-jpg+image-low.jpg|~|sanbornton_0092+image-tb-jpg+image-tb.jpg
Active,sanbornton:0093,sanbornton,http://www.archive.org/details/annualreportofto1981sanb|~|annualreportofto1981sanb|~|sanbornton:0093,"Annual report of the Town of Sanbornton, New Hampshire, 1981",1982,Title varies|~|Imprint varies|~|Report year varies,"University of New Hampshire. Library. Digital Collections.|~|Scanned by Internet Archive, Open Content Alliance (2010)",,,Text,Sanbornton (N.H. : Town) -- Appropriations and expenditures -- Periodicals,Sanbornton (N.H. : Town),,,Eng,"[Meredith Bridge, N.H. : Wright &amp; Cook, Printers]|~|University of New Hampshire. Library. Digital Collections.",sanbornton_0093+application-pdf+application.pdf|~|sanbornton_0093+image-low-jpg+image-low.jpg|~|sanbornton_0093+image-tb-jpg+image-tb.jpg
Active,sanbornton:0094,sanbornton,http://www.archive.org/details/annualreportofto1982sanb|~|annualreportofto1982sanb|~|sanbornton:0094,"Annual report of the Town of Sanbornton, New Hampshire, 1982",1983,Title varies|~|Imprint varies|~|Report year varies,"University of New Hampshire. Library. Digital Collections.|~|Scanned by Internet Archive, Open Content Alliance (2010)",,,Text,Sanbornton (N.H. : Town) -- Appropriations and expenditures -- Periodicals,Sanbornton (N.H. : Town),,,Eng,"[Meredith Bridge, N.H. : Wright &amp; Cook, Printers]|~|University of New Hampshire. Library. Digital Collections.",sanbornton_0094+application-pdf+application.pdf|~|sanbornton_0094+image-low-jpg+image-low.jpg|~|sanbornton_0094+image-tb-jpg+image-tb.jpg
Active,sanbornton:0095,sanbornton,http://www.archive.org/details/annualreportofto1983sanb|~|annualreportofto1983sanb|~|sanbornton:0095,"Annual report of the Town of Sanbornton, New Hampshire, 1983",1984,Title varies|~|Imprint varies|~|Report year varies,"University of New Hampshire. Library. Digital Collections.|~|Scanned by Internet Archive, Open Content Alliance (2010)",,,Text,Sanbornton (N.H. : Town) -- Appropriations and expenditures -- Periodicals,Sanbornton (N.H. : Town),,,Eng,"[Meredith Bridge, N.H. : Wright &amp; Cook, Printers]|~|University of New Hampshire. Library. Digital Collections.",sanbornton_0095+application-pdf+application.pdf|~|sanbornton_0095+image-low-jpg+image-low.jpg|~|sanbornton_0095+image-tb-jpg+image-tb.jpg
Active,sanbornton:0096,sanbornton,http://www.archive.org/details/annualreportofto1984sanb|~|annualreportofto1984sanb|~|sanbornton:0096,"Annual report of the Town of Sanbornton, New Hampshire, 1984",1985,Title varies|~|Imprint varies|~|Report year varies,"University of New Hampshire. Library. Digital Collections.|~|Scanned by Internet Archive, Open Content Alliance (2010)",,,Text,Sanbornton (N.H. : Town) -- Appropriations and expenditures -- Periodicals,Sanbornton (N.H. : Town),,,Eng,"[Meredith Bridge, N.H. : Wright &amp; Cook, Printers]|~|University of New Hampshire. Library. Digital Collections.",sanbornton_0096+application-pdf+application.pdf|~|sanbornton_0096+image-low-jpg+image-low.jpg|~|sanbornton_0096+image-tb-jpg+image-tb.jpg
Active,sanbornton:0097,sanbornton,http://www.archive.org/details/annualreportofto1985sanb|~|annualreportofto1985sanb|~|sanbornton:0097,"Annual report of the Town of Sanbornton, New Hampshire, 1985",1986,Title varies|~|Imprint varies|~|Report year varies,"University of New Hampshire. Library. Digital Collections.|~|Scanned by Internet Archive, Open Content Alliance (2010)",,,Text,Sanbornton (N.H. : Town) -- Appropriations and expenditures -- Periodicals,Sanbornton (N.H. : Town),,,Eng,"[Meredith Bridge, N.H. : Wright &amp; Cook, Printers]|~|University of New Hampshire. Library. Digital Collections.",sanbornton_0097+application-pdf+application.pdf|~|sanbornton_0097+image-low-jpg+image-low.jpg|~|sanbornton_0097+image-tb-jpg+image-tb.jpg
Active,sanbornton:0098,sanbornton,http://www.archive.org/details/annualreportofto1986sanb|~|annualreportofto1986sanb|~|sanbornton:0098,"Annual report of the Town of Sanbornton, New Hampshire, 1986",1987,Title varies|~|Imprint varies|~|Report year varies,"University of New Hampshire. Library. Digital Collections.|~|Scanned by Internet Archive, Open Content Alliance (2010)",,,Text,Sanbornton (N.H. : Town) -- Appropriations and expenditures -- Periodicals,Sanbornton (N.H. : Town),,,Eng,"[Meredith Bridge, N.H. : Wright &amp; Cook, Printers]|~|University of New Hampshire. Library. Digital Collections.",sanbornton_0098+application-pdf+application.pdf|~|sanbornton_0098+image-low-jpg+image-low.jpg|~|sanbornton_0098+image-tb-jpg+image-tb.jpg
Active,sanbornton:0099,sanbornton,http://www.archive.org/details/annualreportofto1987sanb|~|annualreportofto1987sanb|~|sanbornton:0099,"Annual report of the Town of Sanbornton, New Hampshire, 1987",1988,Title varies|~|Imprint varies|~|Report year varies,"University of New Hampshire. Library. Digital Collections.|~|Scanned by Internet Archive, Open Content Alliance (2010)",,,Text,Sanbornton (N.H. : Town) -- Appropriations and expenditures -- Periodicals,Sanbornton (N.H. : Town),,,Eng,"[Meredith Bridge, N.H. : Wright &amp; Cook, Printers]|~|University of New Hampshire. Library. Digital Collections.",sanbornton_0099+application-pdf+application.pdf|~|sanbornton_0099+image-low-jpg+image-low.jpg|~|sanbornton_0099+image-tb-jpg+image-tb.jpg
Active,sanbornton:0100,sanbornton,http://www.archive.org/details/annualreportofto1988sanb|~|annualreportofto1988sanb|~|sanbornton:0100,"Annual report of the Town of Sanbornton, New Hampshire, 1988",1989,Title varies|~|Imprint varies|~|Report year varies,"University of New Hampshire. Library. Digital Collections.|~|Scanned by Internet Archive, Open Content Alliance (2010)",,,Text,Sanbornton (N.H. : Town) -- Appropriations and expenditures -- Periodicals,Sanbornton (N.H. : Town),,,Eng,"[Meredith Bridge, N.H. : Wright &amp; Cook, Printers]|~|University of New Hampshire. Library. Digital Collections.",sanbornton_0100+application-pdf+application.pdf|~|sanbornton_0100+image-low-jpg+image-low.jpg|~|sanbornton_0100+image-tb-jpg+image-tb.jpg
Active,sanbornton:0101,sanbornton,http://www.archive.org/details/annualreportofto1989sanb|~|annualreportofto1989sanb|~|sanbornton:0101,"Annual report of the Town of Sanbornton, New Hampshire, 1989",1990,Title varies|~|Imprint varies|~|Report year varies,"University of New Hampshire. Library. Digital Collections.|~|Scanned by Internet Archive, Open Content Alliance (2010)",,,Text,Sanbornton (N.H. : Town) -- Appropriations and expenditures -- Periodicals,Sanbornton (N.H. : Town),,,Eng,"[Meredith Bridge, N.H. : Wright &amp; Cook, Printers]|~|University of New Hampshire. Library. Digital Collections.",sanbornton_0101+application-pdf+application.pdf|~|sanbornton_0101+image-low-jpg+image-low.jpg|~|sanbornton_0101+image-tb-jpg+image-tb.jpg
Active,sanbornton:0102,sanbornton,http://www.archive.org/details/annualreportofto1990sanb|~|annualreportofto1990sanb|~|sanbornton:0102,"Annual report of the Town of Sanbornton, New Hampshire, 1990",1991,Title varies|~|Imprint varies|~|Report year varies,"University of New Hampshire. Library. Digital Collections.|~|Scanned by Internet Archive, Open Content Alliance (2010)",,,Text,Sanbornton (N.H. : Town) -- Appropriations and expenditures -- Periodicals,Sanbornton (N.H. : Town),,,Eng,"[Meredith Bridge, N.H. : Wright &amp; Cook, Printers]|~|University of New Hampshire. Library. Digital Collections.",sanbornton_0102+application-pdf+application.pdf|~|sanbornton_0102+image-low-jpg+image-low.jpg|~|sanbornton_0102+image-tb-jpg+image-tb.jpg
Active,sanbornton:0103,sanbornton,http://www.archive.org/details/annualreportofto1991sanb|~|annualreportofto1991sanb|~|sanbornton:0103,"Annual report of the Town of Sanbornton, New Hampshire, 1991",1992,Title varies|~|Imprint varies|~|Report year varies,"University of New Hampshire. Library. Digital Collections.|~|Scanned by Internet Archive, Open Content Alliance (2010)",,,Text,Sanbornton (N.H. : Town) -- Appropriations and expenditures -- Periodicals,Sanbornton (N.H. : Town),,,Eng,"[Meredith Bridge, N.H. : Wright &amp; Cook, Printers]|~|University of New Hampshire. Library. Digital Collections.",sanbornton_0103+application-pdf+application.pdf|~|sanbornton_0103+image-low-jpg+image-low.jpg|~|sanbornton_0103+image-tb-jpg+image-tb.jpg
Active,sanbornton:0104,sanbornton,http://www.archive.org/details/annualreportofto1992sanb|~|annualreportofto1992sanb|~|sanbornton:0104,"Annual report of the Town of Sanbornton, New Hampshire, 1992",1993,Title varies|~|Imprint varies|~|Report year varies,"University of New Hampshire. Library. Digital Collections.|~|Scanned by Internet Archive, Open Content Alliance (2010)",,,Text,Sanbornton (N.H. : Town) -- Appropriations and expenditures -- Periodicals,Sanbornton (N.H. : Town),,,Eng,"[Meredith Bridge, N.H. : Wright &amp; Cook, Printers]|~|University of New Hampshire. Library. Digital Collections.",sanbornton_0104+application-pdf+application.pdf|~|sanbornton_0104+image-low-jpg+image-low.jpg|~|sanbornton_0104+image-tb-jpg+image-tb.jpg
Active,sanbornton:0105,sanbornton,http://www.archive.org/details/annualreportofto1993sanb|~|annualreportofto1993sanb|~|sanbornton:0105,"Annual report of the Town of Sanbornton, New Hampshire, 1993",1994,Title varies|~|Imprint varies|~|Report year varies,"University of New Hampshire. Library. Digital Collections.|~|Scanned by Internet Archive, Open Content Alliance (2010)",,,Text,Sanbornton (N.H. : Town) -- Appropriations and expenditures -- Periodicals,Sanbornton (N.H. : Town),,,Eng,"[Meredith Bridge, N.H. : Wright &amp; Cook, Printers]|~|University of New Hampshire. Library. Digital Collections.",sanbornton_0105+application-pdf+application.pdf|~|sanbornton_0105+image-low-jpg+image-low.jpg|~|sanbornton_0105+image-tb-jpg+image-tb.jpg
Active,sanbornton:0106,sanbornton,http://www.archive.org/details/annualreportofto1994sanb|~|annualreportofto1994sanb|~|sanbornton:0106,"Annual report of the Town of Sanbornton, New Hampshire, 1994",1995,Title varies|~|Imprint varies|~|Report year varies,"University of New Hampshire. Library. Digital Collections.|~|Scanned by Internet Archive, Open Content Alliance (2010)",,,Text,Sanbornton (N.H. : Town) -- Appropriations and expenditures -- Periodicals,Sanbornton (N.H. : Town),,,Eng,"[Meredith Bridge, N.H. : Wright &amp; Cook, Printers]|~|University of New Hampshire. Library. Digital Collections.",sanbornton_0106+application-pdf+application.pdf|~|sanbornton_0106+image-low-jpg+image-low.jpg|~|sanbornton_0106+image-tb-jpg+image-tb.jpg
Active,sanbornton:0107,sanbornton,http://www.archive.org/details/annualreportofto1995sanb|~|annualreportofto1995sanb|~|sanbornton:0107,"Annual report of the Town of Sanbornton, New Hampshire, 1995",1996,Title varies|~|Imprint varies|~|Report year varies,"University of New Hampshire. Library. Digital Collections.|~|Scanned by Internet Archive, Open Content Alliance (2010)",,,Text,Sanbornton (N.H. : Town) -- Appropriations and expenditures -- Periodicals,Sanbornton (N.H. : Town),,,Eng,"[Meredith Bridge, N.H. : Wright &amp; Cook, Printers]|~|University of New Hampshire. Library. Digital Collections.",sanbornton_0107+application-pdf+application.pdf|~|sanbornton_0107+image-low-jpg+image-low.jpg|~|sanbornton_0107+image-tb-jpg+image-tb.jpg
Active,sanbornton:0108,sanbornton,http://www.archive.org/details/annualreportofto1996sanb|~|annualreportofto1996sanb|~|sanbornton:0108,"Annual report of the Town of Sanbornton, New Hampshire, 1996",1997,Title varies|~|Imprint varies|~|Report year varies,"University of New Hampshire. Library. Digital Collections.|~|Scanned by Internet Archive, Open Content Alliance (2010)",,,Text,Sanbornton (N.H. : Town) -- Appropriations and expenditures -- Periodicals,Sanbornton (N.H. : Town),,,Eng,"[Meredith Bridge, N.H. : Wright &amp; Cook, Printers]|~|University of New Hampshire. Library. Digital Collections.",sanbornton_0108+application-pdf+application.pdf|~|sanbornton_0108+image-low-jpg+image-low.jpg|~|sanbornton_0108+image-tb-jpg+image-tb.jpg
Active,sanbornton:0109,sanbornton,http://www.archive.org/details/annualreportofto1997sanb|~|annualreportofto1997sanb|~|sanbornton:0109,"Annual report of the Town of Sanbornton, New Hampshire, 1997",1998,Title varies|~|Imprint varies|~|Report year varies,"University of New Hampshire. Library. Digital Collections.|~|Scanned by Internet Archive, Open Content Alliance (2010)",,,Text,Sanbornton (N.H. : Town) -- Appropriations and expenditures -- Periodicals,Sanbornton (N.H. : Town),,,Eng,"[Meredith Bridge, N.H. : Wright &amp; Cook, Printers]|~|University of New Hampshire. Library. Digital Collections.",sanbornton_0109+application-pdf+application.pdf|~|sanbornton_0109+image-low-jpg+image-low.jpg|~|sanbornton_0109+image-tb-jpg+image-tb.jpg
Active,sanbornton:0110,sanbornton,http://www.archive.org/details/annualreportofto1998sanb|~|annualreportofto1998sanb|~|sanbornton:0110,"Annual report of the Town of Sanbornton, New Hampshire, 1998",1999,Title varies|~|Imprint varies|~|Report year varies,"University of New Hampshire. Library. Digital Collections.|~|Scanned by Internet Archive, Open Content Alliance (2010)",,,Text,Sanbornton (N.H. : Town) -- Appropriations and expenditures -- Periodicals,Sanbornton (N.H. : Town),,,Eng,"[Meredith Bridge, N.H. : Wright &amp; Cook, Printers]|~|University of New Hampshire. Library. Digital Collections.",sanbornton_0110+application-pdf+application.pdf|~|sanbornton_0110+image-low-jpg+image-low.jpg|~|sanbornton_0110+image-tb-jpg+image-tb.jpg
Active,sanbornton:0111,sanbornton,http://www.archive.org/details/annualreportofto1999sanb|~|annualreportofto1999sanb|~|sanbornton:0111,"Annual report of the Town of Sanbornton, New Hampshire, 1999",2000,Title varies|~|Imprint varies|~|Report year varies,"University of New Hampshire. Library. Digital Collections.|~|Scanned by Internet Archive, Open Content Alliance (2010)",,,Text,Sanbornton (N.H. : Town) -- Appropriations and expenditures -- Periodicals,Sanbornton (N.H. : Town),,,Eng,"[Meredith Bridge, N.H. : Wright &amp; Cook, Printers]|~|University of New Hampshire. Library. Digital Collections.",sanbornton_0111+application-pdf+application.pdf|~|sanbornton_0111+image-low-jpg+image-low.jpg|~|sanbornton_0111+image-tb-jpg+image-tb.jpg
Active,sanbornton:0112,sanbornton,http://www.archive.org/details/annualreportofto2000sanb|~|annualreportofto2000sanb|~|sanbornton:0112,"Annual report of the Town of Sanbornton, New Hampshire, 2000",2001,Title varies|~|Imprint varies|~|Report year varies,"University of New Hampshire. Library. Digital Collections.|~|Scanned by Internet Archive, Open Content Alliance (2010)",,,Text,Sanbornton (N.H. : Town) -- Appropriations and expenditures -- Periodicals,Sanbornton (N.H. : Town),,,Eng,"[Meredith Bridge, N.H. : Wright &amp; Cook, Printers]|~|University of New Hampshire. Library. Digital Collections.",sanbornton_0112+application-pdf+application.pdf|~|sanbornton_0112+image-low-jpg+image-low.jpg|~|sanbornton_0112+image-tb-jpg+image-tb.jpg
Active,sanbornton:0113,sanbornton,http://www.archive.org/details/annualreportofto2001sanb|~|annualreportofto2001sanb|~|sanbornton:0113,"Annual report of the Town of Sanbornton, New Hampshire, 2001",2002,Title varies|~|Imprint varies|~|Report year varies,"University of New Hampshire. Library. Digital Collections.|~|Scanned by Internet Archive, Open Content Alliance (2010)",,,Text,Sanbornton (N.H. : Town) -- Appropriations and expenditures -- Periodicals,Sanbornton (N.H. : Town),,,Eng,"[Meredith Bridge, N.H. : Wright &amp; Cook, Printers]|~|University of New Hampshire. Library. Digital Collections.",sanbornton_0113+application-pdf+application.pdf|~|sanbornton_0113+image-low-jpg+image-low.jpg|~|sanbornton_0113+image-tb-jpg+image-tb.jpg
Active,sanbornton:0114,sanbornton,http://www.archive.org/details/annualreportofto2002sanb|~|annualreportofto2002sanb|~|sanbornton:0114,"Annual report of the Town of Sanbornton, New Hampshire, 2002",2003,Title varies|~|Imprint varies|~|Report year varies,"University of New Hampshire. Library. Digital Collections.|~|Scanned by Internet Archive, Open Content Alliance (2010)",,,Text,Sanbornton (N.H. : Town) -- Appropriations and expenditures -- Periodicals,Sanbornton (N.H. : Town),,,Eng,"[Meredith Bridge, N.H. : Wright &amp; Cook, Printers]|~|University of New Hampshire. Library. Digital Collections.",sanbornton_0114+application-pdf+application.pdf|~|sanbornton_0114+image-low-jpg+image-low.jpg|~|sanbornton_0114+image-tb-jpg+image-tb.jpg
Active,sanbornton:0115,sanbornton,http://www.archive.org/details/annualreportofto2005sanb|~|annualreportofto2005sanb|~|sanbornton:0115,"Annual report of the Town of Sanbornton, New Hampshire, 2005",2006,Title varies|~|Imprint varies|~|Report year varies,"University of New Hampshire. Library. Digital Collections.|~|Scanned by Internet Archive, Open Content Alliance (2010)",,,Text,Sanbornton (N.H. : Town) -- Appropriations and expenditures -- Periodicals,Sanbornton (N.H. : Town),,,Eng,"[Meredith Bridge, N.H. : Wright &amp; Cook, Printers]|~|University of New Hampshire. Library. Digital Collections.",sanbornton_0115+application-pdf+application.pdf|~|sanbornton_0115+image-low-jpg+image-low.jpg|~|sanbornton_0115+image-tb-jpg+image-tb.jpg
Active,sanbornton:0116,sanbornton,http://www.archive.org/details/annualreportofto2008sanb|~|annualreportofto2008sanb|~|sanbornton:0116,"Annual report of the Town of Sanbornton, New Hampshire, 2008",2009,Title varies|~|Imprint varies|~|Report year varies,"University of New Hampshire. Library. Digital Collections.|~|Scanned by Internet Archive, Open Content Alliance (2010)",,,Text,Sanbornton (N.H. : Town) -- Appropriations and expenditures -- Periodicals,Sanbornton (N.H. : Town),,,Eng,"[Meredith Bridge, N.H. : Wright &amp; Cook, Printers]|~|University of New Hampshire. Library. Digital Collections.",sanbornton_0116+application-pdf+application.pdf|~|sanbornton_0116+image-low-jpg+image-low.jpg|~|sanbornton_0116+image-tb-jpg+image-tb.jpg
Active,sanbornton:1000,sanbornton,sanbornton:1000|~|annualreport2011sanbornton,"Annual report of the Town of Sanbornton, New Hampshire, 2011",2012,Title varies|~|Imprint varies|~|Report year varies,University of New Hampshire. Library. Digital Collections.,,,Text,Sanbornton (N.H. : Town) -- Appropriations and expenditures -- Periodicals,Sanbornton (N.H. : Town),,,Eng,"[Sanbornton, N.H. : The Town]|~|University of New Hampshire. Library. Digital Collections.",sanbornton_1000+application-pdf+application.pdf|~|sanbornton_1000+image-low-jpg+image-low.jpg|~|sanbornton_1000+image-tb-jpg+image-tb.jpg
