state,pid,collection,dcterms:identifier,dcterms:title,dcterms:date,dcterms:description,dcterms:contributor,dcterms:rights,dcterms:format,dcterms:type,dcterms:subject,dcterms:creator,dcterms:relation,dcterms:coverage,dcterms:language,dcterms:publisher,files
Active,somersworth:0001,somersworth,http://www.archive.org/details/receiptsexpendit1856some|~|receiptsexpendit1856some|~|somersworth:0001,"Annual report Somersworth, New Hampshire, 1856",1856,Title varies|~|Imprint varies|~|Report year varies,"University of New Hampshire. Library. Digital Collections.|~|Scanned by Internet Archive, Open Content Alliance (2008)",,,Text,Somersworth (N.H. : Town) -- Appropriations and expenditures -- Periodicals,Somersworth (N.H. : Town),,,eng,"[Somersworth, N.H. : Printed at the Advertiser Office, by G.H. and S.E. Twombly,]|~|University of New Hampshire. Library. Digital Collections.",somersworth_0001+application-pdf+application.pdf|~|somersworth_0001+image-low-jpg+image-low.jpg|~|somersworth_0001+image-tb-jpg+image-tb.jpg
Active,somersworth:0002,somersworth,http://www.archive.org/details/receiptsexpendit1874some|~|receiptsexpendit1874some|~|somersworth:0002,"Annual report Somersworth, New Hampshire, 1874",1874,Title varies|~|Imprint varies|~|Report year varies,"University of New Hampshire. Library. Digital Collections.|~|Scanned by Internet Archive, Open Content Alliance (2008)",,,Text,Somersworth (N.H. : Town) -- Appropriations and expenditures -- Periodicals,Somersworth (N.H. : Town),,,eng,"[Somersworth, N.H. : Printed at the Advertiser Office, by G.H. and S.E. Twombly,]|~|University of New Hampshire. Library. Digital Collections.",somersworth_0002+application-pdf+application.pdf|~|somersworth_0002+image-low-jpg+image-low.jpg|~|somersworth_0002+image-tb-jpg+image-tb.jpg
Active,somersworth:0003,somersworth,http://www.archive.org/details/receiptsexpendit1875some|~|receiptsexpendit1875some|~|somersworth:0003,"Annual report Somersworth, New Hampshire, 1875",1875,Title varies|~|Imprint varies|~|Report year varies,"University of New Hampshire. Library. Digital Collections.|~|Scanned by Internet Archive, Open Content Alliance (2008)",,,Text,Somersworth (N.H. : Town) -- Appropriations and expenditures -- Periodicals,Somersworth (N.H. : Town),,,eng,"[Somersworth, N.H. : Printed at the Advertiser Office, by G.H. and S.E. Twombly,]|~|University of New Hampshire. Library. Digital Collections.",somersworth_0003+application-pdf+application.pdf|~|somersworth_0003+image-low-jpg+image-low.jpg|~|somersworth_0003+image-tb-jpg+image-tb.jpg
Active,somersworth:0004,somersworth,http://www.archive.org/details/receiptsexpendit1876some|~|receiptsexpendit1876some|~|somersworth:0004,"Annual report Somersworth, New Hampshire, 1876",1876,Title varies|~|Imprint varies|~|Report year varies,"University of New Hampshire. Library. Digital Collections.|~|Scanned by Internet Archive, Open Content Alliance (2008)",,,Text,Somersworth (N.H. : Town) -- Appropriations and expenditures -- Periodicals,Somersworth (N.H. : Town),,,eng,"[Somersworth, N.H. : Printed at the Advertiser Office, by G.H. and S.E. Twombly,]|~|University of New Hampshire. Library. Digital Collections.",somersworth_0004+application-pdf+application.pdf|~|somersworth_0004+image-low-jpg+image-low.jpg|~|somersworth_0004+image-tb-jpg+image-tb.jpg
Active,somersworth:0005,somersworth,http://www.archive.org/details/receiptsexpendit1877some|~|receiptsexpendit1877some|~|somersworth:0005,"Annual report Somersworth, New Hampshire, 1877",1877,Title varies|~|Imprint varies|~|Report year varies,"University of New Hampshire. Library. Digital Collections.|~|Scanned by Internet Archive, Open Content Alliance (2008)",,,Text,Somersworth (N.H. : Town) -- Appropriations and expenditures -- Periodicals,Somersworth (N.H. : Town),,,eng,"[Somersworth, N.H. : Printed at the Advertiser Office, by G.H. and S.E. Twombly,]|~|University of New Hampshire. Library. Digital Collections.",somersworth_0005+application-pdf+application.pdf|~|somersworth_0005+image-low-jpg+image-low.jpg|~|somersworth_0005+image-tb-jpg+image-tb.jpg
Active,somersworth:0006,somersworth,http://www.archive.org/details/receiptsexpendit1879some|~|receiptsexpendit1879some|~|somersworth:0006,"Annual report Somersworth, New Hampshire, 1879",1879,Title varies|~|Imprint varies|~|Report year varies,"University of New Hampshire. Library. Digital Collections.|~|Scanned by Internet Archive, Open Content Alliance (2008)",,,Text,Somersworth (N.H. : Town) -- Appropriations and expenditures -- Periodicals,Somersworth (N.H. : Town),,,eng,"[Somersworth, N.H. : Printed at the Advertiser Office, by G.H. and S.E. Twombly,]|~|University of New Hampshire. Library. Digital Collections.",somersworth_0006+application-pdf+application.pdf|~|somersworth_0006+image-low-jpg+image-low.jpg|~|somersworth_0006+image-tb-jpg+image-tb.jpg
Active,somersworth:0007,somersworth,http://www.archive.org/details/receiptsexpendit1880some|~|receiptsexpendit1880some|~|somersworth:0007,"Annual report Somersworth, New Hampshire, 1880",1880,Title varies|~|Imprint varies|~|Report year varies,"University of New Hampshire. Library. Digital Collections.|~|Scanned by Internet Archive, Open Content Alliance (2008)",,,Text,Somersworth (N.H. : Town) -- Appropriations and expenditures -- Periodicals,Somersworth (N.H. : Town),,,eng,"[Somersworth, N.H. : Printed at the Advertiser Office, by G.H. and S.E. Twombly,]|~|University of New Hampshire. Library. Digital Collections.",somersworth_0007+application-pdf+application.pdf|~|somersworth_0007+image-low-jpg+image-low.jpg|~|somersworth_0007+image-tb-jpg+image-tb.jpg
Active,somersworth:0008,somersworth,http://www.archive.org/details/receiptsexpendit1881some|~|receiptsexpendit1881some|~|somersworth:0008,"Annual report Somersworth, New Hampshire, 1881",1881,Title varies|~|Imprint varies|~|Report year varies,"University of New Hampshire. Library. Digital Collections.|~|Scanned by Internet Archive, Open Content Alliance (2008)",,,Text,Somersworth (N.H. : Town) -- Appropriations and expenditures -- Periodicals,Somersworth (N.H. : Town),,,eng,"[Somersworth, N.H. : Printed at the Advertiser Office, by G.H. and S.E. Twombly,]|~|University of New Hampshire. Library. Digital Collections.",somersworth_0008+application-pdf+application.pdf|~|somersworth_0008+image-low-jpg+image-low.jpg|~|somersworth_0008+image-tb-jpg+image-tb.jpg
Active,somersworth:0009,somersworth,http://www.archive.org/details/receiptsexpendit1882some|~|receiptsexpendit1882some|~|somersworth:0009,"Annual report Somersworth, New Hampshire, 1882",1882,Title varies|~|Imprint varies|~|Report year varies,"University of New Hampshire. Library. Digital Collections.|~|Scanned by Internet Archive, Open Content Alliance (2008)",,,Text,Somersworth (N.H. : Town) -- Appropriations and expenditures -- Periodicals,Somersworth (N.H. : Town),,,eng,"[Somersworth, N.H. : Printed at the Advertiser Office, by G.H. and S.E. Twombly,]|~|University of New Hampshire. Library. Digital Collections.",somersworth_0009+application-pdf+application.pdf|~|somersworth_0009+image-low-jpg+image-low.jpg|~|somersworth_0009+image-tb-jpg+image-tb.jpg
Active,somersworth:0010,somersworth,http://www.archive.org/details/receiptsexpendit1883some|~|receiptsexpendit1883some|~|somersworth:0010,"Annual report Somersworth, New Hampshire, 1883",1883,Title varies|~|Imprint varies|~|Report year varies,"University of New Hampshire. Library. Digital Collections.|~|Scanned by Internet Archive, Open Content Alliance (2008)",,,Text,Somersworth (N.H. : Town) -- Appropriations and expenditures -- Periodicals,Somersworth (N.H. : Town),,,eng,"[Somersworth, N.H. : Printed at the Advertiser Office, by G.H. and S.E. Twombly,]|~|University of New Hampshire. Library. Digital Collections.",somersworth_0010+application-pdf+application.pdf|~|somersworth_0010+image-low-jpg+image-low.jpg|~|somersworth_0010+image-tb-jpg+image-tb.jpg
Active,somersworth:0011,somersworth,http://www.archive.org/details/receiptsexpendit1884some|~|receiptsexpendit1884some|~|somersworth:0011,"Annual report Somersworth, New Hampshire, 1884",1884,Title varies|~|Imprint varies|~|Report year varies,"University of New Hampshire. Library. Digital Collections.|~|Scanned by Internet Archive, Open Content Alliance (2008)",,,Text,Somersworth (N.H. : Town) -- Appropriations and expenditures -- Periodicals,Somersworth (N.H. : Town),,,eng,"[Somersworth, N.H. : Printed at the Advertiser Office, by G.H. and S.E. Twombly,]|~|University of New Hampshire. Library. Digital Collections.",somersworth_0011+application-pdf+application.pdf|~|somersworth_0011+image-low-jpg+image-low.jpg|~|somersworth_0011+image-tb-jpg+image-tb.jpg
Active,somersworth:0012,somersworth,http://www.archive.org/details/receiptsexpendit1885some|~|receiptsexpendit1885some|~|somersworth:0012,"Annual report Somersworth, New Hampshire, 1885",1885,Title varies|~|Imprint varies|~|Report year varies,"University of New Hampshire. Library. Digital Collections.|~|Scanned by Internet Archive, Open Content Alliance (2008)",,,Text,Somersworth (N.H. : Town) -- Appropriations and expenditures -- Periodicals,Somersworth (N.H. : Town),,,eng,"[Somersworth, N.H. : Printed at the Advertiser Office, by G.H. and S.E. Twombly,]|~|University of New Hampshire. Library. Digital Collections.",somersworth_0012+application-pdf+application.pdf|~|somersworth_0012+image-low-jpg+image-low.jpg|~|somersworth_0012+image-tb-jpg+image-tb.jpg
Active,somersworth:0013,somersworth,http://www.archive.org/details/receiptsexpendit1886some|~|receiptsexpendit1886some|~|somersworth:0013,"Annual report Somersworth, New Hampshire, 1886",1886,Title varies|~|Imprint varies|~|Report year varies,"University of New Hampshire. Library. Digital Collections.|~|Scanned by Internet Archive, Open Content Alliance (2008)",,,Text,Somersworth (N.H. : Town) -- Appropriations and expenditures -- Periodicals,Somersworth (N.H. : Town),,,eng,"[Somersworth, N.H. : Printed at the Advertiser Office, by G.H. and S.E. Twombly,]|~|University of New Hampshire. Library. Digital Collections.",somersworth_0013+application-pdf+application.pdf|~|somersworth_0013+image-low-jpg+image-low.jpg|~|somersworth_0013+image-tb-jpg+image-tb.jpg
Active,somersworth:0014,somersworth,http://www.archive.org/details/receiptsexpendit1887some|~|receiptsexpendit1887some|~|somersworth:0014,"Annual report Somersworth, New Hampshire, 1887",1887,Title varies|~|Imprint varies|~|Report year varies,"University of New Hampshire. Library. Digital Collections.|~|Scanned by Internet Archive, Open Content Alliance (2008)",,,Text,Somersworth (N.H. : Town) -- Appropriations and expenditures -- Periodicals,Somersworth (N.H. : Town),,,eng,"[Somersworth, N.H. : Printed at the Advertiser Office, by G.H. and S.E. Twombly,]|~|University of New Hampshire. Library. Digital Collections.",somersworth_0014+application-pdf+application.pdf|~|somersworth_0014+image-low-jpg+image-low.jpg|~|somersworth_0014+image-tb-jpg+image-tb.jpg
Active,somersworth:0015,somersworth,http://www.archive.org/details/receiptsexpendit1888some|~|receiptsexpendit1888some|~|somersworth:0015,"Annual report Somersworth, New Hampshire, 1888",1888,Title varies|~|Imprint varies|~|Report year varies,"University of New Hampshire. Library. Digital Collections.|~|Scanned by Internet Archive, Open Content Alliance (2008)",,,Text,Somersworth (N.H. : Town) -- Appropriations and expenditures -- Periodicals,Somersworth (N.H. : Town),,,eng,"[Somersworth, N.H. : Printed at the Advertiser Office, by G.H. and S.E. Twombly,]|~|University of New Hampshire. Library. Digital Collections.",somersworth_0015+application-pdf+application.pdf|~|somersworth_0015+image-low-jpg+image-low.jpg|~|somersworth_0015+image-tb-jpg+image-tb.jpg
Active,somersworth:0016,somersworth,http://www.archive.org/details/receiptsexpendit1889some|~|receiptsexpendit1889some|~|somersworth:0016,"Annual report Somersworth, New Hampshire, 1889",1889,Title varies|~|Imprint varies|~|Report year varies,"University of New Hampshire. Library. Digital Collections.|~|Scanned by Internet Archive, Open Content Alliance (2008)",,,Text,Somersworth (N.H. : Town) -- Appropriations and expenditures -- Periodicals,Somersworth (N.H. : Town),,,eng,"[Somersworth, N.H. : Printed at the Advertiser Office, by G.H. and S.E. Twombly,]|~|University of New Hampshire. Library. Digital Collections.",somersworth_0016+application-pdf+application.pdf|~|somersworth_0016+image-low-jpg+image-low.jpg|~|somersworth_0016+image-tb-jpg+image-tb.jpg
Active,somersworth:0017,somersworth,http://www.archive.org/details/receiptsexpendit1890some|~|receiptsexpendit1890some|~|somersworth:0017,"Annual report Somersworth, New Hampshire, 1890",1890,Title varies|~|Imprint varies|~|Report year varies,"University of New Hampshire. Library. Digital Collections.|~|Scanned by Internet Archive, Open Content Alliance (2008)",,,Text,Somersworth (N.H. : Town) -- Appropriations and expenditures -- Periodicals,Somersworth (N.H. : Town),,,eng,"[Somersworth, N.H. : Printed at the Advertiser Office, by G.H. and S.E. Twombly,]|~|University of New Hampshire. Library. Digital Collections.",somersworth_0017+application-pdf+application.pdf|~|somersworth_0017+image-low-jpg+image-low.jpg|~|somersworth_0017+image-tb-jpg+image-tb.jpg
Active,somersworth:0018,somersworth,http://www.archive.org/details/receiptsexpendit1891some|~|receiptsexpendit1891some|~|somersworth:0018,"Annual report Somersworth, New Hampshire, 1891",1891,Title varies|~|Imprint varies|~|Report year varies,"University of New Hampshire. Library. Digital Collections.|~|Scanned by Internet Archive, Open Content Alliance (2008)",,,Text,Somersworth (N.H. : Town) -- Appropriations and expenditures -- Periodicals,Somersworth (N.H. : Town),,,eng,"[Somersworth, N.H. : Printed at the Advertiser Office, by G.H. and S.E. Twombly,]|~|University of New Hampshire. Library. Digital Collections.",somersworth_0018+application-pdf+application.pdf|~|somersworth_0018+image-low-jpg+image-low.jpg|~|somersworth_0018+image-tb-jpg+image-tb.jpg
Active,somersworth:0019,somersworth,http://www.archive.org/details/receiptsexpendit1892some|~|receiptsexpendit1892some|~|somersworth:0019,"Annual report Somersworth, New Hampshire, 1892",1892,Title varies|~|Imprint varies|~|Report year varies,"University of New Hampshire. Library. Digital Collections.|~|Scanned by Internet Archive, Open Content Alliance (2008)",,,Text,Somersworth (N.H. : Town) -- Appropriations and expenditures -- Periodicals,Somersworth (N.H. : Town),,,eng,"[Somersworth, N.H. : Printed at the Advertiser Office, by G.H. and S.E. Twombly,]|~|University of New Hampshire. Library. Digital Collections.",somersworth_0019+application-pdf+application.pdf|~|somersworth_0019+image-low-jpg+image-low.jpg|~|somersworth_0019+image-tb-jpg+image-tb.jpg
Active,somersworth:0020,somersworth,http://www.archive.org/details/receiptsexpendit1893some|~|receiptsexpendit1893some|~|somersworth:0020,"Annual report Somersworth, New Hampshire, 1893",1893,Title varies|~|Imprint varies|~|Report year varies,"University of New Hampshire. Library. Digital Collections.|~|Scanned by Internet Archive, Open Content Alliance (2008)",,,Text,Somersworth (N.H. : Town) -- Appropriations and expenditures -- Periodicals,Somersworth (N.H. : Town),,,eng,"[Somersworth, N.H. : Printed at the Advertiser Office, by G.H. and S.E. Twombly,]|~|University of New Hampshire. Library. Digital Collections.",somersworth_0020+application-pdf+application.pdf|~|somersworth_0020+image-low-jpg+image-low.jpg|~|somersworth_0020+image-tb-jpg+image-tb.jpg
Active,somersworth:0021,somersworth,http://www.archive.org/details/receiptsexpendit1894some|~|receiptsexpendit1894some|~|somersworth:0021,"Annual report Somersworth, New Hampshire, 1894",1894,Title varies|~|Imprint varies|~|Report year varies,"University of New Hampshire. Library. Digital Collections.|~|Scanned by Internet Archive, Open Content Alliance (2008)",,,Text,Somersworth (N.H. : Town) -- Appropriations and expenditures -- Periodicals,Somersworth (N.H. : Town),,,eng,"[Somersworth, N.H. : Printed at the Advertiser Office, by G.H. and S.E. Twombly,]|~|University of New Hampshire. Library. Digital Collections.",somersworth_0021+application-pdf+application.pdf|~|somersworth_0021+image-low-jpg+image-low.jpg|~|somersworth_0021+image-tb-jpg+image-tb.jpg
Active,somersworth:0022,somersworth,http://www.archive.org/details/receiptsexpendit1895some|~|receiptsexpendit1895some|~|somersworth:0022,"Annual report Somersworth, New Hampshire, 1895",1895,Title varies|~|Imprint varies|~|Report year varies,"University of New Hampshire. Library. Digital Collections.|~|Scanned by Internet Archive, Open Content Alliance (2008)",,,Text,Somersworth (N.H. : Town) -- Appropriations and expenditures -- Periodicals,Somersworth (N.H. : Town),,,eng,"[Somersworth, N.H. : Printed at the Advertiser Office, by G.H. and S.E. Twombly,]|~|University of New Hampshire. Library. Digital Collections.",somersworth_0022+application-pdf+application.pdf|~|somersworth_0022+image-low-jpg+image-low.jpg|~|somersworth_0022+image-tb-jpg+image-tb.jpg
Active,somersworth:0023,somersworth,http://www.archive.org/details/receiptsexpendit1896some|~|receiptsexpendit1896some|~|somersworth:0023,"Annual report Somersworth, New Hampshire, 1896",1896,Title varies|~|Imprint varies|~|Report year varies,"University of New Hampshire. Library. Digital Collections.|~|Scanned by Internet Archive, Open Content Alliance (2008)",,,Text,Somersworth (N.H. : Town) -- Appropriations and expenditures -- Periodicals,Somersworth (N.H. : Town),,,eng,"[Somersworth, N.H. : Printed at the Advertiser Office, by G.H. and S.E. Twombly,]|~|University of New Hampshire. Library. Digital Collections.",somersworth_0023+application-pdf+application.pdf|~|somersworth_0023+image-low-jpg+image-low.jpg|~|somersworth_0023+image-tb-jpg+image-tb.jpg
Active,somersworth:0024,somersworth,http://www.archive.org/details/receiptsexpendit1898some|~|receiptsexpendit1898some|~|somersworth:0024,"Annual report Somersworth, New Hampshire, 1898",1898,Title varies|~|Imprint varies|~|Report year varies,"University of New Hampshire. Library. Digital Collections.|~|Scanned by Internet Archive, Open Content Alliance (2008)",,,Text,Somersworth (N.H. : Town) -- Appropriations and expenditures -- Periodicals,Somersworth (N.H. : Town),,,eng,"[Somersworth, N.H. : Printed at the Advertiser Office, by G.H. and S.E. Twombly,]|~|University of New Hampshire. Library. Digital Collections.",somersworth_0024+application-pdf+application.pdf|~|somersworth_0024+image-low-jpg+image-low.jpg|~|somersworth_0024+image-tb-jpg+image-tb.jpg
Active,somersworth:0025,somersworth,http://www.archive.org/details/receiptsexpendit1900some|~|receiptsexpendit1900some|~|somersworth:0025,"Annual report Somersworth, New Hampshire, 1900",1900,Title varies|~|Imprint varies|~|Report year varies,"University of New Hampshire. Library. Digital Collections.|~|Scanned by Internet Archive, Open Content Alliance (2008)",,,Text,Somersworth (N.H. : Town) -- Appropriations and expenditures -- Periodicals,Somersworth (N.H. : Town),,,eng,"[Somersworth, N.H. : Printed at the Advertiser Office, by G.H. and S.E. Twombly,]|~|University of New Hampshire. Library. Digital Collections.",somersworth_0025+application-pdf+application.pdf|~|somersworth_0025+image-low-jpg+image-low.jpg|~|somersworth_0025+image-tb-jpg+image-tb.jpg
Active,somersworth:0026,somersworth,http://www.archive.org/details/receiptsexpendit1901some|~|receiptsexpendit1901some|~|somersworth:0026,"Annual report Somersworth, New Hampshire, 1901",1901,Title varies|~|Imprint varies|~|Report year varies,"University of New Hampshire. Library. Digital Collections.|~|Scanned by Internet Archive, Open Content Alliance (2008)",,,Text,Somersworth (N.H. : Town) -- Appropriations and expenditures -- Periodicals,Somersworth (N.H. : Town),,,eng,"[Somersworth, N.H. : Printed at the Advertiser Office, by G.H. and S.E. Twombly,]|~|University of New Hampshire. Library. Digital Collections.",somersworth_0026+application-pdf+application.pdf|~|somersworth_0026+image-low-jpg+image-low.jpg|~|somersworth_0026+image-tb-jpg+image-tb.jpg
Active,somersworth:0027,somersworth,http://www.archive.org/details/receiptsexpendit1903some|~|receiptsexpendit1903some|~|somersworth:0027,"Annual report Somersworth, New Hampshire, 1903",1903,Title varies|~|Imprint varies|~|Report year varies,"University of New Hampshire. Library. Digital Collections.|~|Scanned by Internet Archive, Open Content Alliance (2008)",,,Text,Somersworth (N.H. : Town) -- Appropriations and expenditures -- Periodicals,Somersworth (N.H. : Town),,,eng,"[Somersworth, N.H. : Printed at the Advertiser Office, by G.H. and S.E. Twombly,]|~|University of New Hampshire. Library. Digital Collections.",somersworth_0027+application-pdf+application.pdf|~|somersworth_0027+image-low-jpg+image-low.jpg|~|somersworth_0027+image-tb-jpg+image-tb.jpg
Active,somersworth:0028,somersworth,http://www.archive.org/details/receiptsexpendit1904some|~|receiptsexpendit1904some|~|somersworth:0028,"Annual report Somersworth, New Hampshire, 1904",1904,Title varies|~|Imprint varies|~|Report year varies,"University of New Hampshire. Library. Digital Collections.|~|Scanned by Internet Archive, Open Content Alliance (2008)",,,Text,Somersworth (N.H. : Town) -- Appropriations and expenditures -- Periodicals,Somersworth (N.H. : Town),,,eng,"[Somersworth, N.H. : Printed at the Advertiser Office, by G.H. and S.E. Twombly,]|~|University of New Hampshire. Library. Digital Collections.",somersworth_0028+application-pdf+application.pdf|~|somersworth_0028+image-low-jpg+image-low.jpg|~|somersworth_0028+image-tb-jpg+image-tb.jpg
Active,somersworth:0029,somersworth,http://www.archive.org/details/receiptsexpendit1906some|~|receiptsexpendit1906some|~|somersworth:0029,"Annual report Somersworth, New Hampshire, 1906",1906,Title varies|~|Imprint varies|~|Report year varies,"University of New Hampshire. Library. Digital Collections.|~|Scanned by Internet Archive, Open Content Alliance (2008)",,,Text,Somersworth (N.H. : Town) -- Appropriations and expenditures -- Periodicals,Somersworth (N.H. : Town),,,eng,"[Somersworth, N.H. : Printed at the Advertiser Office, by G.H. and S.E. Twombly,]|~|University of New Hampshire. Library. Digital Collections.",somersworth_0029+application-pdf+application.pdf|~|somersworth_0029+image-low-jpg+image-low.jpg|~|somersworth_0029+image-tb-jpg+image-tb.jpg
Active,somersworth:0030,somersworth,http://www.archive.org/details/receiptsexpendit1909some|~|receiptsexpendit1909some|~|somersworth:0030,"Annual report Somersworth, New Hampshire, 1909",1909,Title varies|~|Imprint varies|~|Report year varies,"University of New Hampshire. Library. Digital Collections.|~|Scanned by Internet Archive, Open Content Alliance (2008)",,,Text,Somersworth (N.H. : Town) -- Appropriations and expenditures -- Periodicals,Somersworth (N.H. : Town),,,eng,"[Somersworth, N.H. : Printed at the Advertiser Office, by G.H. and S.E. Twombly,]|~|University of New Hampshire. Library. Digital Collections.",somersworth_0030+application-pdf+application.pdf|~|somersworth_0030+image-low-jpg+image-low.jpg|~|somersworth_0030+image-tb-jpg+image-tb.jpg
Active,somersworth:0031,somersworth,http://www.archive.org/details/receiptsexpendit1910some|~|receiptsexpendit1910some|~|somersworth:0031,"Annual report Somersworth, New Hampshire, 1910",1910,Title varies|~|Imprint varies|~|Report year varies,"University of New Hampshire. Library. Digital Collections.|~|Scanned by Internet Archive, Open Content Alliance (2008)",,,Text,Somersworth (N.H. : Town) -- Appropriations and expenditures -- Periodicals,Somersworth (N.H. : Town),,,eng,"[Somersworth, N.H. : Printed at the Advertiser Office, by G.H. and S.E. Twombly,]|~|University of New Hampshire. Library. Digital Collections.",somersworth_0031+application-pdf+application.pdf|~|somersworth_0031+image-low-jpg+image-low.jpg|~|somersworth_0031+image-tb-jpg+image-tb.jpg
Active,somersworth:0032,somersworth,http://www.archive.org/details/receiptsexpendit1911some|~|receiptsexpendit1911some|~|somersworth:0032,"Annual report Somersworth, New Hampshire, 1911",1911,Title varies|~|Imprint varies|~|Report year varies,"University of New Hampshire. Library. Digital Collections.|~|Scanned by Internet Archive, Open Content Alliance (2008)",,,Text,Somersworth (N.H. : Town) -- Appropriations and expenditures -- Periodicals,Somersworth (N.H. : Town),,,eng,"[Somersworth, N.H. : Printed at the Advertiser Office, by G.H. and S.E. Twombly,]|~|University of New Hampshire. Library. Digital Collections.",somersworth_0032+application-pdf+application.pdf|~|somersworth_0032+image-low-jpg+image-low.jpg|~|somersworth_0032+image-tb-jpg+image-tb.jpg
Active,somersworth:0033,somersworth,http://www.archive.org/details/receiptsexpendit1912some|~|receiptsexpendit1912some|~|somersworth:0033,"Annual report Somersworth, New Hampshire, 1912",1912,Title varies|~|Imprint varies|~|Report year varies,"University of New Hampshire. Library. Digital Collections.|~|Scanned by Internet Archive, Open Content Alliance (2008)",,,Text,Somersworth (N.H. : Town) -- Appropriations and expenditures -- Periodicals,Somersworth (N.H. : Town),,,eng,"[Somersworth, N.H. : Printed at the Advertiser Office, by G.H. and S.E. Twombly,]|~|University of New Hampshire. Library. Digital Collections.",somersworth_0033+application-pdf+application.pdf|~|somersworth_0033+image-low-jpg+image-low.jpg|~|somersworth_0033+image-tb-jpg+image-tb.jpg
Active,somersworth:0034,somersworth,http://www.archive.org/details/receiptsexpendit1913some|~|receiptsexpendit1913some|~|somersworth:0034,"Annual report Somersworth, New Hampshire, 1913",1913,Title varies|~|Imprint varies|~|Report year varies,"University of New Hampshire. Library. Digital Collections.|~|Scanned by Internet Archive, Open Content Alliance (2008)",,,Text,Somersworth (N.H. : Town) -- Appropriations and expenditures -- Periodicals,Somersworth (N.H. : Town),,,eng,"[Somersworth, N.H. : Printed at the Advertiser Office, by G.H. and S.E. Twombly,]|~|University of New Hampshire. Library. Digital Collections.",somersworth_0034+application-pdf+application.pdf|~|somersworth_0034+image-low-jpg+image-low.jpg|~|somersworth_0034+image-tb-jpg+image-tb.jpg
Active,somersworth:0035,somersworth,http://www.archive.org/details/receiptsexpendit1914some|~|receiptsexpendit1914some|~|somersworth:0035,"Annual report Somersworth, New Hampshire, 1914",1914,Title varies|~|Imprint varies|~|Report year varies,"University of New Hampshire. Library. Digital Collections.|~|Scanned by Internet Archive, Open Content Alliance (2008)",,,Text,Somersworth (N.H. : Town) -- Appropriations and expenditures -- Periodicals,Somersworth (N.H. : Town),,,eng,"[Somersworth, N.H. : Printed at the Advertiser Office, by G.H. and S.E. Twombly,]|~|University of New Hampshire. Library. Digital Collections.",somersworth_0035+application-pdf+application.pdf|~|somersworth_0035+image-low-jpg+image-low.jpg|~|somersworth_0035+image-tb-jpg+image-tb.jpg
Active,somersworth:0036,somersworth,http://www.archive.org/details/receiptsexpendit1916some|~|receiptsexpendit1916some|~|somersworth:0036,"Annual report Somersworth, New Hampshire, 1916",1916,Title varies|~|Imprint varies|~|Report year varies,"University of New Hampshire. Library. Digital Collections.|~|Scanned by Internet Archive, Open Content Alliance (2008)",,,Text,Somersworth (N.H. : Town) -- Appropriations and expenditures -- Periodicals,Somersworth (N.H. : Town),,,eng,"[Somersworth, N.H. : Printed at the Advertiser Office, by G.H. and S.E. Twombly,]|~|University of New Hampshire. Library. Digital Collections.",somersworth_0036+application-pdf+application.pdf|~|somersworth_0036+image-low-jpg+image-low.jpg|~|somersworth_0036+image-tb-jpg+image-tb.jpg
Active,somersworth:0037,somersworth,http://www.archive.org/details/receiptsexpendit1917some|~|receiptsexpendit1917some|~|somersworth:0037,"Annual report Somersworth, New Hampshire, 1917",1917,Title varies|~|Imprint varies|~|Report year varies,"University of New Hampshire. Library. Digital Collections.|~|Scanned by Internet Archive, Open Content Alliance (2008)",,,Text,Somersworth (N.H. : Town) -- Appropriations and expenditures -- Periodicals,Somersworth (N.H. : Town),,,eng,"[Somersworth, N.H. : Printed at the Advertiser Office, by G.H. and S.E. Twombly,]|~|University of New Hampshire. Library. Digital Collections.",somersworth_0037+application-pdf+application.pdf|~|somersworth_0037+image-low-jpg+image-low.jpg|~|somersworth_0037+image-tb-jpg+image-tb.jpg
Active,somersworth:0038,somersworth,http://www.archive.org/details/receiptsexpendit1918some|~|receiptsexpendit1918some|~|somersworth:0038,"Annual report Somersworth, New Hampshire, 1918",1918,Title varies|~|Imprint varies|~|Report year varies,"University of New Hampshire. Library. Digital Collections.|~|Scanned by Internet Archive, Open Content Alliance (2008)",,,Text,Somersworth (N.H. : Town) -- Appropriations and expenditures -- Periodicals,Somersworth (N.H. : Town),,,eng,"[Somersworth, N.H. : Printed at the Advertiser Office, by G.H. and S.E. Twombly,]|~|University of New Hampshire. Library. Digital Collections.",somersworth_0038+application-pdf+application.pdf|~|somersworth_0038+image-low-jpg+image-low.jpg|~|somersworth_0038+image-tb-jpg+image-tb.jpg
Active,somersworth:0039,somersworth,http://www.archive.org/details/receiptsexpendit1919some|~|receiptsexpendit1919some|~|somersworth:0039,"Annual report Somersworth, New Hampshire, 1919",1919,Title varies|~|Imprint varies|~|Report year varies,"University of New Hampshire. Library. Digital Collections.|~|Scanned by Internet Archive, Open Content Alliance (2008)",,,Text,Somersworth (N.H. : Town) -- Appropriations and expenditures -- Periodicals,Somersworth (N.H. : Town),,,eng,"[Somersworth, N.H. : Printed at the Advertiser Office, by G.H. and S.E. Twombly,]|~|University of New Hampshire. Library. Digital Collections.",somersworth_0039+application-pdf+application.pdf|~|somersworth_0039+image-low-jpg+image-low.jpg|~|somersworth_0039+image-tb-jpg+image-tb.jpg
Active,somersworth:0040,somersworth,http://www.archive.org/details/receiptsexpendit1920some|~|receiptsexpendit1920some|~|somersworth:0040,"Annual report Somersworth, New Hampshire, 1920",1920,Title varies|~|Imprint varies|~|Report year varies,"University of New Hampshire. Library. Digital Collections.|~|Scanned by Internet Archive, Open Content Alliance (2008)",,,Text,Somersworth (N.H. : Town) -- Appropriations and expenditures -- Periodicals,Somersworth (N.H. : Town),,,eng,"[Somersworth, N.H. : Printed at the Advertiser Office, by G.H. and S.E. Twombly,]|~|University of New Hampshire. Library. Digital Collections.",somersworth_0040+application-pdf+application.pdf|~|somersworth_0040+image-low-jpg+image-low.jpg|~|somersworth_0040+image-tb-jpg+image-tb.jpg
Active,somersworth:0041,somersworth,http://www.archive.org/details/receiptsexpendit1925some|~|receiptsexpendit1925some|~|somersworth:0041,"Annual report Somersworth, New Hampshire, 1925",1925,Title varies|~|Imprint varies|~|Report year varies,"University of New Hampshire. Library. Digital Collections.|~|Scanned by Internet Archive, Open Content Alliance (2008)",,,Text,Somersworth (N.H. : Town) -- Appropriations and expenditures -- Periodicals,Somersworth (N.H. : Town),,,eng,"[Somersworth, N.H. : Printed at the Advertiser Office, by G.H. and S.E. Twombly,]|~|University of New Hampshire. Library. Digital Collections.",somersworth_0041+application-pdf+application.pdf|~|somersworth_0041+image-low-jpg+image-low.jpg|~|somersworth_0041+image-tb-jpg+image-tb.jpg
Active,somersworth:0042,somersworth,http://www.archive.org/details/receiptsexpendit1933some|~|receiptsexpendit1933some|~|somersworth:0042,"Annual report Somersworth, New Hampshire, 1933",1933,Title varies|~|Imprint varies|~|Report year varies,"University of New Hampshire. Library. Digital Collections.|~|Scanned by Internet Archive, Open Content Alliance (2008)",,,Text,Somersworth (N.H. : Town) -- Appropriations and expenditures -- Periodicals,Somersworth (N.H. : Town),,,eng,"[Somersworth, N.H. : Printed at the Advertiser Office, by G.H. and S.E. Twombly,]|~|University of New Hampshire. Library. Digital Collections.",somersworth_0042+application-pdf+application.pdf|~|somersworth_0042+image-low-jpg+image-low.jpg|~|somersworth_0042+image-tb-jpg+image-tb.jpg
Active,somersworth:0043,somersworth,http://www.archive.org/details/receiptsexpendit1935some|~|receiptsexpendit1935some|~|somersworth:0043,"Annual report Somersworth, New Hampshire, 1935",1935,Title varies|~|Imprint varies|~|Report year varies,"University of New Hampshire. Library. Digital Collections.|~|Scanned by Internet Archive, Open Content Alliance (2008)",,,Text,Somersworth (N.H. : Town) -- Appropriations and expenditures -- Periodicals,Somersworth (N.H. : Town),,,eng,"[Somersworth, N.H. : Printed at the Advertiser Office, by G.H. and S.E. Twombly,]|~|University of New Hampshire. Library. Digital Collections.",somersworth_0043+application-pdf+application.pdf|~|somersworth_0043+image-low-jpg+image-low.jpg|~|somersworth_0043+image-tb-jpg+image-tb.jpg
Active,somersworth:0044,somersworth,http://www.archive.org/details/receiptsexpendit1937some|~|receiptsexpendit1937some|~|somersworth:0044,"Annual report Somersworth, New Hampshire, 1937",1937,Title varies|~|Imprint varies|~|Report year varies,"University of New Hampshire. Library. Digital Collections.|~|Scanned by Internet Archive, Open Content Alliance (2008)",,,Text,Somersworth (N.H. : Town) -- Appropriations and expenditures -- Periodicals,Somersworth (N.H. : Town),,,eng,"[Somersworth, N.H. : Printed at the Advertiser Office, by G.H. and S.E. Twombly,]|~|University of New Hampshire. Library. Digital Collections.",somersworth_0044+application-pdf+application.pdf|~|somersworth_0044+image-low-jpg+image-low.jpg|~|somersworth_0044+image-tb-jpg+image-tb.jpg
Active,somersworth:0045,somersworth,http://www.archive.org/details/receiptsexpendit1939some|~|receiptsexpendit1939some|~|somersworth:0045,"Annual report Somersworth, New Hampshire, 1939",1940,Title varies|~|Imprint varies|~|Report year varies,"University of New Hampshire. Library. Digital Collections.|~|Scanned by Internet Archive, Open Content Alliance (2008)",,,Text,Somersworth (N.H. : Town) -- Appropriations and expenditures -- Periodicals,Somersworth (N.H. : Town),,,eng,"[Somersworth, N.H. : Printed at the Advertiser Office, by G.H. and S.E. Twombly,]|~|University of New Hampshire. Library. Digital Collections.",somersworth_0045+application-pdf+application.pdf|~|somersworth_0045+image-low-jpg+image-low.jpg|~|somersworth_0045+image-tb-jpg+image-tb.jpg
Active,somersworth:0046,somersworth,http://www.archive.org/details/receiptsexpendit1940some|~|receiptsexpendit1940some|~|somersworth:0046,"Annual report Somersworth, New Hampshire, 1940",1941,Title varies|~|Imprint varies|~|Report year varies,"University of New Hampshire. Library. Digital Collections.|~|Scanned by Internet Archive, Open Content Alliance (2008)",,,Text,Somersworth (N.H. : Town) -- Appropriations and expenditures -- Periodicals,Somersworth (N.H. : Town),,,eng,"[Somersworth, N.H. : Printed at the Advertiser Office, by G.H. and S.E. Twombly,]|~|University of New Hampshire. Library. Digital Collections.",somersworth_0046+application-pdf+application.pdf|~|somersworth_0046+image-low-jpg+image-low.jpg|~|somersworth_0046+image-tb-jpg+image-tb.jpg
Active,somersworth:0047,somersworth,http://www.archive.org/details/receiptsexpendit1941some|~|receiptsexpendit1941some|~|somersworth:0047,"Annual report Somersworth, New Hampshire, 1941",1942,Title varies|~|Imprint varies|~|Report year varies,"University of New Hampshire. Library. Digital Collections.|~|Scanned by Internet Archive, Open Content Alliance (2008)",,,Text,Somersworth (N.H. : Town) -- Appropriations and expenditures -- Periodicals,Somersworth (N.H. : Town),,,eng,"[Somersworth, N.H. : Printed at the Advertiser Office, by G.H. and S.E. Twombly,]|~|University of New Hampshire. Library. Digital Collections.",somersworth_0047+application-pdf+application.pdf|~|somersworth_0047+image-low-jpg+image-low.jpg|~|somersworth_0047+image-tb-jpg+image-tb.jpg
Active,somersworth:0048,somersworth,http://www.archive.org/details/receiptsexpendit1942some|~|receiptsexpendit1942some|~|somersworth:0048,"Annual report Somersworth, New Hampshire, 1942",1943,Title varies|~|Imprint varies|~|Report year varies,"University of New Hampshire. Library. Digital Collections.|~|Scanned by Internet Archive, Open Content Alliance (2008)",,,Text,Somersworth (N.H. : Town) -- Appropriations and expenditures -- Periodicals,Somersworth (N.H. : Town),,,eng,"[Somersworth, N.H. : Printed at the Advertiser Office, by G.H. and S.E. Twombly,]|~|University of New Hampshire. Library. Digital Collections.",somersworth_0048+application-pdf+application.pdf|~|somersworth_0048+image-low-jpg+image-low.jpg|~|somersworth_0048+image-tb-jpg+image-tb.jpg
Active,somersworth:0049,somersworth,http://www.archive.org/details/receiptsexpendit1943some|~|receiptsexpendit1943some|~|somersworth:0049,"Annual report Somersworth, New Hampshire, 1943",1944,Title varies|~|Imprint varies|~|Report year varies,"University of New Hampshire. Library. Digital Collections.|~|Scanned by Internet Archive, Open Content Alliance (2008)",,,Text,Somersworth (N.H. : Town) -- Appropriations and expenditures -- Periodicals,Somersworth (N.H. : Town),,,eng,"[Somersworth, N.H. : Printed at the Advertiser Office, by G.H. and S.E. Twombly,]|~|University of New Hampshire. Library. Digital Collections.",somersworth_0049+application-pdf+application.pdf|~|somersworth_0049+image-low-jpg+image-low.jpg|~|somersworth_0049+image-tb-jpg+image-tb.jpg
Active,somersworth:0050,somersworth,http://www.archive.org/details/receiptsexpendit1944some|~|receiptsexpendit1944some|~|somersworth:0050,"Annual report Somersworth, New Hampshire, 1944",1945,Title varies|~|Imprint varies|~|Report year varies,"University of New Hampshire. Library. Digital Collections.|~|Scanned by Internet Archive, Open Content Alliance (2008)",,,Text,Somersworth (N.H. : Town) -- Appropriations and expenditures -- Periodicals,Somersworth (N.H. : Town),,,eng,"[Somersworth, N.H. : Printed at the Advertiser Office, by G.H. and S.E. Twombly,]|~|University of New Hampshire. Library. Digital Collections.",somersworth_0050+application-pdf+application.pdf|~|somersworth_0050+image-low-jpg+image-low.jpg|~|somersworth_0050+image-tb-jpg+image-tb.jpg
Active,somersworth:0051,somersworth,http://www.archive.org/details/receiptsexpendit1947some|~|receiptsexpendit1947some|~|somersworth:0051,"Annual report Somersworth, New Hampshire, 1947",1948,Title varies|~|Imprint varies|~|Report year varies,"University of New Hampshire. Library. Digital Collections.|~|Scanned by Internet Archive, Open Content Alliance (2008)",,,Text,Somersworth (N.H. : Town) -- Appropriations and expenditures -- Periodicals,Somersworth (N.H. : Town),,,eng,"[Somersworth, N.H. : Printed at the Advertiser Office, by G.H. and S.E. Twombly,]|~|University of New Hampshire. Library. Digital Collections.",somersworth_0051+application-pdf+application.pdf|~|somersworth_0051+image-low-jpg+image-low.jpg|~|somersworth_0051+image-tb-jpg+image-tb.jpg
Active,somersworth:0052,somersworth,http://www.archive.org/details/receiptsexpendit1948some|~|receiptsexpendit1948some|~|somersworth:0052,"Annual report Somersworth, New Hampshire, 1948",1949,Title varies|~|Imprint varies|~|Report year varies,"University of New Hampshire. Library. Digital Collections.|~|Scanned by Internet Archive, Open Content Alliance (2008)",,,Text,Somersworth (N.H. : Town) -- Appropriations and expenditures -- Periodicals,Somersworth (N.H. : Town),,,eng,"[Somersworth, N.H. : Printed at the Advertiser Office, by G.H. and S.E. Twombly,]|~|University of New Hampshire. Library. Digital Collections.",somersworth_0052+application-pdf+application.pdf|~|somersworth_0052+image-low-jpg+image-low.jpg|~|somersworth_0052+image-tb-jpg+image-tb.jpg
Active,somersworth:0053,somersworth,http://www.archive.org/details/receiptsexpendit1961some|~|receiptsexpendit1961some|~|somersworth:0053,"Annual report Somersworth, New Hampshire, 1961",1962,Title varies|~|Imprint varies|~|Report year varies,"University of New Hampshire. Library. Digital Collections.|~|Scanned by Internet Archive, Open Content Alliance (2008)",,,Text,Somersworth (N.H. : Town) -- Appropriations and expenditures -- Periodicals,Somersworth (N.H. : Town),,,eng,"[Somersworth, N.H. : Printed at the Advertiser Office, by G.H. and S.E. Twombly,]|~|University of New Hampshire. Library. Digital Collections.",somersworth_0053+application-pdf+application.pdf|~|somersworth_0053+image-low-jpg+image-low.jpg|~|somersworth_0053+image-tb-jpg+image-tb.jpg
Active,somersworth:0054,somersworth,http://www.archive.org/details/receiptsexpendit1962some|~|receiptsexpendit1962some|~|somersworth:0054,"Annual report Somersworth, New Hampshire, 1962",1963,Title varies|~|Imprint varies|~|Report year varies,"University of New Hampshire. Library. Digital Collections.|~|Scanned by Internet Archive, Open Content Alliance (2008)",,,Text,Somersworth (N.H. : Town) -- Appropriations and expenditures -- Periodicals,Somersworth (N.H. : Town),,,eng,"[Somersworth, N.H. : Printed at the Advertiser Office, by G.H. and S.E. Twombly,]|~|University of New Hampshire. Library. Digital Collections.",somersworth_0054+application-pdf+application.pdf|~|somersworth_0054+image-low-jpg+image-low.jpg|~|somersworth_0054+image-tb-jpg+image-tb.jpg
Active,somersworth:0055,somersworth,http://www.archive.org/details/receiptsexpendit1963some|~|receiptsexpendit1963some|~|somersworth:0055,"Annual report Somersworth, New Hampshire, 1963",1964,Title varies|~|Imprint varies|~|Report year varies,"University of New Hampshire. Library. Digital Collections.|~|Scanned by Internet Archive, Open Content Alliance (2008)",,,Text,Somersworth (N.H. : Town) -- Appropriations and expenditures -- Periodicals,Somersworth (N.H. : Town),,,eng,"[Somersworth, N.H. : Printed at the Advertiser Office, by G.H. and S.E. Twombly,]|~|University of New Hampshire. Library. Digital Collections.",somersworth_0055+application-pdf+application.pdf|~|somersworth_0055+image-low-jpg+image-low.jpg|~|somersworth_0055+image-tb-jpg+image-tb.jpg
Active,somersworth:0056,somersworth,http://www.archive.org/details/receiptsexpendit1964some|~|receiptsexpendit1964some|~|somersworth:0056,"Annual report Somersworth, New Hampshire, 1964",1965,Title varies|~|Imprint varies|~|Report year varies,"University of New Hampshire. Library. Digital Collections.|~|Scanned by Internet Archive, Open Content Alliance (2008)",,,Text,Somersworth (N.H. : Town) -- Appropriations and expenditures -- Periodicals,Somersworth (N.H. : Town),,,eng,"[Somersworth, N.H. : Printed at the Advertiser Office, by G.H. and S.E. Twombly,]|~|University of New Hampshire. Library. Digital Collections.",somersworth_0056+application-pdf+application.pdf|~|somersworth_0056+image-low-jpg+image-low.jpg|~|somersworth_0056+image-tb-jpg+image-tb.jpg
Active,somersworth:0057,somersworth,http://www.archive.org/details/receiptsexpendit1965some|~|receiptsexpendit1965some|~|somersworth:0057,"Annual report Somersworth, New Hampshire, 1965",1966,Title varies|~|Imprint varies|~|Report year varies,"University of New Hampshire. Library. Digital Collections.|~|Scanned by Internet Archive, Open Content Alliance (2008)",,,Text,Somersworth (N.H. : Town) -- Appropriations and expenditures -- Periodicals,Somersworth (N.H. : Town),,,eng,"[Somersworth, N.H. : Printed at the Advertiser Office, by G.H. and S.E. Twombly,]|~|University of New Hampshire. Library. Digital Collections.",somersworth_0057+application-pdf+application.pdf|~|somersworth_0057+image-low-jpg+image-low.jpg|~|somersworth_0057+image-tb-jpg+image-tb.jpg
Active,somersworth:0058,somersworth,http://www.archive.org/details/receiptsexpendit1967some|~|receiptsexpendit1967some|~|somersworth:0058,"Annual report Somersworth, New Hampshire, 1967",1968,Title varies|~|Imprint varies|~|Report year varies,"University of New Hampshire. Library. Digital Collections.|~|Scanned by Internet Archive, Open Content Alliance (2008)",,,Text,Somersworth (N.H. : Town) -- Appropriations and expenditures -- Periodicals,Somersworth (N.H. : Town),,,eng,"[Somersworth, N.H. : Printed at the Advertiser Office, by G.H. and S.E. Twombly,]|~|University of New Hampshire. Library. Digital Collections.",somersworth_0058+application-pdf+application.pdf|~|somersworth_0058+image-low-jpg+image-low.jpg|~|somersworth_0058+image-tb-jpg+image-tb.jpg
Active,somersworth:0059,somersworth,http://www.archive.org/details/receiptsexpendit1968some|~|receiptsexpendit1968some|~|somersworth:0059,"Annual report Somersworth, New Hampshire, 1968",1969,Title varies|~|Imprint varies|~|Report year varies,"University of New Hampshire. Library. Digital Collections.|~|Scanned by Internet Archive, Open Content Alliance (2008)",,,Text,Somersworth (N.H. : Town) -- Appropriations and expenditures -- Periodicals,Somersworth (N.H. : Town),,,eng,"[Somersworth, N.H. : Printed at the Advertiser Office, by G.H. and S.E. Twombly,]|~|University of New Hampshire. Library. Digital Collections.",somersworth_0059+application-pdf+application.pdf|~|somersworth_0059+image-low-jpg+image-low.jpg|~|somersworth_0059+image-tb-jpg+image-tb.jpg
Active,somersworth:0060,somersworth,http://www.archive.org/details/receiptsexpendit1970some|~|receiptsexpendit1970some|~|somersworth:0060,"Annual report Somersworth, New Hampshire, 1970",1971,Title varies|~|Imprint varies|~|Report year varies,"University of New Hampshire. Library. Digital Collections.|~|Scanned by Internet Archive, Open Content Alliance (2008)",,,Text,Somersworth (N.H. : Town) -- Appropriations and expenditures -- Periodicals,Somersworth (N.H. : Town),,,eng,"[Somersworth, N.H. : Printed at the Advertiser Office, by G.H. and S.E. Twombly,]|~|University of New Hampshire. Library. Digital Collections.",somersworth_0060+application-pdf+application.pdf|~|somersworth_0060+image-low-jpg+image-low.jpg|~|somersworth_0060+image-tb-jpg+image-tb.jpg
Active,somersworth:0061,somersworth,http://www.archive.org/details/receiptsexpendit1971some|~|receiptsexpendit1971some|~|somersworth:0061,"Annual report Somersworth, New Hampshire, 1971",1972,Title varies|~|Imprint varies|~|Report year varies,"University of New Hampshire. Library. Digital Collections.|~|Scanned by Internet Archive, Open Content Alliance (2008)",,,Text,Somersworth (N.H. : Town) -- Appropriations and expenditures -- Periodicals,Somersworth (N.H. : Town),,,eng,"[Somersworth, N.H. : Printed at the Advertiser Office, by G.H. and S.E. Twombly,]|~|University of New Hampshire. Library. Digital Collections.",somersworth_0061+application-pdf+application.pdf|~|somersworth_0061+image-low-jpg+image-low.jpg|~|somersworth_0061+image-tb-jpg+image-tb.jpg
Active,somersworth:0062,somersworth,http://www.archive.org/details/receiptsexpendit1972some|~|receiptsexpendit1972some|~|somersworth:0062,"Annual report Somersworth, New Hampshire, 1972",1973,Title varies|~|Imprint varies|~|Report year varies,"University of New Hampshire. Library. Digital Collections.|~|Scanned by Internet Archive, Open Content Alliance (2008)",,,Text,Somersworth (N.H. : Town) -- Appropriations and expenditures -- Periodicals,Somersworth (N.H. : Town),,,eng,"[Somersworth, N.H. : Printed at the Advertiser Office, by G.H. and S.E. Twombly,]|~|University of New Hampshire. Library. Digital Collections.",somersworth_0062+application-pdf+application.pdf|~|somersworth_0062+image-low-jpg+image-low.jpg|~|somersworth_0062+image-tb-jpg+image-tb.jpg
Active,somersworth:0063,somersworth,http://www.archive.org/details/receiptsexpendit1973some|~|receiptsexpendit1973some|~|somersworth:0063,"Annual report Somersworth, New Hampshire, 1973",1974,Title varies|~|Imprint varies|~|Report year varies,"University of New Hampshire. Library. Digital Collections.|~|Scanned by Internet Archive, Open Content Alliance (2008)",,,Text,Somersworth (N.H. : Town) -- Appropriations and expenditures -- Periodicals,Somersworth (N.H. : Town),,,eng,"[Somersworth, N.H. : Printed at the Advertiser Office, by G.H. and S.E. Twombly,]|~|University of New Hampshire. Library. Digital Collections.",somersworth_0063+application-pdf+application.pdf|~|somersworth_0063+image-low-jpg+image-low.jpg|~|somersworth_0063+image-tb-jpg+image-tb.jpg
Active,somersworth:0064,somersworth,http://www.archive.org/details/receiptsexpendit1974some|~|receiptsexpendit1974some|~|somersworth:0064,"Annual report Somersworth, New Hampshire, 1974",1975,Title varies|~|Imprint varies|~|Report year varies,"University of New Hampshire. Library. Digital Collections.|~|Scanned by Internet Archive, Open Content Alliance (2008)",,,Text,Somersworth (N.H. : Town) -- Appropriations and expenditures -- Periodicals,Somersworth (N.H. : Town),,,eng,"[Somersworth, N.H. : Printed at the Advertiser Office, by G.H. and S.E. Twombly,]|~|University of New Hampshire. Library. Digital Collections.",somersworth_0064+application-pdf+application.pdf|~|somersworth_0064+image-low-jpg+image-low.jpg|~|somersworth_0064+image-tb-jpg+image-tb.jpg
Active,somersworth:0065,somersworth,http://www.archive.org/details/receiptsexpendit1975some|~|receiptsexpendit1975some|~|somersworth:0065,"Annual report Somersworth, New Hampshire, 1975",1976,Title varies|~|Imprint varies|~|Report year varies,"University of New Hampshire. Library. Digital Collections.|~|Scanned by Internet Archive, Open Content Alliance (2008)",,,Text,Somersworth (N.H. : Town) -- Appropriations and expenditures -- Periodicals,Somersworth (N.H. : Town),,,eng,"[Somersworth, N.H. : Printed at the Advertiser Office, by G.H. and S.E. Twombly,]|~|University of New Hampshire. Library. Digital Collections.",somersworth_0065+application-pdf+application.pdf|~|somersworth_0065+image-low-jpg+image-low.jpg|~|somersworth_0065+image-tb-jpg+image-tb.jpg
Active,somersworth:0066,somersworth,http://www.archive.org/details/receiptsexpendit1976some|~|receiptsexpendit1976some|~|somersworth:0066,"Annual report Somersworth, New Hampshire, 1976",1977,Title varies|~|Imprint varies|~|Report year varies,"University of New Hampshire. Library. Digital Collections.|~|Scanned by Internet Archive, Open Content Alliance (2008)",,,Text,Somersworth (N.H. : Town) -- Appropriations and expenditures -- Periodicals,Somersworth (N.H. : Town),,,eng,"[Somersworth, N.H. : Printed at the Advertiser Office, by G.H. and S.E. Twombly,]|~|University of New Hampshire. Library. Digital Collections.",somersworth_0066+application-pdf+application.pdf|~|somersworth_0066+image-low-jpg+image-low.jpg|~|somersworth_0066+image-tb-jpg+image-tb.jpg
Active,somersworth:0067,somersworth,http://www.archive.org/details/receiptsexpendit1977some|~|receiptsexpendit1977some|~|somersworth:0067,"Annual report Somersworth, New Hampshire, 1977",1978,Title varies|~|Imprint varies|~|Report year varies,"University of New Hampshire. Library. Digital Collections.|~|Scanned by Internet Archive, Open Content Alliance (2008)",,,Text,Somersworth (N.H. : Town) -- Appropriations and expenditures -- Periodicals,Somersworth (N.H. : Town),,,eng,"[Somersworth, N.H. : Printed at the Advertiser Office, by G.H. and S.E. Twombly,]|~|University of New Hampshire. Library. Digital Collections.",somersworth_0067+application-pdf+application.pdf|~|somersworth_0067+image-low-jpg+image-low.jpg|~|somersworth_0067+image-tb-jpg+image-tb.jpg
Active,somersworth:0068,somersworth,http://www.archive.org/details/receiptsexpendit1978some|~|receiptsexpendit1978some|~|somersworth:0068,"Annual report Somersworth, New Hampshire, 1978",1979,Title varies|~|Imprint varies|~|Report year varies,"University of New Hampshire. Library. Digital Collections.|~|Scanned by Internet Archive, Open Content Alliance (2008)",,,Text,Somersworth (N.H. : Town) -- Appropriations and expenditures -- Periodicals,Somersworth (N.H. : Town),,,eng,"[Somersworth, N.H. : Printed at the Advertiser Office, by G.H. and S.E. Twombly,]|~|University of New Hampshire. Library. Digital Collections.",somersworth_0068+application-pdf+application.pdf|~|somersworth_0068+image-low-jpg+image-low.jpg|~|somersworth_0068+image-tb-jpg+image-tb.jpg
Active,somersworth:0069,somersworth,http://www.archive.org/details/receiptsexpendit1979some|~|receiptsexpendit1979some|~|somersworth:0069,"Annual report Somersworth, New Hampshire, 1979",1980,Title varies|~|Imprint varies|~|Report year varies,"University of New Hampshire. Library. Digital Collections.|~|Scanned by Internet Archive, Open Content Alliance (2008)",,,Text,Somersworth (N.H. : Town) -- Appropriations and expenditures -- Periodicals,Somersworth (N.H. : Town),,,eng,"[Somersworth, N.H. : Printed at the Advertiser Office, by G.H. and S.E. Twombly,]|~|University of New Hampshire. Library. Digital Collections.",somersworth_0069+application-pdf+application.pdf|~|somersworth_0069+image-low-jpg+image-low.jpg|~|somersworth_0069+image-tb-jpg+image-tb.jpg
Active,somersworth:0070,somersworth,http://www.archive.org/details/receiptsexpendit1980some|~|receiptsexpendit1980some|~|somersworth:0070,"Annual report Somersworth, New Hampshire, 1980",1981,Title varies|~|Imprint varies|~|Report year varies,"University of New Hampshire. Library. Digital Collections.|~|Scanned by Internet Archive, Open Content Alliance (2008)",,,Text,Somersworth (N.H. : Town) -- Appropriations and expenditures -- Periodicals,Somersworth (N.H. : Town),,,eng,"[Somersworth, N.H. : Printed at the Advertiser Office, by G.H. and S.E. Twombly,]|~|University of New Hampshire. Library. Digital Collections.",somersworth_0070+application-pdf+application.pdf|~|somersworth_0070+image-low-jpg+image-low.jpg|~|somersworth_0070+image-tb-jpg+image-tb.jpg
Active,somersworth:0071,somersworth,http://www.archive.org/details/receiptsexpendit1981some|~|receiptsexpendit1981some|~|somersworth:0071,"Annual report Somersworth, New Hampshire, 1981",1982,Title varies|~|Imprint varies|~|Report year varies,"University of New Hampshire. Library. Digital Collections.|~|Scanned by Internet Archive, Open Content Alliance (2008)",,,Text,Somersworth (N.H. : Town) -- Appropriations and expenditures -- Periodicals,Somersworth (N.H. : Town),,,eng,"[Somersworth, N.H. : Printed at the Advertiser Office, by G.H. and S.E. Twombly,]|~|University of New Hampshire. Library. Digital Collections.",somersworth_0071+application-pdf+application.pdf|~|somersworth_0071+image-low-jpg+image-low.jpg|~|somersworth_0071+image-tb-jpg+image-tb.jpg
Active,somersworth:0072,somersworth,http://www.archive.org/details/receiptsexpendit1982some|~|receiptsexpendit1982some|~|somersworth:0072,"Annual report Somersworth, New Hampshire, 1982",1983,Title varies|~|Imprint varies|~|Report year varies,"University of New Hampshire. Library. Digital Collections.|~|Scanned by Internet Archive, Open Content Alliance (2008)",,,Text,Somersworth (N.H. : Town) -- Appropriations and expenditures -- Periodicals,Somersworth (N.H. : Town),,,eng,"[Somersworth, N.H. : Printed at the Advertiser Office, by G.H. and S.E. Twombly,]|~|University of New Hampshire. Library. Digital Collections.",somersworth_0072+application-pdf+application.pdf|~|somersworth_0072+image-low-jpg+image-low.jpg|~|somersworth_0072+image-tb-jpg+image-tb.jpg
Active,somersworth:0073,somersworth,http://www.archive.org/details/receiptsexpendit1983some|~|receiptsexpendit1983some|~|somersworth:0073,"Annual report Somersworth, New Hampshire, 1983",1984,Title varies|~|Imprint varies|~|Report year varies,"University of New Hampshire. Library. Digital Collections.|~|Scanned by Internet Archive, Open Content Alliance (2008)",,,Text,Somersworth (N.H. : Town) -- Appropriations and expenditures -- Periodicals,Somersworth (N.H. : Town),,,eng,"[Somersworth, N.H. : Printed at the Advertiser Office, by G.H. and S.E. Twombly,]|~|University of New Hampshire. Library. Digital Collections.",somersworth_0073+application-pdf+application.pdf|~|somersworth_0073+image-low-jpg+image-low.jpg|~|somersworth_0073+image-tb-jpg+image-tb.jpg
Active,somersworth:0074,somersworth,http://www.archive.org/details/receiptsexpendit8485some|~|receiptsexpendit8485some|~|somersworth:0074,"Annual report Somersworth, New Hampshire, 1985",1986,Title varies|~|Imprint varies|~|Report year varies,"University of New Hampshire. Library. Digital Collections.|~|Scanned by Internet Archive, Open Content Alliance (2008)",,,Text,Somersworth (N.H. : Town) -- Appropriations and expenditures -- Periodicals,Somersworth (N.H. : Town),,,eng,"[Somersworth, N.H. : Printed at the Advertiser Office, by G.H. and S.E. Twombly,]|~|University of New Hampshire. Library. Digital Collections.",somersworth_0074+application-pdf+application.pdf|~|somersworth_0074+image-low-jpg+image-low.jpg|~|somersworth_0074+image-tb-jpg+image-tb.jpg
Active,somersworth:0075,somersworth,http://www.archive.org/details/receiptsexpendit8586some|~|receiptsexpendit8586some|~|somersworth:0075,"Annual report Somersworth, New Hampshire, 1986",1987,Title varies|~|Imprint varies|~|Report year varies,"University of New Hampshire. Library. Digital Collections.|~|Scanned by Internet Archive, Open Content Alliance (2008)",,,Text,Somersworth (N.H. : Town) -- Appropriations and expenditures -- Periodicals,Somersworth (N.H. : Town),,,eng,"[Somersworth, N.H. : Printed at the Advertiser Office, by G.H. and S.E. Twombly,]|~|University of New Hampshire. Library. Digital Collections.",somersworth_0075+application-pdf+application.pdf|~|somersworth_0075+image-low-jpg+image-low.jpg|~|somersworth_0075+image-tb-jpg+image-tb.jpg
Active,somersworth:0076,somersworth,http://www.archive.org/details/receiptsexpendit8788some|~|receiptsexpendit8788some|~|somersworth:0076,"Annual report Somersworth, New Hampshire, 1988",1988,Title varies|~|Imprint varies|~|Report year varies,"University of New Hampshire. Library. Digital Collections.|~|Scanned by Internet Archive, Open Content Alliance (2008)",,,Text,Somersworth (N.H. : Town) -- Appropriations and expenditures -- Periodicals,Somersworth (N.H. : Town),,,eng,"[Somersworth, N.H. : Printed at the Advertiser Office, by G.H. and S.E. Twombly,]|~|University of New Hampshire. Library. Digital Collections.",somersworth_0076+application-pdf+application.pdf|~|somersworth_0076+image-low-jpg+image-low.jpg|~|somersworth_0076+image-tb-jpg+image-tb.jpg
Active,somersworth:0077,somersworth,http://www.archive.org/details/receiptsexpendit8889some|~|receiptsexpendit8889some|~|somersworth:0077,"Annual report Somersworth, New Hampshire, 1989",1989,Title varies|~|Imprint varies|~|Report year varies,"University of New Hampshire. Library. Digital Collections.|~|Scanned by Internet Archive, Open Content Alliance (2008)",,,Text,Somersworth (N.H. : Town) -- Appropriations and expenditures -- Periodicals,Somersworth (N.H. : Town),,,eng,"[Somersworth, N.H. : Printed at the Advertiser Office, by G.H. and S.E. Twombly,]|~|University of New Hampshire. Library. Digital Collections.",somersworth_0077+application-pdf+application.pdf|~|somersworth_0077+image-low-jpg+image-low.jpg|~|somersworth_0077+image-tb-jpg+image-tb.jpg
Active,somersworth:0078,somersworth,http://www.archive.org/details/receiptsexpendit8990some|~|receiptsexpendit8990some|~|somersworth:0078,"Annual report Somersworth, New Hampshire, 1990",1990,Title varies|~|Imprint varies|~|Report year varies,"University of New Hampshire. Library. Digital Collections.|~|Scanned by Internet Archive, Open Content Alliance (2008)",,,Text,Somersworth (N.H. : Town) -- Appropriations and expenditures -- Periodicals,Somersworth (N.H. : Town),,,eng,"[Somersworth, N.H. : Printed at the Advertiser Office, by G.H. and S.E. Twombly,]|~|University of New Hampshire. Library. Digital Collections.",somersworth_0078+application-pdf+application.pdf|~|somersworth_0078+image-low-jpg+image-low.jpg|~|somersworth_0078+image-tb-jpg+image-tb.jpg
Active,somersworth:0079,somersworth,http://www.archive.org/details/receiptsexpendit9192some|~|receiptsexpendit9192some|~|somersworth:0079,"Annual report Somersworth, New Hampshire, 1992",1992,Title varies|~|Imprint varies|~|Report year varies,"University of New Hampshire. Library. Digital Collections.|~|Scanned by Internet Archive, Open Content Alliance (2008)",,,Text,Somersworth (N.H. : Town) -- Appropriations and expenditures -- Periodicals,Somersworth (N.H. : Town),,,eng,"[Somersworth, N.H. : Printed at the Advertiser Office, by G.H. and S.E. Twombly,]|~|University of New Hampshire. Library. Digital Collections.",somersworth_0079+application-pdf+application.pdf|~|somersworth_0079+image-low-jpg+image-low.jpg|~|somersworth_0079+image-tb-jpg+image-tb.jpg
Active,somersworth:0080,somersworth,http://www.archive.org/details/receiptsexpendit9293some|~|receiptsexpendit9293some|~|somersworth:0080,"Annual report Somersworth, New Hampshire, 1993",1993,Title varies|~|Imprint varies|~|Report year varies,"University of New Hampshire. Library. Digital Collections.|~|Scanned by Internet Archive, Open Content Alliance (2008)",,,Text,Somersworth (N.H. : Town) -- Appropriations and expenditures -- Periodicals,Somersworth (N.H. : Town),,,eng,"[Somersworth, N.H. : Printed at the Advertiser Office, by G.H. and S.E. Twombly,]|~|University of New Hampshire. Library. Digital Collections.",somersworth_0080+application-pdf+application.pdf|~|somersworth_0080+image-low-jpg+image-low.jpg|~|somersworth_0080+image-tb-jpg+image-tb.jpg
Active,somersworth:0081,somersworth,http://www.archive.org/details/receiptsexpendit9394some|~|receiptsexpendit9394some|~|somersworth:0081,"Annual report Somersworth, New Hampshire, 1994",1994,Title varies|~|Imprint varies|~|Report year varies,"University of New Hampshire. Library. Digital Collections.|~|Scanned by Internet Archive, Open Content Alliance (2008)",,,Text,Somersworth (N.H. : Town) -- Appropriations and expenditures -- Periodicals,Somersworth (N.H. : Town),,,eng,"[Somersworth, N.H. : Printed at the Advertiser Office, by G.H. and S.E. Twombly,]|~|University of New Hampshire. Library. Digital Collections.",somersworth_0081+application-pdf+application.pdf|~|somersworth_0081+image-low-jpg+image-low.jpg|~|somersworth_0081+image-tb-jpg+image-tb.jpg
Active,somersworth:0082,somersworth,http://www.archive.org/details/receiptsexpendit9495some|~|receiptsexpendit9495some|~|somersworth:0082,"Annual report Somersworth, New Hampshire, 1995",1995,Title varies|~|Imprint varies|~|Report year varies,"University of New Hampshire. Library. Digital Collections.|~|Scanned by Internet Archive, Open Content Alliance (2008)",,,Text,Somersworth (N.H. : Town) -- Appropriations and expenditures -- Periodicals,Somersworth (N.H. : Town),,,eng,"[Somersworth, N.H. : Printed at the Advertiser Office, by G.H. and S.E. Twombly,]|~|University of New Hampshire. Library. Digital Collections.",somersworth_0082+application-pdf+application.pdf|~|somersworth_0082+image-low-jpg+image-low.jpg|~|somersworth_0082+image-tb-jpg+image-tb.jpg
Active,somersworth:0083,somersworth,http://www.archive.org/details/receiptsexpendit9596some|~|receiptsexpendit9596some|~|somersworth:0083,"Annual report Somersworth, New Hampshire, 1996",1996,Title varies|~|Imprint varies|~|Report year varies,"University of New Hampshire. Library. Digital Collections.|~|Scanned by Internet Archive, Open Content Alliance (2008)",,,Text,Somersworth (N.H. : Town) -- Appropriations and expenditures -- Periodicals,Somersworth (N.H. : Town),,,eng,"[Somersworth, N.H. : Printed at the Advertiser Office, by G.H. and S.E. Twombly,]|~|University of New Hampshire. Library. Digital Collections.",somersworth_0083+application-pdf+application.pdf|~|somersworth_0083+image-low-jpg+image-low.jpg|~|somersworth_0083+image-tb-jpg+image-tb.jpg
Active,somersworth:0084,somersworth,http://www.archive.org/details/receiptsexpendit9697some|~|receiptsexpendit9697some|~|somersworth:0084,"Annual report Somersworth, New Hampshire, 1997",1997,Title varies|~|Imprint varies|~|Report year varies,"University of New Hampshire. Library. Digital Collections.|~|Scanned by Internet Archive, Open Content Alliance (2008)",,,Text,Somersworth (N.H. : Town) -- Appropriations and expenditures -- Periodicals,Somersworth (N.H. : Town),,,eng,"[Somersworth, N.H. : Printed at the Advertiser Office, by G.H. and S.E. Twombly,]|~|University of New Hampshire. Library. Digital Collections.",somersworth_0084+application-pdf+application.pdf|~|somersworth_0084+image-low-jpg+image-low.jpg|~|somersworth_0084+image-tb-jpg+image-tb.jpg
Active,somersworth:0085,somersworth,http://www.archive.org/details/receiptsexpendit9798some|~|receiptsexpendit9798some|~|somersworth:0085,"Annual report Somersworth, New Hampshire, 1998",1998,Title varies|~|Imprint varies|~|Report year varies,"University of New Hampshire. Library. Digital Collections.|~|Scanned by Internet Archive, Open Content Alliance (2008)",,,Text,Somersworth (N.H. : Town) -- Appropriations and expenditures -- Periodicals,Somersworth (N.H. : Town),,,eng,"[Somersworth, N.H. : Printed at the Advertiser Office, by G.H. and S.E. Twombly,]|~|University of New Hampshire. Library. Digital Collections.",somersworth_0085+application-pdf+application.pdf|~|somersworth_0085+image-low-jpg+image-low.jpg|~|somersworth_0085+image-tb-jpg+image-tb.jpg
Active,somersworth:0086,somersworth,http://www.archive.org/details/receiptsexpendit9899some|~|receiptsexpendit9899some|~|somersworth:0086,"Annual report Somersworth, New Hampshire, 1999",1999,Title varies|~|Imprint varies|~|Report year varies,"University of New Hampshire. Library. Digital Collections.|~|Scanned by Internet Archive, Open Content Alliance (2008)",,,Text,Somersworth (N.H. : Town) -- Appropriations and expenditures -- Periodicals,Somersworth (N.H. : Town),,,eng,"[Somersworth, N.H. : Printed at the Advertiser Office, by G.H. and S.E. Twombly,]|~|University of New Hampshire. Library. Digital Collections.",somersworth_0086+application-pdf+application.pdf|~|somersworth_0086+image-low-jpg+image-low.jpg|~|somersworth_0086+image-tb-jpg+image-tb.jpg
Active,somersworth:0087,somersworth,http://www.archive.org/details/receiptsexpendit9900some|~|receiptsexpendit9900some|~|somersworth:0087,"Annual report Somersworth, New Hampshire, 2000",2000,Title varies|~|Imprint varies|~|Report year varies,"University of New Hampshire. Library. Digital Collections.|~|Scanned by Internet Archive, Open Content Alliance (2008)",,,Text,Somersworth (N.H. : Town) -- Appropriations and expenditures -- Periodicals,Somersworth (N.H. : Town),,,eng,"[Somersworth, N.H. : Printed at the Advertiser Office, by G.H. and S.E. Twombly,]|~|University of New Hampshire. Library. Digital Collections.",somersworth_0087+image-low-jpg+image-low.jpg|~|somersworth_0087+image-tb-jpg+image-tb.jpg
Active,somersworth:0088,somersworth,http://www.archive.org/details/receiptsexpendit0001some|~|receiptsexpendit0001some|~|somersworth:0088,"Annual report Somersworth, New Hampshire, 2001",2002,Title varies|~|Imprint varies|~|Report year varies,"University of New Hampshire. Library. Digital Collections.|~|Scanned by Internet Archive, Open Content Alliance (2008)",,,Text,Somersworth (N.H. : Town) -- Appropriations and expenditures -- Periodicals,Somersworth (N.H. : Town),,,eng,"[Somersworth, N.H. : Printed at the Advertiser Office, by G.H. and S.E. Twombly,]|~|University of New Hampshire. Library. Digital Collections.",somersworth_0088+application-pdf+application.pdf|~|somersworth_0088+image-low-jpg+image-low.jpg|~|somersworth_0088+image-tb-jpg+image-tb.jpg
