state,pid,collection,dcterms:identifier,dcterms:title,dcterms:date,dcterms:description,dcterms:contributor,dcterms:rights,dcterms:format,dcterms:type,dcterms:subject,dcterms:creator,dcterms:relation,dcterms:coverage,dcterms:language,dcterms:publisher,files
Active,stark:0001,stark,http://www.archive.org/details/annualreportofto1896star|~|annualreportofto1896star|~|stark:0001,"Annual report of the Town of Stark, New Hampshire, 1896",1896,Title varies|~|Imprint varies|~|Report year varies,"University of New Hampshire. Library. Digital Collections.|~|Scanned by Internet Archive, Open Content Alliance (2010)",,,Text,Stark (N.H. : Town) -- Appropriations and expenditures -- Periodicals,Stark (N.H. : Town),,,Eng,"[Stark, N.H. : The Town]|~|University of New Hampshire. Library. Digital Collections.",stark_0001+application-pdf+application.pdf|~|stark_0001+image-low-jpg+image-low.jpg|~|stark_0001+image-tb-jpg+image-tb.jpg
Active,stark:0002,stark,http://www.archive.org/details/annualreportofto1900star|~|annualreportofto1900star|~|stark:0002,"Annual report of the Town of Stark, New Hampshire, 1900",1900,Title varies|~|Imprint varies|~|Report year varies,"University of New Hampshire. Library. Digital Collections.|~|Scanned by Internet Archive, Open Content Alliance (2010)",,,Text,Stark (N.H. : Town) -- Appropriations and expenditures -- Periodicals,Stark (N.H. : Town),,,Eng,"[Stark, N.H. : The Town]|~|University of New Hampshire. Library. Digital Collections.",stark_0002+application-pdf+application.pdf|~|stark_0002+image-low-jpg+image-low.jpg|~|stark_0002+image-tb-jpg+image-tb.jpg
Active,stark:0003,stark,http://www.archive.org/details/annualreportofto1925star|~|annualreportofto1925star|~|stark:0003,"Annual report of the Town of Stark, New Hampshire, 1925",1925,Title varies|~|Imprint varies|~|Report year varies,"University of New Hampshire. Library. Digital Collections.|~|Scanned by Internet Archive, Open Content Alliance (2010)",,,Text,Stark (N.H. : Town) -- Appropriations and expenditures -- Periodicals,Stark (N.H. : Town),,,Eng,"[Stark, N.H. : The Town]|~|University of New Hampshire. Library. Digital Collections.",stark_0003+application-pdf+application.pdf|~|stark_0003+image-low-jpg+image-low.jpg|~|stark_0003+image-tb-jpg+image-tb.jpg
Active,stark:0004,stark,http://www.archive.org/details/annualreportofto1927star|~|annualreportofto1927star|~|stark:0004,"Annual report of the Town of Stark, New Hampshire, 1927",1927,Title varies|~|Imprint varies|~|Report year varies,"University of New Hampshire. Library. Digital Collections.|~|Scanned by Internet Archive, Open Content Alliance (2010)",,,Text,Stark (N.H. : Town) -- Appropriations and expenditures -- Periodicals,Stark (N.H. : Town),,,Eng,"[Stark, N.H. : The Town]|~|University of New Hampshire. Library. Digital Collections.",stark_0004+application-pdf+application.pdf|~|stark_0004+image-low-jpg+image-low.jpg|~|stark_0004+image-tb-jpg+image-tb.jpg
Active,stark:0005,stark,http://www.archive.org/details/annualreportofto1929star|~|annualreportofto1929star|~|stark:0005,"Annual report of the Town of Stark, New Hampshire, 1929",1929,Title varies|~|Imprint varies|~|Report year varies,"University of New Hampshire. Library. Digital Collections.|~|Scanned by Internet Archive, Open Content Alliance (2010)",,,Text,Stark (N.H. : Town) -- Appropriations and expenditures -- Periodicals,Stark (N.H. : Town),,,Eng,"[Stark, N.H. : The Town]|~|University of New Hampshire. Library. Digital Collections.",stark_0005+application-pdf+application.pdf|~|stark_0005+image-low-jpg+image-low.jpg|~|stark_0005+image-tb-jpg+image-tb.jpg
Active,stark:0006,stark,http://www.archive.org/details/annualreportofto1932star|~|annualreportofto1932star|~|stark:0006,"Annual report of the Town of Stark, New Hampshire, 1932",1932,Title varies|~|Imprint varies|~|Report year varies,"University of New Hampshire. Library. Digital Collections.|~|Scanned by Internet Archive, Open Content Alliance (2010)",,,Text,Stark (N.H. : Town) -- Appropriations and expenditures -- Periodicals,Stark (N.H. : Town),,,Eng,"[Stark, N.H. : The Town]|~|University of New Hampshire. Library. Digital Collections.",stark_0006+application-pdf+application.pdf|~|stark_0006+image-low-jpg+image-low.jpg|~|stark_0006+image-tb-jpg+image-tb.jpg
Active,stark:0007,stark,http://www.archive.org/details/annualreportofto1934star|~|annualreportofto1934star|~|stark:0007,"Annual report of the Town of Stark, New Hampshire, 1934",1934,Title varies|~|Imprint varies|~|Report year varies,"University of New Hampshire. Library. Digital Collections.|~|Scanned by Internet Archive, Open Content Alliance (2010)",,,Text,Stark (N.H. : Town) -- Appropriations and expenditures -- Periodicals,Stark (N.H. : Town),,,Eng,"[Stark, N.H. : The Town]|~|University of New Hampshire. Library. Digital Collections.",stark_0007+application-pdf+application.pdf|~|stark_0007+image-low-jpg+image-low.jpg|~|stark_0007+image-tb-jpg+image-tb.jpg
Active,stark:0008,stark,http://www.archive.org/details/annualreportofto1935star|~|annualreportofto1935star|~|stark:0008,"Annual report of the Town of Stark, New Hampshire, 1935",1935,Title varies|~|Imprint varies|~|Report year varies,"University of New Hampshire. Library. Digital Collections.|~|Scanned by Internet Archive, Open Content Alliance (2010)",,,Text,Stark (N.H. : Town) -- Appropriations and expenditures -- Periodicals,Stark (N.H. : Town),,,Eng,"[Stark, N.H. : The Town]|~|University of New Hampshire. Library. Digital Collections.",stark_0008+application-pdf+application.pdf|~|stark_0008+image-low-jpg+image-low.jpg|~|stark_0008+image-tb-jpg+image-tb.jpg
Active,stark:0009,stark,http://www.archive.org/details/annualreportofto1936star|~|annualreportofto1936star|~|stark:0009,"Annual report of the Town of Stark, New Hampshire, 1936",1936,Title varies|~|Imprint varies|~|Report year varies,"University of New Hampshire. Library. Digital Collections.|~|Scanned by Internet Archive, Open Content Alliance (2010)",,,Text,Stark (N.H. : Town) -- Appropriations and expenditures -- Periodicals,Stark (N.H. : Town),,,Eng,"[Stark, N.H. : The Town]|~|University of New Hampshire. Library. Digital Collections.",stark_0009+application-pdf+application.pdf|~|stark_0009+image-low-jpg+image-low.jpg|~|stark_0009+image-tb-jpg+image-tb.jpg
Active,stark:0010,stark,http://www.archive.org/details/annualreportofto1937star|~|annualreportofto1937star|~|stark:0010,"Annual report of the Town of Stark, New Hampshire, 1937",1937,Title varies|~|Imprint varies|~|Report year varies,"University of New Hampshire. Library. Digital Collections.|~|Scanned by Internet Archive, Open Content Alliance (2010)",,,Text,Stark (N.H. : Town) -- Appropriations and expenditures -- Periodicals,Stark (N.H. : Town),,,Eng,"[Stark, N.H. : The Town]|~|University of New Hampshire. Library. Digital Collections.",stark_0010+application-pdf+application.pdf|~|stark_0010+image-low-jpg+image-low.jpg|~|stark_0010+image-tb-jpg+image-tb.jpg
Active,stark:0011,stark,http://www.archive.org/details/annualreportofto1938star|~|annualreportofto1938star|~|stark:0011,"Annual report of the Town of Stark, New Hampshire, 1938",1938,Title varies|~|Imprint varies|~|Report year varies,"University of New Hampshire. Library. Digital Collections.|~|Scanned by Internet Archive, Open Content Alliance (2010)",,,Text,Stark (N.H. : Town) -- Appropriations and expenditures -- Periodicals,Stark (N.H. : Town),,,Eng,"[Stark, N.H. : The Town]|~|University of New Hampshire. Library. Digital Collections.",stark_0011+application-pdf+application.pdf|~|stark_0011+image-low-jpg+image-low.jpg|~|stark_0011+image-tb-jpg+image-tb.jpg
Active,stark:0012,stark,http://www.archive.org/details/annualreportofto1940star|~|annualreportofto1940star|~|stark:0012,"Annual report of the Town of Stark, New Hampshire, 1940",1940,Title varies|~|Imprint varies|~|Report year varies,"University of New Hampshire. Library. Digital Collections.|~|Scanned by Internet Archive, Open Content Alliance (2010)",,,Text,Stark (N.H. : Town) -- Appropriations and expenditures -- Periodicals,Stark (N.H. : Town),,,Eng,"[Stark, N.H. : The Town]|~|University of New Hampshire. Library. Digital Collections.",stark_0012+application-pdf+application.pdf|~|stark_0012+image-low-jpg+image-low.jpg|~|stark_0012+image-tb-jpg+image-tb.jpg
Active,stark:0013,stark,http://www.archive.org/details/annualreportofto1941star|~|annualreportofto1941star|~|stark:0013,"Annual report of the Town of Stark, New Hampshire, 1941",1941,Title varies|~|Imprint varies|~|Report year varies,"University of New Hampshire. Library. Digital Collections.|~|Scanned by Internet Archive, Open Content Alliance (2010)",,,Text,Stark (N.H. : Town) -- Appropriations and expenditures -- Periodicals,Stark (N.H. : Town),,,Eng,"[Stark, N.H. : The Town]|~|University of New Hampshire. Library. Digital Collections.",stark_0013+application-pdf+application.pdf|~|stark_0013+image-low-jpg+image-low.jpg|~|stark_0013+image-tb-jpg+image-tb.jpg
Active,stark:0014,stark,http://www.archive.org/details/annualreportofto1942star|~|annualreportofto1942star|~|stark:0014,"Annual report of the Town of Stark, New Hampshire, 1942",1942,Title varies|~|Imprint varies|~|Report year varies,"University of New Hampshire. Library. Digital Collections.|~|Scanned by Internet Archive, Open Content Alliance (2010)",,,Text,Stark (N.H. : Town) -- Appropriations and expenditures -- Periodicals,Stark (N.H. : Town),,,Eng,"[Stark, N.H. : The Town]|~|University of New Hampshire. Library. Digital Collections.",stark_0014+application-pdf+application.pdf|~|stark_0014+image-low-jpg+image-low.jpg|~|stark_0014+image-tb-jpg+image-tb.jpg
Active,stark:0015,stark,http://www.archive.org/details/annualreportofto1943star|~|annualreportofto1943star|~|stark:0015,"Annual report of the Town of Stark, New Hampshire, 1943",1943,Title varies|~|Imprint varies|~|Report year varies,"University of New Hampshire. Library. Digital Collections.|~|Scanned by Internet Archive, Open Content Alliance (2010)",,,Text,Stark (N.H. : Town) -- Appropriations and expenditures -- Periodicals,Stark (N.H. : Town),,,Eng,"[Stark, N.H. : The Town]|~|University of New Hampshire. Library. Digital Collections.",stark_0015+application-pdf+application.pdf|~|stark_0015+image-low-jpg+image-low.jpg|~|stark_0015+image-tb-jpg+image-tb.jpg
Active,stark:0016,stark,http://www.archive.org/details/annualreportofto1944star|~|annualreportofto1944star|~|stark:0016,"Annual report of the Town of Stark, New Hampshire, 1944",1945,Title varies|~|Imprint varies|~|Report year varies,"University of New Hampshire. Library. Digital Collections.|~|Scanned by Internet Archive, Open Content Alliance (2010)",,,Text,Stark (N.H. : Town) -- Appropriations and expenditures -- Periodicals,Stark (N.H. : Town),,,Eng,"[Stark, N.H. : The Town]|~|University of New Hampshire. Library. Digital Collections.",stark_0016+application-pdf+application.pdf|~|stark_0016+image-low-jpg+image-low.jpg|~|stark_0016+image-tb-jpg+image-tb.jpg
Active,stark:0017,stark,http://www.archive.org/details/annualreportofto1946star|~|annualreportofto1946star|~|stark:0017,"Annual report of the Town of Stark, New Hampshire, 1946",1947,Title varies|~|Imprint varies|~|Report year varies,"University of New Hampshire. Library. Digital Collections.|~|Scanned by Internet Archive, Open Content Alliance (2010)",,,Text,Stark (N.H. : Town) -- Appropriations and expenditures -- Periodicals,Stark (N.H. : Town),,,Eng,"[Stark, N.H. : The Town]|~|University of New Hampshire. Library. Digital Collections.",stark_0017+application-pdf+application.pdf|~|stark_0017+image-low-jpg+image-low.jpg|~|stark_0017+image-tb-jpg+image-tb.jpg
Active,stark:0018,stark,http://www.archive.org/details/annualreportofto1947star|~|annualreportofto1947star|~|stark:0018,"Annual report of the Town of Stark, New Hampshire, 1947",1948,Title varies|~|Imprint varies|~|Report year varies,"University of New Hampshire. Library. Digital Collections.|~|Scanned by Internet Archive, Open Content Alliance (2010)",,,Text,Stark (N.H. : Town) -- Appropriations and expenditures -- Periodicals,Stark (N.H. : Town),,,Eng,"[Stark, N.H. : The Town]|~|University of New Hampshire. Library. Digital Collections.",stark_0018+application-pdf+application.pdf|~|stark_0018+image-low-jpg+image-low.jpg|~|stark_0018+image-tb-jpg+image-tb.jpg
Active,stark:0019,stark,http://www.archive.org/details/annualreportofto1948star|~|annualreportofto1948star|~|stark:0019,"Annual report of the Town of Stark, New Hampshire, 1948",1949,Title varies|~|Imprint varies|~|Report year varies,"University of New Hampshire. Library. Digital Collections.|~|Scanned by Internet Archive, Open Content Alliance (2010)",,,Text,Stark (N.H. : Town) -- Appropriations and expenditures -- Periodicals,Stark (N.H. : Town),,,Eng,"[Stark, N.H. : The Town]|~|University of New Hampshire. Library. Digital Collections.",stark_0019+application-pdf+application.pdf|~|stark_0019+image-low-jpg+image-low.jpg|~|stark_0019+image-tb-jpg+image-tb.jpg
Active,stark:0020,stark,http://www.archive.org/details/annualreportofto1949star|~|annualreportofto1949star|~|stark:0020,"Annual report of the Town of Stark, New Hampshire, 1949",1950,Title varies|~|Imprint varies|~|Report year varies,"University of New Hampshire. Library. Digital Collections.|~|Scanned by Internet Archive, Open Content Alliance (2010)",,,Text,Stark (N.H. : Town) -- Appropriations and expenditures -- Periodicals,Stark (N.H. : Town),,,Eng,"[Stark, N.H. : The Town]|~|University of New Hampshire. Library. Digital Collections.",stark_0020+application-pdf+application.pdf|~|stark_0020+image-low-jpg+image-low.jpg|~|stark_0020+image-tb-jpg+image-tb.jpg
Active,stark:0021,stark,http://www.archive.org/details/annualreportofto1950star|~|annualreportofto1950star|~|stark:0021,"Annual report of the Town of Stark, New Hampshire, 1950",1951,Title varies|~|Imprint varies|~|Report year varies,"University of New Hampshire. Library. Digital Collections.|~|Scanned by Internet Archive, Open Content Alliance (2010)",,,Text,Stark (N.H. : Town) -- Appropriations and expenditures -- Periodicals,Stark (N.H. : Town),,,Eng,"[Stark, N.H. : The Town]|~|University of New Hampshire. Library. Digital Collections.",stark_0021+application-pdf+application.pdf|~|stark_0021+image-low-jpg+image-low.jpg|~|stark_0021+image-tb-jpg+image-tb.jpg
Active,stark:0022,stark,http://www.archive.org/details/annualreportofto1951star|~|annualreportofto1951star|~|stark:0022,"Annual report of the Town of Stark, New Hampshire, 1951",1952,Title varies|~|Imprint varies|~|Report year varies,"University of New Hampshire. Library. Digital Collections.|~|Scanned by Internet Archive, Open Content Alliance (2010)",,,Text,Stark (N.H. : Town) -- Appropriations and expenditures -- Periodicals,Stark (N.H. : Town),,,Eng,"[Stark, N.H. : The Town]|~|University of New Hampshire. Library. Digital Collections.",stark_0022+application-pdf+application.pdf|~|stark_0022+image-low-jpg+image-low.jpg|~|stark_0022+image-tb-jpg+image-tb.jpg
Active,stark:0023,stark,http://www.archive.org/details/annualreportofto1952star|~|annualreportofto1952star|~|stark:0023,"Annual report of the Town of Stark, New Hampshire, 1952",1953,Title varies|~|Imprint varies|~|Report year varies,"University of New Hampshire. Library. Digital Collections.|~|Scanned by Internet Archive, Open Content Alliance (2010)",,,Text,Stark (N.H. : Town) -- Appropriations and expenditures -- Periodicals,Stark (N.H. : Town),,,Eng,"[Stark, N.H. : The Town]|~|University of New Hampshire. Library. Digital Collections.",stark_0023+application-pdf+application.pdf|~|stark_0023+image-low-jpg+image-low.jpg|~|stark_0023+image-tb-jpg+image-tb.jpg
Active,stark:0024,stark,http://www.archive.org/details/annualreportofto1953star|~|annualreportofto1953star|~|stark:0024,"Annual report of the Town of Stark, New Hampshire, 1953",1954,Title varies|~|Imprint varies|~|Report year varies,"University of New Hampshire. Library. Digital Collections.|~|Scanned by Internet Archive, Open Content Alliance (2010)",,,Text,Stark (N.H. : Town) -- Appropriations and expenditures -- Periodicals,Stark (N.H. : Town),,,Eng,"[Stark, N.H. : The Town]|~|University of New Hampshire. Library. Digital Collections.",stark_0024+application-pdf+application.pdf|~|stark_0024+image-low-jpg+image-low.jpg|~|stark_0024+image-tb-jpg+image-tb.jpg
Active,stark:0025,stark,http://www.archive.org/details/annualreportofto1954star|~|annualreportofto1954star|~|stark:0025,"Annual report of the Town of Stark, New Hampshire, 1954",1955,Title varies|~|Imprint varies|~|Report year varies,"University of New Hampshire. Library. Digital Collections.|~|Scanned by Internet Archive, Open Content Alliance (2010)",,,Text,Stark (N.H. : Town) -- Appropriations and expenditures -- Periodicals,Stark (N.H. : Town),,,Eng,"[Stark, N.H. : The Town]|~|University of New Hampshire. Library. Digital Collections.",stark_0025+application-pdf+application.pdf|~|stark_0025+image-low-jpg+image-low.jpg|~|stark_0025+image-tb-jpg+image-tb.jpg
Active,stark:0026,stark,http://www.archive.org/details/annualreportofto1955star|~|annualreportofto1955star|~|stark:0026,"Annual report of the Town of Stark, New Hampshire, 1955",1956,Title varies|~|Imprint varies|~|Report year varies,"University of New Hampshire. Library. Digital Collections.|~|Scanned by Internet Archive, Open Content Alliance (2010)",,,Text,Stark (N.H. : Town) -- Appropriations and expenditures -- Periodicals,Stark (N.H. : Town),,,Eng,"[Stark, N.H. : The Town]|~|University of New Hampshire. Library. Digital Collections.",stark_0026+application-pdf+application.pdf|~|stark_0026+image-low-jpg+image-low.jpg|~|stark_0026+image-tb-jpg+image-tb.jpg
Active,stark:0027,stark,http://www.archive.org/details/annualreportofto1956star|~|annualreportofto1956star|~|stark:0027,"Annual report of the Town of Stark, New Hampshire, 1956",1957,Title varies|~|Imprint varies|~|Report year varies,"University of New Hampshire. Library. Digital Collections.|~|Scanned by Internet Archive, Open Content Alliance (2010)",,,Text,Stark (N.H. : Town) -- Appropriations and expenditures -- Periodicals,Stark (N.H. : Town),,,Eng,"[Stark, N.H. : The Town]|~|University of New Hampshire. Library. Digital Collections.",stark_0027+application-pdf+application.pdf|~|stark_0027+image-low-jpg+image-low.jpg|~|stark_0027+image-tb-jpg+image-tb.jpg
Active,stark:0028,stark,http://www.archive.org/details/annualreportofto1957star|~|annualreportofto1957star|~|stark:0028,"Annual report of the Town of Stark, New Hampshire, 1957",1958,Title varies|~|Imprint varies|~|Report year varies,"University of New Hampshire. Library. Digital Collections.|~|Scanned by Internet Archive, Open Content Alliance (2010)",,,Text,Stark (N.H. : Town) -- Appropriations and expenditures -- Periodicals,Stark (N.H. : Town),,,Eng,"[Stark, N.H. : The Town]|~|University of New Hampshire. Library. Digital Collections.",stark_0028+application-pdf+application.pdf|~|stark_0028+image-low-jpg+image-low.jpg|~|stark_0028+image-tb-jpg+image-tb.jpg
Active,stark:0029,stark,http://www.archive.org/details/annualreportofto1958star|~|annualreportofto1958star|~|stark:0029,"Annual report of the Town of Stark, New Hampshire, 1958",1959,Title varies|~|Imprint varies|~|Report year varies,"University of New Hampshire. Library. Digital Collections.|~|Scanned by Internet Archive, Open Content Alliance (2010)",,,Text,Stark (N.H. : Town) -- Appropriations and expenditures -- Periodicals,Stark (N.H. : Town),,,Eng,"[Stark, N.H. : The Town]|~|University of New Hampshire. Library. Digital Collections.",stark_0029+application-pdf+application.pdf|~|stark_0029+image-low-jpg+image-low.jpg|~|stark_0029+image-tb-jpg+image-tb.jpg
Active,stark:0030,stark,http://www.archive.org/details/annualreportofto1959star|~|annualreportofto1959star|~|stark:0030,"Annual report of the Town of Stark, New Hampshire, 1959",1960,Title varies|~|Imprint varies|~|Report year varies,"University of New Hampshire. Library. Digital Collections.|~|Scanned by Internet Archive, Open Content Alliance (2010)",,,Text,Stark (N.H. : Town) -- Appropriations and expenditures -- Periodicals,Stark (N.H. : Town),,,Eng,"[Stark, N.H. : The Town]|~|University of New Hampshire. Library. Digital Collections.",stark_0030+application-pdf+application.pdf|~|stark_0030+image-low-jpg+image-low.jpg|~|stark_0030+image-tb-jpg+image-tb.jpg
Active,stark:0031,stark,http://www.archive.org/details/annualreportofto1960star|~|annualreportofto1960star|~|stark:0031,"Annual report of the Town of Stark, New Hampshire, 1960",1961,Title varies|~|Imprint varies|~|Report year varies,"University of New Hampshire. Library. Digital Collections.|~|Scanned by Internet Archive, Open Content Alliance (2010)",,,Text,Stark (N.H. : Town) -- Appropriations and expenditures -- Periodicals,Stark (N.H. : Town),,,Eng,"[Stark, N.H. : The Town]|~|University of New Hampshire. Library. Digital Collections.",stark_0031+application-pdf+application.pdf|~|stark_0031+image-low-jpg+image-low.jpg|~|stark_0031+image-tb-jpg+image-tb.jpg
Active,stark:0032,stark,http://www.archive.org/details/annualreportofto1961star|~|annualreportofto1961star|~|stark:0032,"Annual report of the Town of Stark, New Hampshire, 1961",1962,Title varies|~|Imprint varies|~|Report year varies,"University of New Hampshire. Library. Digital Collections.|~|Scanned by Internet Archive, Open Content Alliance (2010)",,,Text,Stark (N.H. : Town) -- Appropriations and expenditures -- Periodicals,Stark (N.H. : Town),,,Eng,"[Stark, N.H. : The Town]|~|University of New Hampshire. Library. Digital Collections.",stark_0032+application-pdf+application.pdf|~|stark_0032+image-low-jpg+image-low.jpg|~|stark_0032+image-tb-jpg+image-tb.jpg
Active,stark:0033,stark,http://www.archive.org/details/annualreportofto1962star|~|annualreportofto1962star|~|stark:0033,"Annual report of the Town of Stark, New Hampshire, 1962",1963,Title varies|~|Imprint varies|~|Report year varies,"University of New Hampshire. Library. Digital Collections.|~|Scanned by Internet Archive, Open Content Alliance (2010)",,,Text,Stark (N.H. : Town) -- Appropriations and expenditures -- Periodicals,Stark (N.H. : Town),,,Eng,"[Stark, N.H. : The Town]|~|University of New Hampshire. Library. Digital Collections.",stark_0033+application-pdf+application.pdf|~|stark_0033+image-low-jpg+image-low.jpg|~|stark_0033+image-tb-jpg+image-tb.jpg
Active,stark:0034,stark,http://www.archive.org/details/annualreportofto1963star|~|annualreportofto1963star|~|stark:0034,"Annual report of the Town of Stark, New Hampshire, 1963",1964,Title varies|~|Imprint varies|~|Report year varies,"University of New Hampshire. Library. Digital Collections.|~|Scanned by Internet Archive, Open Content Alliance (2010)",,,Text,Stark (N.H. : Town) -- Appropriations and expenditures -- Periodicals,Stark (N.H. : Town),,,Eng,"[Stark, N.H. : The Town]|~|University of New Hampshire. Library. Digital Collections.",stark_0034+application-pdf+application.pdf|~|stark_0034+image-low-jpg+image-low.jpg|~|stark_0034+image-tb-jpg+image-tb.jpg
Active,stark:0035,stark,http://www.archive.org/details/annualreportofto1964star|~|annualreportofto1964star|~|stark:0035,"Annual report of the Town of Stark, New Hampshire, 1964",1965,Title varies|~|Imprint varies|~|Report year varies,"University of New Hampshire. Library. Digital Collections.|~|Scanned by Internet Archive, Open Content Alliance (2010)",,,Text,Stark (N.H. : Town) -- Appropriations and expenditures -- Periodicals,Stark (N.H. : Town),,,Eng,"[Stark, N.H. : The Town]|~|University of New Hampshire. Library. Digital Collections.",stark_0035+application-pdf+application.pdf|~|stark_0035+image-low-jpg+image-low.jpg|~|stark_0035+image-tb-jpg+image-tb.jpg
Active,stark:0036,stark,http://www.archive.org/details/annualreportofto1965star|~|annualreportofto1965star|~|stark:0036,"Annual report of the Town of Stark, New Hampshire, 1965",1966,Title varies|~|Imprint varies|~|Report year varies,"University of New Hampshire. Library. Digital Collections.|~|Scanned by Internet Archive, Open Content Alliance (2010)",,,Text,Stark (N.H. : Town) -- Appropriations and expenditures -- Periodicals,Stark (N.H. : Town),,,Eng,"[Stark, N.H. : The Town]|~|University of New Hampshire. Library. Digital Collections.",stark_0036+application-pdf+application.pdf|~|stark_0036+image-low-jpg+image-low.jpg|~|stark_0036+image-tb-jpg+image-tb.jpg
Active,stark:0037,stark,http://www.archive.org/details/annualreportofto1966star|~|annualreportofto1966star|~|stark:0037,"Annual report of the Town of Stark, New Hampshire, 1966",1967,Title varies|~|Imprint varies|~|Report year varies,"University of New Hampshire. Library. Digital Collections.|~|Scanned by Internet Archive, Open Content Alliance (2010)",,,Text,Stark (N.H. : Town) -- Appropriations and expenditures -- Periodicals,Stark (N.H. : Town),,,Eng,"[Stark, N.H. : The Town]|~|University of New Hampshire. Library. Digital Collections.",stark_0037+application-pdf+application.pdf|~|stark_0037+image-low-jpg+image-low.jpg|~|stark_0037+image-tb-jpg+image-tb.jpg
Active,stark:0038,stark,http://www.archive.org/details/annualreportofto1967star|~|annualreportofto1967star|~|stark:0038,"Annual report of the Town of Stark, New Hampshire, 1967",1968,Title varies|~|Imprint varies|~|Report year varies,"University of New Hampshire. Library. Digital Collections.|~|Scanned by Internet Archive, Open Content Alliance (2010)",,,Text,Stark (N.H. : Town) -- Appropriations and expenditures -- Periodicals,Stark (N.H. : Town),,,Eng,"[Stark, N.H. : The Town]|~|University of New Hampshire. Library. Digital Collections.",stark_0038+application-pdf+application.pdf|~|stark_0038+image-low-jpg+image-low.jpg|~|stark_0038+image-tb-jpg+image-tb.jpg
Active,stark:0039,stark,http://www.archive.org/details/annualreportofto1968star|~|annualreportofto1968star|~|stark:0039,"Annual report of the Town of Stark, New Hampshire, 1968",1969,Title varies|~|Imprint varies|~|Report year varies,"University of New Hampshire. Library. Digital Collections.|~|Scanned by Internet Archive, Open Content Alliance (2010)",,,Text,Stark (N.H. : Town) -- Appropriations and expenditures -- Periodicals,Stark (N.H. : Town),,,Eng,"[Stark, N.H. : The Town]|~|University of New Hampshire. Library. Digital Collections.",stark_0039+application-pdf+application.pdf|~|stark_0039+image-low-jpg+image-low.jpg|~|stark_0039+image-tb-jpg+image-tb.jpg
Active,stark:0040,stark,http://www.archive.org/details/annualreportofto1969star|~|annualreportofto1969star|~|stark:0040,"Annual report of the Town of Stark, New Hampshire, 1969",1970,Title varies|~|Imprint varies|~|Report year varies,"University of New Hampshire. Library. Digital Collections.|~|Scanned by Internet Archive, Open Content Alliance (2010)",,,Text,Stark (N.H. : Town) -- Appropriations and expenditures -- Periodicals,Stark (N.H. : Town),,,Eng,"[Stark, N.H. : The Town]|~|University of New Hampshire. Library. Digital Collections.",stark_0040+application-pdf+application.pdf|~|stark_0040+image-low-jpg+image-low.jpg|~|stark_0040+image-tb-jpg+image-tb.jpg
Active,stark:0041,stark,http://www.archive.org/details/annualreportofto1970star|~|annualreportofto1970star|~|stark:0041,"Annual report of the Town of Stark, New Hampshire, 1970",1971,Title varies|~|Imprint varies|~|Report year varies,"University of New Hampshire. Library. Digital Collections.|~|Scanned by Internet Archive, Open Content Alliance (2010)",,,Text,Stark (N.H. : Town) -- Appropriations and expenditures -- Periodicals,Stark (N.H. : Town),,,Eng,"[Stark, N.H. : The Town]|~|University of New Hampshire. Library. Digital Collections.",stark_0041+application-pdf+application.pdf|~|stark_0041+image-low-jpg+image-low.jpg|~|stark_0041+image-tb-jpg+image-tb.jpg
Active,stark:0042,stark,http://www.archive.org/details/annualreportofto1971star|~|annualreportofto1971star|~|stark:0042,"Annual report of the Town of Stark, New Hampshire, 1971",1972,Title varies|~|Imprint varies|~|Report year varies,"University of New Hampshire. Library. Digital Collections.|~|Scanned by Internet Archive, Open Content Alliance (2010)",,,Text,Stark (N.H. : Town) -- Appropriations and expenditures -- Periodicals,Stark (N.H. : Town),,,Eng,"[Stark, N.H. : The Town]|~|University of New Hampshire. Library. Digital Collections.",stark_0042+application-pdf+application.pdf|~|stark_0042+image-low-jpg+image-low.jpg|~|stark_0042+image-tb-jpg+image-tb.jpg
Active,stark:0043,stark,http://www.archive.org/details/annualreportofto1972star|~|annualreportofto1972star|~|stark:0043,"Annual report of the Town of Stark, New Hampshire, 1972",1973,Title varies|~|Imprint varies|~|Report year varies,"University of New Hampshire. Library. Digital Collections.|~|Scanned by Internet Archive, Open Content Alliance (2010)",,,Text,Stark (N.H. : Town) -- Appropriations and expenditures -- Periodicals,Stark (N.H. : Town),,,Eng,"[Stark, N.H. : The Town]|~|University of New Hampshire. Library. Digital Collections.",stark_0043+application-pdf+application.pdf|~|stark_0043+image-low-jpg+image-low.jpg|~|stark_0043+image-tb-jpg+image-tb.jpg
Active,stark:0044,stark,http://www.archive.org/details/annualreportofto1973star|~|annualreportofto1973star|~|stark:0044,"Annual report of the Town of Stark, New Hampshire, 1973",1974,Title varies|~|Imprint varies|~|Report year varies,"University of New Hampshire. Library. Digital Collections.|~|Scanned by Internet Archive, Open Content Alliance (2010)",,,Text,Stark (N.H. : Town) -- Appropriations and expenditures -- Periodicals,Stark (N.H. : Town),,,Eng,"[Stark, N.H. : The Town]|~|University of New Hampshire. Library. Digital Collections.",stark_0044+application-pdf+application.pdf|~|stark_0044+image-low-jpg+image-low.jpg|~|stark_0044+image-tb-jpg+image-tb.jpg
Active,stark:0045,stark,http://www.archive.org/details/annualreportofto1974star|~|annualreportofto1974star|~|stark:0045,"Annual report of the Town of Stark, New Hampshire, 1974",1975,Title varies|~|Imprint varies|~|Report year varies,"University of New Hampshire. Library. Digital Collections.|~|Scanned by Internet Archive, Open Content Alliance (2010)",,,Text,Stark (N.H. : Town) -- Appropriations and expenditures -- Periodicals,Stark (N.H. : Town),,,Eng,"[Stark, N.H. : The Town]|~|University of New Hampshire. Library. Digital Collections.",stark_0045+application-pdf+application.pdf|~|stark_0045+image-low-jpg+image-low.jpg|~|stark_0045+image-tb-jpg+image-tb.jpg
Active,stark:0046,stark,http://www.archive.org/details/annualreportofto1975star|~|annualreportofto1975star|~|stark:0046,"Annual report of the Town of Stark, New Hampshire, 1975",1976,Title varies|~|Imprint varies|~|Report year varies,"University of New Hampshire. Library. Digital Collections.|~|Scanned by Internet Archive, Open Content Alliance (2010)",,,Text,Stark (N.H. : Town) -- Appropriations and expenditures -- Periodicals,Stark (N.H. : Town),,,Eng,"[Stark, N.H. : The Town]|~|University of New Hampshire. Library. Digital Collections.",stark_0046+application-pdf+application.pdf|~|stark_0046+image-low-jpg+image-low.jpg|~|stark_0046+image-tb-jpg+image-tb.jpg
Active,stark:0047,stark,http://www.archive.org/details/annualreportofto1976star|~|annualreportofto1976star|~|stark:0047,"Annual report of the Town of Stark, New Hampshire, 1976",1977,Title varies|~|Imprint varies|~|Report year varies,"University of New Hampshire. Library. Digital Collections.|~|Scanned by Internet Archive, Open Content Alliance (2010)",,,Text,Stark (N.H. : Town) -- Appropriations and expenditures -- Periodicals,Stark (N.H. : Town),,,Eng,"[Stark, N.H. : The Town]|~|University of New Hampshire. Library. Digital Collections.",stark_0047+application-pdf+application.pdf|~|stark_0047+image-low-jpg+image-low.jpg|~|stark_0047+image-tb-jpg+image-tb.jpg
Active,stark:0048,stark,http://www.archive.org/details/annualreportofto1977star|~|annualreportofto1977star|~|stark:0048,"Annual report of the Town of Stark, New Hampshire, 1977",1978,Title varies|~|Imprint varies|~|Report year varies,"University of New Hampshire. Library. Digital Collections.|~|Scanned by Internet Archive, Open Content Alliance (2010)",,,Text,Stark (N.H. : Town) -- Appropriations and expenditures -- Periodicals,Stark (N.H. : Town),,,Eng,"[Stark, N.H. : The Town]|~|University of New Hampshire. Library. Digital Collections.",stark_0048+application-pdf+application.pdf|~|stark_0048+image-low-jpg+image-low.jpg|~|stark_0048+image-tb-jpg+image-tb.jpg
Active,stark:0049,stark,http://www.archive.org/details/annualreportofto1979star|~|annualreportofto1979star|~|stark:0049,"Annual report of the Town of Stark, New Hampshire, 1979",1980,Title varies|~|Imprint varies|~|Report year varies,"University of New Hampshire. Library. Digital Collections.|~|Scanned by Internet Archive, Open Content Alliance (2010)",,,Text,Stark (N.H. : Town) -- Appropriations and expenditures -- Periodicals,Stark (N.H. : Town),,,Eng,"[Stark, N.H. : The Town]|~|University of New Hampshire. Library. Digital Collections.",stark_0049+application-pdf+application.pdf|~|stark_0049+image-low-jpg+image-low.jpg|~|stark_0049+image-tb-jpg+image-tb.jpg
Active,stark:0050,stark,http://www.archive.org/details/annualreportofto1980star|~|annualreportofto1980star|~|stark:0050,"Annual report of the Town of Stark, New Hampshire, 1980",1981,Title varies|~|Imprint varies|~|Report year varies,"University of New Hampshire. Library. Digital Collections.|~|Scanned by Internet Archive, Open Content Alliance (2010)",,,Text,Stark (N.H. : Town) -- Appropriations and expenditures -- Periodicals,Stark (N.H. : Town),,,Eng,"[Stark, N.H. : The Town]|~|University of New Hampshire. Library. Digital Collections.",stark_0050+application-pdf+application.pdf|~|stark_0050+image-low-jpg+image-low.jpg|~|stark_0050+image-tb-jpg+image-tb.jpg
Active,stark:0051,stark,http://www.archive.org/details/annualreportofto1981star|~|annualreportofto1981star|~|stark:0051,"Annual report of the Town of Stark, New Hampshire, 1981",1982,Title varies|~|Imprint varies|~|Report year varies,"University of New Hampshire. Library. Digital Collections.|~|Scanned by Internet Archive, Open Content Alliance (2010)",,,Text,Stark (N.H. : Town) -- Appropriations and expenditures -- Periodicals,Stark (N.H. : Town),,,Eng,"[Stark, N.H. : The Town]|~|University of New Hampshire. Library. Digital Collections.",stark_0051+application-pdf+application.pdf|~|stark_0051+image-low-jpg+image-low.jpg|~|stark_0051+image-tb-jpg+image-tb.jpg
Active,stark:0052,stark,http://www.archive.org/details/annualreportofto1982star|~|annualreportofto1982star|~|stark:0052,"Annual report of the Town of Stark, New Hampshire, 1982",1983,Title varies|~|Imprint varies|~|Report year varies,"University of New Hampshire. Library. Digital Collections.|~|Scanned by Internet Archive, Open Content Alliance (2010)",,,Text,Stark (N.H. : Town) -- Appropriations and expenditures -- Periodicals,Stark (N.H. : Town),,,Eng,"[Stark, N.H. : The Town]|~|University of New Hampshire. Library. Digital Collections.",stark_0052+application-pdf+application.pdf|~|stark_0052+image-low-jpg+image-low.jpg|~|stark_0052+image-tb-jpg+image-tb.jpg
Active,stark:0053,stark,http://www.archive.org/details/annualreportofto1983star|~|annualreportofto1983star|~|stark:0053,"Annual report of the Town of Stark, New Hampshire, 1983",1984,Title varies|~|Imprint varies|~|Report year varies,"University of New Hampshire. Library. Digital Collections.|~|Scanned by Internet Archive, Open Content Alliance (2010)",,,Text,Stark (N.H. : Town) -- Appropriations and expenditures -- Periodicals,Stark (N.H. : Town),,,Eng,"[Stark, N.H. : The Town]|~|University of New Hampshire. Library. Digital Collections.",stark_0053+application-pdf+application.pdf|~|stark_0053+image-low-jpg+image-low.jpg|~|stark_0053+image-tb-jpg+image-tb.jpg
Active,stark:0054,stark,http://www.archive.org/details/annualreportofto1984star|~|annualreportofto1984star|~|stark:0054,"Annual report of the Town of Stark, New Hampshire, 1984",1985,Title varies|~|Imprint varies|~|Report year varies,"University of New Hampshire. Library. Digital Collections.|~|Scanned by Internet Archive, Open Content Alliance (2010)",,,Text,Stark (N.H. : Town) -- Appropriations and expenditures -- Periodicals,Stark (N.H. : Town),,,Eng,"[Stark, N.H. : The Town]|~|University of New Hampshire. Library. Digital Collections.",stark_0054+application-pdf+application.pdf|~|stark_0054+image-low-jpg+image-low.jpg|~|stark_0054+image-tb-jpg+image-tb.jpg
Active,stark:0055,stark,http://www.archive.org/details/annualreportofto1985star|~|annualreportofto1985star|~|stark:0055,"Annual report of the Town of Stark, New Hampshire, 1985",1986,Title varies|~|Imprint varies|~|Report year varies,"University of New Hampshire. Library. Digital Collections.|~|Scanned by Internet Archive, Open Content Alliance (2010)",,,Text,Stark (N.H. : Town) -- Appropriations and expenditures -- Periodicals,Stark (N.H. : Town),,,Eng,"[Stark, N.H. : The Town]|~|University of New Hampshire. Library. Digital Collections.",stark_0055+application-pdf+application.pdf|~|stark_0055+image-low-jpg+image-low.jpg|~|stark_0055+image-tb-jpg+image-tb.jpg
Active,stark:0056,stark,http://www.archive.org/details/annualreportofto1987star|~|annualreportofto1987star|~|stark:0056,"Annual report of the Town of Stark, New Hampshire, 1987",1988,Title varies|~|Imprint varies|~|Report year varies,"University of New Hampshire. Library. Digital Collections.|~|Scanned by Internet Archive, Open Content Alliance (2010)",,,Text,Stark (N.H. : Town) -- Appropriations and expenditures -- Periodicals,Stark (N.H. : Town),,,Eng,"[Stark, N.H. : The Town]|~|University of New Hampshire. Library. Digital Collections.",stark_0056+application-pdf+application.pdf|~|stark_0056+image-low-jpg+image-low.jpg|~|stark_0056+image-tb-jpg+image-tb.jpg
Active,stark:0057,stark,http://www.archive.org/details/annualreportofto1988star|~|annualreportofto1988star|~|stark:0057,"Annual report of the Town of Stark, New Hampshire, 1988",1989,Title varies|~|Imprint varies|~|Report year varies,"University of New Hampshire. Library. Digital Collections.|~|Scanned by Internet Archive, Open Content Alliance (2010)",,,Text,Stark (N.H. : Town) -- Appropriations and expenditures -- Periodicals,Stark (N.H. : Town),,,Eng,"[Stark, N.H. : The Town]|~|University of New Hampshire. Library. Digital Collections.",stark_0057+application-pdf+application.pdf|~|stark_0057+image-low-jpg+image-low.jpg|~|stark_0057+image-tb-jpg+image-tb.jpg
Active,stark:0058,stark,http://www.archive.org/details/annualreportofto1989star|~|annualreportofto1989star|~|stark:0058,"Annual report of the Town of Stark, New Hampshire, 1989",1990,Title varies|~|Imprint varies|~|Report year varies,"University of New Hampshire. Library. Digital Collections.|~|Scanned by Internet Archive, Open Content Alliance (2010)",,,Text,Stark (N.H. : Town) -- Appropriations and expenditures -- Periodicals,Stark (N.H. : Town),,,Eng,"[Stark, N.H. : The Town]|~|University of New Hampshire. Library. Digital Collections.",stark_0058+application-pdf+application.pdf|~|stark_0058+image-low-jpg+image-low.jpg|~|stark_0058+image-tb-jpg+image-tb.jpg
Active,stark:0059,stark,http://www.archive.org/details/annualreportofto1990star|~|annualreportofto1990star|~|stark:0059,"Annual report of the Town of Stark, New Hampshire, 1990",1991,Title varies|~|Imprint varies|~|Report year varies,"University of New Hampshire. Library. Digital Collections.|~|Scanned by Internet Archive, Open Content Alliance (2010)",,,Text,Stark (N.H. : Town) -- Appropriations and expenditures -- Periodicals,Stark (N.H. : Town),,,Eng,"[Stark, N.H. : The Town]|~|University of New Hampshire. Library. Digital Collections.",stark_0059+application-pdf+application.pdf|~|stark_0059+image-low-jpg+image-low.jpg|~|stark_0059+image-tb-jpg+image-tb.jpg
Active,stark:0060,stark,http://www.archive.org/details/annualreportofto1991star|~|annualreportofto1991star|~|stark:0060,"Annual report of the Town of Stark, New Hampshire, 1991",1992,Title varies|~|Imprint varies|~|Report year varies,"University of New Hampshire. Library. Digital Collections.|~|Scanned by Internet Archive, Open Content Alliance (2010)",,,Text,Stark (N.H. : Town) -- Appropriations and expenditures -- Periodicals,Stark (N.H. : Town),,,Eng,"[Stark, N.H. : The Town]|~|University of New Hampshire. Library. Digital Collections.",stark_0060+application-pdf+application.pdf|~|stark_0060+image-low-jpg+image-low.jpg|~|stark_0060+image-tb-jpg+image-tb.jpg
Active,stark:0061,stark,http://www.archive.org/details/annualreportofto1992star|~|annualreportofto1992star|~|stark:0061,"Annual report of the Town of Stark, New Hampshire, 1992",1993,Title varies|~|Imprint varies|~|Report year varies,"University of New Hampshire. Library. Digital Collections.|~|Scanned by Internet Archive, Open Content Alliance (2010)",,,Text,Stark (N.H. : Town) -- Appropriations and expenditures -- Periodicals,Stark (N.H. : Town),,,Eng,"[Stark, N.H. : The Town]|~|University of New Hampshire. Library. Digital Collections.",stark_0061+application-pdf+application.pdf|~|stark_0061+image-low-jpg+image-low.jpg|~|stark_0061+image-tb-jpg+image-tb.jpg
Active,stark:0062,stark,http://www.archive.org/details/annualreportofto1994star|~|annualreportofto1994star|~|stark:0062,"Annual report of the Town of Stark, New Hampshire, 1994",1995,Title varies|~|Imprint varies|~|Report year varies,"University of New Hampshire. Library. Digital Collections.|~|Scanned by Internet Archive, Open Content Alliance (2010)",,,Text,Stark (N.H. : Town) -- Appropriations and expenditures -- Periodicals,Stark (N.H. : Town),,,Eng,"[Stark, N.H. : The Town]|~|University of New Hampshire. Library. Digital Collections.",stark_0062+application-pdf+application.pdf|~|stark_0062+image-low-jpg+image-low.jpg|~|stark_0062+image-tb-jpg+image-tb.jpg
Active,stark:0063,stark,http://www.archive.org/details/annualreportofto1995star|~|annualreportofto1995star|~|stark:0063,"Annual report of the Town of Stark, New Hampshire, 1995",1996,Title varies|~|Imprint varies|~|Report year varies,"University of New Hampshire. Library. Digital Collections.|~|Scanned by Internet Archive, Open Content Alliance (2010)",,,Text,Stark (N.H. : Town) -- Appropriations and expenditures -- Periodicals,Stark (N.H. : Town),,,Eng,"[Stark, N.H. : The Town]|~|University of New Hampshire. Library. Digital Collections.",stark_0063+application-pdf+application.pdf|~|stark_0063+image-low-jpg+image-low.jpg|~|stark_0063+image-tb-jpg+image-tb.jpg
Active,stark:0064,stark,http://www.archive.org/details/annualreportofto1996star|~|annualreportofto1996star|~|stark:0064,"Annual report of the Town of Stark, New Hampshire, 1996",1997,Title varies|~|Imprint varies|~|Report year varies,"University of New Hampshire. Library. Digital Collections.|~|Scanned by Internet Archive, Open Content Alliance (2010)",,,Text,Stark (N.H. : Town) -- Appropriations and expenditures -- Periodicals,Stark (N.H. : Town),,,Eng,"[Stark, N.H. : The Town]|~|University of New Hampshire. Library. Digital Collections.",stark_0064+application-pdf+application.pdf|~|stark_0064+image-low-jpg+image-low.jpg|~|stark_0064+image-tb-jpg+image-tb.jpg
Active,stark:0065,stark,http://www.archive.org/details/annualreportofto1997star|~|annualreportofto1997star|~|stark:0065,"Annual report of the Town of Stark, New Hampshire, 1997",1998,Title varies|~|Imprint varies|~|Report year varies,"University of New Hampshire. Library. Digital Collections.|~|Scanned by Internet Archive, Open Content Alliance (2010)",,,Text,Stark (N.H. : Town) -- Appropriations and expenditures -- Periodicals,Stark (N.H. : Town),,,Eng,"[Stark, N.H. : The Town]|~|University of New Hampshire. Library. Digital Collections.",stark_0065+application-pdf+application.pdf|~|stark_0065+image-low-jpg+image-low.jpg|~|stark_0065+image-tb-jpg+image-tb.jpg
Active,stark:0066,stark,http://www.archive.org/details/annualreportofto1998star|~|annualreportofto1998star|~|stark:0066,"Annual report of the Town of Stark, New Hampshire, 1998",1999,Title varies|~|Imprint varies|~|Report year varies,"University of New Hampshire. Library. Digital Collections.|~|Scanned by Internet Archive, Open Content Alliance (2010)",,,Text,Stark (N.H. : Town) -- Appropriations and expenditures -- Periodicals,Stark (N.H. : Town),,,Eng,"[Stark, N.H. : The Town]|~|University of New Hampshire. Library. Digital Collections.",stark_0066+application-pdf+application.pdf|~|stark_0066+image-low-jpg+image-low.jpg|~|stark_0066+image-tb-jpg+image-tb.jpg
Active,stark:0067,stark,http://www.archive.org/details/annualreportofto1999star|~|annualreportofto1999star|~|stark:0067,"Annual report of the Town of Stark, New Hampshire, 1999",2000,Title varies|~|Imprint varies|~|Report year varies,"University of New Hampshire. Library. Digital Collections.|~|Scanned by Internet Archive, Open Content Alliance (2010)",,,Text,Stark (N.H. : Town) -- Appropriations and expenditures -- Periodicals,Stark (N.H. : Town),,,Eng,"[Stark, N.H. : The Town]|~|University of New Hampshire. Library. Digital Collections.",stark_0067+application-pdf+application.pdf|~|stark_0067+image-low-jpg+image-low.jpg|~|stark_0067+image-tb-jpg+image-tb.jpg
Active,stark:0068,stark,http://www.archive.org/details/annualreportofto2000star|~|annualreportofto2000star|~|stark:0068,"Annual report of the Town of Stark, New Hampshire, 2000",2001,Title varies|~|Imprint varies|~|Report year varies,"University of New Hampshire. Library. Digital Collections.|~|Scanned by Internet Archive, Open Content Alliance (2010)",,,Text,Stark (N.H. : Town) -- Appropriations and expenditures -- Periodicals,Stark (N.H. : Town),,,Eng,"[Stark, N.H. : The Town]|~|University of New Hampshire. Library. Digital Collections.",stark_0068+application-pdf+application.pdf|~|stark_0068+image-low-jpg+image-low.jpg|~|stark_0068+image-tb-jpg+image-tb.jpg
Active,stark:0069,stark,http://www.archive.org/details/annualreportofto2001star|~|annualreportofto2001star|~|stark:0069,"Annual report of the Town of Stark, New Hampshire, 2001",2002,Title varies|~|Imprint varies|~|Report year varies,"University of New Hampshire. Library. Digital Collections.|~|Scanned by Internet Archive, Open Content Alliance (2010)",,,Text,Stark (N.H. : Town) -- Appropriations and expenditures -- Periodicals,Stark (N.H. : Town),,,Eng,"[Stark, N.H. : The Town]|~|University of New Hampshire. Library. Digital Collections.",stark_0069+application-pdf+application.pdf|~|stark_0069+image-low-jpg+image-low.jpg|~|stark_0069+image-tb-jpg+image-tb.jpg
Active,stark:0070,stark,http://www.archive.org/details/annualreportofto2003star|~|annualreportofto2003star|~|stark:0070,"Annual report of the Town of Stark, New Hampshire, 2003",2004,Title varies|~|Imprint varies|~|Report year varies,"University of New Hampshire. Library. Digital Collections.|~|Scanned by Internet Archive, Open Content Alliance (2010)",,,Text,Stark (N.H. : Town) -- Appropriations and expenditures -- Periodicals,Stark (N.H. : Town),,,Eng,"[Stark, N.H. : The Town]|~|University of New Hampshire. Library. Digital Collections.",stark_0070+application-pdf+application.pdf|~|stark_0070+image-low-jpg+image-low.jpg|~|stark_0070+image-tb-jpg+image-tb.jpg
Active,stark:0071,stark,http://www.archive.org/details/annualreportofto2004star|~|annualreportofto2004star|~|stark:0071,"Annual report of the Town of Stark, New Hampshire, 2004",2005,Title varies|~|Imprint varies|~|Report year varies,"University of New Hampshire. Library. Digital Collections.|~|Scanned by Internet Archive, Open Content Alliance (2010)",,,Text,Stark (N.H. : Town) -- Appropriations and expenditures -- Periodicals,Stark (N.H. : Town),,,Eng,"[Stark, N.H. : The Town]|~|University of New Hampshire. Library. Digital Collections.",stark_0071+application-pdf+application.pdf|~|stark_0071+image-low-jpg+image-low.jpg|~|stark_0071+image-tb-jpg+image-tb.jpg
Active,stark:0072,stark,http://www.archive.org/details/annualreportofto2006star|~|annualreportofto2006star|~|stark:0072,"Annual report of the Town of Stark, New Hampshire, 2006",2007,Title varies|~|Imprint varies|~|Report year varies,"University of New Hampshire. Library. Digital Collections.|~|Scanned by Internet Archive, Open Content Alliance (2010)",,,Text,Stark (N.H. : Town) -- Appropriations and expenditures -- Periodicals,Stark (N.H. : Town),,,Eng,"[Stark, N.H. : The Town]|~|University of New Hampshire. Library. Digital Collections.",stark_0072+application-pdf+application.pdf|~|stark_0072+image-low-jpg+image-low.jpg|~|stark_0072+image-tb-jpg+image-tb.jpg
Active,stark:0073,stark,http://www.archive.org/details/annualreportofto2007star|~|annualreportofto2007star|~|stark:0073,"Annual report of the Town of Stark, New Hampshire, 2007",2008,Title varies|~|Imprint varies|~|Report year varies,"University of New Hampshire. Library. Digital Collections.|~|Scanned by Internet Archive, Open Content Alliance (2010)",,,Text,Stark (N.H. : Town) -- Appropriations and expenditures -- Periodicals,Stark (N.H. : Town),,,Eng,"[Stark, N.H. : The Town]|~|University of New Hampshire. Library. Digital Collections.",stark_0073+application-pdf+application.pdf|~|stark_0073+image-low-jpg+image-low.jpg|~|stark_0073+image-tb-jpg+image-tb.jpg
Active,stark:0074,stark,http://www.archive.org/details/annualreportofto2008star|~|annualreportofto2008star|~|stark:0074,"Annual report of the Town of Stark, New Hampshire, 2008",2009,Title varies|~|Imprint varies|~|Report year varies,"University of New Hampshire. Library. Digital Collections.|~|Scanned by Internet Archive, Open Content Alliance (2010)",,,Text,Stark (N.H. : Town) -- Appropriations and expenditures -- Periodicals,Stark (N.H. : Town),,,Eng,"[Stark, N.H. : The Town]|~|University of New Hampshire. Library. Digital Collections.",stark_0074+application-pdf+application.pdf|~|stark_0074+image-low-jpg+image-low.jpg|~|stark_0074+image-tb-jpg+image-tb.jpg
