state,pid,collection,dcterms:identifier,dcterms:title,dcterms:date,dcterms:description,dcterms:contributor,dcterms:rights,dcterms:format,dcterms:type,dcterms:subject,dcterms:creator,dcterms:relation,dcterms:coverage,dcterms:language,dcterms:publisher,files
Active,temple:0001,temple,http://www.archive.org/details/annualreportofto1962temp|~|temple:0001,"Annual report of the Town of Temple, New Hampshire, 1962",1963,Title varies|~|Imprint varies|~|Report year varies,"University of New Hampshire. Library. Digital Collections.|~|Scanned by Internet Archive, Open Content Alliance (2013)",,,Text,Temple (N.H. : Town) -- Appropriations and expenditures -- Periodicals,Temple (N.H. : Town),,,Eng,"[Temple, N.H. : The Town]|~|Temple (N.H. : Town)",temple_0001+application-pdf+application.pdf|~|temple_0001+image-low-jpg+image-low.jpg|~|temple_0001+image-tb-jpg+image-tb.jpg
Active,temple:0002,temple,http://www.archive.org/details/annualreportofto1963temp|~|temple:0002,"Annual report of the Town of Temple, New Hampshire, 1963",1964,Title varies|~|Imprint varies|~|Report year varies,"University of New Hampshire. Library. Digital Collections.|~|Scanned by Internet Archive, Open Content Alliance (2013)",,,Text,Temple (N.H. : Town) -- Appropriations and expenditures -- Periodicals,Temple (N.H. : Town),,,Eng,"[Temple, N.H. : The Town]|~|Temple (N.H. : Town)",temple_0002+application-pdf+application.pdf|~|temple_0002+image-low-jpg+image-low.jpg|~|temple_0002+image-tb-jpg+image-tb.jpg
Active,temple:0003,temple,http://www.archive.org/details/annualreportofto1965temp|~|temple:0003,"Annual report of the Town of Temple, New Hampshire, 1965",1966,Title varies|~|Imprint varies|~|Report year varies,"University of New Hampshire. Library. Digital Collections.|~|Scanned by Internet Archive, Open Content Alliance (2013)",,,Text,Temple (N.H. : Town) -- Appropriations and expenditures -- Periodicals,Temple (N.H. : Town),,,Eng,"[Temple, N.H. : The Town]|~|Temple (N.H. : Town)",temple_0003+application-pdf+application.pdf|~|temple_0003+image-low-jpg+image-low.jpg|~|temple_0003+image-tb-jpg+image-tb.jpg
Active,temple:0004,temple,http://www.archive.org/details/annualreportofto1966temp|~|temple:0004,"Annual report of the Town of Temple, New Hampshire, 1966",1967,Title varies|~|Imprint varies|~|Report year varies,"University of New Hampshire. Library. Digital Collections.|~|Scanned by Internet Archive, Open Content Alliance (2013)",,,Text,Temple (N.H. : Town) -- Appropriations and expenditures -- Periodicals,Temple (N.H. : Town),,,Eng,"[Temple, N.H. : The Town]|~|Temple (N.H. : Town)",temple_0004+application-pdf+application.pdf|~|temple_0004+image-low-jpg+image-low.jpg|~|temple_0004+image-tb-jpg+image-tb.jpg
Active,temple:0005,temple,http://www.archive.org/details/annualreportofto2003temp|~|temple:0005,"Annual report of the Town of Temple, New Hampshire, 2003",2004,Title varies|~|Imprint varies|~|Report year varies,"University of New Hampshire. Library. Digital Collections.|~|Scanned by Internet Archive, Open Content Alliance (2013)",,,Text,Temple (N.H. : Town) -- Appropriations and expenditures -- Periodicals,Temple (N.H. : Town),,,Eng,"[Temple, N.H. : The Town]|~|Temple (N.H. : Town)",temple_0005+application-pdf+application.pdf|~|temple_0005+image-low-jpg+image-low.jpg|~|temple_0005+image-tb-jpg+image-tb.jpg
