state,pid,collection,dcterms:identifier,dcterms:title,dcterms:date,dcterms:description,dcterms:contributor,dcterms:rights,dcterms:format,dcterms:type,dcterms:subject,dcterms:creator,dcterms:relation,dcterms:coverage,dcterms:language,dcterms:publisher,files
Active,thornton:0001,thornton,http://www.archive.org/details/annualreportofto1975thor|~|thornton:0001,"Annual report of the Town of Thornton, New Hampshire, 1975",1976,Title varies|~|Imprint varies|~|Report year varies,"University of New Hampshire. Library. Digital Collections.|~|Scanned by Internet Archive, Open Content Alliance (2013)",,,Text,Thornton (N.H. : Town) -- Appropriations and expenditures -- Periodicals,Thornton (N.H. : Town),,,Eng,"[Thornton, N.H. : The Town]|~|Thornton (N.H. : Town)",thornton_0001+application-pdf+application.pdf|~|thornton_0001+image-low-jpg+image-low.jpg|~|thornton_0001+image-tb-jpg+image-tb.jpg
Active,thornton:0002,thornton,http://www.archive.org/details/annualreportofto1976thor|~|thornton:0002,"Annual report of the Town of Thornton, New Hampshire, 1976",1977,Title varies|~|Imprint varies|~|Report year varies,"University of New Hampshire. Library. Digital Collections.|~|Scanned by Internet Archive, Open Content Alliance (2013)",,,Text,Thornton (N.H. : Town) -- Appropriations and expenditures -- Periodicals,Thornton (N.H. : Town),,,Eng,"[Thornton, N.H. : The Town]|~|Thornton (N.H. : Town)",thornton_0002+application-pdf+application.pdf|~|thornton_0002+image-low-jpg+image-low.jpg|~|thornton_0002+image-tb-jpg+image-tb.jpg
Active,thornton:0003,thornton,http://www.archive.org/details/annualreportofto1977thor|~|thornton:0003,"Annual report of the Town of Thornton, New Hampshire, 1977",1978,Title varies|~|Imprint varies|~|Report year varies,"University of New Hampshire. Library. Digital Collections.|~|Scanned by Internet Archive, Open Content Alliance (2013)",,,Text,Thornton (N.H. : Town) -- Appropriations and expenditures -- Periodicals,Thornton (N.H. : Town),,,Eng,"[Thornton, N.H. : The Town]|~|Thornton (N.H. : Town)",thornton_0003+application-pdf+application.pdf|~|thornton_0003+image-low-jpg+image-low.jpg|~|thornton_0003+image-tb-jpg+image-tb.jpg
Active,thornton:0004,thornton,http://www.archive.org/details/annualreportofto1978thor|~|thornton:0004,"Annual report of the Town of Thornton, New Hampshire, 1978",1979,Title varies|~|Imprint varies|~|Report year varies,"University of New Hampshire. Library. Digital Collections.|~|Scanned by Internet Archive, Open Content Alliance (2013)",,,Text,Thornton (N.H. : Town) -- Appropriations and expenditures -- Periodicals,Thornton (N.H. : Town),,,Eng,"[Thornton, N.H. : The Town]|~|Thornton (N.H. : Town)",thornton_0004+application-pdf+application.pdf|~|thornton_0004+image-low-jpg+image-low.jpg|~|thornton_0004+image-tb-jpg+image-tb.jpg
Active,thornton:0005,thornton,http://www.archive.org/details/annualreportofto1979thor|~|thornton:0005,"Annual report of the Town of Thornton, New Hampshire, 1979",1980,Title varies|~|Imprint varies|~|Report year varies,"University of New Hampshire. Library. Digital Collections.|~|Scanned by Internet Archive, Open Content Alliance (2013)",,,Text,Thornton (N.H. : Town) -- Appropriations and expenditures -- Periodicals,Thornton (N.H. : Town),,,Eng,"[Thornton, N.H. : The Town]|~|Thornton (N.H. : Town)",thornton_0005+application-pdf+application.pdf|~|thornton_0005+image-low-jpg+image-low.jpg|~|thornton_0005+image-tb-jpg+image-tb.jpg
Active,thornton:0006,thornton,http://www.archive.org/details/annualreportofto1980thor|~|thornton:0006,"Annual report of the Town of Thornton, New Hampshire, 1980",1981,Title varies|~|Imprint varies|~|Report year varies,"University of New Hampshire. Library. Digital Collections.|~|Scanned by Internet Archive, Open Content Alliance (2013)",,,Text,Thornton (N.H. : Town) -- Appropriations and expenditures -- Periodicals,Thornton (N.H. : Town),,,Eng,"[Thornton, N.H. : The Town]|~|Thornton (N.H. : Town)",thornton_0006+application-pdf+application.pdf|~|thornton_0006+image-low-jpg+image-low.jpg|~|thornton_0006+image-tb-jpg+image-tb.jpg
Active,thornton:0007,thornton,http://www.archive.org/details/annualreportofto1981thor|~|thornton:0007,"Annual report of the Town of Thornton, New Hampshire, 1981",1982,Title varies|~|Imprint varies|~|Report year varies,"University of New Hampshire. Library. Digital Collections.|~|Scanned by Internet Archive, Open Content Alliance (2013)",,,Text,Thornton (N.H. : Town) -- Appropriations and expenditures -- Periodicals,Thornton (N.H. : Town),,,Eng,"[Thornton, N.H. : The Town]|~|Thornton (N.H. : Town)",thornton_0007+application-pdf+application.pdf|~|thornton_0007+image-low-jpg+image-low.jpg|~|thornton_0007+image-tb-jpg+image-tb.jpg
Active,thornton:0008,thornton,http://www.archive.org/details/annualreportofto1982thor|~|thornton:0008,"Annual report of the Town of Thornton, New Hampshire, 1982",1983,Title varies|~|Imprint varies|~|Report year varies,"University of New Hampshire. Library. Digital Collections.|~|Scanned by Internet Archive, Open Content Alliance (2013)",,,Text,Thornton (N.H. : Town) -- Appropriations and expenditures -- Periodicals,Thornton (N.H. : Town),,,Eng,"[Thornton, N.H. : The Town]|~|Thornton (N.H. : Town)",thornton_0008+application-pdf+application.pdf|~|thornton_0008+image-low-jpg+image-low.jpg|~|thornton_0008+image-tb-jpg+image-tb.jpg
Active,thornton:0009,thornton,http://www.archive.org/details/annualreportofto1983thor|~|thornton:0009,"Annual report of the Town of Thornton, New Hampshire, 1983",1984,Title varies|~|Imprint varies|~|Report year varies,"University of New Hampshire. Library. Digital Collections.|~|Scanned by Internet Archive, Open Content Alliance (2013)",,,Text,Thornton (N.H. : Town) -- Appropriations and expenditures -- Periodicals,Thornton (N.H. : Town),,,Eng,"[Thornton, N.H. : The Town]|~|Thornton (N.H. : Town)",thornton_0009+application-pdf+application.pdf|~|thornton_0009+image-low-jpg+image-low.jpg|~|thornton_0009+image-tb-jpg+image-tb.jpg
Active,thornton:0010,thornton,http://www.archive.org/details/annualreportofto1984thor|~|thornton:0010,"Annual report of the Town of Thornton, New Hampshire, 1984",1985,Title varies|~|Imprint varies|~|Report year varies,"University of New Hampshire. Library. Digital Collections.|~|Scanned by Internet Archive, Open Content Alliance (2013)",,,Text,Thornton (N.H. : Town) -- Appropriations and expenditures -- Periodicals,Thornton (N.H. : Town),,,Eng,"[Thornton, N.H. : The Town]|~|Thornton (N.H. : Town)",thornton_0010+application-pdf+application.pdf|~|thornton_0010+image-low-jpg+image-low.jpg|~|thornton_0010+image-tb-jpg+image-tb.jpg
Active,thornton:0011,thornton,http://www.archive.org/details/annualreportofto1985thor|~|thornton:0011,"Annual report of the Town of Thornton, New Hampshire, 1985",1986,Title varies|~|Imprint varies|~|Report year varies,"University of New Hampshire. Library. Digital Collections.|~|Scanned by Internet Archive, Open Content Alliance (2013)",,,Text,Thornton (N.H. : Town) -- Appropriations and expenditures -- Periodicals,Thornton (N.H. : Town),,,Eng,"[Thornton, N.H. : The Town]|~|Thornton (N.H. : Town)",thornton_0011+application-pdf+application.pdf|~|thornton_0011+image-low-jpg+image-low.jpg|~|thornton_0011+image-tb-jpg+image-tb.jpg
Active,thornton:0012,thornton,http://www.archive.org/details/annualreportofto1989thor|~|thornton:0012,"Annual report of the Town of Thornton, New Hampshire, 1989",1990,Title varies|~|Imprint varies|~|Report year varies,"University of New Hampshire. Library. Digital Collections.|~|Scanned by Internet Archive, Open Content Alliance (2013)",,,Text,Thornton (N.H. : Town) -- Appropriations and expenditures -- Periodicals,Thornton (N.H. : Town),,,Eng,"[Thornton, N.H. : The Town]|~|Thornton (N.H. : Town)",thornton_0012+application-pdf+application.pdf|~|thornton_0012+image-low-jpg+image-low.jpg|~|thornton_0012+image-tb-jpg+image-tb.jpg
Active,thornton:0013,thornton,http://www.archive.org/details/annualreportofto1990thor|~|thornton:0013,"Annual report of the Town of Thornton, New Hampshire, 1990",1991,Title varies|~|Imprint varies|~|Report year varies,"University of New Hampshire. Library. Digital Collections.|~|Scanned by Internet Archive, Open Content Alliance (2013)",,,Text,Thornton (N.H. : Town) -- Appropriations and expenditures -- Periodicals,Thornton (N.H. : Town),,,Eng,"[Thornton, N.H. : The Town]|~|Thornton (N.H. : Town)",thornton_0013+application-pdf+application.pdf|~|thornton_0013+image-low-jpg+image-low.jpg|~|thornton_0013+image-tb-jpg+image-tb.jpg
Active,thornton:0014,thornton,http://www.archive.org/details/annualreportofto1991thor|~|thornton:0014,"Annual report of the Town of Thornton, New Hampshire, 1991",1992,Title varies|~|Imprint varies|~|Report year varies,"University of New Hampshire. Library. Digital Collections.|~|Scanned by Internet Archive, Open Content Alliance (2013)",,,Text,Thornton (N.H. : Town) -- Appropriations and expenditures -- Periodicals,Thornton (N.H. : Town),,,Eng,"[Thornton, N.H. : The Town]|~|Thornton (N.H. : Town)",thornton_0014+application-pdf+application.pdf|~|thornton_0014+image-low-jpg+image-low.jpg|~|thornton_0014+image-tb-jpg+image-tb.jpg
Active,thornton:0015,thornton,http://www.archive.org/details/annualreportofto1992thor|~|thornton:0015,"Annual report of the Town of Thornton, New Hampshire, 1992",1993,Title varies|~|Imprint varies|~|Report year varies,"University of New Hampshire. Library. Digital Collections.|~|Scanned by Internet Archive, Open Content Alliance (2013)",,,Text,Thornton (N.H. : Town) -- Appropriations and expenditures -- Periodicals,Thornton (N.H. : Town),,,Eng,"[Thornton, N.H. : The Town]|~|Thornton (N.H. : Town)",thornton_0015+application-pdf+application.pdf|~|thornton_0015+image-low-jpg+image-low.jpg|~|thornton_0015+image-tb-jpg+image-tb.jpg
Active,thornton:0016,thornton,http://www.archive.org/details/annualreportofto1993thor|~|thornton:0016,"Annual report of the Town of Thornton, New Hampshire, 1993",1994,Title varies|~|Imprint varies|~|Report year varies,"University of New Hampshire. Library. Digital Collections.|~|Scanned by Internet Archive, Open Content Alliance (2013)",,,Text,Thornton (N.H. : Town) -- Appropriations and expenditures -- Periodicals,Thornton (N.H. : Town),,,Eng,"[Thornton, N.H. : The Town]|~|Thornton (N.H. : Town)",thornton_0016+application-pdf+application.pdf|~|thornton_0016+image-low-jpg+image-low.jpg|~|thornton_0016+image-tb-jpg+image-tb.jpg
Active,thornton:0017,thornton,http://www.archive.org/details/annualreportofto1994thor|~|thornton:0017,"Annual report of the Town of Thornton, New Hampshire, 1994",1995,Title varies|~|Imprint varies|~|Report year varies,"University of New Hampshire. Library. Digital Collections.|~|Scanned by Internet Archive, Open Content Alliance (2013)",,,Text,Thornton (N.H. : Town) -- Appropriations and expenditures -- Periodicals,Thornton (N.H. : Town),,,Eng,"[Thornton, N.H. : The Town]|~|Thornton (N.H. : Town)",thornton_0017+application-pdf+application.pdf|~|thornton_0017+image-low-jpg+image-low.jpg|~|thornton_0017+image-tb-jpg+image-tb.jpg
Active,thornton:0018,thornton,http://www.archive.org/details/annualreportofto1996thor|~|thornton:0018,"Annual report of the Town of Thornton, New Hampshire, 1996",1997,Title varies|~|Imprint varies|~|Report year varies,"University of New Hampshire. Library. Digital Collections.|~|Scanned by Internet Archive, Open Content Alliance (2013)",,,Text,Thornton (N.H. : Town) -- Appropriations and expenditures -- Periodicals,Thornton (N.H. : Town),,,Eng,"[Thornton, N.H. : The Town]|~|Thornton (N.H. : Town)",thornton_0018+application-pdf+application.pdf|~|thornton_0018+image-low-jpg+image-low.jpg|~|thornton_0018+image-tb-jpg+image-tb.jpg
Active,thornton:0019,thornton,http://www.archive.org/details/annualreportofto1997thor|~|thornton:0019,"Annual report of the Town of Thornton, New Hampshire, 1997",1998,Title varies|~|Imprint varies|~|Report year varies,"University of New Hampshire. Library. Digital Collections.|~|Scanned by Internet Archive, Open Content Alliance (2013)",,,Text,Thornton (N.H. : Town) -- Appropriations and expenditures -- Periodicals,Thornton (N.H. : Town),,,Eng,"[Thornton, N.H. : The Town]|~|Thornton (N.H. : Town)",thornton_0019+application-pdf+application.pdf|~|thornton_0019+image-low-jpg+image-low.jpg|~|thornton_0019+image-tb-jpg+image-tb.jpg
Active,thornton:0020,thornton,http://www.archive.org/details/annualreportofto1998thor|~|thornton:0020,"Annual report of the Town of Thornton, New Hampshire, 1998",1999,Title varies|~|Imprint varies|~|Report year varies,"University of New Hampshire. Library. Digital Collections.|~|Scanned by Internet Archive, Open Content Alliance (2013)",,,Text,Thornton (N.H. : Town) -- Appropriations and expenditures -- Periodicals,Thornton (N.H. : Town),,,Eng,"[Thornton, N.H. : The Town]|~|Thornton (N.H. : Town)",thornton_0020+application-pdf+application.pdf|~|thornton_0020+image-low-jpg+image-low.jpg|~|thornton_0020+image-tb-jpg+image-tb.jpg
Active,thornton:0021,thornton,http://www.archive.org/details/annualreportofto1999thor|~|thornton:0021,"Annual report of the Town of Thornton, New Hampshire, 1999",2000,Title varies|~|Imprint varies|~|Report year varies,"University of New Hampshire. Library. Digital Collections.|~|Scanned by Internet Archive, Open Content Alliance (2013)",,,Text,Thornton (N.H. : Town) -- Appropriations and expenditures -- Periodicals,Thornton (N.H. : Town),,,Eng,"[Thornton, N.H. : The Town]|~|Thornton (N.H. : Town)",thornton_0021+application-pdf+application.pdf|~|thornton_0021+image-low-jpg+image-low.jpg|~|thornton_0021+image-tb-jpg+image-tb.jpg
Active,thornton:0022,thornton,http://www.archive.org/details/annualreportofto2000thor|~|thornton:0022,"Annual report of the Town of Thornton, New Hampshire, 2000",2001,Title varies|~|Imprint varies|~|Report year varies,"University of New Hampshire. Library. Digital Collections.|~|Scanned by Internet Archive, Open Content Alliance (2013)",,,Text,Thornton (N.H. : Town) -- Appropriations and expenditures -- Periodicals,Thornton (N.H. : Town),,,Eng,"[Thornton, N.H. : The Town]|~|Thornton (N.H. : Town)",thornton_0022+application-pdf+application.pdf|~|thornton_0022+image-low-jpg+image-low.jpg|~|thornton_0022+image-tb-jpg+image-tb.jpg
Active,thornton:0023,thornton,http://www.archive.org/details/annualreportofto2001thor|~|thornton:0023,"Annual report of the Town of Thornton, New Hampshire, 2001",2002,Title varies|~|Imprint varies|~|Report year varies,"University of New Hampshire. Library. Digital Collections.|~|Scanned by Internet Archive, Open Content Alliance (2013)",,,Text,Thornton (N.H. : Town) -- Appropriations and expenditures -- Periodicals,Thornton (N.H. : Town),,,Eng,"[Thornton, N.H. : The Town]|~|Thornton (N.H. : Town)",thornton_0023+application-pdf+application.pdf|~|thornton_0023+image-low-jpg+image-low.jpg|~|thornton_0023+image-tb-jpg+image-tb.jpg
Active,thornton:0024,thornton,http://www.archive.org/details/annualreportofto2002thor|~|thornton:0024,"Annual report of the Town of Thornton, New Hampshire, 2002",2003,Title varies|~|Imprint varies|~|Report year varies,"University of New Hampshire. Library. Digital Collections.|~|Scanned by Internet Archive, Open Content Alliance (2013)",,,Text,Thornton (N.H. : Town) -- Appropriations and expenditures -- Periodicals,Thornton (N.H. : Town),,,Eng,"[Thornton, N.H. : The Town]|~|Thornton (N.H. : Town)",thornton_0024+application-pdf+application.pdf|~|thornton_0024+image-low-jpg+image-low.jpg|~|thornton_0024+image-tb-jpg+image-tb.jpg
Active,thornton:0025,thornton,http://www.archive.org/details/annualreportofto2004thor|~|thornton:0025,"Annual report of the Town of Thornton, New Hampshire, 2004",2005,Title varies|~|Imprint varies|~|Report year varies,"University of New Hampshire. Library. Digital Collections.|~|Scanned by Internet Archive, Open Content Alliance (2013)",,,Text,Thornton (N.H. : Town) -- Appropriations and expenditures -- Periodicals,Thornton (N.H. : Town),,,Eng,"[Thornton, N.H. : The Town]|~|Thornton (N.H. : Town)",thornton_0025+application-pdf+application.pdf|~|thornton_0025+image-low-jpg+image-low.jpg|~|thornton_0025+image-tb-jpg+image-tb.jpg
Active,thornton:0026,thornton,http://www.archive.org/details/annualreportofto2008thor|~|thornton:0026,"Annual report of the Town of Thornton, New Hampshire, 2008",2009,Title varies|~|Imprint varies|~|Report year varies,"University of New Hampshire. Library. Digital Collections.|~|Scanned by Internet Archive, Open Content Alliance (2013)",,,Text,Thornton (N.H. : Town) -- Appropriations and expenditures -- Periodicals,Thornton (N.H. : Town),,,Eng,"[Thornton, N.H. : The Town]|~|Thornton (N.H. : Town)",thornton_0026+application-pdf+application.pdf|~|thornton_0026+image-low-jpg+image-low.jpg|~|thornton_0026+image-tb-jpg+image-tb.jpg
Active,thornton:0027,thornton,http://www.archive.org/details/annualreportofto2011thor|~|thornton:0027,"Annual report of the Town of Thornton, New Hampshire, 2011",2012,Title varies|~|Imprint varies|~|Report year varies,"University of New Hampshire. Library. Digital Collections.|~|Scanned by Internet Archive, Open Content Alliance (2013)",,,Text,Thornton (N.H. : Town) -- Appropriations and expenditures -- Periodicals,Thornton (N.H. : Town),,,Eng,"[Thornton, N.H. : The Town]|~|Thornton (N.H. : Town)",thornton_0027+application-pdf+application.pdf|~|thornton_0027+image-low-jpg+image-low.jpg|~|thornton_0027+image-tb-jpg+image-tb.jpg
