state,pid,collection,dcterms:identifier,dcterms:title,dcterms:date,dcterms:description,dcterms:contributor,dcterms:rights,dcterms:format,dcterms:type,dcterms:subject,dcterms:creator,dcterms:relation,dcterms:coverage,dcterms:language,dcterms:publisher,files
Active,wakefield:0001,wakefield,http://www.archive.org/details/annualreportofto1955wakf|~|wakefield:0001,"Annual report of the Town of Wakefield, New Hampshire, 1955",1956,Title varies|~|Imprint varies|~|Report year varies,"University of New Hampshire. Library. Digital Collections.|~|Scanned by Internet Archive, Open Content Alliance (2013)",,,Text,Wakefield (N.H. : Town) -- Appropriations and expenditures -- Periodicals,Wakefield (N.H. : Town),,,Eng,"[Wakefield, N.H. : The Town]|~|Wakefield (N.H. : Town)",wakefield_0001+application-pdf+application.pdf|~|wakefield_0001+image-low-jpg+image-low.jpg|~|wakefield_0001+image-tb-jpg+image-tb.jpg
Active,wakefield:0002,wakefield,http://www.archive.org/details/annualreportofto1956wakf|~|wakefield:0002,"Annual report of the Town of Wakefield, New Hampshire, 1956",1957,Title varies|~|Imprint varies|~|Report year varies,"University of New Hampshire. Library. Digital Collections.|~|Scanned by Internet Archive, Open Content Alliance (2013)",,,Text,Wakefield (N.H. : Town) -- Appropriations and expenditures -- Periodicals,Wakefield (N.H. : Town),,,Eng,"[Wakefield, N.H. : The Town]|~|Wakefield (N.H. : Town)",wakefield_0002+application-pdf+application.pdf|~|wakefield_0002+image-low-jpg+image-low.jpg|~|wakefield_0002+image-tb-jpg+image-tb.jpg
Active,wakefield:0003,wakefield,http://www.archive.org/details/annualreportofto1957wakf|~|wakefield:0003,"Annual report of the Town of Wakefield, New Hampshire, 1957",1958,Title varies|~|Imprint varies|~|Report year varies,"University of New Hampshire. Library. Digital Collections.|~|Scanned by Internet Archive, Open Content Alliance (2013)",,,Text,Wakefield (N.H. : Town) -- Appropriations and expenditures -- Periodicals,Wakefield (N.H. : Town),,,Eng,"[Wakefield, N.H. : The Town]|~|Wakefield (N.H. : Town)",wakefield_0003+application-pdf+application.pdf|~|wakefield_0003+image-low-jpg+image-low.jpg|~|wakefield_0003+image-tb-jpg+image-tb.jpg
Active,wakefield:0004,wakefield,http://www.archive.org/details/annualreportofto1958wakf|~|wakefield:0004,"Annual report of the Town of Wakefield, New Hampshire, 1958",1959,Title varies|~|Imprint varies|~|Report year varies,"University of New Hampshire. Library. Digital Collections.|~|Scanned by Internet Archive, Open Content Alliance (2013)",,,Text,Wakefield (N.H. : Town) -- Appropriations and expenditures -- Periodicals,Wakefield (N.H. : Town),,,Eng,"[Wakefield, N.H. : The Town]|~|Wakefield (N.H. : Town)",wakefield_0004+application-pdf+application.pdf|~|wakefield_0004+image-low-jpg+image-low.jpg|~|wakefield_0004+image-tb-jpg+image-tb.jpg
Active,wakefield:0005,wakefield,http://www.archive.org/details/annualreportofto1962wakf|~|wakefield:0005,"Annual report of the Town of Wakefield, New Hampshire, 1962",1963,Title varies|~|Imprint varies|~|Report year varies,"University of New Hampshire. Library. Digital Collections.|~|Scanned by Internet Archive, Open Content Alliance (2013)",,,Text,Wakefield (N.H. : Town) -- Appropriations and expenditures -- Periodicals,Wakefield (N.H. : Town),,,Eng,"[Wakefield, N.H. : The Town]|~|Wakefield (N.H. : Town)",wakefield_0005+application-pdf+application.pdf|~|wakefield_0005+image-low-jpg+image-low.jpg|~|wakefield_0005+image-tb-jpg+image-tb.jpg
Active,wakefield:0006,wakefield,http://www.archive.org/details/annualreportofto1963wakf|~|wakefield:0006,"Annual report of the Town of Wakefield, New Hampshire, 1963",1964,Title varies|~|Imprint varies|~|Report year varies,"University of New Hampshire. Library. Digital Collections.|~|Scanned by Internet Archive, Open Content Alliance (2013)",,,Text,Wakefield (N.H. : Town) -- Appropriations and expenditures -- Periodicals,Wakefield (N.H. : Town),,,Eng,"[Wakefield, N.H. : The Town]|~|Wakefield (N.H. : Town)",wakefield_0006+application-pdf+application.pdf|~|wakefield_0006+image-low-jpg+image-low.jpg|~|wakefield_0006+image-tb-jpg+image-tb.jpg
Active,wakefield:0007,wakefield,http://www.archive.org/details/annualreportofto1971wakf|~|wakefield:0007,"Annual report of the Town of Wakefield, New Hampshire, 1971",1972,Title varies|~|Imprint varies|~|Report year varies,"University of New Hampshire. Library. Digital Collections.|~|Scanned by Internet Archive, Open Content Alliance (2013)",,,Text,Wakefield (N.H. : Town) -- Appropriations and expenditures -- Periodicals,Wakefield (N.H. : Town),,,Eng,"[Wakefield, N.H. : The Town]|~|Wakefield (N.H. : Town)",wakefield_0007+application-pdf+application.pdf|~|wakefield_0007+image-low-jpg+image-low.jpg|~|wakefield_0007+image-tb-jpg+image-tb.jpg
Active,wakefield:0008,wakefield,http://www.archive.org/details/annualreportofto1973wakf|~|wakefield:0008,"Annual report of the Town of Wakefield, New Hampshire, 1973",1974,Title varies|~|Imprint varies|~|Report year varies,"University of New Hampshire. Library. Digital Collections.|~|Scanned by Internet Archive, Open Content Alliance (2013)",,,Text,Wakefield (N.H. : Town) -- Appropriations and expenditures -- Periodicals,Wakefield (N.H. : Town),,,Eng,"[Wakefield, N.H. : The Town]|~|Wakefield (N.H. : Town)",wakefield_0008+application-pdf+application.pdf|~|wakefield_0008+image-low-jpg+image-low.jpg|~|wakefield_0008+image-tb-jpg+image-tb.jpg
Active,wakefield:0009,wakefield,http://www.archive.org/details/annualreportofto1974wakf|~|wakefield:0009,"Annual report of the Town of Wakefield, New Hampshire, 1974",1975,Title varies|~|Imprint varies|~|Report year varies,"University of New Hampshire. Library. Digital Collections.|~|Scanned by Internet Archive, Open Content Alliance (2013)",,,Text,Wakefield (N.H. : Town) -- Appropriations and expenditures -- Periodicals,Wakefield (N.H. : Town),,,Eng,"[Wakefield, N.H. : The Town]|~|Wakefield (N.H. : Town)",wakefield_0009+application-pdf+application.pdf|~|wakefield_0009+image-low-jpg+image-low.jpg|~|wakefield_0009+image-tb-jpg+image-tb.jpg
Active,wakefield:0010,wakefield,http://www.archive.org/details/annualreportofto1980wakf|~|wakefield:0010,"Annual report of the Town of Wakefield, New Hampshire, 1980",1981,Title varies|~|Imprint varies|~|Report year varies,"University of New Hampshire. Library. Digital Collections.|~|Scanned by Internet Archive, Open Content Alliance (2013)",,,Text,Wakefield (N.H. : Town) -- Appropriations and expenditures -- Periodicals,Wakefield (N.H. : Town),,,Eng,"[Wakefield, N.H. : The Town]|~|Wakefield (N.H. : Town)",wakefield_0010+application-pdf+application.pdf|~|wakefield_0010+image-low-jpg+image-low.jpg|~|wakefield_0010+image-tb-jpg+image-tb.jpg
Active,wakefield:0011,wakefield,http://www.archive.org/details/annualreportofto1984wakf|~|wakefield:0011,"Annual report of the Town of Wakefield, New Hampshire, 1984",1985,Title varies|~|Imprint varies|~|Report year varies,"University of New Hampshire. Library. Digital Collections.|~|Scanned by Internet Archive, Open Content Alliance (2013)",,,Text,Wakefield (N.H. : Town) -- Appropriations and expenditures -- Periodicals,Wakefield (N.H. : Town),,,Eng,"[Wakefield, N.H. : The Town]|~|Wakefield (N.H. : Town)",wakefield_0011+application-pdf+application.pdf|~|wakefield_0011+image-low-jpg+image-low.jpg|~|wakefield_0011+image-tb-jpg+image-tb.jpg
Active,wakefield:0012,wakefield,http://www.archive.org/details/annualreportofto1985wakf|~|wakefield:0012,"Annual report of the Town of Wakefield, New Hampshire, 1985",1986,Title varies|~|Imprint varies|~|Report year varies,"University of New Hampshire. Library. Digital Collections.|~|Scanned by Internet Archive, Open Content Alliance (2013)",,,Text,Wakefield (N.H. : Town) -- Appropriations and expenditures -- Periodicals,Wakefield (N.H. : Town),,,Eng,"[Wakefield, N.H. : The Town]|~|Wakefield (N.H. : Town)",wakefield_0012+application-pdf+application.pdf|~|wakefield_0012+image-low-jpg+image-low.jpg|~|wakefield_0012+image-tb-jpg+image-tb.jpg
Active,wakefield:0013,wakefield,http://www.archive.org/details/annualreportofto1994wakf|~|wakefield:0013,"Annual report of the Town of Wakefield, New Hampshire, 1994",1995,Title varies|~|Imprint varies|~|Report year varies,"University of New Hampshire. Library. Digital Collections.|~|Scanned by Internet Archive, Open Content Alliance (2013)",,,Text,Wakefield (N.H. : Town) -- Appropriations and expenditures -- Periodicals,Wakefield (N.H. : Town),,,Eng,"[Wakefield, N.H. : The Town]|~|Wakefield (N.H. : Town)",wakefield_0013+application-pdf+application.pdf|~|wakefield_0013+image-low-jpg+image-low.jpg|~|wakefield_0013+image-tb-jpg+image-tb.jpg
Active,wakefield:0014,wakefield,http://www.archive.org/details/annualreportofto1995wakf|~|wakefield:0014,"Annual report of the Town of Wakefield, New Hampshire, 1995",1996,Title varies|~|Imprint varies|~|Report year varies,"University of New Hampshire. Library. Digital Collections.|~|Scanned by Internet Archive, Open Content Alliance (2013)",,,Text,Wakefield (N.H. : Town) -- Appropriations and expenditures -- Periodicals,Wakefield (N.H. : Town),,,Eng,"[Wakefield, N.H. : The Town]|~|Wakefield (N.H. : Town)",wakefield_0014+application-pdf+application.pdf|~|wakefield_0014+image-low-jpg+image-low.jpg|~|wakefield_0014+image-tb-jpg+image-tb.jpg
Active,wakefield:0015,wakefield,http://www.archive.org/details/annualreportofto1996wakf|~|wakefield:0015,"Annual report of the Town of Wakefield, New Hampshire, 1996",1997,Title varies|~|Imprint varies|~|Report year varies,"University of New Hampshire. Library. Digital Collections.|~|Scanned by Internet Archive, Open Content Alliance (2013)",,,Text,Wakefield (N.H. : Town) -- Appropriations and expenditures -- Periodicals,Wakefield (N.H. : Town),,,Eng,"[Wakefield, N.H. : The Town]|~|Wakefield (N.H. : Town)",wakefield_0015+application-pdf+application.pdf|~|wakefield_0015+image-low-jpg+image-low.jpg|~|wakefield_0015+image-tb-jpg+image-tb.jpg
Active,wakefield:0016,wakefield,http://www.archive.org/details/annualreportofto2000wakf|~|wakefield:0016,"Annual report of the Town of Wakefield, New Hampshire, 2000",2001,Title varies|~|Imprint varies|~|Report year varies,"University of New Hampshire. Library. Digital Collections.|~|Scanned by Internet Archive, Open Content Alliance (2013)",,,Text,Wakefield (N.H. : Town) -- Appropriations and expenditures -- Periodicals,Wakefield (N.H. : Town),,,Eng,"[Wakefield, N.H. : The Town]|~|Wakefield (N.H. : Town)",wakefield_0016+application-pdf+application.pdf|~|wakefield_0016+image-low-jpg+image-low.jpg|~|wakefield_0016+image-tb-jpg+image-tb.jpg
Active,wakefield:0017,wakefield,http://www.archive.org/details/annualreportofto2001wakf|~|wakefield:0017,"Annual report of the Town of Wakefield, New Hampshire, 2001",2002,Title varies|~|Imprint varies|~|Report year varies,"University of New Hampshire. Library. Digital Collections.|~|Scanned by Internet Archive, Open Content Alliance (2013)",,,Text,Wakefield (N.H. : Town) -- Appropriations and expenditures -- Periodicals,Wakefield (N.H. : Town),,,Eng,"[Wakefield, N.H. : The Town]|~|Wakefield (N.H. : Town)",wakefield_0017+application-pdf+application.pdf|~|wakefield_0017+image-low-jpg+image-low.jpg|~|wakefield_0017+image-tb-jpg+image-tb.jpg
Active,wakefield:0018,wakefield,http://www.archive.org/details/annualreportofto2002wakf|~|wakefield:0018,"Annual report of the Town of Wakefield, New Hampshire, 2002",2003,Title varies|~|Imprint varies|~|Report year varies,"University of New Hampshire. Library. Digital Collections.|~|Scanned by Internet Archive, Open Content Alliance (2013)",,,Text,Wakefield (N.H. : Town) -- Appropriations and expenditures -- Periodicals,Wakefield (N.H. : Town),,,Eng,"[Wakefield, N.H. : The Town]|~|Wakefield (N.H. : Town)",wakefield_0018+application-pdf+application.pdf|~|wakefield_0018+image-low-jpg+image-low.jpg|~|wakefield_0018+image-tb-jpg+image-tb.jpg
Active,wakefield:0019,wakefield,http://www.archive.org/details/annualreportofto2003wakf|~|wakefield:0019,"Annual report of the Town of Wakefield, New Hampshire, 2003",2004,Title varies|~|Imprint varies|~|Report year varies,"University of New Hampshire. Library. Digital Collections.|~|Scanned by Internet Archive, Open Content Alliance (2013)",,,Text,Wakefield (N.H. : Town) -- Appropriations and expenditures -- Periodicals,Wakefield (N.H. : Town),,,Eng,"[Wakefield, N.H. : The Town]|~|Wakefield (N.H. : Town)",wakefield_0019+application-pdf+application.pdf|~|wakefield_0019+image-low-jpg+image-low.jpg|~|wakefield_0019+image-tb-jpg+image-tb.jpg
Active,wakefield:0020,wakefield,http://www.archive.org/details/annualreportofto2004wakf|~|wakefield:0020,"Annual report of the Town of Wakefield, New Hampshire, 2004",2005,Title varies|~|Imprint varies|~|Report year varies,"University of New Hampshire. Library. Digital Collections.|~|Scanned by Internet Archive, Open Content Alliance (2013)",,,Text,Wakefield (N.H. : Town) -- Appropriations and expenditures -- Periodicals,Wakefield (N.H. : Town),,,Eng,"[Wakefield, N.H. : The Town]|~|Wakefield (N.H. : Town)",wakefield_0020+application-pdf+application.pdf|~|wakefield_0020+image-low-jpg+image-low.jpg|~|wakefield_0020+image-tb-jpg+image-tb.jpg
Active,wakefield:0021,wakefield,http://www.archive.org/details/annualreportofto2006wakf|~|wakefield:0021,"Annual report of the Town of Wakefield, New Hampshire, 2006",2007,Title varies|~|Imprint varies|~|Report year varies,"University of New Hampshire. Library. Digital Collections.|~|Scanned by Internet Archive, Open Content Alliance (2013)",,,Text,Wakefield (N.H. : Town) -- Appropriations and expenditures -- Periodicals,Wakefield (N.H. : Town),,,Eng,"[Wakefield, N.H. : The Town]|~|Wakefield (N.H. : Town)",wakefield_0021+application-pdf+application.pdf|~|wakefield_0021+image-low-jpg+image-low.jpg|~|wakefield_0021+image-tb-jpg+image-tb.jpg
Active,wakefield:0022,wakefield,http://www.archive.org/details/annualreportofto2007wakf|~|wakefield:0022,"Annual report of the Town of Wakefield, New Hampshire, 2007",2008,Title varies|~|Imprint varies|~|Report year varies,"University of New Hampshire. Library. Digital Collections.|~|Scanned by Internet Archive, Open Content Alliance (2013)",,,Text,Wakefield (N.H. : Town) -- Appropriations and expenditures -- Periodicals,Wakefield (N.H. : Town),,,Eng,"[Wakefield, N.H. : The Town]|~|Wakefield (N.H. : Town)",wakefield_0022+application-pdf+application.pdf|~|wakefield_0022+image-low-jpg+image-low.jpg|~|wakefield_0022+image-tb-jpg+image-tb.jpg
Active,wakefield:0023,wakefield,http://www.archive.org/details/annualreportofto2008wakf|~|wakefield:0023,"Annual report of the Town of Wakefield, New Hampshire, 2008",2009,Title varies|~|Imprint varies|~|Report year varies,"University of New Hampshire. Library. Digital Collections.|~|Scanned by Internet Archive, Open Content Alliance (2013)",,,Text,Wakefield (N.H. : Town) -- Appropriations and expenditures -- Periodicals,Wakefield (N.H. : Town),,,Eng,"[Wakefield, N.H. : The Town]|~|Wakefield (N.H. : Town)",wakefield_0023+application-pdf+application.pdf|~|wakefield_0023+image-low-jpg+image-low.jpg|~|wakefield_0023+image-tb-jpg+image-tb.jpg
Active,wakefield:0024,wakefield,http://www.archive.org/details/annualreportofto2009wakf|~|wakefield:0024,"Annual report of the Town of Wakefield, New Hampshire, 2009",2010,Title varies|~|Imprint varies|~|Report year varies,"University of New Hampshire. Library. Digital Collections.|~|Scanned by Internet Archive, Open Content Alliance (2013)",,,Text,Wakefield (N.H. : Town) -- Appropriations and expenditures -- Periodicals,Wakefield (N.H. : Town),,,Eng,"[Wakefield, N.H. : The Town]|~|Wakefield (N.H. : Town)",wakefield_0024+application-pdf+application.pdf|~|wakefield_0024+image-low-jpg+image-low.jpg|~|wakefield_0024+image-tb-jpg+image-tb.jpg
Active,wakefield:0025,wakefield,http://www.archive.org/details/annualreportofto2010wakf|~|wakefield:0025,"Annual report of the Town of Wakefield, New Hampshire, 2010",2011,Title varies|~|Imprint varies|~|Report year varies,"University of New Hampshire. Library. Digital Collections.|~|Scanned by Internet Archive, Open Content Alliance (2013)",,,Text,Wakefield (N.H. : Town) -- Appropriations and expenditures -- Periodicals,Wakefield (N.H. : Town),,,Eng,"[Wakefield, N.H. : The Town]|~|Wakefield (N.H. : Town)",wakefield_0025+application-pdf+application.pdf|~|wakefield_0025+image-low-jpg+image-low.jpg|~|wakefield_0025+image-tb-jpg+image-tb.jpg
Active,wakefield:0026,wakefield,http://www.archive.org/details/annualreportofto2011wakf|~|wakefield:0026,"Annual report of the Town of Wakefield, New Hampshire, 2011",2012,Title varies|~|Imprint varies|~|Report year varies,"University of New Hampshire. Library. Digital Collections.|~|Scanned by Internet Archive, Open Content Alliance (2013)",,,Text,Wakefield (N.H. : Town) -- Appropriations and expenditures -- Periodicals,Wakefield (N.H. : Town),,,Eng,"[Wakefield, N.H. : The Town]|~|Wakefield (N.H. : Town)",wakefield_0026+application-pdf+application.pdf|~|wakefield_0026+image-low-jpg+image-low.jpg|~|wakefield_0026+image-tb-jpg+image-tb.jpg
